s1(10Sep2018:20:34:19):  ncxlmode +delay_mode_path +typdelays -v /afs/umich.edu/class/eecs427/ibm13/resource/ibm13_verilog.include -l simout.tmp /afs/umich.edu/class/eecs427/f18/rayhan/CAD1/MUX21_run1/testfixture.template -f /afs/umich.edu/class/eecs427/f18/rayhan/CAD1/MUX21_run1/verilog.inpfiles +nostdout +nocopyright +compile +ncvlogargs+ -neverwarn -nostdout -nocopyright  
s2(10Sep2018:20:34:20):  ncxlmode +delay_mode_path +typdelays -v /afs/umich.edu/class/eecs427/ibm13/resource/ibm13_verilog.include -l simout.tmp /afs/umich.edu/class/eecs427/f18/rayhan/CAD1/MUX21_run1/testfixture.template -f /afs/umich.edu/class/eecs427/f18/rayhan/CAD1/MUX21_run1/verilog.inpfiles +nostdout +nocopyright +elaborate +ncvlogargs+ -neverwarn -nostdout -nocopyright  +ncelabargs+ -neg_tchk  -nonotifier  -sdf_NOCheck_celltype  -access +r  -pulse_e 100  -pulse_r 100  -neverwarn  -timescale 1ns/1ps -nostdout -nocopyright 
s3(10Sep2018:20:34:24):  ncxlmode +delay_mode_path +typdelays -v /afs/umich.edu/class/eecs427/ibm13/resource/ibm13_verilog.include -l simout.tmp /afs/umich.edu/class/eecs427/f18/rayhan/CAD1/MUX21_run1/testfixture.template -f /afs/umich.edu/class/eecs427/f18/rayhan/CAD1/MUX21_run1/verilog.inpfiles +nostdout +nocopyright +ncvlogargs+ -neverwarn -nostdout -nocopyright  +ncelabargs+ -neg_tchk  -nonotifier  -sdf_NOCheck_celltype  -access +r  -pulse_e 100  -pulse_r 100  -neverwarn  -timescale 1ns/1ps -nostdout -nocopyright +ncsimargs+ -neverwarn  -nocopyright -gui -input /afs/umich.edu/class/eecs427/f18/rayhan/CAD1/MUX21_run1/.simTmpNCCmd  +mpssession+virtuoso20003 +mpshost+caen-vnc-vm07.engin.umich.edu 
