************************************************************************
* auCdl Netlist:
* 
* Library Name:  CAD8_2222222
* Top Cell Name: controller
* View Name:     schematic
* Netlisted on:  Dec  7 16:40:22 2018
************************************************************************

*.EQUATION
*.SCALE METER
*.MEGA
.PARAM

*.GLOBAL VSS!
+        VDD!

*.PIN VSS!
*+    VDD!

************************************************************************
* Library Name: eecs427artisan
* Cell Name:    AOI22X1TR
* View Name:    schematic
************************************************************************

.SUBCKT AOI22X1TR A0 A1 B0 B1 Y
*.PININFO A0:I A1:I B0:I B1:I Y:O
MM2 hnet18 B1 VSS! VSS! nfet m=1 l=120.0n w=600n nf=1 par=1 ngcon=1 mSwitch=0 
+ idg=0 psp=0
MM3 Y B0 hnet18 VSS! nfet m=1 l=120.0n w=600n nf=1 par=1 ngcon=1 mSwitch=0 
+ idg=0 psp=0
MM1 Y A0 hnet13 VSS! nfet m=1 l=120.0n w=600n nf=1 par=1 ngcon=1 mSwitch=0 
+ idg=0 psp=0
MM0 hnet13 A1 VSS! VSS! nfet m=1 l=120.0n w=600n nf=1 par=1 ngcon=1 mSwitch=0 
+ idg=0 psp=0
MM4 VDD! B0 net30 VDD! pfet m=1 l=120.0n w=840.0n nf=1 par=1 ngcon=1 mSwitch=0 
+ idg=0 psp=0
MM6 VDD! B1 net30 VDD! pfet m=1 l=120.0n w=840.0n nf=1 par=1 ngcon=1 mSwitch=0 
+ idg=0 psp=0
MM5 net30 A0 Y VDD! pfet m=1 l=120.0n w=840.0n nf=1 par=1 ngcon=1 mSwitch=0 
+ idg=0 psp=0
MM7 net30 A1 Y VDD! pfet m=1 l=120.0n w=840.0n nf=1 par=1 ngcon=1 mSwitch=0 
+ idg=0 psp=0
.ENDS

************************************************************************
* Library Name: eecs427artisan
* Cell Name:    CLKINVX2TR
* View Name:    schematic
************************************************************************

.SUBCKT CLKINVX2TR A Y
*.PININFO A:I Y:O
MM1 Y A VSS! VSS! nfet m=1 l=120.0n w=480.0n nf=1 par=1 ngcon=1 mSwitch=0 
+ idg=0 psp=0
MM0 Y A VDD! VDD! pfet m=1 l=120.0n w=1.3u nf=1 par=1 ngcon=1 mSwitch=0 idg=0 
+ psp=0
.ENDS

************************************************************************
* Library Name: eecs427artisan
* Cell Name:    OAI211X1TR
* View Name:    schematic
************************************************************************

.SUBCKT OAI211X1TR A0 A1 B0 C0 Y
*.PININFO A0:I A1:I B0:I C0:I Y:O
MM2 net25 C0 net32 VSS! nfet m=1 l=120.0n w=720.0n nf=1 par=1 ngcon=1 
+ mSwitch=0 idg=0 psp=0
MM3 Y B0 net25 VSS! nfet m=1 l=120.0n w=720.0n nf=1 par=1 ngcon=1 mSwitch=0 
+ idg=0 psp=0
MM4 net32 A1 VSS! VSS! nfet m=1 l=120.0n w=720.0n nf=1 par=1 ngcon=1 mSwitch=0 
+ idg=0 psp=0
MM5 net32 A0 VSS! VSS! nfet m=1 l=120.0n w=720.0n nf=1 par=1 ngcon=1 mSwitch=0 
+ idg=0 psp=0
MM6 VDD! C0 Y VDD! pfet m=1 l=120.0n w=640.0n nf=1 par=1 ngcon=1 mSwitch=0 
+ idg=0 psp=0
MM7 VDD! B0 Y VDD! pfet m=1 l=120.0n w=640.0n nf=1 par=1 ngcon=1 mSwitch=0 
+ idg=0 psp=0
MM0 hnet15 A1 VDD! VDD! pfet m=1 l=120.0n w=840.0n nf=1 par=1 ngcon=1 
+ mSwitch=0 idg=0 psp=0
MM1 Y A0 hnet15 VDD! pfet m=1 l=120.0n w=840.0n nf=1 par=1 ngcon=1 mSwitch=0 
+ idg=0 psp=0
.ENDS

************************************************************************
* Library Name: eecs427artisan
* Cell Name:    NOR2X1TR
* View Name:    schematic
************************************************************************

.SUBCKT NOR2X1TR A B Y
*.PININFO A:I B:I Y:O
MM2 hnet7 B VDD! VDD! pfet m=1 l=120.0n w=840.0n nf=1 par=1 ngcon=1 mSwitch=0 
+ idg=0 psp=0
MM3 Y A hnet7 VDD! pfet m=1 l=120.0n w=840.0n nf=1 par=1 ngcon=1 mSwitch=0 
+ idg=0 psp=0
MM0 Y B VSS! VSS! nfet m=1 l=120.0n w=460.0n nf=1 par=1 ngcon=1 mSwitch=0 
+ idg=0 psp=0
MM1 Y A VSS! VSS! nfet m=1 l=120.0n w=460.0n nf=1 par=1 ngcon=1 mSwitch=0 
+ idg=0 psp=0
.ENDS

************************************************************************
* Library Name: eecs427artisan
* Cell Name:    NAND2X1TR
* View Name:    schematic
************************************************************************

.SUBCKT NAND2X1TR A B Y
*.PININFO A:I B:I Y:O
MM0 hnet11 B VSS! VSS! nfet m=1 l=120.0n w=600n nf=1 par=1 ngcon=1 mSwitch=0 
+ idg=0 psp=0
MM1 Y A hnet11 VSS! nfet m=1 l=120.0n w=600n nf=1 par=1 ngcon=1 mSwitch=0 
+ idg=0 psp=0
MM2 Y B VDD! VDD! pfet m=1 l=120.0n w=640.0n nf=1 par=1 ngcon=1 mSwitch=0 
+ idg=0 psp=0
MM3 Y A VDD! VDD! pfet m=1 l=120.0n w=640.0n nf=1 par=1 ngcon=1 mSwitch=0 
+ idg=0 psp=0
.ENDS

************************************************************************
* Library Name: eecs427artisan
* Cell Name:    OAI31X1TR
* View Name:    schematic
************************************************************************

.SUBCKT OAI31X1TR A0 A1 A2 B0 Y
*.PININFO A0:I A1:I A2:I B0:I Y:O
MM0 hnet11 A2 VDD! VDD! pfet m=1 l=120.0n w=1.02u nf=1 par=1 ngcon=1 mSwitch=0 
+ idg=0 psp=0
MM1 hnet16 A1 hnet11 VDD! pfet m=1 l=120.0n w=1.02u nf=1 par=1 ngcon=1 
+ mSwitch=0 idg=0 psp=0
MM2 Y A0 hnet16 VDD! pfet m=1 l=120.0n w=1.02u nf=1 par=1 ngcon=1 mSwitch=0 
+ idg=0 psp=0
MM7 VDD! B0 Y VDD! pfet m=1 l=120.0n w=640.0n nf=1 par=1 ngcon=1 mSwitch=0 
+ idg=0 psp=0
MM6 net24 A1 VSS! VSS! nfet m=1 l=120.0n w=600n nf=1 par=1 ngcon=1 mSwitch=0 
+ idg=0 psp=0
MM3 net24 A0 VSS! VSS! nfet m=1 l=120.0n w=600n nf=1 par=1 ngcon=1 mSwitch=0 
+ idg=0 psp=0
MM5 net24 A2 VSS! VSS! nfet m=1 l=120.0n w=600n nf=1 par=1 ngcon=1 mSwitch=0 
+ idg=0 psp=0
MM4 Y B0 net24 VSS! nfet m=1 l=120.0n w=600n nf=1 par=1 ngcon=1 mSwitch=0 
+ idg=0 psp=0
.ENDS

************************************************************************
* Library Name: eecs427artisan
* Cell Name:    DFFQX1TR
* View Name:    schematic
************************************************************************

.SUBCKT DFFQX1TR CK D Q
*.PININFO CK:I D:I Q:O
MM16 m pm VDD! VDD! pfet m=1 l=120.0n w=280.0n nf=1 par=1 ngcon=1 mSwitch=0 
+ idg=0 psp=0
MM1 m cn net37 VDD! pfet m=1 l=120.0n w=280.0n nf=1 par=1 ngcon=1 mSwitch=0 
+ idg=0 psp=0
MM18 c cn VDD! VDD! pfet m=1 l=120.0n w=280.0n nf=1 par=1 ngcon=1 mSwitch=0 
+ idg=0 psp=0
MM14 s net37 VDD! VDD! pfet m=1 l=120.0n w=280.0n nf=1 par=1 ngcon=1 mSwitch=0 
+ idg=0 psp=0
MM13 hnet31 m VDD! VDD! pfet m=1 l=120.0n w=280.0n nf=1 par=1 ngcon=1 
+ mSwitch=0 idg=0 psp=0
MM12 pm cn hnet31 VDD! pfet m=1 l=120.0n w=280.0n nf=1 par=1 ngcon=1 mSwitch=0 
+ idg=0 psp=0
MM20 cn CK VDD! VDD! pfet m=1 l=120.0n w=380.0n nf=1 par=1 ngcon=1 mSwitch=0 
+ idg=0 psp=0
MM22 Q s VDD! VDD! pfet m=1 l=120.0n w=640.0n nf=1 par=1 ngcon=1 mSwitch=0 
+ idg=0 psp=0
MM9 hnet23 s VDD! VDD! pfet m=1 l=120.0n w=280.0n nf=1 par=1 ngcon=1 mSwitch=0 
+ idg=0 psp=0
MM8 net37 c hnet23 VDD! pfet m=1 l=120.0n w=280.0n nf=1 par=1 ngcon=1 
+ mSwitch=0 idg=0 psp=0
MM5 hnet15 D VDD! VDD! pfet m=1 l=120.0n w=280.0n nf=1 par=1 ngcon=1 mSwitch=0 
+ idg=0 psp=0
MM4 pm c hnet15 VDD! pfet m=1 l=120.0n w=280.0n nf=1 par=1 ngcon=1 mSwitch=0 
+ idg=0 psp=0
MM17 m pm VSS! VSS! nfet m=1 l=120.0n w=200n nf=1 par=1 ngcon=1 mSwitch=0 
+ idg=0 psp=0
MM0 net37 c m VSS! nfet m=1 l=120.0n w=200n nf=1 par=1 ngcon=1 mSwitch=0 idg=0 
+ psp=0
MM19 c cn VSS! VSS! nfet m=1 l=120.0n w=200n nf=1 par=1 ngcon=1 mSwitch=0 
+ idg=0 psp=0
MM15 s net37 VSS! VSS! nfet m=1 l=120.0n w=200n nf=1 par=1 ngcon=1 mSwitch=0 
+ idg=0 psp=0
MM10 hnet29 m VSS! VSS! nfet m=1 l=120.0n w=200n nf=1 par=1 ngcon=1 mSwitch=0 
+ idg=0 psp=0
MM11 pm c hnet29 VSS! nfet m=1 l=120.0n w=200n nf=1 par=1 ngcon=1 mSwitch=0 
+ idg=0 psp=0
MM21 cn CK VSS! VSS! nfet m=1 l=120.0n w=280.0n nf=1 par=1 ngcon=1 mSwitch=0 
+ idg=0 psp=0
MM7 net37 cn hnet21 VSS! nfet m=1 l=120.0n w=200n nf=1 par=1 ngcon=1 mSwitch=0 
+ idg=0 psp=0
MM6 hnet21 s VSS! VSS! nfet m=1 l=120.0n w=200n nf=1 par=1 ngcon=1 mSwitch=0 
+ idg=0 psp=0
MM23 Q s VSS! VSS! nfet m=1 l=120.0n w=480.0n nf=1 par=1 ngcon=1 mSwitch=0 
+ idg=0 psp=0
MM3 pm cn hnet13 VSS! nfet m=1 l=120.0n w=200n nf=1 par=1 ngcon=1 mSwitch=0 
+ idg=0 psp=0
MM2 hnet13 D VSS! VSS! nfet m=1 l=120.0n w=200n nf=1 par=1 ngcon=1 mSwitch=0 
+ idg=0 psp=0
.ENDS

************************************************************************
* Library Name: eecs427artisan
* Cell Name:    CLKBUFX20TR
* View Name:    schematic
************************************************************************

.SUBCKT CLKBUFX20TR A Y
*.PININFO A:I Y:O
MM1 Y nmin VSS! VSS! nfet m=1 l=120.0n w=4.74u nf=1 par=1 ngcon=1 mSwitch=0 
+ idg=0 psp=0
MM3 nmin A VSS! VSS! nfet m=1 l=120.0n w=1.52u nf=1 par=1 ngcon=1 mSwitch=0 
+ idg=0 psp=0
MM0 Y nmin VDD! VDD! pfet m=1 l=120.0n w=13.0u nf=1 par=1 ngcon=1 mSwitch=0 
+ idg=0 psp=0
MM2 nmin A VDD! VDD! pfet m=1 l=120.0n w=3.88u nf=1 par=1 ngcon=1 mSwitch=0 
+ idg=0 psp=0
.ENDS

************************************************************************
* Library Name: eecs427artisan
* Cell Name:    NAND3X1TR
* View Name:    schematic
************************************************************************

.SUBCKT NAND3X1TR A B C Y
*.PININFO A:I B:I C:I Y:O
MM4 Y B VDD! VDD! pfet m=1 l=120.0n w=640.0n nf=1 par=1 ngcon=1 mSwitch=0 
+ idg=0 psp=0
MM3 Y C VDD! VDD! pfet m=1 l=120.0n w=640.0n nf=1 par=1 ngcon=1 mSwitch=0 
+ idg=0 psp=0
MM5 Y A VDD! VDD! pfet m=1 l=120.0n w=640.0n nf=1 par=1 ngcon=1 mSwitch=0 
+ idg=0 psp=0
MM0 hnet14 C VSS! VSS! nfet m=1 l=120.0n w=720.0n nf=1 par=1 ngcon=1 mSwitch=0 
+ idg=0 psp=0
MM2 Y A hnet7 VSS! nfet m=1 l=120.0n w=720.0n nf=1 par=1 ngcon=1 mSwitch=0 
+ idg=0 psp=0
MM1 hnet7 B hnet14 VSS! nfet m=1 l=120.0n w=720.0n nf=1 par=1 ngcon=1 
+ mSwitch=0 idg=0 psp=0
.ENDS

************************************************************************
* Library Name: eecs427artisan
* Cell Name:    DFFX1TR
* View Name:    schematic
************************************************************************

.SUBCKT DFFX1TR CK D Q QN
*.PININFO CK:I D:I Q:O QN:O
MM17 s net43 VSS! VSS! nfet m=1 l=120.0n w=260.0n nf=1 par=1 ngcon=1 mSwitch=0 
+ idg=0 psp=0
MM19 m pm VSS! VSS! nfet m=1 l=120.0n w=220.0n nf=1 par=1 ngcon=1 mSwitch=0 
+ idg=0 psp=0
MM23 c cn VSS! VSS! nfet m=1 l=120.0n w=240.0n nf=1 par=1 ngcon=1 mSwitch=0 
+ idg=0 psp=0
MM12 hnet38 m VSS! VSS! nfet m=1 l=120.0n w=200n nf=1 par=1 ngcon=1 mSwitch=0 
+ idg=0 psp=0
MM13 pm c hnet38 VSS! nfet m=1 l=120.0n w=200n nf=1 par=1 ngcon=1 mSwitch=0 
+ idg=0 psp=0
MM0 hnet14 m VSS! VSS! nfet m=1 l=120.0n w=580.0n nf=1 par=1 ngcon=1 mSwitch=0 
+ idg=0 psp=0
MM1 net43 c hnet14 VSS! nfet m=1 l=120.0n w=580.0n nf=1 par=1 ngcon=1 
+ mSwitch=0 idg=0 psp=0
MM21 QN s VSS! VSS! nfet m=1 l=120.0n w=460.0n nf=1 par=1 ngcon=1 mSwitch=0 
+ idg=0 psp=0
MM25 cn CK VSS! VSS! nfet m=1 l=120.0n w=340.0n nf=1 par=1 ngcon=1 mSwitch=0 
+ idg=0 psp=0
MM27 Q net43 VSS! VSS! nfet m=1 l=120.0n w=460.0n nf=1 par=1 ngcon=1 mSwitch=0 
+ idg=0 psp=0
MM8 hnet30 s VSS! VSS! nfet m=1 l=120.0n w=200n nf=1 par=1 ngcon=1 mSwitch=0 
+ idg=0 psp=0
MM9 net43 cn hnet30 VSS! nfet m=1 l=120.0n w=200n nf=1 par=1 ngcon=1 mSwitch=0 
+ idg=0 psp=0
MM4 hnet22 D VSS! VSS! nfet m=1 l=120.0n w=200n nf=1 par=1 ngcon=1 mSwitch=0 
+ idg=0 psp=0
MM5 pm cn hnet22 VSS! nfet m=1 l=120.0n w=200n nf=1 par=1 ngcon=1 mSwitch=0 
+ idg=0 psp=0
MM16 s net43 VDD! VDD! pfet m=1 l=120.0n w=360.0n nf=1 par=1 ngcon=1 mSwitch=0 
+ idg=0 psp=0
MM22 c cn VDD! VDD! pfet m=1 l=120.0n w=340.0n nf=1 par=1 ngcon=1 mSwitch=0 
+ idg=0 psp=0
MM18 m pm VDD! VDD! pfet m=1 l=120.0n w=300n nf=1 par=1 ngcon=1 mSwitch=0 
+ idg=0 psp=0
MM15 hnet40 m VDD! VDD! pfet m=1 l=120.0n w=280.0n nf=1 par=1 ngcon=1 
+ mSwitch=0 idg=0 psp=0
MM14 pm cn hnet40 VDD! pfet m=1 l=120.0n w=280.0n nf=1 par=1 ngcon=1 mSwitch=0 
+ idg=0 psp=0
MM3 hnet16 m VDD! VDD! pfet m=1 l=120.0n w=800n nf=1 par=1 ngcon=1 mSwitch=0 
+ idg=0 psp=0
MM2 net43 cn hnet16 VDD! pfet m=1 l=120.0n w=800n nf=1 par=1 ngcon=1 mSwitch=0 
+ idg=0 psp=0
MM10 net43 c hnet32 VDD! pfet m=1 l=120.0n w=280.0n nf=1 par=1 ngcon=1 
+ mSwitch=0 idg=0 psp=0
MM11 hnet32 s VDD! VDD! pfet m=1 l=120.0n w=280.0n nf=1 par=1 ngcon=1 
+ mSwitch=0 idg=0 psp=0
MM20 QN s VDD! VDD! pfet m=1 l=120.0n w=640.0n nf=1 par=1 ngcon=1 mSwitch=0 
+ idg=0 psp=0
MM24 cn CK VDD! VDD! pfet m=1 l=120.0n w=480.0n nf=1 par=1 ngcon=1 mSwitch=0 
+ idg=0 psp=0
MM26 Q net43 VDD! VDD! pfet m=1 l=120.0n w=640.0n nf=1 par=1 ngcon=1 mSwitch=0 
+ idg=0 psp=0
MM6 pm c hnet24 VDD! pfet m=1 l=120.0n w=280.0n nf=1 par=1 ngcon=1 mSwitch=0 
+ idg=0 psp=0
MM7 hnet24 D VDD! VDD! pfet m=1 l=120.0n w=280.0n nf=1 par=1 ngcon=1 mSwitch=0 
+ idg=0 psp=0
.ENDS

************************************************************************
* Library Name: eecs427artisan
* Cell Name:    OR3X2TR
* View Name:    schematic
************************************************************************

.SUBCKT OR3X2TR A B C Y
*.PININFO A:I B:I C:I Y:O
MM0 Y nmin VDD! VDD! pfet m=1 l=120.0n w=1.28u nf=1 par=1 ngcon=1 mSwitch=0 
+ idg=0 psp=0
MM5 hnet17 C VDD! VDD! pfet m=1 l=120.0n w=800n nf=1 par=1 ngcon=1 mSwitch=0 
+ idg=0 psp=0
MM6 hnet16 B hnet17 VDD! pfet m=1 l=120.0n w=800n nf=1 par=1 ngcon=1 mSwitch=0 
+ idg=0 psp=0
MM7 nmin A hnet16 VDD! pfet m=1 l=120.0n w=800n nf=1 par=1 ngcon=1 mSwitch=0 
+ idg=0 psp=0
MM3 nmin B VSS! VSS! nfet m=1 l=120.0n w=360.0n nf=1 par=1 ngcon=1 mSwitch=0 
+ idg=0 psp=0
MM4 nmin A VSS! VSS! nfet m=1 l=120.0n w=360.0n nf=1 par=1 ngcon=1 mSwitch=0 
+ idg=0 psp=0
MM2 nmin C VSS! VSS! nfet m=1 l=120.0n w=360.0n nf=1 par=1 ngcon=1 mSwitch=0 
+ idg=0 psp=0
MM1 Y nmin VSS! VSS! nfet m=1 l=120.0n w=920.0n nf=1 par=1 ngcon=1 mSwitch=0 
+ idg=0 psp=0
.ENDS

************************************************************************
* Library Name: eecs427artisan
* Cell Name:    NAND3XLTR
* View Name:    schematic
************************************************************************

.SUBCKT NAND3XLTR A B C Y
*.PININFO A:I B:I C:I Y:O
MM4 Y B VDD! VDD! pfet m=1 l=120.0n w=420.0n nf=1 par=1 ngcon=1 mSwitch=0 
+ idg=0 psp=0
MM3 Y C VDD! VDD! pfet m=1 l=120.0n w=420.0n nf=1 par=1 ngcon=1 mSwitch=0 
+ idg=0 psp=0
MM5 Y A VDD! VDD! pfet m=1 l=120.0n w=420.0n nf=1 par=1 ngcon=1 mSwitch=0 
+ idg=0 psp=0
MM0 hnet14 C VSS! VSS! nfet m=1 l=120.0n w=480.0n nf=1 par=1 ngcon=1 mSwitch=0 
+ idg=0 psp=0
MM2 Y A hnet7 VSS! nfet m=1 l=120.0n w=480.0n nf=1 par=1 ngcon=1 mSwitch=0 
+ idg=0 psp=0
MM1 hnet7 B hnet14 VSS! nfet m=1 l=120.0n w=480.0n nf=1 par=1 ngcon=1 
+ mSwitch=0 idg=0 psp=0
.ENDS

************************************************************************
* Library Name: eecs427artisan
* Cell Name:    NAND2BX1TR
* View Name:    schematic
************************************************************************

.SUBCKT NAND2BX1TR AN B Y
*.PININFO AN:I B:I Y:O
MM1 nmin1 AN VSS! VSS! nfet m=1 l=120.0n w=200n nf=1 par=1 ngcon=1 mSwitch=0 
+ idg=0 psp=0
MM2 hnet14 B VSS! VSS! nfet m=1 l=120.0n w=600n nf=1 par=1 ngcon=1 mSwitch=0 
+ idg=0 psp=0
MM3 Y nmin1 hnet14 VSS! nfet m=1 l=120.0n w=600n nf=1 par=1 ngcon=1 mSwitch=0 
+ idg=0 psp=0
MM0 nmin1 AN VDD! VDD! pfet m=1 l=120.0n w=280.0n nf=1 par=1 ngcon=1 mSwitch=0 
+ idg=0 psp=0
MM4 Y B VDD! VDD! pfet m=1 l=120.0n w=640.0n nf=1 par=1 ngcon=1 mSwitch=0 
+ idg=0 psp=0
MM5 Y nmin1 VDD! VDD! pfet m=1 l=120.0n w=640.0n nf=1 par=1 ngcon=1 mSwitch=0 
+ idg=0 psp=0
.ENDS

************************************************************************
* Library Name: eecs427artisan
* Cell Name:    NOR3X1TR
* View Name:    schematic
************************************************************************

.SUBCKT NOR3X1TR A B C Y
*.PININFO A:I B:I C:I Y:O
MM1 Y B VSS! VSS! nfet m=1 l=120.0n w=460.0n nf=1 par=1 ngcon=1 mSwitch=0 
+ idg=0 psp=0
MM2 Y A VSS! VSS! nfet m=1 l=120.0n w=460.0n nf=1 par=1 ngcon=1 mSwitch=0 
+ idg=0 psp=0
MM0 Y C VSS! VSS! nfet m=1 l=120.0n w=460.0n nf=1 par=1 ngcon=1 mSwitch=0 
+ idg=0 psp=0
MM5 Y A hnet13 VDD! pfet m=1 l=120.0n w=1.02u nf=1 par=1 ngcon=1 mSwitch=0 
+ idg=0 psp=0
MM3 hnet14 C VDD! VDD! pfet m=1 l=120.0n w=1.02u nf=1 par=1 ngcon=1 mSwitch=0 
+ idg=0 psp=0
MM4 hnet13 B hnet14 VDD! pfet m=1 l=120.0n w=1.02u nf=1 par=1 ngcon=1 
+ mSwitch=0 idg=0 psp=0
.ENDS

************************************************************************
* Library Name: eecs427artisan
* Cell Name:    NOR2XLTR
* View Name:    schematic
************************************************************************

.SUBCKT NOR2XLTR A B Y
*.PININFO A:I B:I Y:O
MM2 hnet7 B VDD! VDD! pfet m=1 l=120.0n w=440.0n nf=1 par=1 ngcon=1 mSwitch=0 
+ idg=0 psp=0
MM3 Y A hnet7 VDD! pfet m=1 l=120.0n w=440.0n nf=1 par=1 ngcon=1 mSwitch=0 
+ idg=0 psp=0
MM0 Y B VSS! VSS! nfet m=1 l=120.0n w=240.0n nf=1 par=1 ngcon=1 mSwitch=0 
+ idg=0 psp=0
MM1 Y A VSS! VSS! nfet m=1 l=120.0n w=240.0n nf=1 par=1 ngcon=1 mSwitch=0 
+ idg=0 psp=0
.ENDS

************************************************************************
* Library Name: eecs427artisan
* Cell Name:    NOR2BX1TR
* View Name:    schematic
************************************************************************

.SUBCKT NOR2BX1TR AN B Y
*.PININFO AN:I B:I Y:O
MM0 nmin1 AN VDD! VDD! pfet m=1 l=120.0n w=300n nf=1 par=1 ngcon=1 mSwitch=0 
+ idg=0 psp=0
MM4 hnet12 B VDD! VDD! pfet m=1 l=120.0n w=840.0n nf=1 par=1 ngcon=1 mSwitch=0 
+ idg=0 psp=0
MM5 Y nmin1 hnet12 VDD! pfet m=1 l=120.0n w=840.0n nf=1 par=1 ngcon=1 
+ mSwitch=0 idg=0 psp=0
MM1 nmin1 AN VSS! VSS! nfet m=1 l=120.0n w=220.0n nf=1 par=1 ngcon=1 mSwitch=0 
+ idg=0 psp=0
MM2 Y B VSS! VSS! nfet m=1 l=120.0n w=460.0n nf=1 par=1 ngcon=1 mSwitch=0 
+ idg=0 psp=0
MM3 Y nmin1 VSS! VSS! nfet m=1 l=120.0n w=460.0n nf=1 par=1 ngcon=1 mSwitch=0 
+ idg=0 psp=0
.ENDS

************************************************************************
* Library Name: eecs427artisan
* Cell Name:    NAND2XLTR
* View Name:    schematic
************************************************************************

.SUBCKT NAND2XLTR A B Y
*.PININFO A:I B:I Y:O
MM0 hnet11 B VSS! VSS! nfet m=1 l=120.0n w=400n nf=1 par=1 ngcon=1 mSwitch=0 
+ idg=0 psp=0
MM1 Y A hnet11 VSS! nfet m=1 l=120.0n w=400n nf=1 par=1 ngcon=1 mSwitch=0 
+ idg=0 psp=0
MM2 Y B VDD! VDD! pfet m=1 l=120.0n w=420.0n nf=1 par=1 ngcon=1 mSwitch=0 
+ idg=0 psp=0
MM3 Y A VDD! VDD! pfet m=1 l=120.0n w=420.0n nf=1 par=1 ngcon=1 mSwitch=0 
+ idg=0 psp=0
.ENDS

************************************************************************
* Library Name: eecs427artisan
* Cell Name:    NOR2BXLTR
* View Name:    schematic
************************************************************************

.SUBCKT NOR2BXLTR AN B Y
*.PININFO AN:I B:I Y:O
MM0 nmin1 AN VDD! VDD! pfet m=1 l=120.0n w=280.0n nf=1 par=1 ngcon=1 mSwitch=0 
+ idg=0 psp=0
MM4 hnet12 B VDD! VDD! pfet m=1 l=120.0n w=440.0n nf=1 par=1 ngcon=1 mSwitch=0 
+ idg=0 psp=0
MM5 Y nmin1 hnet12 VDD! pfet m=1 l=120.0n w=440.0n nf=1 par=1 ngcon=1 
+ mSwitch=0 idg=0 psp=0
MM1 nmin1 AN VSS! VSS! nfet m=1 l=120.0n w=200n nf=1 par=1 ngcon=1 mSwitch=0 
+ idg=0 psp=0
MM2 Y B VSS! VSS! nfet m=1 l=120.0n w=240.0n nf=1 par=1 ngcon=1 mSwitch=0 
+ idg=0 psp=0
MM3 Y nmin1 VSS! VSS! nfet m=1 l=120.0n w=240.0n nf=1 par=1 ngcon=1 mSwitch=0 
+ idg=0 psp=0
.ENDS

************************************************************************
* Library Name: eecs427artisan
* Cell Name:    CLKAND2X2TR
* View Name:    schematic
************************************************************************

.SUBCKT CLKAND2X2TR A B Y
*.PININFO A:I B:I Y:O
MM5 net11 A VDD! VDD! pfet m=1 l=120.0n w=560.0n nf=1 par=1 ngcon=1 mSwitch=0 
+ idg=0 psp=0
MM0 Y net11 VDD! VDD! pfet m=1 l=120.0n w=1.3u nf=1 par=1 ngcon=1 mSwitch=0 
+ idg=0 psp=0
MM4 net11 B VDD! VDD! pfet m=1 l=120.0n w=560.0n nf=1 par=1 ngcon=1 mSwitch=0 
+ idg=0 psp=0
MM1 Y net11 VSS! VSS! nfet m=1 l=120.0n w=480.0n nf=1 par=1 ngcon=1 mSwitch=0 
+ idg=0 psp=0
MM2 hnet14 B VSS! VSS! nfet m=1 l=120.0n w=200n nf=1 par=1 ngcon=1 mSwitch=0 
+ idg=0 psp=0
MM3 net11 A hnet14 VSS! nfet m=1 l=120.0n w=200n nf=1 par=1 ngcon=1 mSwitch=0 
+ idg=0 psp=0
.ENDS

************************************************************************
* Library Name: eecs427artisan
* Cell Name:    NAND4XLTR
* View Name:    schematic
************************************************************************

.SUBCKT NAND4XLTR A B C D Y
*.PININFO A:I B:I C:I D:I Y:O
MM4 Y D VDD! VDD! pfet m=1 l=120.0n w=420.0n nf=1 par=1 ngcon=1 mSwitch=0 
+ idg=0 psp=0
MM5 Y C VDD! VDD! pfet m=1 l=120.0n w=420.0n nf=1 par=1 ngcon=1 mSwitch=0 
+ idg=0 psp=0
MM6 Y B VDD! VDD! pfet m=1 l=120.0n w=420.0n nf=1 par=1 ngcon=1 mSwitch=0 
+ idg=0 psp=0
MM7 Y A VDD! VDD! pfet m=1 l=120.0n w=420.0n nf=1 par=1 ngcon=1 mSwitch=0 
+ idg=0 psp=0
MM3 Y A hnet10 VSS! nfet m=1 l=120.0n w=520.0n nf=1 par=1 ngcon=1 mSwitch=0 
+ idg=0 psp=0
MM2 hnet10 B hnet8 VSS! nfet m=1 l=120.0n w=520.0n nf=1 par=1 ngcon=1 
+ mSwitch=0 idg=0 psp=0
MM0 hnet9 D VSS! VSS! nfet m=1 l=120.0n w=520.0n nf=1 par=1 ngcon=1 mSwitch=0 
+ idg=0 psp=0
MM1 hnet8 C hnet9 VSS! nfet m=1 l=120.0n w=520.0n nf=1 par=1 ngcon=1 mSwitch=0 
+ idg=0 psp=0
.ENDS

************************************************************************
* Library Name: eecs427artisan
* Cell Name:    INVX2TR
* View Name:    schematic
************************************************************************

.SUBCKT INVX2TR A Y
*.PININFO A:I Y:O
MM1 Y A VSS! VSS! nfet m=1 l=120.0n w=920.0n nf=1 par=1 ngcon=1 mSwitch=0 
+ idg=0 psp=0
MM0 Y A VDD! VDD! pfet m=1 l=120.0n w=1.28u nf=1 par=1 ngcon=1 mSwitch=0 idg=0 
+ psp=0
.ENDS

************************************************************************
* Library Name: eecs427artisan
* Cell Name:    AND3X2TR
* View Name:    schematic
************************************************************************

.SUBCKT AND3X2TR A B C Y
*.PININFO A:I B:I C:I Y:O
MM0 Y net14 VDD! VDD! pfet m=1 l=120.0n w=1.28u nf=1 par=1 ngcon=1 mSwitch=0 
+ idg=0 psp=0
MM6 net14 B VDD! VDD! pfet m=1 l=120.0n w=500n nf=1 par=1 ngcon=1 mSwitch=0 
+ idg=0 psp=0
MM7 net14 A VDD! VDD! pfet m=1 l=120.0n w=500n nf=1 par=1 ngcon=1 mSwitch=0 
+ idg=0 psp=0
MM5 net14 C VDD! VDD! pfet m=1 l=120.0n w=500n nf=1 par=1 ngcon=1 mSwitch=0 
+ idg=0 psp=0
MM2 hnet17 C VSS! VSS! nfet m=1 l=120.0n w=580.0n nf=1 par=1 ngcon=1 mSwitch=0 
+ idg=0 psp=0
MM3 hnet12 B hnet17 VSS! nfet m=1 l=120.0n w=580.0n nf=1 par=1 ngcon=1 
+ mSwitch=0 idg=0 psp=0
MM4 net14 A hnet12 VSS! nfet m=1 l=120.0n w=580.0n nf=1 par=1 ngcon=1 
+ mSwitch=0 idg=0 psp=0
MM1 Y net14 VSS! VSS! nfet m=1 l=120.0n w=920.0n nf=1 par=1 ngcon=1 mSwitch=0 
+ idg=0 psp=0
.ENDS

************************************************************************
* Library Name: eecs427artisan
* Cell Name:    CLKBUFX8TR
* View Name:    schematic
************************************************************************

.SUBCKT CLKBUFX8TR A Y
*.PININFO A:I Y:O
MM1 Y nmin VSS! VSS! nfet m=1 l=120.0n w=1.84u nf=1 par=1 ngcon=1 mSwitch=0 
+ idg=0 psp=0
MM3 nmin A VSS! VSS! nfet m=1 l=120.0n w=600n nf=1 par=1 ngcon=1 mSwitch=0 
+ idg=0 psp=0
MM0 Y nmin VDD! VDD! pfet m=1 l=120.0n w=5.12u nf=1 par=1 ngcon=1 mSwitch=0 
+ idg=0 psp=0
MM2 nmin A VDD! VDD! pfet m=1 l=120.0n w=1.62u nf=1 par=1 ngcon=1 mSwitch=0 
+ idg=0 psp=0
.ENDS

************************************************************************
* Library Name: eecs427artisan
* Cell Name:    TIEHITR
* View Name:    schematic
************************************************************************

.SUBCKT TIEHITR Y
*.PININFO Y:O
MM1 VDD! net4 Y VDD! pfet m=1 l=120.0n w=640.0n nf=1 par=1 ngcon=1 mSwitch=0 
+ idg=0 psp=0
MM0 net4 net4 VSS! VSS! nfet m=1 l=120.0n w=200n nf=1 par=1 ngcon=1 mSwitch=0 
+ idg=0 psp=0
.ENDS

************************************************************************
* Library Name: eecs427artisan
* Cell Name:    DFFXLTR
* View Name:    schematic
************************************************************************

.SUBCKT DFFXLTR CK D Q QN
*.PININFO CK:I D:I Q:O QN:O
MM17 s net43 VSS! VSS! nfet m=1 l=120.0n w=200n nf=1 par=1 ngcon=1 mSwitch=0 
+ idg=0 psp=0
MM19 m pm VSS! VSS! nfet m=1 l=120.0n w=200n nf=1 par=1 ngcon=1 mSwitch=0 
+ idg=0 psp=0
MM23 c cn VSS! VSS! nfet m=1 l=120.0n w=200n nf=1 par=1 ngcon=1 mSwitch=0 
+ idg=0 psp=0
MM12 hnet38 m VSS! VSS! nfet m=1 l=120.0n w=200n nf=1 par=1 ngcon=1 mSwitch=0 
+ idg=0 psp=0
MM13 pm c hnet38 VSS! nfet m=1 l=120.0n w=200n nf=1 par=1 ngcon=1 mSwitch=0 
+ idg=0 psp=0
MM0 hnet14 m VSS! VSS! nfet m=1 l=120.0n w=360.0n nf=1 par=1 ngcon=1 mSwitch=0 
+ idg=0 psp=0
MM1 net43 c hnet14 VSS! nfet m=1 l=120.0n w=360.0n nf=1 par=1 ngcon=1 
+ mSwitch=0 idg=0 psp=0
MM21 QN s VSS! VSS! nfet m=1 l=120.0n w=240.0n nf=1 par=1 ngcon=1 mSwitch=0 
+ idg=0 psp=0
MM25 cn CK VSS! VSS! nfet m=1 l=120.0n w=280.0n nf=1 par=1 ngcon=1 mSwitch=0 
+ idg=0 psp=0
MM27 Q net43 VSS! VSS! nfet m=1 l=120.0n w=240.0n nf=1 par=1 ngcon=1 mSwitch=0 
+ idg=0 psp=0
MM8 hnet30 s VSS! VSS! nfet m=1 l=120.0n w=200n nf=1 par=1 ngcon=1 mSwitch=0 
+ idg=0 psp=0
MM9 net43 cn hnet30 VSS! nfet m=1 l=120.0n w=200n nf=1 par=1 ngcon=1 mSwitch=0 
+ idg=0 psp=0
MM4 hnet22 D VSS! VSS! nfet m=1 l=120.0n w=200n nf=1 par=1 ngcon=1 mSwitch=0 
+ idg=0 psp=0
MM5 pm cn hnet22 VSS! nfet m=1 l=120.0n w=200n nf=1 par=1 ngcon=1 mSwitch=0 
+ idg=0 psp=0
MM16 s net43 VDD! VDD! pfet m=1 l=120.0n w=280.0n nf=1 par=1 ngcon=1 mSwitch=0 
+ idg=0 psp=0
MM22 c cn VDD! VDD! pfet m=1 l=120.0n w=280.0n nf=1 par=1 ngcon=1 mSwitch=0 
+ idg=0 psp=0
MM18 m pm VDD! VDD! pfet m=1 l=120.0n w=280.0n nf=1 par=1 ngcon=1 mSwitch=0 
+ idg=0 psp=0
MM15 hnet40 m VDD! VDD! pfet m=1 l=120.0n w=280.0n nf=1 par=1 ngcon=1 
+ mSwitch=0 idg=0 psp=0
MM14 pm cn hnet40 VDD! pfet m=1 l=120.0n w=280.0n nf=1 par=1 ngcon=1 mSwitch=0 
+ idg=0 psp=0
MM3 hnet16 m VDD! VDD! pfet m=1 l=120.0n w=500n nf=1 par=1 ngcon=1 mSwitch=0 
+ idg=0 psp=0
MM2 net43 cn hnet16 VDD! pfet m=1 l=120.0n w=500n nf=1 par=1 ngcon=1 mSwitch=0 
+ idg=0 psp=0
MM10 net43 c hnet32 VDD! pfet m=1 l=120.0n w=280.0n nf=1 par=1 ngcon=1 
+ mSwitch=0 idg=0 psp=0
MM11 hnet32 s VDD! VDD! pfet m=1 l=120.0n w=280.0n nf=1 par=1 ngcon=1 
+ mSwitch=0 idg=0 psp=0
MM20 QN s VDD! VDD! pfet m=1 l=120.0n w=340.0n nf=1 par=1 ngcon=1 mSwitch=0 
+ idg=0 psp=0
MM24 cn CK VDD! VDD! pfet m=1 l=120.0n w=380.0n nf=1 par=1 ngcon=1 mSwitch=0 
+ idg=0 psp=0
MM26 Q net43 VDD! VDD! pfet m=1 l=120.0n w=340.0n nf=1 par=1 ngcon=1 mSwitch=0 
+ idg=0 psp=0
MM6 pm c hnet24 VDD! pfet m=1 l=120.0n w=280.0n nf=1 par=1 ngcon=1 mSwitch=0 
+ idg=0 psp=0
MM7 hnet24 D VDD! VDD! pfet m=1 l=120.0n w=280.0n nf=1 par=1 ngcon=1 mSwitch=0 
+ idg=0 psp=0
.ENDS

************************************************************************
* Library Name: eecs427artisan
* Cell Name:    OAI22X1TR
* View Name:    schematic
************************************************************************

.SUBCKT OAI22X1TR A0 A1 B0 B1 Y
*.PININFO A0:I A1:I B0:I B1:I Y:O
MM0 hnet14 B1 VDD! VDD! pfet m=1 l=120.0n w=840.0n nf=1 par=1 ngcon=1 
+ mSwitch=0 idg=0 psp=0
MM1 Y B0 hnet14 VDD! pfet m=1 l=120.0n w=840.0n nf=1 par=1 ngcon=1 mSwitch=0 
+ idg=0 psp=0
MM3 Y A0 hnet19 VDD! pfet m=1 l=120.0n w=840.0n nf=1 par=1 ngcon=1 mSwitch=0 
+ idg=0 psp=0
MM2 hnet19 A1 VDD! VDD! pfet m=1 l=120.0n w=840.0n nf=1 par=1 ngcon=1 
+ mSwitch=0 idg=0 psp=0
MM7 net38 B1 VSS! VSS! nfet m=1 l=120.0n w=600n nf=1 par=1 ngcon=1 mSwitch=0 
+ idg=0 psp=0
MM6 net38 B0 VSS! VSS! nfet m=1 l=120.0n w=600n nf=1 par=1 ngcon=1 mSwitch=0 
+ idg=0 psp=0
MM4 Y A0 net38 VSS! nfet m=1 l=120.0n w=600n nf=1 par=1 ngcon=1 mSwitch=0 
+ idg=0 psp=0
MM5 Y A1 net38 VSS! nfet m=1 l=120.0n w=600n nf=1 par=1 ngcon=1 mSwitch=0 
+ idg=0 psp=0
.ENDS

************************************************************************
* Library Name: eecs427artisan
* Cell Name:    OR2X2TR
* View Name:    schematic
************************************************************************

.SUBCKT OR2X2TR A B Y
*.PININFO A:I B:I Y:O
MM0 Y nmin VDD! VDD! pfet m=1 l=120.0n w=1.28u nf=1 par=1 ngcon=1 mSwitch=0 
+ idg=0 psp=0
MM4 hnet12 B VDD! VDD! pfet m=1 l=120.0n w=660.0n nf=1 par=1 ngcon=1 mSwitch=0 
+ idg=0 psp=0
MM5 nmin A hnet12 VDD! pfet m=1 l=120.0n w=660.0n nf=1 par=1 ngcon=1 mSwitch=0 
+ idg=0 psp=0
MM2 nmin B VSS! VSS! nfet m=1 l=120.0n w=360.0n nf=1 par=1 ngcon=1 mSwitch=0 
+ idg=0 psp=0
MM3 nmin A VSS! VSS! nfet m=1 l=120.0n w=360.0n nf=1 par=1 ngcon=1 mSwitch=0 
+ idg=0 psp=0
MM1 Y nmin VSS! VSS! nfet m=1 l=120.0n w=920.0n nf=1 par=1 ngcon=1 mSwitch=0 
+ idg=0 psp=0
.ENDS

************************************************************************
* Library Name: eecs427artisan
* Cell Name:    OAI211X4TR
* View Name:    schematic
************************************************************************

.SUBCKT OAI211X4TR A0 A1 B0 C0 Y
*.PININFO A0:I A1:I B0:I C0:I Y:O
MM1 net19 net23 VSS! VSS! nfet m=1 l=120.0n w=740.0n nf=1 par=1 ngcon=1 
+ mSwitch=0 idg=0 psp=0
MM3 Y net19 VSS! VSS! nfet m=1 l=120.0n w=1.84u nf=1 par=1 ngcon=1 mSwitch=0 
+ idg=0 psp=0
MM8 net37 A1 VSS! VSS! nfet m=1 l=120.0n w=460.0n nf=1 par=1 ngcon=1 mSwitch=0 
+ idg=0 psp=0
MM9 net37 A0 VSS! VSS! nfet m=1 l=120.0n w=460.0n nf=1 par=1 ngcon=1 mSwitch=0 
+ idg=0 psp=0
MM6 net30 C0 net37 VSS! nfet m=1 l=120.0n w=460.0n nf=1 par=1 ngcon=1 
+ mSwitch=0 idg=0 psp=0
MM7 net23 B0 net30 VSS! nfet m=1 l=120.0n w=460.0n nf=1 par=1 ngcon=1 
+ mSwitch=0 idg=0 psp=0
MM2 Y net19 VDD! VDD! pfet m=1 l=120.0n w=2.56u nf=1 par=1 ngcon=1 mSwitch=0 
+ idg=0 psp=0
MM0 net19 net23 VDD! VDD! pfet m=1 l=120.0n w=1.02u nf=1 par=1 ngcon=1 
+ mSwitch=0 idg=0 psp=0
MM5 net23 A0 hnet21 VDD! pfet m=1 l=120.0n w=540.0n nf=1 par=1 ngcon=1 
+ mSwitch=0 idg=0 psp=0
MM4 hnet21 A1 VDD! VDD! pfet m=1 l=120.0n w=540.0n nf=1 par=1 ngcon=1 
+ mSwitch=0 idg=0 psp=0
MM11 VDD! B0 net23 VDD! pfet m=1 l=120.0n w=400n nf=1 par=1 ngcon=1 mSwitch=0 
+ idg=0 psp=0
MM10 VDD! C0 net23 VDD! pfet m=1 l=120.0n w=400n nf=1 par=1 ngcon=1 mSwitch=0 
+ idg=0 psp=0
.ENDS

************************************************************************
* Library Name: eecs427artisan
* Cell Name:    AOI21X1TR
* View Name:    schematic
************************************************************************

.SUBCKT AOI21X1TR A0 A1 B0 Y
*.PININFO A0:I A1:I B0:I Y:O
MM5 Y B0 VSS! VSS! nfet m=1 l=120.0n w=460.0n nf=1 par=1 ngcon=1 mSwitch=0 
+ idg=0 psp=0
MM0 hnet13 A1 VSS! VSS! nfet m=1 l=120.0n w=600n nf=1 par=1 ngcon=1 mSwitch=0 
+ idg=0 psp=0
MM1 Y A0 hnet13 VSS! nfet m=1 l=120.0n w=600n nf=1 par=1 ngcon=1 mSwitch=0 
+ idg=0 psp=0
MM3 VDD! A1 net29 VDD! pfet m=1 l=120.0n w=840.0n nf=1 par=1 ngcon=1 mSwitch=0 
+ idg=0 psp=0
MM2 net29 B0 Y VDD! pfet m=1 l=120.0n w=840.0n nf=1 par=1 ngcon=1 mSwitch=0 
+ idg=0 psp=0
MM4 VDD! A0 net29 VDD! pfet m=1 l=120.0n w=840.0n nf=1 par=1 ngcon=1 mSwitch=0 
+ idg=0 psp=0
.ENDS

************************************************************************
* Library Name: eecs427artisan
* Cell Name:    OAI33X1TR
* View Name:    schematic
************************************************************************

.SUBCKT OAI33X1TR A0 A1 A2 B0 B1 B2 Y
*.PININFO A0:I A1:I A2:I B0:I B1:I B2:I Y:O
MM8 Y A1 net57 VSS! nfet m=1 l=120.0n w=600n nf=1 par=1 ngcon=1 mSwitch=0 
+ idg=0 psp=0
MM7 Y A0 net57 VSS! nfet m=1 l=120.0n w=600n nf=1 par=1 ngcon=1 mSwitch=0 
+ idg=0 psp=0
MM11 net57 B2 VSS! VSS! nfet m=1 l=120.0n w=600n nf=1 par=1 ngcon=1 mSwitch=0 
+ idg=0 psp=0
MM10 net57 B1 VSS! VSS! nfet m=1 l=120.0n w=600n nf=1 par=1 ngcon=1 mSwitch=0 
+ idg=0 psp=0
MM9 Y A2 net57 VSS! nfet m=1 l=120.0n w=600n nf=1 par=1 ngcon=1 mSwitch=0 
+ idg=0 psp=0
MM6 net57 B0 VSS! VSS! nfet m=1 l=120.0n w=600n nf=1 par=1 ngcon=1 mSwitch=0 
+ idg=0 psp=0
MM2 Y A0 hnet18 VDD! pfet m=1 l=120.0n w=1.02u nf=1 par=1 ngcon=1 mSwitch=0 
+ idg=0 psp=0
MM3 hnet19 B2 VDD! VDD! pfet m=1 l=120.0n w=1.02u nf=1 par=1 ngcon=1 mSwitch=0 
+ idg=0 psp=0
MM0 hnet12 A2 VDD! VDD! pfet m=1 l=120.0n w=1.02u nf=1 par=1 ngcon=1 mSwitch=0 
+ idg=0 psp=0
MM5 Y B0 hnet25 VDD! pfet m=1 l=120.0n w=1.02u nf=1 par=1 ngcon=1 mSwitch=0 
+ idg=0 psp=0
MM1 hnet18 A1 hnet12 VDD! pfet m=1 l=120.0n w=1.02u nf=1 par=1 ngcon=1 
+ mSwitch=0 idg=0 psp=0
MM4 hnet25 B1 hnet19 VDD! pfet m=1 l=120.0n w=1.02u nf=1 par=1 ngcon=1 
+ mSwitch=0 idg=0 psp=0
.ENDS

************************************************************************
* Library Name: eecs427artisan
* Cell Name:    XNOR2X1TR
* View Name:    schematic
************************************************************************

.SUBCKT XNOR2X1TR A B Y
*.PININFO A:I B:I Y:O
MM7 net35 nmin2 VSS! VSS! nfet m=1 l=120.0n w=560.0n nf=1 par=1 ngcon=1 
+ mSwitch=0 idg=0 psp=0
MM3 Y nmin1 nmin2 VSS! nfet m=1 l=120.0n w=560.0n nf=1 par=1 ngcon=1 mSwitch=0 
+ idg=0 psp=0
MM2 Y A net35 VSS! nfet m=1 l=120.0n w=560.0n nf=1 par=1 ngcon=1 mSwitch=0 
+ idg=0 psp=0
MM9 nmin2 B VSS! VSS! nfet m=1 l=120.0n w=560.0n nf=1 par=1 ngcon=1 mSwitch=0 
+ idg=0 psp=0
MM5 nmin1 A VSS! VSS! nfet m=1 l=120.0n w=220.0n nf=1 par=1 ngcon=1 mSwitch=0 
+ idg=0 psp=0
MM8 nmin2 B VDD! VDD! pfet m=1 l=120.0n w=720.0n nf=1 par=1 ngcon=1 mSwitch=0 
+ idg=0 psp=0
MM1 nmin2 A Y VDD! pfet m=1 l=120.0n w=780.0n nf=1 par=1 ngcon=1 mSwitch=0 
+ idg=0 psp=0
MM6 net35 nmin2 VDD! VDD! pfet m=1 l=120.0n w=780.0n nf=1 par=1 ngcon=1 
+ mSwitch=0 idg=0 psp=0
MM0 net35 nmin1 Y VDD! pfet m=1 l=120.0n w=780.0n nf=1 par=1 ngcon=1 mSwitch=0 
+ idg=0 psp=0
MM4 nmin1 A VDD! VDD! pfet m=1 l=120.0n w=300n nf=1 par=1 ngcon=1 mSwitch=0 
+ idg=0 psp=0
.ENDS

************************************************************************
* Library Name: eecs427artisan
* Cell Name:    OAI32X1TR
* View Name:    schematic
************************************************************************

.SUBCKT OAI32X1TR A0 A1 A2 B0 B1 Y
*.PININFO A0:I A1:I A2:I B0:I B1:I Y:O
MM3 hnet21 B1 VDD! VDD! pfet m=1 l=120.0n w=840.0n nf=1 par=1 ngcon=1 
+ mSwitch=0 idg=0 psp=0
MM2 Y A0 hnet17 VDD! pfet m=1 l=120.0n w=1.02u nf=1 par=1 ngcon=1 mSwitch=0 
+ idg=0 psp=0
MM0 hnet11 A2 VDD! VDD! pfet m=1 l=120.0n w=1.02u nf=1 par=1 ngcon=1 mSwitch=0 
+ idg=0 psp=0
MM1 hnet17 A1 hnet11 VDD! pfet m=1 l=120.0n w=1.02u nf=1 par=1 ngcon=1 
+ mSwitch=0 idg=0 psp=0
MM4 Y B0 hnet21 VDD! pfet m=1 l=120.0n w=840.0n nf=1 par=1 ngcon=1 mSwitch=0 
+ idg=0 psp=0
MM5 net46 A0 VSS! VSS! nfet m=1 l=120.0n w=600n nf=1 par=1 ngcon=1 mSwitch=0 
+ idg=0 psp=0
MM8 net46 A1 VSS! VSS! nfet m=1 l=120.0n w=600n nf=1 par=1 ngcon=1 mSwitch=0 
+ idg=0 psp=0
MM9 net46 A2 VSS! VSS! nfet m=1 l=120.0n w=600n nf=1 par=1 ngcon=1 mSwitch=0 
+ idg=0 psp=0
MM7 Y B1 net46 VSS! nfet m=1 l=120.0n w=600n nf=1 par=1 ngcon=1 mSwitch=0 
+ idg=0 psp=0
MM6 Y B0 net46 VSS! nfet m=1 l=120.0n w=600n nf=1 par=1 ngcon=1 mSwitch=0 
+ idg=0 psp=0
.ENDS

************************************************************************
* Library Name: eecs427artisan
* Cell Name:    AO21XLTR
* View Name:    schematic
************************************************************************

.SUBCKT AO21XLTR A0 A1 B0 Y
*.PININFO A0:I A1:I B0:I Y:O
MM7 nmin B0 VSS! VSS! nfet m=1 l=120.0n w=200n nf=1 par=1 ngcon=1 mSwitch=0 
+ idg=0 psp=0
MM1 Y nmin VSS! VSS! nfet m=1 l=120.0n w=240.0n nf=1 par=1 ngcon=1 mSwitch=0 
+ idg=0 psp=0
MM2 hnet16 A1 VSS! VSS! nfet m=1 l=120.0n w=260.0n nf=1 par=1 ngcon=1 
+ mSwitch=0 idg=0 psp=0
MM3 nmin A0 hnet16 VSS! nfet m=1 l=120.0n w=260.0n nf=1 par=1 ngcon=1 
+ mSwitch=0 idg=0 psp=0
MM5 VDD! A1 net31 VDD! pfet m=1 l=120.0n w=300n nf=1 par=1 ngcon=1 mSwitch=0 
+ idg=0 psp=0
MM4 net31 B0 nmin VDD! pfet m=1 l=120.0n w=300n nf=1 par=1 ngcon=1 mSwitch=0 
+ idg=0 psp=0
MM6 VDD! A0 net31 VDD! pfet m=1 l=120.0n w=300n nf=1 par=1 ngcon=1 mSwitch=0 
+ idg=0 psp=0
MM0 Y nmin VDD! VDD! pfet m=1 l=120.0n w=420.0n nf=1 par=1 ngcon=1 mSwitch=0 
+ idg=0 psp=0
.ENDS

************************************************************************
* Library Name: eecs427artisan
* Cell Name:    OR2XLTR
* View Name:    schematic
************************************************************************

.SUBCKT OR2XLTR A B Y
*.PININFO A:I B:I Y:O
MM0 Y nmin VDD! VDD! pfet m=1 l=120.0n w=420.0n nf=1 par=1 ngcon=1 mSwitch=0 
+ idg=0 psp=0
MM4 hnet12 B VDD! VDD! pfet m=1 l=120.0n w=300n nf=1 par=1 ngcon=1 mSwitch=0 
+ idg=0 psp=0
MM5 nmin A hnet12 VDD! pfet m=1 l=120.0n w=300n nf=1 par=1 ngcon=1 mSwitch=0 
+ idg=0 psp=0
MM2 nmin B VSS! VSS! nfet m=1 l=120.0n w=200n nf=1 par=1 ngcon=1 mSwitch=0 
+ idg=0 psp=0
MM3 nmin A VSS! VSS! nfet m=1 l=120.0n w=200n nf=1 par=1 ngcon=1 mSwitch=0 
+ idg=0 psp=0
MM1 Y nmin VSS! VSS! nfet m=1 l=120.0n w=240.0n nf=1 par=1 ngcon=1 mSwitch=0 
+ idg=0 psp=0
.ENDS

************************************************************************
* Library Name: eecs427artisan
* Cell Name:    AOI31X1TR
* View Name:    schematic
************************************************************************

.SUBCKT AOI31X1TR A0 A1 A2 B0 Y
*.PININFO A0:I A1:I A2:I B0:I Y:O
MM1 hnet11 A1 hnet16 VSS! nfet m=1 l=120.0n w=660.0n nf=1 par=1 ngcon=1 
+ mSwitch=0 idg=0 psp=0
MM0 hnet16 A2 VSS! VSS! nfet m=1 l=120.0n w=660.0n nf=1 par=1 ngcon=1 
+ mSwitch=0 idg=0 psp=0
MM7 Y B0 VSS! VSS! nfet m=1 l=120.0n w=460.0n nf=1 par=1 ngcon=1 mSwitch=0 
+ idg=0 psp=0
MM2 Y A0 hnet11 VSS! nfet m=1 l=120.0n w=660.0n nf=1 par=1 ngcon=1 mSwitch=0 
+ idg=0 psp=0
MM6 VDD! A1 net23 VDD! pfet m=1 l=120.0n w=840.0n nf=1 par=1 ngcon=1 mSwitch=0 
+ idg=0 psp=0
MM3 VDD! A0 net23 VDD! pfet m=1 l=120.0n w=840.0n nf=1 par=1 ngcon=1 mSwitch=0 
+ idg=0 psp=0
MM5 VDD! A2 net23 VDD! pfet m=1 l=120.0n w=840.0n nf=1 par=1 ngcon=1 mSwitch=0 
+ idg=0 psp=0
MM4 net23 B0 Y VDD! pfet m=1 l=120.0n w=840.0n nf=1 par=1 ngcon=1 mSwitch=0 
+ idg=0 psp=0
.ENDS

************************************************************************
* Library Name: eecs427artisan
* Cell Name:    OAI21X1TR
* View Name:    schematic
************************************************************************

.SUBCKT OAI21X1TR A0 A1 B0 Y
*.PININFO A0:I A1:I B0:I Y:O
MM0 hnet13 A1 VDD! VDD! pfet m=1 l=120.0n w=840.0n nf=1 par=1 ngcon=1 
+ mSwitch=0 idg=0 psp=0
MM5 VDD! B0 Y VDD! pfet m=1 l=120.0n w=640.0n nf=1 par=1 ngcon=1 mSwitch=0 
+ idg=0 psp=0
MM1 Y A0 hnet13 VDD! pfet m=1 l=120.0n w=840.0n nf=1 par=1 ngcon=1 mSwitch=0 
+ idg=0 psp=0
MM3 net25 A1 VSS! VSS! nfet m=1 l=120.0n w=600n nf=1 par=1 ngcon=1 mSwitch=0 
+ idg=0 psp=0
MM4 net25 A0 VSS! VSS! nfet m=1 l=120.0n w=600n nf=1 par=1 ngcon=1 mSwitch=0 
+ idg=0 psp=0
MM2 Y B0 net25 VSS! nfet m=1 l=120.0n w=600n nf=1 par=1 ngcon=1 mSwitch=0 
+ idg=0 psp=0
.ENDS

************************************************************************
* Library Name: eecs427artisan
* Cell Name:    OA21XLTR
* View Name:    schematic
************************************************************************

.SUBCKT OA21XLTR A0 A1 B0 Y
*.PININFO A0:I A1:I B0:I Y:O
MM0 Y nmin VDD! VDD! pfet m=1 l=120.0n w=420.0n nf=1 par=1 ngcon=1 mSwitch=0 
+ idg=0 psp=0
MM7 VDD! B0 nmin VDD! pfet m=1 l=120.0n w=280.0n nf=1 par=1 ngcon=1 mSwitch=0 
+ idg=0 psp=0
MM3 nmin A0 hnet16 VDD! pfet m=1 l=120.0n w=300n nf=1 par=1 ngcon=1 mSwitch=0 
+ idg=0 psp=0
MM2 hnet16 A1 VDD! VDD! pfet m=1 l=120.0n w=300n nf=1 par=1 ngcon=1 mSwitch=0 
+ idg=0 psp=0
MM4 nmin B0 net27 VSS! nfet m=1 l=120.0n w=260.0n nf=1 par=1 ngcon=1 mSwitch=0 
+ idg=0 psp=0
MM6 net27 A0 VSS! VSS! nfet m=1 l=120.0n w=260.0n nf=1 par=1 ngcon=1 mSwitch=0 
+ idg=0 psp=0
MM5 net27 A1 VSS! VSS! nfet m=1 l=120.0n w=260.0n nf=1 par=1 ngcon=1 mSwitch=0 
+ idg=0 psp=0
MM1 Y nmin VSS! VSS! nfet m=1 l=120.0n w=240.0n nf=1 par=1 ngcon=1 mSwitch=0 
+ idg=0 psp=0
.ENDS

************************************************************************
* Library Name: eecs427artisan
* Cell Name:    NOR2X2TR
* View Name:    schematic
************************************************************************

.SUBCKT NOR2X2TR A B Y
*.PININFO A:I B:I Y:O
MM5 Y A hnet6 VDD! pfet m=1 l=120.0n w=840.0n nf=1 par=1 ngcon=1 mSwitch=0 
+ idg=0 psp=0
MM3 Y A hnet8 VDD! pfet m=1 l=120.0n w=840.0n nf=1 par=1 ngcon=1 mSwitch=0 
+ idg=0 psp=0
MM2 hnet8 B VDD! VDD! pfet m=1 l=120.0n w=840.0n nf=1 par=1 ngcon=1 mSwitch=0 
+ idg=0 psp=0
MM4 hnet6 B VDD! VDD! pfet m=1 l=120.0n w=840.0n nf=1 par=1 ngcon=1 mSwitch=0 
+ idg=0 psp=0
MM1 Y A VSS! VSS! nfet m=1 l=120.0n w=920.0n nf=1 par=1 ngcon=1 mSwitch=0 
+ idg=0 psp=0
MM0 Y B VSS! VSS! nfet m=1 l=120.0n w=920.0n nf=1 par=1 ngcon=1 mSwitch=0 
+ idg=0 psp=0
.ENDS

************************************************************************
* Library Name: eecs427artisan
* Cell Name:    NOR3BX1TR
* View Name:    schematic
************************************************************************

.SUBCKT NOR3BX1TR AN B C Y
*.PININFO AN:I B:I C:I Y:O
MM0 nmin1 AN VDD! VDD! pfet m=1 l=120.0n w=340.0n nf=1 par=1 ngcon=1 mSwitch=0 
+ idg=0 psp=0
MM6 hnet16 B hnet17 VDD! pfet m=1 l=120.0n w=1.02u nf=1 par=1 ngcon=1 
+ mSwitch=0 idg=0 psp=0
MM7 Y nmin1 hnet16 VDD! pfet m=1 l=120.0n w=1.02u nf=1 par=1 ngcon=1 mSwitch=0 
+ idg=0 psp=0
MM5 hnet17 C VDD! VDD! pfet m=1 l=120.0n w=1.02u nf=1 par=1 ngcon=1 mSwitch=0 
+ idg=0 psp=0
MM1 nmin1 AN VSS! VSS! nfet m=1 l=120.0n w=240.0n nf=1 par=1 ngcon=1 mSwitch=0 
+ idg=0 psp=0
MM3 Y B VSS! VSS! nfet m=1 l=120.0n w=460.0n nf=1 par=1 ngcon=1 mSwitch=0 
+ idg=0 psp=0
MM2 Y C VSS! VSS! nfet m=1 l=120.0n w=460.0n nf=1 par=1 ngcon=1 mSwitch=0 
+ idg=0 psp=0
MM4 Y nmin1 VSS! VSS! nfet m=1 l=120.0n w=460.0n nf=1 par=1 ngcon=1 mSwitch=0 
+ idg=0 psp=0
.ENDS

************************************************************************
* Library Name: eecs427artisan
* Cell Name:    NOR4BBX1TR
* View Name:    schematic
************************************************************************

.SUBCKT NOR4BBX1TR AN BN C D Y
*.PININFO AN:I BN:I C:I D:I Y:O
MM10 nmin1 AN VDD! VDD! pfet m=1 l=120.0n w=380.0n nf=1 par=1 ngcon=1 
+ mSwitch=0 idg=0 psp=0
MM4 hnet13 D VDD! VDD! pfet m=1 l=120.0n w=1.2u nf=1 par=1 ngcon=1 mSwitch=0 
+ idg=0 psp=0
MM5 hnet17 C hnet13 VDD! pfet m=1 l=120.0n w=1.2u nf=1 par=1 ngcon=1 mSwitch=0 
+ idg=0 psp=0
MM8 nmin2 BN VDD! VDD! pfet m=1 l=120.0n w=380.0n nf=1 par=1 ngcon=1 mSwitch=0 
+ idg=0 psp=0
MM6 hnet11 nmin2 hnet17 VDD! pfet m=1 l=120.0n w=1.2u nf=1 par=1 ngcon=1 
+ mSwitch=0 idg=0 psp=0
MM7 Y nmin1 hnet11 VDD! pfet m=1 l=120.0n w=1.2u nf=1 par=1 ngcon=1 mSwitch=0 
+ idg=0 psp=0
MM11 nmin1 AN VSS! VSS! nfet m=1 l=120.0n w=280.0n nf=1 par=1 ngcon=1 
+ mSwitch=0 idg=0 psp=0
MM9 nmin2 BN VSS! VSS! nfet m=1 l=120.0n w=280.0n nf=1 par=1 ngcon=1 mSwitch=0 
+ idg=0 psp=0
MM0 Y D VSS! VSS! nfet m=1 l=120.0n w=460.0n nf=1 par=1 ngcon=1 mSwitch=0 
+ idg=0 psp=0
MM3 Y nmin1 VSS! VSS! nfet m=1 l=120.0n w=460.0n nf=1 par=1 ngcon=1 mSwitch=0 
+ idg=0 psp=0
MM2 Y nmin2 VSS! VSS! nfet m=1 l=120.0n w=460.0n nf=1 par=1 ngcon=1 mSwitch=0 
+ idg=0 psp=0
MM1 Y C VSS! VSS! nfet m=1 l=120.0n w=460.0n nf=1 par=1 ngcon=1 mSwitch=0 
+ idg=0 psp=0
.ENDS

************************************************************************
* Library Name: eecs427artisan
* Cell Name:    NAND3BX1TR
* View Name:    schematic
************************************************************************

.SUBCKT NAND3BX1TR AN B C Y
*.PININFO AN:I B:I C:I Y:O
MM3 hnet12 B hnet17 VSS! nfet m=1 l=120.0n w=720.0n nf=1 par=1 ngcon=1 
+ mSwitch=0 idg=0 psp=0
MM1 nmin1 AN VSS! VSS! nfet m=1 l=120.0n w=220.0n nf=1 par=1 ngcon=1 mSwitch=0 
+ idg=0 psp=0
MM4 Y nmin1 hnet12 VSS! nfet m=1 l=120.0n w=720.0n nf=1 par=1 ngcon=1 
+ mSwitch=0 idg=0 psp=0
MM2 hnet17 C VSS! VSS! nfet m=1 l=120.0n w=720.0n nf=1 par=1 ngcon=1 mSwitch=0 
+ idg=0 psp=0
MM5 Y C VDD! VDD! pfet m=1 l=120.0n w=640.0n nf=1 par=1 ngcon=1 mSwitch=0 
+ idg=0 psp=0
MM0 nmin1 AN VDD! VDD! pfet m=1 l=120.0n w=300n nf=1 par=1 ngcon=1 mSwitch=0 
+ idg=0 psp=0
MM6 Y B VDD! VDD! pfet m=1 l=120.0n w=640.0n nf=1 par=1 ngcon=1 mSwitch=0 
+ idg=0 psp=0
MM7 Y nmin1 VDD! VDD! pfet m=1 l=120.0n w=640.0n nf=1 par=1 ngcon=1 mSwitch=0 
+ idg=0 psp=0
.ENDS

************************************************************************
* Library Name: eecs427artisan
* Cell Name:    CLKBUFX2TR
* View Name:    schematic
************************************************************************

.SUBCKT CLKBUFX2TR A Y
*.PININFO A:I Y:O
MM1 Y nmin VSS! VSS! nfet m=1 l=120.0n w=480.0n nf=1 par=1 ngcon=1 mSwitch=0 
+ idg=0 psp=0
MM3 nmin A VSS! VSS! nfet m=1 l=120.0n w=200n nf=1 par=1 ngcon=1 mSwitch=0 
+ idg=0 psp=0
MM0 Y nmin VDD! VDD! pfet m=1 l=120.0n w=1.3u nf=1 par=1 ngcon=1 mSwitch=0 
+ idg=0 psp=0
MM2 nmin A VDD! VDD! pfet m=1 l=120.0n w=540.0n nf=1 par=1 ngcon=1 mSwitch=0 
+ idg=0 psp=0
.ENDS

************************************************************************
* Library Name: eecs427artisan
* Cell Name:    AOI32X1TR
* View Name:    schematic
************************************************************************

.SUBCKT AOI32X1TR A0 A1 A2 B0 B1 Y
*.PININFO A0:I A1:I A2:I B0:I B1:I Y:O
MM0 hnet17 A2 VSS! VSS! nfet m=1 l=120.0n w=720.0n nf=1 par=1 ngcon=1 
+ mSwitch=0 idg=0 psp=0
MM1 hnet11 A1 hnet17 VSS! nfet m=1 l=120.0n w=720.0n nf=1 par=1 ngcon=1 
+ mSwitch=0 idg=0 psp=0
MM4 Y B0 hnet21 VSS! nfet m=1 l=120.0n w=600n nf=1 par=1 ngcon=1 mSwitch=0 
+ idg=0 psp=0
MM3 hnet21 B1 VSS! VSS! nfet m=1 l=120.0n w=600n nf=1 par=1 ngcon=1 mSwitch=0 
+ idg=0 psp=0
MM2 Y A0 hnet11 VSS! nfet m=1 l=120.0n w=720.0n nf=1 par=1 ngcon=1 mSwitch=0 
+ idg=0 psp=0
MM8 VDD! A2 net37 VDD! pfet m=1 l=120.0n w=840.0n nf=1 par=1 ngcon=1 mSwitch=0 
+ idg=0 psp=0
MM9 net37 B1 Y VDD! pfet m=1 l=120.0n w=840.0n nf=1 par=1 ngcon=1 mSwitch=0 
+ idg=0 psp=0
MM5 VDD! A0 net37 VDD! pfet m=1 l=120.0n w=840.0n nf=1 par=1 ngcon=1 mSwitch=0 
+ idg=0 psp=0
MM6 VDD! A1 net37 VDD! pfet m=1 l=120.0n w=840.0n nf=1 par=1 ngcon=1 mSwitch=0 
+ idg=0 psp=0
MM7 net37 B0 Y VDD! pfet m=1 l=120.0n w=840.0n nf=1 par=1 ngcon=1 mSwitch=0 
+ idg=0 psp=0
.ENDS

************************************************************************
* Library Name: eecs427artisan
* Cell Name:    AOI211X1TR
* View Name:    schematic
************************************************************************

.SUBCKT AOI211X1TR A0 A1 B0 C0 Y
*.PININFO A0:I A1:I B0:I C0:I Y:O
MM3 net35 C0 net29 VDD! pfet m=1 l=120.0n w=1.02u nf=1 par=1 ngcon=1 mSwitch=0 
+ idg=0 psp=0
MM2 net29 B0 Y VDD! pfet m=1 l=120.0n w=1.02u nf=1 par=1 ngcon=1 mSwitch=0 
+ idg=0 psp=0
MM4 VDD! A1 net35 VDD! pfet m=1 l=120.0n w=1.02u nf=1 par=1 ngcon=1 mSwitch=0 
+ idg=0 psp=0
MM5 VDD! A0 net35 VDD! pfet m=1 l=120.0n w=1.02u nf=1 par=1 ngcon=1 mSwitch=0 
+ idg=0 psp=0
MM6 Y C0 VSS! VSS! nfet m=1 l=120.0n w=460.0n nf=1 par=1 ngcon=1 mSwitch=0 
+ idg=0 psp=0
MM7 Y B0 VSS! VSS! nfet m=1 l=120.0n w=460.0n nf=1 par=1 ngcon=1 mSwitch=0 
+ idg=0 psp=0
MM0 hnet15 A1 VSS! VSS! nfet m=1 l=120.0n w=600n nf=1 par=1 ngcon=1 mSwitch=0 
+ idg=0 psp=0
MM1 Y A0 hnet15 VSS! nfet m=1 l=120.0n w=600n nf=1 par=1 ngcon=1 mSwitch=0 
+ idg=0 psp=0
.ENDS

************************************************************************
* Library Name: eecs427artisan
* Cell Name:    AOI33X1TR
* View Name:    schematic
************************************************************************

.SUBCKT AOI33X1TR A0 A1 A2 B0 B1 B2 Y
*.PININFO A0:I A1:I A2:I B0:I B1:I B2:I Y:O
MM9 net46 A1 Y VDD! pfet m=1 l=120.0n w=840.0n nf=1 par=1 ngcon=1 mSwitch=0 
+ idg=0 psp=0
MM11 net46 A2 Y VDD! pfet m=1 l=120.0n w=840.0n nf=1 par=1 ngcon=1 mSwitch=0 
+ idg=0 psp=0
MM7 net46 A0 Y VDD! pfet m=1 l=120.0n w=840.0n nf=1 par=1 ngcon=1 mSwitch=0 
+ idg=0 psp=0
MM10 VDD! B2 net46 VDD! pfet m=1 l=120.0n w=840.0n nf=1 par=1 ngcon=1 
+ mSwitch=0 idg=0 psp=0
MM6 VDD! B0 net46 VDD! pfet m=1 l=120.0n w=840.0n nf=1 par=1 ngcon=1 mSwitch=0 
+ idg=0 psp=0
MM8 VDD! B1 net46 VDD! pfet m=1 l=120.0n w=840.0n nf=1 par=1 ngcon=1 mSwitch=0 
+ idg=0 psp=0
MM3 hnet25 A2 VSS! VSS! nfet m=1 l=120.0n w=720.0n nf=1 par=1 ngcon=1 
+ mSwitch=0 idg=0 psp=0
MM0 hnet18 B2 VSS! VSS! nfet m=1 l=120.0n w=720.0n nf=1 par=1 ngcon=1 
+ mSwitch=0 idg=0 psp=0
MM5 Y A0 hnet19 VSS! nfet m=1 l=120.0n w=720.0n nf=1 par=1 ngcon=1 mSwitch=0 
+ idg=0 psp=0
MM4 hnet19 A1 hnet25 VSS! nfet m=1 l=120.0n w=720.0n nf=1 par=1 ngcon=1 
+ mSwitch=0 idg=0 psp=0
MM2 Y B0 hnet12 VSS! nfet m=1 l=120.0n w=720.0n nf=1 par=1 ngcon=1 mSwitch=0 
+ idg=0 psp=0
MM1 hnet12 B1 hnet18 VSS! nfet m=1 l=120.0n w=720.0n nf=1 par=1 ngcon=1 
+ mSwitch=0 idg=0 psp=0
.ENDS

************************************************************************
* Library Name: eecs427artisan
* Cell Name:    OAI33XLTR
* View Name:    schematic
************************************************************************

.SUBCKT OAI33XLTR A0 A1 A2 B0 B1 B2 Y
*.PININFO A0:I A1:I A2:I B0:I B1:I B2:I Y:O
MM8 Y A1 net57 VSS! nfet m=1 l=120.0n w=400n nf=1 par=1 ngcon=1 mSwitch=0 
+ idg=0 psp=0
MM7 Y A0 net57 VSS! nfet m=1 l=120.0n w=400n nf=1 par=1 ngcon=1 mSwitch=0 
+ idg=0 psp=0
MM11 net57 B2 VSS! VSS! nfet m=1 l=120.0n w=400n nf=1 par=1 ngcon=1 mSwitch=0 
+ idg=0 psp=0
MM10 net57 B1 VSS! VSS! nfet m=1 l=120.0n w=400n nf=1 par=1 ngcon=1 mSwitch=0 
+ idg=0 psp=0
MM9 Y A2 net57 VSS! nfet m=1 l=120.0n w=400n nf=1 par=1 ngcon=1 mSwitch=0 
+ idg=0 psp=0
MM6 net57 B0 VSS! VSS! nfet m=1 l=120.0n w=400n nf=1 par=1 ngcon=1 mSwitch=0 
+ idg=0 psp=0
MM2 Y A0 hnet18 VDD! pfet m=1 l=120.0n w=540.0n nf=1 par=1 ngcon=1 mSwitch=0 
+ idg=0 psp=0
MM3 hnet19 B2 VDD! VDD! pfet m=1 l=120.0n w=540.0n nf=1 par=1 ngcon=1 
+ mSwitch=0 idg=0 psp=0
MM0 hnet12 A2 VDD! VDD! pfet m=1 l=120.0n w=540.0n nf=1 par=1 ngcon=1 
+ mSwitch=0 idg=0 psp=0
MM5 Y B0 hnet25 VDD! pfet m=1 l=120.0n w=540.0n nf=1 par=1 ngcon=1 mSwitch=0 
+ idg=0 psp=0
MM1 hnet18 A1 hnet12 VDD! pfet m=1 l=120.0n w=540.0n nf=1 par=1 ngcon=1 
+ mSwitch=0 idg=0 psp=0
MM4 hnet25 B1 hnet19 VDD! pfet m=1 l=120.0n w=540.0n nf=1 par=1 ngcon=1 
+ mSwitch=0 idg=0 psp=0
.ENDS

************************************************************************
* Library Name: eecs427artisan
* Cell Name:    NAND4BX1TR
* View Name:    schematic
************************************************************************

.SUBCKT NAND4BX1TR AN B C D Y
*.PININFO AN:I B:I C:I D:I Y:O
MM5 Y nmin1 hnet15 VSS! nfet m=1 l=120.0n w=780.0n nf=1 par=1 ngcon=1 
+ mSwitch=0 idg=0 psp=0
MM4 hnet15 B hnet13 VSS! nfet m=1 l=120.0n w=780.0n nf=1 par=1 ngcon=1 
+ mSwitch=0 idg=0 psp=0
MM2 hnet14 D VSS! VSS! nfet m=1 l=120.0n w=780.0n nf=1 par=1 ngcon=1 mSwitch=0 
+ idg=0 psp=0
MM3 hnet13 C hnet14 VSS! nfet m=1 l=120.0n w=780.0n nf=1 par=1 ngcon=1 
+ mSwitch=0 idg=0 psp=0
MM1 nmin1 AN VSS! VSS! nfet m=1 l=120.0n w=240.0n nf=1 par=1 ngcon=1 mSwitch=0 
+ idg=0 psp=0
MM0 nmin1 AN VDD! VDD! pfet m=1 l=120.0n w=340.0n nf=1 par=1 ngcon=1 mSwitch=0 
+ idg=0 psp=0
MM7 Y C VDD! VDD! pfet m=1 l=120.0n w=640.0n nf=1 par=1 ngcon=1 mSwitch=0 
+ idg=0 psp=0
MM8 Y B VDD! VDD! pfet m=1 l=120.0n w=640.0n nf=1 par=1 ngcon=1 mSwitch=0 
+ idg=0 psp=0
MM6 Y D VDD! VDD! pfet m=1 l=120.0n w=640.0n nf=1 par=1 ngcon=1 mSwitch=0 
+ idg=0 psp=0
MM9 Y nmin1 VDD! VDD! pfet m=1 l=120.0n w=640.0n nf=1 par=1 ngcon=1 mSwitch=0 
+ idg=0 psp=0
.ENDS

************************************************************************
* Library Name: eecs427artisan
* Cell Name:    AND2XLTR
* View Name:    schematic
************************************************************************

.SUBCKT AND2XLTR A B Y
*.PININFO A:I B:I Y:O
MM5 net11 A VDD! VDD! pfet m=1 l=120.0n w=280.0n nf=1 par=1 ngcon=1 mSwitch=0 
+ idg=0 psp=0
MM0 Y net11 VDD! VDD! pfet m=1 l=120.0n w=420.0n nf=1 par=1 ngcon=1 mSwitch=0 
+ idg=0 psp=0
MM4 net11 B VDD! VDD! pfet m=1 l=120.0n w=280.0n nf=1 par=1 ngcon=1 mSwitch=0 
+ idg=0 psp=0
MM1 Y net11 VSS! VSS! nfet m=1 l=120.0n w=240.0n nf=1 par=1 ngcon=1 mSwitch=0 
+ idg=0 psp=0
MM2 hnet14 B VSS! VSS! nfet m=1 l=120.0n w=200n nf=1 par=1 ngcon=1 mSwitch=0 
+ idg=0 psp=0
MM3 net11 A hnet14 VSS! nfet m=1 l=120.0n w=200n nf=1 par=1 ngcon=1 mSwitch=0 
+ idg=0 psp=0
.ENDS

************************************************************************
* Library Name: eecs427artisan
* Cell Name:    NAND2X2TR
* View Name:    schematic
************************************************************************

.SUBCKT NAND2X2TR A B Y
*.PININFO A:I B:I Y:O
MM5 Y A VDD! VDD! pfet m=1 l=120.0n w=1.26u nf=1 par=1 ngcon=1 mSwitch=0 idg=0 
+ psp=0
MM4 Y B VDD! VDD! pfet m=1 l=120.0n w=1.26u nf=1 par=1 ngcon=1 mSwitch=0 idg=0 
+ psp=0
MM1 Y A hnet12 VSS! nfet m=1 l=120.0n w=600n nf=1 par=1 ngcon=1 mSwitch=0 
+ idg=0 psp=0
MM2 hnet6 B VSS! VSS! nfet m=1 l=120.0n w=600n nf=1 par=1 ngcon=1 mSwitch=0 
+ idg=0 psp=0
MM3 Y A hnet6 VSS! nfet m=1 l=120.0n w=600n nf=1 par=1 ngcon=1 mSwitch=0 idg=0 
+ psp=0
MM0 hnet12 B VSS! VSS! nfet m=1 l=120.0n w=600n nf=1 par=1 ngcon=1 mSwitch=0 
+ idg=0 psp=0
.ENDS

************************************************************************
* Library Name: eecs427artisan
* Cell Name:    NAND4X1TR
* View Name:    schematic
************************************************************************

.SUBCKT NAND4X1TR A B C D Y
*.PININFO A:I B:I C:I D:I Y:O
MM4 Y D VDD! VDD! pfet m=1 l=120.0n w=640.0n nf=1 par=1 ngcon=1 mSwitch=0 
+ idg=0 psp=0
MM5 Y C VDD! VDD! pfet m=1 l=120.0n w=640.0n nf=1 par=1 ngcon=1 mSwitch=0 
+ idg=0 psp=0
MM6 Y B VDD! VDD! pfet m=1 l=120.0n w=640.0n nf=1 par=1 ngcon=1 mSwitch=0 
+ idg=0 psp=0
MM7 Y A VDD! VDD! pfet m=1 l=120.0n w=640.0n nf=1 par=1 ngcon=1 mSwitch=0 
+ idg=0 psp=0
MM3 Y A hnet10 VSS! nfet m=1 l=120.0n w=780.0n nf=1 par=1 ngcon=1 mSwitch=0 
+ idg=0 psp=0
MM2 hnet10 B hnet8 VSS! nfet m=1 l=120.0n w=780.0n nf=1 par=1 ngcon=1 
+ mSwitch=0 idg=0 psp=0
MM0 hnet9 D VSS! VSS! nfet m=1 l=120.0n w=780.0n nf=1 par=1 ngcon=1 mSwitch=0 
+ idg=0 psp=0
MM1 hnet8 C hnet9 VSS! nfet m=1 l=120.0n w=780.0n nf=1 par=1 ngcon=1 mSwitch=0 
+ idg=0 psp=0
.ENDS

************************************************************************
* Library Name: eecs427artisan
* Cell Name:    NOR4XLTR
* View Name:    schematic
************************************************************************

.SUBCKT NOR4XLTR A B C D Y
*.PININFO A:I B:I C:I D:I Y:O
MM1 Y C VSS! VSS! nfet m=1 l=120.0n w=240.0n nf=1 par=1 ngcon=1 mSwitch=0 
+ idg=0 psp=0
MM0 Y D VSS! VSS! nfet m=1 l=120.0n w=240.0n nf=1 par=1 ngcon=1 mSwitch=0 
+ idg=0 psp=0
MM2 Y B VSS! VSS! nfet m=1 l=120.0n w=240.0n nf=1 par=1 ngcon=1 mSwitch=0 
+ idg=0 psp=0
MM3 Y A VSS! VSS! nfet m=1 l=120.0n w=240.0n nf=1 par=1 ngcon=1 mSwitch=0 
+ idg=0 psp=0
MM7 Y A hnet9 VDD! pfet m=1 l=120.0n w=620.0n nf=1 par=1 ngcon=1 mSwitch=0 
+ idg=0 psp=0
MM4 hnet11 D VDD! VDD! pfet m=1 l=120.0n w=620.0n nf=1 par=1 ngcon=1 mSwitch=0 
+ idg=0 psp=0
MM6 hnet9 B hnet15 VDD! pfet m=1 l=120.0n w=620.0n nf=1 par=1 ngcon=1 
+ mSwitch=0 idg=0 psp=0
MM5 hnet15 C hnet11 VDD! pfet m=1 l=120.0n w=620.0n nf=1 par=1 ngcon=1 
+ mSwitch=0 idg=0 psp=0
.ENDS

************************************************************************
* Library Name: eecs427artisan
* Cell Name:    CLKINVX1TR
* View Name:    schematic
************************************************************************

.SUBCKT CLKINVX1TR A Y
*.PININFO A:I Y:O
MM1 Y A VSS! VSS! nfet m=1 l=120.0n w=240.0n nf=1 par=1 ngcon=1 mSwitch=0 
+ idg=0 psp=0
MM0 Y A VDD! VDD! pfet m=1 l=120.0n w=640.0n nf=1 par=1 ngcon=1 mSwitch=0 
+ idg=0 psp=0
.ENDS

************************************************************************
* Library Name: eecs427artisan
* Cell Name:    AO22X1TR
* View Name:    schematic
************************************************************************

.SUBCKT AO22X1TR A0 A1 B0 B1 Y
*.PININFO A0:I A1:I B0:I B1:I Y:O
MM6 VDD! B0 net32 VDD! pfet m=1 l=120.0n w=340.0n nf=1 par=1 ngcon=1 mSwitch=0 
+ idg=0 psp=0
MM0 Y nmin VDD! VDD! pfet m=1 l=120.0n w=640.0n nf=1 par=1 ngcon=1 mSwitch=0 
+ idg=0 psp=0
MM8 VDD! B1 net32 VDD! pfet m=1 l=120.0n w=340.0n nf=1 par=1 ngcon=1 mSwitch=0 
+ idg=0 psp=0
MM7 net32 A0 nmin VDD! pfet m=1 l=120.0n w=340.0n nf=1 par=1 ngcon=1 mSwitch=0 
+ idg=0 psp=0
MM9 net32 A1 nmin VDD! pfet m=1 l=120.0n w=340.0n nf=1 par=1 ngcon=1 mSwitch=0 
+ idg=0 psp=0
MM5 nmin B0 hnet21 VSS! nfet m=1 l=120.0n w=240.0n nf=1 par=1 ngcon=1 
+ mSwitch=0 idg=0 psp=0
MM4 hnet21 B1 VSS! VSS! nfet m=1 l=120.0n w=240.0n nf=1 par=1 ngcon=1 
+ mSwitch=0 idg=0 psp=0
MM1 Y nmin VSS! VSS! nfet m=1 l=120.0n w=460.0n nf=1 par=1 ngcon=1 mSwitch=0 
+ idg=0 psp=0
MM3 nmin A0 hnet17 VSS! nfet m=1 l=120.0n w=240.0n nf=1 par=1 ngcon=1 
+ mSwitch=0 idg=0 psp=0
MM2 hnet17 A1 VSS! VSS! nfet m=1 l=120.0n w=240.0n nf=1 par=1 ngcon=1 
+ mSwitch=0 idg=0 psp=0
.ENDS

************************************************************************
* Library Name: eecs427artisan
* Cell Name:    OAI21XLTR
* View Name:    schematic
************************************************************************

.SUBCKT OAI21XLTR A0 A1 B0 Y
*.PININFO A0:I A1:I B0:I Y:O
MM0 hnet13 A1 VDD! VDD! pfet m=1 l=120.0n w=440.0n nf=1 par=1 ngcon=1 
+ mSwitch=0 idg=0 psp=0
MM5 VDD! B0 Y VDD! pfet m=1 l=120.0n w=420.0n nf=1 par=1 ngcon=1 mSwitch=0 
+ idg=0 psp=0
MM1 Y A0 hnet13 VDD! pfet m=1 l=120.0n w=440.0n nf=1 par=1 ngcon=1 mSwitch=0 
+ idg=0 psp=0
MM3 net25 A1 VSS! VSS! nfet m=1 l=120.0n w=400n nf=1 par=1 ngcon=1 mSwitch=0 
+ idg=0 psp=0
MM4 net25 A0 VSS! VSS! nfet m=1 l=120.0n w=400n nf=1 par=1 ngcon=1 mSwitch=0 
+ idg=0 psp=0
MM2 Y B0 net25 VSS! nfet m=1 l=120.0n w=400n nf=1 par=1 ngcon=1 mSwitch=0 
+ idg=0 psp=0
.ENDS

************************************************************************
* Library Name: eecs427artisan
* Cell Name:    CLKINVX4TR
* View Name:    schematic
************************************************************************

.SUBCKT CLKINVX4TR A Y
*.PININFO A:I Y:O
MM1 Y A VSS! VSS! nfet m=1 l=120.0n w=940.0n nf=1 par=1 ngcon=1 mSwitch=0 
+ idg=0 psp=0
MM0 Y A VDD! VDD! pfet m=1 l=120.0n w=2.54u nf=1 par=1 ngcon=1 mSwitch=0 idg=0 
+ psp=0
.ENDS

************************************************************************
* Library Name: eecs427artisan
* Cell Name:    OAI2BB1X1TR
* View Name:    schematic
************************************************************************

.SUBCKT OAI2BB1X1TR A0N A1N B0 Y
*.PININFO A0N:I A1N:I B0:I Y:O
MM0 hnet13 A0N VSS! VSS! nfet m=1 l=120.0n w=280.0n nf=1 par=1 ngcon=1 
+ mSwitch=0 idg=0 psp=0
MM1 net11 A1N hnet13 VSS! nfet m=1 l=120.0n w=280.0n nf=1 par=1 ngcon=1 
+ mSwitch=0 idg=0 psp=0
MM4 hnet19 B0 VSS! VSS! nfet m=1 l=120.0n w=600n nf=1 par=1 ngcon=1 mSwitch=0 
+ idg=0 psp=0
MM5 Y net11 hnet19 VSS! nfet m=1 l=120.0n w=600n nf=1 par=1 ngcon=1 mSwitch=0 
+ idg=0 psp=0
MM2 net11 A0N VDD! VDD! pfet m=1 l=120.0n w=300n nf=1 par=1 ngcon=1 mSwitch=0 
+ idg=0 psp=0
MM7 Y net11 VDD! VDD! pfet m=1 l=120.0n w=640.0n nf=1 par=1 ngcon=1 mSwitch=0 
+ idg=0 psp=0
MM3 net11 A1N VDD! VDD! pfet m=1 l=120.0n w=300n nf=1 par=1 ngcon=1 mSwitch=0 
+ idg=0 psp=0
MM6 Y B0 VDD! VDD! pfet m=1 l=120.0n w=640.0n nf=1 par=1 ngcon=1 mSwitch=0 
+ idg=0 psp=0
.ENDS

************************************************************************
* Library Name: eecs427artisan
* Cell Name:    OR3X1TR
* View Name:    schematic
************************************************************************

.SUBCKT OR3X1TR A B C Y
*.PININFO A:I B:I C:I Y:O
MM0 Y nmin VDD! VDD! pfet m=1 l=120.0n w=640.0n nf=1 par=1 ngcon=1 mSwitch=0 
+ idg=0 psp=0
MM5 hnet17 C VDD! VDD! pfet m=1 l=120.0n w=440.0n nf=1 par=1 ngcon=1 mSwitch=0 
+ idg=0 psp=0
MM6 hnet16 B hnet17 VDD! pfet m=1 l=120.0n w=440.0n nf=1 par=1 ngcon=1 
+ mSwitch=0 idg=0 psp=0
MM7 nmin A hnet16 VDD! pfet m=1 l=120.0n w=440.0n nf=1 par=1 ngcon=1 mSwitch=0 
+ idg=0 psp=0
MM3 nmin B VSS! VSS! nfet m=1 l=120.0n w=200n nf=1 par=1 ngcon=1 mSwitch=0 
+ idg=0 psp=0
MM4 nmin A VSS! VSS! nfet m=1 l=120.0n w=200n nf=1 par=1 ngcon=1 mSwitch=0 
+ idg=0 psp=0
MM2 nmin C VSS! VSS! nfet m=1 l=120.0n w=200n nf=1 par=1 ngcon=1 mSwitch=0 
+ idg=0 psp=0
MM1 Y nmin VSS! VSS! nfet m=1 l=120.0n w=460.0n nf=1 par=1 ngcon=1 mSwitch=0 
+ idg=0 psp=0
.ENDS

************************************************************************
* Library Name: CAD8_2222222
* Cell Name:    controller
* View Name:    schematic
************************************************************************

.SUBCKT controller AluSEL<1> AluSEL<0> Amount<1> Amount<0> Br C CEN 
+ Col_Sel<15> Col_Sel<14> Col_Sel<13> Col_Sel<12> Col_Sel<11> Col_Sel<10> 
+ Col_Sel<9> Col_Sel<8> Col_Sel<7> Col_Sel<6> Col_Sel<5> Col_Sel<4> Col_Sel<3> 
+ Col_Sel<2> Col_Sel<1> Col_Sel<0> DIn<15> DIn<14> DIn<13> DIn<12> DIn<11> 
+ DIn<10> DIn<9> DIn<8> DIn<7> DIn<6> DIn<5> DIn<4> DIn<3> DIn<2> DIn<1> 
+ DIn<0> DOut<15> DOut<14> DOut<13> DOut<12> DOut<11> DOut<10> DOut<9> DOut<8> 
+ DOut<7> DOut<6> DOut<5> DOut<4> DOut<3> DOut<2> DOut<1> DOut<0> DSEL<1> 
+ DSEL<0> Dsram<15> Dsram<14> Dsram<13> Dsram<12> Dsram<11> Dsram<10> Dsram<9> 
+ Dsram<8> Dsram<7> Dsram<6> Dsram<5> Dsram<4> Dsram<3> Dsram<2> Dsram<1> 
+ Dsram<0> Dxac<31> Dxac<30> Dxac<29> Dxac<28> Dxac<27> Dxac<26> Dxac<25> 
+ Dxac<24> Dxac<23> Dxac<22> Dxac<21> Dxac<20> Dxac<19> Dxac<18> Dxac<17> 
+ Dxac<16> Dxac<15> Dxac<14> Dxac<13> Dxac<12> Dxac<11> Dxac<10> Dxac<9> 
+ Dxac<8> Dxac<7> Dxac<6> Dxac<5> Dxac<4> Dxac<3> Dxac<2> Dxac<1> Dxac<0> F 
+ FunISEL<1> FunISEL<0> Jmp LuiSEL MovSEL N RENB_SRAM REN_SRAM RWLB_N<15> 
+ RWLB_N<14> RWLB_N<13> RWLB_N<12> RWLB_N<11> RWLB_N<10> RWLB_N<9> RWLB_N<8> 
+ RWLB_N<7> RWLB_N<6> RWLB_N<5> RWLB_N<4> RWLB_N<3> RWLB_N<2> RWLB_N<1> 
+ RWLB_N<0> RWLB_P<15> RWLB_P<14> RWLB_P<13> RWLB_P<12> RWLB_P<11> RWLB_P<10> 
+ RWLB_P<9> RWLB_P<8> RWLB_P<7> RWLB_P<6> RWLB_P<5> RWLB_P<4> RWLB_P<3> 
+ RWLB_P<2> RWLB_P<1> RWLB_P<0> RWL_N<15> RWL_N<14> RWL_N<13> RWL_N<12> 
+ RWL_N<11> RWL_N<10> RWL_N<9> RWL_N<8> RWL_N<7> RWL_N<6> RWL_N<5> RWL_N<4> 
+ RWL_N<3> RWL_N<2> RWL_N<1> RWL_N<0> RWL_P<15> RWL_P<14> RWL_P<13> RWL_P<12> 
+ RWL_P<11> RWL_P<10> RWL_P<9> RWL_P<8> RWL_P<7> RWL_P<6> RWL_P<5> RWL_P<4> 
+ RWL_P<3> RWL_P<2> RWL_P<1> RWL_P<0> ReadA<15> ReadA<14> ReadA<13> ReadA<12> 
+ ReadA<11> ReadA<10> ReadA<9> ReadA<8> ReadA<7> ReadA<6> ReadA<5> ReadA<4> 
+ ReadA<3> ReadA<2> ReadA<1> ReadA<0> ReadB<15> ReadB<14> ReadB<13> ReadB<12> 
+ ReadB<11> ReadB<10> ReadB<9> ReadB<8> ReadB<7> ReadB<6> ReadB<5> ReadB<4> 
+ ReadB<3> ReadB<2> ReadB<1> ReadB<0> SEL1 Stall WE<15> WE<14> WE<13> WE<12> 
+ WE<11> WE<10> WE<9> WE<8> WE<7> WE<6> WE<5> WE<4> WE<3> WE<2> WE<1> WE<0> 
+ WEMaster WEN WR_Data<15> WR_Data<14> WR_Data<13> WR_Data<12> WR_Data<11> 
+ WR_Data<10> WR_Data<9> WR_Data<8> WR_Data<7> WR_Data<6> WR_Data<5> 
+ WR_Data<4> WR_Data<3> WR_Data<2> WR_Data<1> WR_Data<0> WR_EN_SRAM Z clk 
+ imm8_disp<7> imm8_disp<6> imm8_disp<5> imm8_disp<4> imm8_disp<3> 
+ imm8_disp<2> imm8_disp<1> imm8_disp<0> instruIn<15> instruIn<14> 
+ instruIn<13> instruIn<12> instruIn<11> instruIn<10> instruIn<9> instruIn<8> 
+ instruIn<7> instruIn<6> instruIn<5> instruIn<4> instruIn<3> instruIn<2> 
+ instruIn<1> instruIn<0> pc<9> pc<8> pc<7> pc<6> pc<5> pc<4> pc<3> pc<2> 
+ pc<1> pc<0> rDestIn<15> rDestIn<14> rDestIn<13> rDestIn<12> rDestIn<11> 
+ rDestIn<10> rDestIn<9> rDestIn<8> rDestIn<7> rDestIn<6> rDestIn<5> 
+ rDestIn<4> rDestIn<3> rDestIn<2> rDestIn<1> rDestIn<0> rSrcIn<15> rSrcIn<14> 
+ rSrcIn<13> rSrcIn<12> rSrcIn<11> rSrcIn<10> rSrcIn<9> rSrcIn<8> rSrcIn<7> 
+ rSrcIn<6> rSrcIn<5> rSrcIn<4> rSrcIn<3> rSrcIn<2> rSrcIn<1> rSrcIn<0>
*.PININFO C:I DIn<15>:I DIn<14>:I DIn<13>:I DIn<12>:I DIn<11>:I DIn<10>:I 
*.PININFO DIn<9>:I DIn<8>:I DIn<7>:I DIn<6>:I DIn<5>:I DIn<4>:I DIn<3>:I 
*.PININFO DIn<2>:I DIn<1>:I DIn<0>:I Dsram<15>:I Dsram<14>:I Dsram<13>:I 
*.PININFO Dsram<12>:I Dsram<11>:I Dsram<10>:I Dsram<9>:I Dsram<8>:I Dsram<7>:I 
*.PININFO Dsram<6>:I Dsram<5>:I Dsram<4>:I Dsram<3>:I Dsram<2>:I Dsram<1>:I 
*.PININFO Dsram<0>:I Dxac<31>:I Dxac<30>:I Dxac<29>:I Dxac<28>:I Dxac<27>:I 
*.PININFO Dxac<26>:I Dxac<25>:I Dxac<24>:I Dxac<23>:I Dxac<22>:I Dxac<21>:I 
*.PININFO Dxac<20>:I Dxac<19>:I Dxac<18>:I Dxac<17>:I Dxac<16>:I Dxac<15>:I 
*.PININFO Dxac<14>:I Dxac<13>:I Dxac<12>:I Dxac<11>:I Dxac<10>:I Dxac<9>:I 
*.PININFO Dxac<8>:I Dxac<7>:I Dxac<6>:I Dxac<5>:I Dxac<4>:I Dxac<3>:I 
*.PININFO Dxac<2>:I Dxac<1>:I Dxac<0>:I F:I N:I Z:I clk:I instruIn<15>:I 
*.PININFO instruIn<14>:I instruIn<13>:I instruIn<12>:I instruIn<11>:I 
*.PININFO instruIn<10>:I instruIn<9>:I instruIn<8>:I instruIn<7>:I 
*.PININFO instruIn<6>:I instruIn<5>:I instruIn<4>:I instruIn<3>:I 
*.PININFO instruIn<2>:I instruIn<1>:I instruIn<0>:I pc<9>:I pc<8>:I pc<7>:I 
*.PININFO pc<6>:I pc<5>:I pc<4>:I pc<3>:I pc<2>:I pc<1>:I pc<0>:I 
*.PININFO rDestIn<15>:I rDestIn<14>:I rDestIn<13>:I rDestIn<12>:I 
*.PININFO rDestIn<11>:I rDestIn<10>:I rDestIn<9>:I rDestIn<8>:I rDestIn<7>:I 
*.PININFO rDestIn<6>:I rDestIn<5>:I rDestIn<4>:I rDestIn<3>:I rDestIn<2>:I 
*.PININFO rDestIn<1>:I rDestIn<0>:I rSrcIn<15>:I rSrcIn<14>:I rSrcIn<13>:I 
*.PININFO rSrcIn<12>:I rSrcIn<11>:I rSrcIn<10>:I rSrcIn<9>:I rSrcIn<8>:I 
*.PININFO rSrcIn<7>:I rSrcIn<6>:I rSrcIn<5>:I rSrcIn<4>:I rSrcIn<3>:I 
*.PININFO rSrcIn<2>:I rSrcIn<1>:I rSrcIn<0>:I AluSEL<1>:O AluSEL<0>:O 
*.PININFO Amount<1>:O Amount<0>:O Br:O CEN:O Col_Sel<15>:O Col_Sel<14>:O 
*.PININFO Col_Sel<13>:O Col_Sel<12>:O Col_Sel<11>:O Col_Sel<10>:O Col_Sel<9>:O 
*.PININFO Col_Sel<8>:O Col_Sel<7>:O Col_Sel<6>:O Col_Sel<5>:O Col_Sel<4>:O 
*.PININFO Col_Sel<3>:O Col_Sel<2>:O Col_Sel<1>:O Col_Sel<0>:O DOut<15>:O 
*.PININFO DOut<14>:O DOut<13>:O DOut<12>:O DOut<11>:O DOut<10>:O DOut<9>:O 
*.PININFO DOut<8>:O DOut<7>:O DOut<6>:O DOut<5>:O DOut<4>:O DOut<3>:O 
*.PININFO DOut<2>:O DOut<1>:O DOut<0>:O DSEL<1>:O DSEL<0>:O FunISEL<1>:O 
*.PININFO FunISEL<0>:O Jmp:O LuiSEL:O MovSEL:O RENB_SRAM:O REN_SRAM:O 
*.PININFO RWLB_N<15>:O RWLB_N<14>:O RWLB_N<13>:O RWLB_N<12>:O RWLB_N<11>:O 
*.PININFO RWLB_N<10>:O RWLB_N<9>:O RWLB_N<8>:O RWLB_N<7>:O RWLB_N<6>:O 
*.PININFO RWLB_N<5>:O RWLB_N<4>:O RWLB_N<3>:O RWLB_N<2>:O RWLB_N<1>:O 
*.PININFO RWLB_N<0>:O RWLB_P<15>:O RWLB_P<14>:O RWLB_P<13>:O RWLB_P<12>:O 
*.PININFO RWLB_P<11>:O RWLB_P<10>:O RWLB_P<9>:O RWLB_P<8>:O RWLB_P<7>:O 
*.PININFO RWLB_P<6>:O RWLB_P<5>:O RWLB_P<4>:O RWLB_P<3>:O RWLB_P<2>:O 
*.PININFO RWLB_P<1>:O RWLB_P<0>:O RWL_N<15>:O RWL_N<14>:O RWL_N<13>:O 
*.PININFO RWL_N<12>:O RWL_N<11>:O RWL_N<10>:O RWL_N<9>:O RWL_N<8>:O RWL_N<7>:O 
*.PININFO RWL_N<6>:O RWL_N<5>:O RWL_N<4>:O RWL_N<3>:O RWL_N<2>:O RWL_N<1>:O 
*.PININFO RWL_N<0>:O RWL_P<15>:O RWL_P<14>:O RWL_P<13>:O RWL_P<12>:O 
*.PININFO RWL_P<11>:O RWL_P<10>:O RWL_P<9>:O RWL_P<8>:O RWL_P<7>:O RWL_P<6>:O 
*.PININFO RWL_P<5>:O RWL_P<4>:O RWL_P<3>:O RWL_P<2>:O RWL_P<1>:O RWL_P<0>:O 
*.PININFO ReadA<15>:O ReadA<14>:O ReadA<13>:O ReadA<12>:O ReadA<11>:O 
*.PININFO ReadA<10>:O ReadA<9>:O ReadA<8>:O ReadA<7>:O ReadA<6>:O ReadA<5>:O 
*.PININFO ReadA<4>:O ReadA<3>:O ReadA<2>:O ReadA<1>:O ReadA<0>:O ReadB<15>:O 
*.PININFO ReadB<14>:O ReadB<13>:O ReadB<12>:O ReadB<11>:O ReadB<10>:O 
*.PININFO ReadB<9>:O ReadB<8>:O ReadB<7>:O ReadB<6>:O ReadB<5>:O ReadB<4>:O 
*.PININFO ReadB<3>:O ReadB<2>:O ReadB<1>:O ReadB<0>:O SEL1:O Stall:O WE<15>:O 
*.PININFO WE<14>:O WE<13>:O WE<12>:O WE<11>:O WE<10>:O WE<9>:O WE<8>:O WE<7>:O 
*.PININFO WE<6>:O WE<5>:O WE<4>:O WE<3>:O WE<2>:O WE<1>:O WE<0>:O WEMaster:O 
*.PININFO WEN:O WR_Data<15>:O WR_Data<14>:O WR_Data<13>:O WR_Data<12>:O 
*.PININFO WR_Data<11>:O WR_Data<10>:O WR_Data<9>:O WR_Data<8>:O WR_Data<7>:O 
*.PININFO WR_Data<6>:O WR_Data<5>:O WR_Data<4>:O WR_Data<3>:O WR_Data<2>:O 
*.PININFO WR_Data<1>:O WR_Data<0>:O WR_EN_SRAM:O imm8_disp<7>:O imm8_disp<6>:O 
*.PININFO imm8_disp<5>:O imm8_disp<4>:O imm8_disp<3>:O imm8_disp<2>:O 
*.PININFO imm8_disp<1>:O imm8_disp<0>:O
XU699 DIn<3> n132 pc<3> FE_DBTN1_n126 n142 / AOI22X1TR
XU695 DIn<2> n132 pc<2> FE_DBTN1_n126 n151 / AOI22X1TR
XU691 DIn<1> n132 pc<1> FE_DBTN1_n126 n165 / AOI22X1TR
XU687 DIn<0> n132 pc<0> FE_DBTN1_n126 n187 / AOI22X1TR
XU718 N238 n9 N239 n406 n8 / AOI22X1TR
XU765 rDest_1_0 n2 ZOUT n9 n4 / AOI22X1TR
XU840 opCode_3_0 n102 n255 FE_DBTN3_opCode_3_0 n101 / AOI22X1TR
XU714 DIn<9> n132 pc<9> FE_DBTN1_n126 n131 / AOI22X1TR
XU711 DIn<8> n132 pc<8> FE_DBTN1_n126 n133 / AOI22X1TR
XU708 DIn<7> n132 pc<7> FE_DBTN1_n126 n134 / AOI22X1TR
XU705 DIn<6> n132 pc<6> FE_DBTN1_n126 n135 / AOI22X1TR
XU702 DIn<5> n132 pc<5> FE_DBTN1_n126 n136 / AOI22X1TR
XU816 n3 n402 / CLKINVX2TR
XFE_DBTC6_n249 n249 WR_EN_SRAM / CLKINVX2TR
XU871 Dxac<3> n376 / CLKINVX2TR
XU762 Dxac<2> n377 / CLKINVX2TR
XU872 Dxac<21> n3630 / CLKINVX2TR
XU870 Dxac<17> n3660 / CLKINVX2TR
XU683 Dxac<19> n3650 / CLKINVX2TR
XFE_DBTC0_n299 n299 FE_DBTN0_n299 / CLKINVX2TR
XU867 imm8_disp<3> n411 / CLKINVX2TR
XU866 imm8_disp<1> n413 / CLKINVX2TR
XU865 rSrcIn<15> n378 / CLKINVX2TR
XU864 rSrcIn<14> n379 / CLKINVX2TR
XU863 rSrcIn<13> n380 / CLKINVX2TR
XU862 rSrcIn<12> n381 / CLKINVX2TR
XU861 rSrcIn<11> n382 / CLKINVX2TR
XU860 rSrcIn<10> n383 / CLKINVX2TR
XU859 rSrcIn<9> n384 / CLKINVX2TR
XU858 rSrcIn<8> n385 / CLKINVX2TR
XU843 rSrcIn<2> n391 / CLKINVX2TR
XU857 rSrcIn<7> n386 / CLKINVX2TR
XU845 rSrcIn<3> n390 / CLKINVX2TR
XU856 rSrcIn<6> n387 / CLKINVX2TR
XU844 rSrcIn<0> n393 / CLKINVX2TR
XU855 rSrcIn<5> n388 / CLKINVX2TR
XU854 rSrcIn<4> n389 / CLKINVX2TR
XU846 rSrcIn<1> n392 / CLKINVX2TR
XU853 imm8_disp<0> n414 / CLKINVX2TR
XU852 imm8_disp<2> n412 / CLKINVX2TR
XU851 Dxac<27> n3570 / CLKINVX2TR
XU850 Dxac<23> n3610 / CLKINVX2TR
XU849 Dxac<26> n3580 / CLKINVX2TR
XU841 Dxac<20> n3640 / CLKINVX2TR
XU836 Dxac<6> n375 / CLKINVX2TR
XU815 Dxac<22> n3620 / CLKINVX2TR
XU814 Dxac<10> n3700 / CLKINVX2TR
XU721 n144 n3560 / CLKINVX2TR
XU697 Dsram<3> n353 / CLKINVX2TR
XU732 n174 n372 / CLKINVX2TR
XU730 Dxac<13> n3680 / CLKINVX2TR
XU771 n147 n354 / CLKINVX2TR
XU773 Dxac<29> n3550 / CLKINVX2TR
XU596 n152 n3600 / CLKINVX2TR
XU727 Dxac<9> n371 / CLKINVX2TR
XU778 Dxac<25> n3590 / CLKINVX2TR
XU390 n297 n260 / CLKINVX2TR
XU746 Dxac<8> n374 / CLKINVX2TR
XU615 n176 n373 / CLKINVX2TR
XU614 n148 n3690 / CLKINVX2TR
XU763 Dxac<16> n3670 / CLKINVX2TR
XU674 n202 n396 / CLKINVX2TR
XU553 n203 n397 / CLKINVX2TR
XU780 n7 n401 / CLKINVX2TR
XU672 n97 n394 / CLKINVX2TR
XU384 n250 n255 / CLKINVX2TR
XU58 clk__Exclude_0_NET WEMaster / CLKINVX2TR
XFE_DBTC3_opCode_3_0 opCode_3_0 FE_DBTN3_opCode_3_0 / CLKINVX2TR
XFE_DBTC1_n126 n126 FE_DBTN1_n126 / CLKINVX2TR
XU768 rDest_1_0 n405 / CLKINVX2TR
XU744 rDest_2_0 n404 / CLKINVX2TR
XU724 rDest_0_0 n406 / CLKINVX2TR
XFE_DBTC4_rDest_3_0 rDest_3_0 FE_DBTN4_rDest_3_0 / CLKINVX2TR
XU713 Dsram<9> n348 / CLKINVX2TR
XU710 Dsram<8> n349 / CLKINVX2TR
XU707 Dsram<7> n350 / CLKINVX2TR
XU704 Dsram<6> n351 / CLKINVX2TR
XU701 Dsram<5> n352 / CLKINVX2TR
XU837 Dxac<23> n3640 n161 n162 n153 / OAI211X1TR
XU696 FE_DBTN2_n103 n353 n141 n142 DOut<3> / OAI211X1TR
XU729 n171 n3680 n172 n173 n166 / OAI211X1TR
XU676 Dxac<16> n155 n156 n157 n147 / OAI211X1TR
XU680 n192 n3600 n193 n156 n168 / OAI211X1TR
XU692 n149 n299 n150 n151 DOut<2> / OAI211X1TR
XU688 n163 n299 n164 n165 DOut<1> / OAI211X1TR
XU725 Dxac<13> n171 n172 n196 n190 / OAI211X1TR
XU684 n1850 n299 n186 n187 DOut<0> / OAI211X1TR
XU712 FE_DBTN2_n103 n348 n260 n131 DOut<9> / OAI211X1TR
XU709 FE_DBTN2_n103 n349 n260 n133 DOut<8> / OAI211X1TR
XU706 FE_DBTN2_n103 n350 n130 n134 DOut<7> / OAI211X1TR
XU703 FE_DBTN2_n103 n351 n130 n135 DOut<6> / OAI211X1TR
XU700 FE_DBTN2_n103 n352 n130 n136 DOut<5> / OAI211X1TR
XU655 n434 n431 N370 / NOR2X1TR
XU653 n433 n431 N369 / NOR2X1TR
XU644 n438 n431 N368 / NOR2X1TR
XU649 n436 n431 N367 / NOR2X1TR
XU648 n437 n434 N366 / NOR2X1TR
XU647 n437 n433 N365 / NOR2X1TR
XU643 n438 n437 N364 / NOR2X1TR
XU646 n437 n436 N363 / NOR2X1TR
XU652 n435 n434 N362 / NOR2X1TR
XU654 n434 n432 N358 / NOR2X1TR
XU650 n433 n432 N357 / NOR2X1TR
XU651 n435 n433 N361 / NOR2X1TR
XU642 n438 n435 N360 / NOR2X1TR
XU645 n436 n435 N359 / NOR2X1TR
XU550 n436 n432 N355 / NOR2X1TR
XU641 n438 n432 N356 / NOR2X1TR
XU432 n295 n296 n139 / NOR2X1TR
XU678 n377 Dxac<3> n199 / NOR2X1TR
XU839 n101 n407 SEL1 / NOR2X1TR
XU767 Dxac<4> Dxac<8> n175 / NOR2X1TR
XU473 n374 Dxac<12> n148 / NOR2X1TR
XU741 n3670 Dxac<24> n152 / NOR2X1TR
XU670 n426 n423 ReadA<15> / NOR2X1TR
XU669 n425 n423 ReadA<14> / NOR2X1TR
XU668 n427 n426 ReadA<7> / NOR2X1TR
XU667 n427 n425 ReadA<6> / NOR2X1TR
XU666 n426 n424 ReadA<3> / NOR2X1TR
XU662 n429 n426 ReadA<11> / NOR2X1TR
XU665 n425 n424 ReadA<2> / NOR2X1TR
XU661 n429 n425 ReadA<10> / NOR2X1TR
XU664 n428 n423 ReadA<12> / NOR2X1TR
XU659 n430 n423 ReadA<13> / NOR2X1TR
XU663 n428 n427 ReadA<4> / NOR2X1TR
XU660 n429 n428 ReadA<8> / NOR2X1TR
XU551 n428 n424 ReadA<0> / NOR2X1TR
XU658 n430 n429 ReadA<9> / NOR2X1TR
XU656 n430 n424 ReadA<1> / NOR2X1TR
XU657 n430 n427 ReadA<5> / NOR2X1TR
XU671 DSEL<0> n128 DSEL<1> / NOR2X1TR
XU834 rDest_3_0 NOUT n1 / NOR2X1TR
XU374 n251 n248 n129 / NOR2X1TR
XU842 n255 opCode_3_0 n202 / NOR2X1TR
XU371 imm8_disp<5> imm8_disp<4> n188 / NOR2X1TR
XU742 n406 rDest_1_0 n9 / NOR2X1TR
XU640 n418 n415 ReadB<15> / NOR2X1TR
XU639 n418 n416 ReadB<3> / NOR2X1TR
XU638 n419 n418 ReadB<7> / NOR2X1TR
XU636 n421 n418 ReadB<11> / NOR2X1TR
XU637 n419 n417 ReadB<6> / NOR2X1TR
XU635 n421 n417 ReadB<10> / NOR2X1TR
XU634 n421 n420 ReadB<8> / NOR2X1TR
XU632 n422 n421 ReadB<9> / NOR2X1TR
XU633 n422 n415 ReadB<13> / NOR2X1TR
XU631 n422 n419 ReadB<5> / NOR2X1TR
XU630 n422 n416 ReadB<1> / NOR2X1TR
XU626 n420 n419 ReadB<4> / NOR2X1TR
XU629 n417 n415 ReadB<14> / NOR2X1TR
XU628 n417 n416 ReadB<2> / NOR2X1TR
XU627 n420 n415 ReadB<12> / NOR2X1TR
XU549 n420 n416 ReadB<0> / NOR2X1TR
XU592 FE_DBTN0_n299 n378 n113 / NAND2X1TR
XU501 rSrcIn<2> rSrcIn<3> n431 / NAND2X1TR
XU500 rSrcIn<1> rSrcIn<0> n434 / NAND2X1TR
XU591 FE_DBTN0_n299 n379 n114 / NAND2X1TR
XU590 FE_DBTN0_n299 n380 n115 / NAND2X1TR
XU589 FE_DBTN0_n299 n381 n116 / NAND2X1TR
XU588 FE_DBTN0_n299 n382 n117 / NAND2X1TR
XU587 FE_DBTN0_n299 n383 n118 / NAND2X1TR
XU586 FE_DBTN0_n299 n384 n104 / NAND2X1TR
XU585 FE_DBTN0_n299 n385 n105 / NAND2X1TR
XU493 rSrcIn<3> n391 n437 / NAND2X1TR
XU584 FE_DBTN0_n299 n386 n106 / NAND2X1TR
XU580 FE_DBTN0_n299 n390 n110 / NAND2X1TR
XU621 n391 n390 n432 / NAND2X1TR
XU578 FE_DBTN0_n299 n391 n111 / NAND2X1TR
XU496 rSrcIn<2> n390 n435 / NAND2X1TR
XU583 FE_DBTN0_n299 n387 n107 / NAND2X1TR
XU497 rSrcIn<1> n393 n433 / NAND2X1TR
XU582 FE_DBTN0_n299 n388 n108 / NAND2X1TR
XU581 FE_DBTN0_n299 n389 n109 / NAND2X1TR
XU618 n393 n392 n436 / NAND2X1TR
XU577 FE_DBTN0_n299 n393 n119 / NAND2X1TR
XU492 rSrcIn<0> n392 n438 / NAND2X1TR
XU579 FE_DBTN0_n299 n392 n112 / NAND2X1TR
XU764 Dxac<20> n3620 n162 / NAND2X1TR
XU391 n183 FE_DBTN0_n299 n130 / NAND2X1TR
XU736 Dsram<4> FE_OFN7_n103 n138 / NAND2X1TR
XU433 n252 n139 DOut<4> / NAND2X1TR
XU694 Dsram<2> FE_OFN7_n103 n150 / NAND2X1TR
XU690 Dsram<1> FE_OFN7_n103 n164 / NAND2X1TR
XU686 Dsram<0> FE_OFN7_n103 n186 / NAND2X1TR
XU495 imm8_disp<1> n414 n425 / NAND2X1TR
XU620 n414 n413 n428 / NAND2X1TR
XU489 imm8_disp<0> n413 n430 / NAND2X1TR
XU490 imm8_disp<3> n412 n429 / NAND2X1TR
XU623 n412 n411 n424 / NAND2X1TR
XU494 imm8_disp<2> n411 n427 / NAND2X1TR
XU743 Dxac<4> n374 n176 / NAND2X1TR
XU488 imm8_disp<2> imm8_disp<3> n423 / NAND2X1TR
XU486 imm8_disp<1> imm8_disp<0> n426 / NAND2X1TR
XU411 FE_DBTN0_n299 n31 n940 / NAND2X1TR
XU848 ZOUT NOUT N239 / NAND2X1TR
XU575 n97 n408 n121 / NAND2X1TR
XU430 n129 FE_DBTN3_opCode_3_0 FunISEL<0> / NAND2X1TR
XU576 n99 n407 WEN / NAND2X1TR
XU557 n408 n407 n100 / NAND2X1TR
XU414 n299 n960 n930 / NAND2X1TR
XU622 n404 FE_DBTN4_rDest_3_0 n416 / NAND2X1TR
XU487 rDest_2_0 FE_DBTN4_rDest_3_0 n419 / NAND2X1TR
XU499 rDest_2_0 rDest_3_0 n415 / NAND2X1TR
XU485 rDest_3_0 n404 n421 / NAND2X1TR
XU498 rDest_1_0 rDest_0_0 n418 / NAND2X1TR
XU491 rDest_0_0 n405 n422 / NAND2X1TR
XU619 n406 n405 n420 / NAND2X1TR
XU484 rDest_1_0 n406 n417 / NAND2X1TR
XU722 n376 Dxac<4> n377 n160 n159 / OAI31X1TR
XU698 n143 n144 n145 FE_DBTN0_n299 n141 / OAI31X1TR
XU728 n176 Dxac<6> Dxac<5> n198 n197 / OAI31X1TR
XU673 n396 opCode_0_0 n204 n203 AluSEL<0> / OAI31X1TR
XU717 n8 FE_DBTN4_rDest_3_0 n404 n401 N240 / OAI31X1TR
XU817 rDest_1_0 ZOUT rDest_0_0 FE_DBTN4_rDest_3_0 n3 / OAI31X1TR
XinstruReg_reg_11_0 clk__N0 instruIn<11> rDest_3_0 / DFFQX1TR
XinstruReg_reg_1_0 clk__L1_N0 instruIn<1> imm8_disp<1> / DFFQX1TR
XinstruReg_reg_2_0 clk__L1_N0 instruIn<2> imm8_disp<2> / DFFQX1TR
XinstruReg_reg_0_0 clk__L1_N0 instruIn<0> imm8_disp<0> / DFFQX1TR
XinstruReg_reg_3_0 clk__L1_N0 instruIn<3> imm8_disp<3> / DFFQX1TR
XWE_reg_15_0 clk__L1_N0 N96 WE<15> / DFFQX1TR
XWE_reg_14_0 clk__L1_N0 N95 WE<14> / DFFQX1TR
XWE_reg_13_0 clk__L1_N0 N94 WE<13> / DFFQX1TR
XWE_reg_12_0 clk__L1_N0 N93 WE<12> / DFFQX1TR
XWE_reg_11_0 clk__L1_N0 N92 WE<11> / DFFQX1TR
XWE_reg_10_0 clk__L1_N0 N91 WE<10> / DFFQX1TR
XWE_reg_9_0 clk__L1_N0 N90 WE<9> / DFFQX1TR
XWE_reg_8_0 clk__L1_N0 N89 WE<8> / DFFQX1TR
XWE_reg_7_0 clk__L1_N0 N88 WE<7> / DFFQX1TR
XWE_reg_6_0 clk__L1_N0 N87 WE<6> / DFFQX1TR
XWE_reg_5_0 clk__L1_N0 N86 WE<5> / DFFQX1TR
XWE_reg_4_0 clk__L1_N0 N85 WE<4> / DFFQX1TR
XWE_reg_3_0 clk__L1_N0 N84 WE<3> / DFFQX1TR
XWE_reg_2_0 clk__L1_N0 N83 WE<2> / DFFQX1TR
XWE_reg_1_0 clk__L1_N0 N82 WE<1> / DFFQX1TR
XWE_reg_0_0 clk__L1_N0 N81 WE<0> / DFFQX1TR
XCOUT_reg clk__L1_N0 C COUT / DFFQX1TR
XinstruReg_reg_13_0 clk__N0 instruIn<13> opCode_1_0 / DFFQX1TR
XinstruReg_reg_12_0 clk__N0 instruIn<12> opCode_0_0 / DFFQX1TR
XinstruReg_reg_15_0 clk__L1_N0 instruIn<15> opCode_3_0 / DFFQX1TR
XinstruReg_reg_9_0 clk__L1_N0 instruIn<9> rDest_1_0 / DFFQX1TR
XinstruReg_reg_8_0 clk__L1_N0 instruIn<8> rDest_0_0 / DFFQX1TR
XinstruReg_reg_10_0 clk__N0 instruIn<10> rDest_2_0 / DFFQX1TR
XNOUT_reg clk__L1_N0 N NOUT / DFFQX1TR
XZOUT_reg clk__L1_N0 Z ZOUT / DFFQX1TR
Xclk__I0 clk clk__N0 / CLKBUFX20TR
Xclk__L1_I0 clk clk__L1_N0 / CLKBUFX20TR
XU838 Dxac<18> n3640 Dxac<19> n161 / NAND3X1TR
XU682 n144 n3570 Dxac<26> n193 / NAND3X1TR
XU429 n290 n291 n960 n220 / NAND3X1TR
XU417 imm8_disp<7> n408 n125 n126 / NAND3X1TR
XinstruReg_reg_6_0 clk__N0 instruIn<6> imm8_disp<6> n408 / DFFX1TR
XinstruReg_reg_5_0 clk__N0 instruIn<5> imm8_disp<5> n409 / DFFX1TR
XinstruReg_reg_4_0 clk__N0 instruIn<4> imm8_disp<4> n410 / DFFX1TR
XinstruReg_reg_7_0 clk__N0 instruIn<7> imm8_disp<7> n407 / DFFX1TR
XU378 n408 n98 n407 n299 / OR3X2TR
XU476 n125 imm8_disp<7> N240 n127 / NAND3XLTR
XU482 opCode_1_0 opCode_0_0 n202 n203 / NAND3XLTR
XU477 n97 imm8_disp<6> imm8_disp<5> n960 / NAND3XLTR
XU735 Dxac<30> n140 n157 / NAND2BX1TR
XU594 n124 n121 FunISEL<1> / NAND2BX1TR
XU439 FunISEL<0> n188 n98 / NAND2BX1TR
XU372 n98 imm8_disp<6> n407 n103 / NOR3X1TR
XU624 n399 FE_DBTN3_opCode_3_0 n102 LuiSEL / NOR3X1TR
XU740 n400 n255 FE_DBTN3_opCode_3_0 n124 / NOR3X1TR
XU555 n407 FunISEL<0> n410 n97 / NOR3X1TR
XU480 imm8_disp<6> Amount<1> Amount<0> / NOR2XLTR
XU502 n98 n100 Stall / NOR2XLTR
XU612 ReadB<15> n120 N96 / NOR2BX1TR
XU611 ReadB<14> n120 N95 / NOR2BX1TR
XU610 ReadB<13> n120 N94 / NOR2BX1TR
XU609 ReadB<12> n120 N93 / NOR2BX1TR
XU608 ReadB<11> n120 N92 / NOR2BX1TR
XU607 ReadB<10> n120 N91 / NOR2BX1TR
XU606 ReadB<9> n120 N90 / NOR2BX1TR
XU605 ReadB<8> n120 N89 / NOR2BX1TR
XU604 ReadB<7> n120 N88 / NOR2BX1TR
XU603 ReadB<6> n120 N87 / NOR2BX1TR
XU602 ReadB<5> n120 N86 / NOR2BX1TR
XU601 ReadB<4> n120 N85 / NOR2BX1TR
XU600 ReadB<3> n120 N84 / NOR2BX1TR
XU599 ReadB<2> n120 N83 / NOR2BX1TR
XU598 ReadB<1> n120 N82 / NOR2BX1TR
XU597 ReadB<0> n120 N81 / NOR2BX1TR
XU574 n171 n184 n155 / NOR2BX1TR
XU556 n125 n408 n99 / NOR2BX1TR
XU571 N240 n122 Br / NOR2BX1TR
XU475 n126 n127 Jmp / NAND2XLTR
XU481 opCode_0_0 n255 n102 / NAND2XLTR
XU483 opCode_3_0 n189 n122 / NAND2XLTR
XU474 n189 opCode_3_0 n128 / NOR2BXLTR
XU833 rDestIn<15> WR_EN_SRAM WR_Data<15> / CLKAND2X2TR
XU832 rDestIn<14> WR_EN_SRAM WR_Data<14> / CLKAND2X2TR
XU831 rDestIn<13> WR_EN_SRAM WR_Data<13> / CLKAND2X2TR
XU830 rDestIn<12> WR_EN_SRAM WR_Data<12> / CLKAND2X2TR
XU829 rDestIn<11> WR_EN_SRAM WR_Data<11> / CLKAND2X2TR
XU828 rDestIn<10> WR_EN_SRAM WR_Data<10> / CLKAND2X2TR
XU827 rDestIn<9> WR_EN_SRAM WR_Data<9> / CLKAND2X2TR
XU826 rDestIn<8> WR_EN_SRAM WR_Data<8> / CLKAND2X2TR
XU825 rDestIn<7> WR_EN_SRAM WR_Data<7> / CLKAND2X2TR
XU824 rDestIn<6> WR_EN_SRAM WR_Data<6> / CLKAND2X2TR
XU823 rDestIn<5> WR_EN_SRAM WR_Data<5> / CLKAND2X2TR
XU822 rDestIn<4> WR_EN_SRAM WR_Data<4> / CLKAND2X2TR
XU821 rDestIn<3> WR_EN_SRAM WR_Data<3> / CLKAND2X2TR
XU820 rDestIn<2> WR_EN_SRAM WR_Data<2> / CLKAND2X2TR
XU819 rDestIn<1> WR_EN_SRAM WR_Data<1> / CLKAND2X2TR
XU818 rDestIn<0> WR_EN_SRAM WR_Data<0> / CLKAND2X2TR
XU434 DIn<4> n132 n295 / CLKAND2X2TR
XU435 n183 FE_DBTN0_n299 n297 / CLKAND2X2TR
XU593 n128 n188 n125 / CLKAND2X2TR
XU504 opCode_3_0 n188 n129 n407 Amount<1> / NAND4XLTR
XU442 REN_SRAM RENB_SRAM / INVX2TR
XU354 tie_LTIEHI_NET CEN / INVX2TR
XU478 opCode_1_0 n399 / INVX2TR
XU479 opCode_0_0 n400 / INVX2TR
XU784 Dxac<24> Dxac<16> Dxac<28> n140 / AND3X2TR
XU381 n130 n137 n138 n252 / AND3X2TR
XU835 n248 n400 n399 n189 / AND3X2TR
Xclk__Exclude_0 clk clk__Exclude_0_NET / CLKBUFX8TR
Xtie_LTIEHI tie_LTIEHI_NET / TIEHITR
XFOUT_reg clk__L1_N0 F NeTt_1682 N471 / DFFXLTR
XCol_Sel_reg_0_0 clk__N0 n220 Col_Sel<0> n46 / DFFXLTR
XinstruReg_reg_14_0 clk__L1_N0 instruIn<14> n248 n250 / DFFXLTR
XCol_Sel_reg_1_0 clk__N0 n219 Col_Sel<1> n45 / DFFXLTR
XCol_Sel_reg_2_0 clk__N0 n218 Col_Sel<2> n44 / DFFXLTR
XCol_Sel_reg_3_0 clk__N0 n217 Col_Sel<3> n43 / DFFXLTR
XCol_Sel_reg_4_0 clk__N0 n216 Col_Sel<4> n42 / DFFXLTR
XCol_Sel_reg_5_0 clk__N0 n215 Col_Sel<5> n41 / DFFXLTR
XCol_Sel_reg_6_0 clk__N0 n214 Col_Sel<6> n40 / DFFXLTR
XCol_Sel_reg_7_0 clk__N0 n213 Col_Sel<7> n39 / DFFXLTR
XCol_Sel_reg_8_0 clk__N0 n212 Col_Sel<8> n38 / DFFXLTR
XCol_Sel_reg_9_0 clk__N0 n211 Col_Sel<9> n37 / DFFXLTR
XCol_Sel_reg_10_0 clk__N0 n210 Col_Sel<10> n36 / DFFXLTR
XCol_Sel_reg_11_0 clk__N0 n209 Col_Sel<11> n35 / DFFXLTR
XCol_Sel_reg_12_0 clk__N0 n208 Col_Sel<12> n34 / DFFXLTR
XCol_Sel_reg_13_0 clk__N0 n207 Col_Sel<13> n33 / DFFXLTR
XCol_Sel_reg_14_0 clk__N0 n206 Col_Sel<14> n32 / DFFXLTR
XCol_Sel_reg_15_0 clk__N0 n205 Col_Sel<15> n31 / DFFXLTR
XU761 n930 n45 n940 n46 n219 / OAI22X1TR
XU760 n930 n44 n940 n45 n218 / OAI22X1TR
XU759 n930 n43 n940 n44 n217 / OAI22X1TR
XU758 n930 n42 n940 n43 n216 / OAI22X1TR
XU757 n930 n41 n940 n42 n215 / OAI22X1TR
XU756 n930 n40 n940 n41 n214 / OAI22X1TR
XU755 n930 n39 n940 n40 n213 / OAI22X1TR
XU754 n930 n38 n940 n39 n212 / OAI22X1TR
XU753 n930 n37 n940 n38 n211 / OAI22X1TR
XU752 n930 n36 n940 n37 n210 / OAI22X1TR
XU751 n930 n35 n940 n36 n209 / OAI22X1TR
XU750 n930 n34 n940 n35 n208 / OAI22X1TR
XU749 n930 n33 n940 n34 n207 / OAI22X1TR
XU748 n32 n930 n940 n33 n206 / OAI22X1TR
XU747 n930 n31 n940 n32 n205 / OAI22X1TR
XU428 n930 n46 n291 / OR2X2TR
XU868 ZOUT NOUT N238 / OR2X2TR
XU380 opCode_1_0 opCode_0_0 n251 / OR2X2TR
XU738 n409 n121 n122 n123 n120 / OAI211X4TR
XU796 Dsram<15> FE_OFN7_n103 n297 n177 / AOI21X1TR
XU794 Dsram<14> FE_OFN7_n103 n297 n178 / AOI21X1TR
XU792 Dsram<13> FE_OFN7_n103 n297 n179 / AOI21X1TR
XU790 Dsram<12> FE_OFN7_n103 n297 n180 / AOI21X1TR
XU788 Dsram<11> FE_OFN7_n103 n297 n181 / AOI21X1TR
XU786 Dsram<10> FE_OFN7_n103 n297 n182 / AOI21X1TR
XU739 opCode_1_0 n124 n99 n123 / AOI21X1TR
XU389 n394 imm8_disp<5> n408 n102 opCode_1_0 FE_DBTN3_opCode_3_0 MovSEL / 
+ OAI33X1TR
XU782 n406 n1 n6 / XNOR2X1TR
XU766 rDest_0_0 COUT n2 / XNOR2X1TR
XU775 n3660 Dxac<20> Dxac<18> n162 n3630 n170 / OAI32X1TR
XU779 Dxac<17> Dxac<20> Dxac<18> Dxac<21> n162 n195 / OAI32X1TR
XU719 n3570 n3560 n3580 Dxac<16> n158 n154 / OAI32X1TR
XU781 n404 n405 n6 rDest_2_0 n5 n7 / OAI32X1TR
XU503 n129 opCode_3_0 LuiSEL DSEL<0> / AO21XLTR
XU427 n299 n31 n290 / OR2XLTR
XU731 n148 n3700 Dxac<9> n372 n173 / AOI31X1TR
XU770 Dxac<6> n373 Dxac<7> n148 n146 / AOI31X1TR
XU726 n3700 n371 n148 n197 n196 / AOI31X1TR
XU715 Dxac<8> n3690 n155 Dxac<16> n183 / AOI31X1TR
XU552 n201 n399 n202 n397 AluSEL<1> / AOI31X1TR
XU570 n299 n378 FE_DBTN2_n103 RWL_P<15> / OAI21X1TR
XU543 N370 FE_DBTN2_n103 n113 RWLB_P<15> / OAI21X1TR
XU542 N369 FE_DBTN2_n103 n114 RWLB_P<14> / OAI21X1TR
XU569 n299 n380 FE_DBTN2_n103 RWL_P<13> / OAI21X1TR
XU541 N368 FE_DBTN2_n103 n115 RWLB_P<13> / OAI21X1TR
XU540 N367 FE_DBTN2_n103 n116 RWLB_P<12> / OAI21X1TR
XU568 n299 n382 FE_DBTN2_n103 RWL_P<11> / OAI21X1TR
XU539 N366 FE_DBTN2_n103 n117 RWLB_P<11> / OAI21X1TR
XU567 n299 n383 FE_DBTN2_n103 RWL_P<10> / OAI21X1TR
XU538 N365 FE_DBTN2_n103 n118 RWLB_P<10> / OAI21X1TR
XU566 n299 n384 FE_DBTN2_n103 RWL_P<9> / OAI21X1TR
XU537 N364 FE_DBTN2_n103 n104 RWLB_P<9> / OAI21X1TR
XU565 n299 n385 FE_DBTN2_n103 RWL_P<8> / OAI21X1TR
XU536 N363 FE_DBTN2_n103 n105 RWLB_P<8> / OAI21X1TR
XU559 n299 n391 FE_DBTN2_n103 RWL_P<2> / OAI21X1TR
XU564 n299 n386 FE_DBTN2_n103 RWL_P<7> / OAI21X1TR
XU535 N362 FE_DBTN2_n103 n106 RWLB_P<7> / OAI21X1TR
XU531 N358 FE_DBTN2_n103 n110 RWLB_P<3> / OAI21X1TR
XU560 n299 n390 FE_DBTN2_n103 RWL_P<3> / OAI21X1TR
XU530 N357 FE_DBTN2_n103 n111 RWLB_P<2> / OAI21X1TR
XU563 n299 n387 FE_DBTN2_n103 RWL_P<6> / OAI21X1TR
XU534 N361 FE_DBTN2_n103 n107 RWLB_P<6> / OAI21X1TR
XU470 n299 n393 FE_DBTN2_n103 RWL_P<0> / OAI21X1TR
XU562 n299 n388 FE_DBTN2_n103 RWL_P<5> / OAI21X1TR
XU533 N360 FE_DBTN2_n103 n108 RWLB_P<5> / OAI21X1TR
XU532 N359 FE_DBTN2_n103 n109 RWLB_P<4> / OAI21X1TR
XU561 n299 n389 FE_DBTN2_n103 RWL_P<4> / OAI21X1TR
XU558 n299 n392 FE_DBTN2_n103 RWL_P<1> / OAI21X1TR
XU529 N356 FE_DBTN2_n103 n112 RWLB_P<1> / OAI21X1TR
XU528 N355 FE_DBTN2_n103 n119 RWLB_P<0> / OAI21X1TR
XU769 Dxac<16> n146 n354 n143 / OAI21X1TR
XU772 n157 n3550 n169 n167 / OAI21X1TR
XU776 Dxac<29> n157 n194 n191 / OAI21X1TR
XU554 n410 n100 n400 n201 / OAI21X1TR
XU675 n100 n409 n399 n204 / OA21XLTR
XU373 FE_DBTN1_n126 REN_SRAM n132 / NOR2X2TR
XU393 Dxac<24> Dxac<28> n3670 n144 / NOR3BX1TR
XU716 Dxac<14> Dxac<12> Dxac<15> n374 n184 / NOR4BBX1TR
XU847 Dxac<31> n140 Dxac<30> n156 / NAND3BX1TR
XU734 Dxac<14> Dxac<8> Dxac<12> n171 / NAND3BX1TR
XFE_OFC7_n103 n103 FE_OFN7_n103 / CLKBUFX2TR
XU783 rDest_3_0 n405 N471 n4 n402 n5 / AOI32X1TR
XU720 Dxac<10> n148 Dxac<11> n159 n374 n158 / AOI32X1TR
XU774 n144 n3580 Dxac<25> n152 n170 n169 / AOI32X1TR
XU777 n3590 n3580 n144 n152 n195 n194 / AOI32X1TR
XU693 n152 n153 n154 n147 n149 / AOI211X1TR
XU689 n166 n3670 n167 n168 n163 / AOI211X1TR
XU685 n190 n3670 n191 n168 n1850 / AOI211X1TR
XU677 n175 n199 n184 n200 n172 / AOI211X1TR
XU681 n3650 n3640 Dxac<18> Dxac<20> n3610 Dxac<22> n192 / AOI33X1TR
XU723 Dxac<5> n375 n373 Dxac<1> n377 n175 n174 / AOI33X1TR
XU679 n176 Dxac<7> n375 n3690 Dxac<11> n3700 n200 / OAI33XLTR
XU813 Dxac<1> Dxac<0> n175 n377 n198 / NAND4BX1TR
XU438 pc<4> FE_DBTN1_n126 n296 / AND2XLTR
XU370 FE_DBTN2_n103 n299 REN_SRAM / NAND2X2TR
XU737 Dxac<31> Dxac<30> n140 FE_DBTN0_n299 n137 / NAND4X1TR
XU625 n3600 n3640 n3620 n3610 n145 / NOR4XLTR
XU469 n113 RWLB_N<15> / CLKINVX1TR
XU468 n114 RWLB_N<14> / CLKINVX1TR
XU467 n115 RWLB_N<13> / CLKINVX1TR
XU466 n116 RWLB_N<12> / CLKINVX1TR
XU465 n117 RWLB_N<11> / CLKINVX1TR
XU458 n118 RWLB_N<10> / CLKINVX1TR
XU461 n104 RWLB_N<9> / CLKINVX1TR
XU460 n105 RWLB_N<8> / CLKINVX1TR
XU459 n106 RWLB_N<7> / CLKINVX1TR
XU457 n110 RWLB_N<3> / CLKINVX1TR
XU456 n111 RWLB_N<2> / CLKINVX1TR
XU464 n107 RWLB_N<6> / CLKINVX1TR
XU463 n108 RWLB_N<5> / CLKINVX1TR
XU462 n109 RWLB_N<4> / CLKINVX1TR
XU455 n112 RWLB_N<1> / CLKINVX1TR
XU454 n119 RWLB_N<0> / CLKINVX1TR
XU812 FE_DBTN0_n299 rSrcIn<15> FE_OFN7_n103 N370 RWL_N<15> / AO22X1TR
XU811 FE_DBTN0_n299 rSrcIn<14> FE_OFN7_n103 N369 RWL_N<14> / AO22X1TR
XU810 FE_DBTN0_n299 rSrcIn<13> FE_OFN7_n103 N368 RWL_N<13> / AO22X1TR
XU809 FE_DBTN0_n299 rSrcIn<12> FE_OFN7_n103 N367 RWL_N<12> / AO22X1TR
XU808 FE_DBTN0_n299 rSrcIn<11> FE_OFN7_n103 N366 RWL_N<11> / AO22X1TR
XU807 FE_DBTN0_n299 rSrcIn<10> FE_OFN7_n103 N365 RWL_N<10> / AO22X1TR
XU806 FE_DBTN0_n299 rSrcIn<9> FE_OFN7_n103 N364 RWL_N<9> / AO22X1TR
XU805 FE_DBTN0_n299 rSrcIn<8> FE_OFN7_n103 N363 RWL_N<8> / AO22X1TR
XU804 FE_DBTN0_n299 rSrcIn<7> FE_OFN7_n103 N362 RWL_N<7> / AO22X1TR
XU800 FE_DBTN0_n299 rSrcIn<3> FE_OFN7_n103 N358 RWL_N<3> / AO22X1TR
XU799 FE_DBTN0_n299 rSrcIn<2> FE_OFN7_n103 N357 RWL_N<2> / AO22X1TR
XU803 FE_DBTN0_n299 rSrcIn<6> FE_OFN7_n103 N361 RWL_N<6> / AO22X1TR
XU802 FE_DBTN0_n299 rSrcIn<5> FE_OFN7_n103 N360 RWL_N<5> / AO22X1TR
XU801 FE_DBTN0_n299 rSrcIn<4> FE_OFN7_n103 N359 RWL_N<4> / AO22X1TR
XU798 FE_DBTN0_n299 rSrcIn<1> FE_OFN7_n103 N356 RWL_N<1> / AO22X1TR
XU797 FE_DBTN0_n299 rSrcIn<0> FE_OFN7_n103 N355 RWL_N<0> / AO22X1TR
XU472 n299 n379 FE_DBTN2_n103 RWL_P<14> / OAI21XLTR
XU471 n299 n381 FE_DBTN2_n103 RWL_P<12> / OAI21XLTR
XFE_DBTC2_n103 FE_OFN7_n103 FE_DBTN2_n103 / CLKINVX4TR
XU869 Dxac<6> Dxac<7> Dxac<4> n160 / OAI2BB1X1TR
XU795 DIn<15> n132 n177 DOut<15> / OAI2BB1X1TR
XU793 DIn<14> n132 n178 DOut<14> / OAI2BB1X1TR
XU791 DIn<13> n132 n179 DOut<13> / OAI2BB1X1TR
XU789 DIn<12> n132 n180 DOut<12> / OAI2BB1X1TR
XU787 DIn<11> n132 n181 DOut<11> / OAI2BB1X1TR
XU785 DIn<10> n132 n182 DOut<10> / OAI2BB1X1TR
XU379 n98 imm8_disp<7> n408 n249 / OR3X1TR
.ENDS

