************************************************************************
* auCdl Netlist:
* 
* Library Name:  CAD8_LIB
* Top Cell Name: controller
* View Name:     schematic
* Netlisted on:  Nov 16 14:58:19 2018
************************************************************************

*.EQUATION
*.SCALE METER
*.MEGA
.PARAM

*.GLOBAL VDD!
+        VSS!

*.PIN VDD!
*+    VSS!

************************************************************************
* Library Name: eecs427artisan
* Cell Name:    NOR2X1TR
* View Name:    schematic
************************************************************************

.SUBCKT NOR2X1TR A B Y
*.PININFO A:I B:I Y:O
MM2 hnet7 B VDD! VDD! pfet m=1 l=120.0n w=840.0n nf=1 par=1 ngcon=1 mSwitch=0 
+ idg=0 psp=0
MM3 Y A hnet7 VDD! pfet m=1 l=120.0n w=840.0n nf=1 par=1 ngcon=1 mSwitch=0 
+ idg=0 psp=0
MM0 Y B VSS! VSS! nfet m=1 l=120.0n w=460.0n nf=1 par=1 ngcon=1 mSwitch=0 
+ idg=0 psp=0
MM1 Y A VSS! VSS! nfet m=1 l=120.0n w=460.0n nf=1 par=1 ngcon=1 mSwitch=0 
+ idg=0 psp=0
.ENDS

************************************************************************
* Library Name: eecs427artisan
* Cell Name:    NAND2X1TR
* View Name:    schematic
************************************************************************

.SUBCKT NAND2X1TR A B Y
*.PININFO A:I B:I Y:O
MM0 hnet11 B VSS! VSS! nfet m=1 l=120.0n w=600n nf=1 par=1 ngcon=1 mSwitch=0 
+ idg=0 psp=0
MM1 Y A hnet11 VSS! nfet m=1 l=120.0n w=600n nf=1 par=1 ngcon=1 mSwitch=0 
+ idg=0 psp=0
MM2 Y B VDD! VDD! pfet m=1 l=120.0n w=640.0n nf=1 par=1 ngcon=1 mSwitch=0 
+ idg=0 psp=0
MM3 Y A VDD! VDD! pfet m=1 l=120.0n w=640.0n nf=1 par=1 ngcon=1 mSwitch=0 
+ idg=0 psp=0
.ENDS

************************************************************************
* Library Name: eecs427artisan
* Cell Name:    DFFXLTR
* View Name:    schematic
************************************************************************

.SUBCKT DFFXLTR CK D Q QN
*.PININFO CK:I D:I Q:O QN:O
MM17 s net43 VSS! VSS! nfet m=1 l=120.0n w=200n nf=1 par=1 ngcon=1 mSwitch=0 
+ idg=0 psp=0
MM19 m pm VSS! VSS! nfet m=1 l=120.0n w=200n nf=1 par=1 ngcon=1 mSwitch=0 
+ idg=0 psp=0
MM23 c cn VSS! VSS! nfet m=1 l=120.0n w=200n nf=1 par=1 ngcon=1 mSwitch=0 
+ idg=0 psp=0
MM12 hnet38 m VSS! VSS! nfet m=1 l=120.0n w=200n nf=1 par=1 ngcon=1 mSwitch=0 
+ idg=0 psp=0
MM13 pm c hnet38 VSS! nfet m=1 l=120.0n w=200n nf=1 par=1 ngcon=1 mSwitch=0 
+ idg=0 psp=0
MM0 hnet14 m VSS! VSS! nfet m=1 l=120.0n w=360.0n nf=1 par=1 ngcon=1 mSwitch=0 
+ idg=0 psp=0
MM1 net43 c hnet14 VSS! nfet m=1 l=120.0n w=360.0n nf=1 par=1 ngcon=1 
+ mSwitch=0 idg=0 psp=0
MM21 QN s VSS! VSS! nfet m=1 l=120.0n w=240.0n nf=1 par=1 ngcon=1 mSwitch=0 
+ idg=0 psp=0
MM25 cn CK VSS! VSS! nfet m=1 l=120.0n w=280.0n nf=1 par=1 ngcon=1 mSwitch=0 
+ idg=0 psp=0
MM27 Q net43 VSS! VSS! nfet m=1 l=120.0n w=240.0n nf=1 par=1 ngcon=1 mSwitch=0 
+ idg=0 psp=0
MM8 hnet30 s VSS! VSS! nfet m=1 l=120.0n w=200n nf=1 par=1 ngcon=1 mSwitch=0 
+ idg=0 psp=0
MM9 net43 cn hnet30 VSS! nfet m=1 l=120.0n w=200n nf=1 par=1 ngcon=1 mSwitch=0 
+ idg=0 psp=0
MM4 hnet22 D VSS! VSS! nfet m=1 l=120.0n w=200n nf=1 par=1 ngcon=1 mSwitch=0 
+ idg=0 psp=0
MM5 pm cn hnet22 VSS! nfet m=1 l=120.0n w=200n nf=1 par=1 ngcon=1 mSwitch=0 
+ idg=0 psp=0
MM16 s net43 VDD! VDD! pfet m=1 l=120.0n w=280.0n nf=1 par=1 ngcon=1 mSwitch=0 
+ idg=0 psp=0
MM22 c cn VDD! VDD! pfet m=1 l=120.0n w=280.0n nf=1 par=1 ngcon=1 mSwitch=0 
+ idg=0 psp=0
MM18 m pm VDD! VDD! pfet m=1 l=120.0n w=280.0n nf=1 par=1 ngcon=1 mSwitch=0 
+ idg=0 psp=0
MM15 hnet40 m VDD! VDD! pfet m=1 l=120.0n w=280.0n nf=1 par=1 ngcon=1 
+ mSwitch=0 idg=0 psp=0
MM14 pm cn hnet40 VDD! pfet m=1 l=120.0n w=280.0n nf=1 par=1 ngcon=1 mSwitch=0 
+ idg=0 psp=0
MM3 hnet16 m VDD! VDD! pfet m=1 l=120.0n w=500n nf=1 par=1 ngcon=1 mSwitch=0 
+ idg=0 psp=0
MM2 net43 cn hnet16 VDD! pfet m=1 l=120.0n w=500n nf=1 par=1 ngcon=1 mSwitch=0 
+ idg=0 psp=0
MM10 net43 c hnet32 VDD! pfet m=1 l=120.0n w=280.0n nf=1 par=1 ngcon=1 
+ mSwitch=0 idg=0 psp=0
MM11 hnet32 s VDD! VDD! pfet m=1 l=120.0n w=280.0n nf=1 par=1 ngcon=1 
+ mSwitch=0 idg=0 psp=0
MM20 QN s VDD! VDD! pfet m=1 l=120.0n w=340.0n nf=1 par=1 ngcon=1 mSwitch=0 
+ idg=0 psp=0
MM24 cn CK VDD! VDD! pfet m=1 l=120.0n w=380.0n nf=1 par=1 ngcon=1 mSwitch=0 
+ idg=0 psp=0
MM26 Q net43 VDD! VDD! pfet m=1 l=120.0n w=340.0n nf=1 par=1 ngcon=1 mSwitch=0 
+ idg=0 psp=0
MM6 pm c hnet24 VDD! pfet m=1 l=120.0n w=280.0n nf=1 par=1 ngcon=1 mSwitch=0 
+ idg=0 psp=0
MM7 hnet24 D VDD! VDD! pfet m=1 l=120.0n w=280.0n nf=1 par=1 ngcon=1 mSwitch=0 
+ idg=0 psp=0
.ENDS

************************************************************************
* Library Name: eecs427artisan
* Cell Name:    CLKINVX2TR
* View Name:    schematic
************************************************************************

.SUBCKT CLKINVX2TR A Y
*.PININFO A:I Y:O
MM1 Y A VSS! VSS! nfet m=1 l=120.0n w=480.0n nf=1 par=1 ngcon=1 mSwitch=0 
+ idg=0 psp=0
MM0 Y A VDD! VDD! pfet m=1 l=120.0n w=1.3u nf=1 par=1 ngcon=1 mSwitch=0 idg=0 
+ psp=0
.ENDS

************************************************************************
* Library Name: eecs427artisan
* Cell Name:    CLKBUFX8TR
* View Name:    schematic
************************************************************************

.SUBCKT CLKBUFX8TR A Y
*.PININFO A:I Y:O
MM1 Y nmin VSS! VSS! nfet m=1 l=120.0n w=1.84u nf=1 par=1 ngcon=1 mSwitch=0 
+ idg=0 psp=0
MM3 nmin A VSS! VSS! nfet m=1 l=120.0n w=600n nf=1 par=1 ngcon=1 mSwitch=0 
+ idg=0 psp=0
MM0 Y nmin VDD! VDD! pfet m=1 l=120.0n w=5.12u nf=1 par=1 ngcon=1 mSwitch=0 
+ idg=0 psp=0
MM2 nmin A VDD! VDD! pfet m=1 l=120.0n w=1.62u nf=1 par=1 ngcon=1 mSwitch=0 
+ idg=0 psp=0
.ENDS

************************************************************************
* Library Name: eecs427artisan
* Cell Name:    CLKBUFX20TR
* View Name:    schematic
************************************************************************

.SUBCKT CLKBUFX20TR A Y
*.PININFO A:I Y:O
MM1 Y nmin VSS! VSS! nfet m=1 l=120.0n w=4.74u nf=1 par=1 ngcon=1 mSwitch=0 
+ idg=0 psp=0
MM3 nmin A VSS! VSS! nfet m=1 l=120.0n w=1.52u nf=1 par=1 ngcon=1 mSwitch=0 
+ idg=0 psp=0
MM0 Y nmin VDD! VDD! pfet m=1 l=120.0n w=13.0u nf=1 par=1 ngcon=1 mSwitch=0 
+ idg=0 psp=0
MM2 nmin A VDD! VDD! pfet m=1 l=120.0n w=3.88u nf=1 par=1 ngcon=1 mSwitch=0 
+ idg=0 psp=0
.ENDS

************************************************************************
* Library Name: eecs427artisan
* Cell Name:    DFFQXLTR
* View Name:    schematic
************************************************************************

.SUBCKT DFFQXLTR CK D Q
*.PININFO CK:I D:I Q:O
MM16 m pm VDD! VDD! pfet m=1 l=120.0n w=280.0n nf=1 par=1 ngcon=1 mSwitch=0 
+ idg=0 psp=0
MM1 m cn net37 VDD! pfet m=1 l=120.0n w=280.0n nf=1 par=1 ngcon=1 mSwitch=0 
+ idg=0 psp=0
MM18 c cn VDD! VDD! pfet m=1 l=120.0n w=280.0n nf=1 par=1 ngcon=1 mSwitch=0 
+ idg=0 psp=0
MM14 s net37 VDD! VDD! pfet m=1 l=120.0n w=280.0n nf=1 par=1 ngcon=1 mSwitch=0 
+ idg=0 psp=0
MM13 hnet31 m VDD! VDD! pfet m=1 l=120.0n w=280.0n nf=1 par=1 ngcon=1 
+ mSwitch=0 idg=0 psp=0
MM12 pm cn hnet31 VDD! pfet m=1 l=120.0n w=280.0n nf=1 par=1 ngcon=1 mSwitch=0 
+ idg=0 psp=0
MM20 cn CK VDD! VDD! pfet m=1 l=120.0n w=380.0n nf=1 par=1 ngcon=1 mSwitch=0 
+ idg=0 psp=0
MM22 Q s VDD! VDD! pfet m=1 l=120.0n w=340.0n nf=1 par=1 ngcon=1 mSwitch=0 
+ idg=0 psp=0
MM9 hnet23 s VDD! VDD! pfet m=1 l=120.0n w=280.0n nf=1 par=1 ngcon=1 mSwitch=0 
+ idg=0 psp=0
MM8 net37 c hnet23 VDD! pfet m=1 l=120.0n w=280.0n nf=1 par=1 ngcon=1 
+ mSwitch=0 idg=0 psp=0
MM5 hnet15 D VDD! VDD! pfet m=1 l=120.0n w=280.0n nf=1 par=1 ngcon=1 mSwitch=0 
+ idg=0 psp=0
MM4 pm c hnet15 VDD! pfet m=1 l=120.0n w=280.0n nf=1 par=1 ngcon=1 mSwitch=0 
+ idg=0 psp=0
MM17 m pm VSS! VSS! nfet m=1 l=120.0n w=200n nf=1 par=1 ngcon=1 mSwitch=0 
+ idg=0 psp=0
MM0 net37 c m VSS! nfet m=1 l=120.0n w=200n nf=1 par=1 ngcon=1 mSwitch=0 idg=0 
+ psp=0
MM19 c cn VSS! VSS! nfet m=1 l=120.0n w=200n nf=1 par=1 ngcon=1 mSwitch=0 
+ idg=0 psp=0
MM15 s net37 VSS! VSS! nfet m=1 l=120.0n w=200n nf=1 par=1 ngcon=1 mSwitch=0 
+ idg=0 psp=0
MM10 hnet29 m VSS! VSS! nfet m=1 l=120.0n w=200n nf=1 par=1 ngcon=1 mSwitch=0 
+ idg=0 psp=0
MM11 pm c hnet29 VSS! nfet m=1 l=120.0n w=200n nf=1 par=1 ngcon=1 mSwitch=0 
+ idg=0 psp=0
MM21 cn CK VSS! VSS! nfet m=1 l=120.0n w=280.0n nf=1 par=1 ngcon=1 mSwitch=0 
+ idg=0 psp=0
MM7 net37 cn hnet21 VSS! nfet m=1 l=120.0n w=200n nf=1 par=1 ngcon=1 mSwitch=0 
+ idg=0 psp=0
MM6 hnet21 s VSS! VSS! nfet m=1 l=120.0n w=200n nf=1 par=1 ngcon=1 mSwitch=0 
+ idg=0 psp=0
MM23 Q s VSS! VSS! nfet m=1 l=120.0n w=240.0n nf=1 par=1 ngcon=1 mSwitch=0 
+ idg=0 psp=0
MM3 pm cn hnet13 VSS! nfet m=1 l=120.0n w=200n nf=1 par=1 ngcon=1 mSwitch=0 
+ idg=0 psp=0
MM2 hnet13 D VSS! VSS! nfet m=1 l=120.0n w=200n nf=1 par=1 ngcon=1 mSwitch=0 
+ idg=0 psp=0
.ENDS

************************************************************************
* Library Name: eecs427artisan
* Cell Name:    AO22X1TR
* View Name:    schematic
************************************************************************

.SUBCKT AO22X1TR A0 A1 B0 B1 Y
*.PININFO A0:I A1:I B0:I B1:I Y:O
MM6 VDD! B0 net32 VDD! pfet m=1 l=120.0n w=340.0n nf=1 par=1 ngcon=1 mSwitch=0 
+ idg=0 psp=0
MM0 Y nmin VDD! VDD! pfet m=1 l=120.0n w=640.0n nf=1 par=1 ngcon=1 mSwitch=0 
+ idg=0 psp=0
MM8 VDD! B1 net32 VDD! pfet m=1 l=120.0n w=340.0n nf=1 par=1 ngcon=1 mSwitch=0 
+ idg=0 psp=0
MM7 net32 A0 nmin VDD! pfet m=1 l=120.0n w=340.0n nf=1 par=1 ngcon=1 mSwitch=0 
+ idg=0 psp=0
MM9 net32 A1 nmin VDD! pfet m=1 l=120.0n w=340.0n nf=1 par=1 ngcon=1 mSwitch=0 
+ idg=0 psp=0
MM5 nmin B0 hnet21 VSS! nfet m=1 l=120.0n w=240.0n nf=1 par=1 ngcon=1 
+ mSwitch=0 idg=0 psp=0
MM4 hnet21 B1 VSS! VSS! nfet m=1 l=120.0n w=240.0n nf=1 par=1 ngcon=1 
+ mSwitch=0 idg=0 psp=0
MM1 Y nmin VSS! VSS! nfet m=1 l=120.0n w=460.0n nf=1 par=1 ngcon=1 mSwitch=0 
+ idg=0 psp=0
MM3 nmin A0 hnet17 VSS! nfet m=1 l=120.0n w=240.0n nf=1 par=1 ngcon=1 
+ mSwitch=0 idg=0 psp=0
MM2 hnet17 A1 VSS! VSS! nfet m=1 l=120.0n w=240.0n nf=1 par=1 ngcon=1 
+ mSwitch=0 idg=0 psp=0
.ENDS

************************************************************************
* Library Name: eecs427artisan
* Cell Name:    NAND3X1TR
* View Name:    schematic
************************************************************************

.SUBCKT NAND3X1TR A B C Y
*.PININFO A:I B:I C:I Y:O
MM4 Y B VDD! VDD! pfet m=1 l=120.0n w=640.0n nf=1 par=1 ngcon=1 mSwitch=0 
+ idg=0 psp=0
MM3 Y C VDD! VDD! pfet m=1 l=120.0n w=640.0n nf=1 par=1 ngcon=1 mSwitch=0 
+ idg=0 psp=0
MM5 Y A VDD! VDD! pfet m=1 l=120.0n w=640.0n nf=1 par=1 ngcon=1 mSwitch=0 
+ idg=0 psp=0
MM0 hnet14 C VSS! VSS! nfet m=1 l=120.0n w=720.0n nf=1 par=1 ngcon=1 mSwitch=0 
+ idg=0 psp=0
MM2 Y A hnet7 VSS! nfet m=1 l=120.0n w=720.0n nf=1 par=1 ngcon=1 mSwitch=0 
+ idg=0 psp=0
MM1 hnet7 B hnet14 VSS! nfet m=1 l=120.0n w=720.0n nf=1 par=1 ngcon=1 
+ mSwitch=0 idg=0 psp=0
.ENDS

************************************************************************
* Library Name: eecs427artisan
* Cell Name:    DFFX1TR
* View Name:    schematic
************************************************************************

.SUBCKT DFFX1TR CK D Q QN
*.PININFO CK:I D:I Q:O QN:O
MM17 s net43 VSS! VSS! nfet m=1 l=120.0n w=260.0n nf=1 par=1 ngcon=1 mSwitch=0 
+ idg=0 psp=0
MM19 m pm VSS! VSS! nfet m=1 l=120.0n w=220.0n nf=1 par=1 ngcon=1 mSwitch=0 
+ idg=0 psp=0
MM23 c cn VSS! VSS! nfet m=1 l=120.0n w=240.0n nf=1 par=1 ngcon=1 mSwitch=0 
+ idg=0 psp=0
MM12 hnet38 m VSS! VSS! nfet m=1 l=120.0n w=200n nf=1 par=1 ngcon=1 mSwitch=0 
+ idg=0 psp=0
MM13 pm c hnet38 VSS! nfet m=1 l=120.0n w=200n nf=1 par=1 ngcon=1 mSwitch=0 
+ idg=0 psp=0
MM0 hnet14 m VSS! VSS! nfet m=1 l=120.0n w=580.0n nf=1 par=1 ngcon=1 mSwitch=0 
+ idg=0 psp=0
MM1 net43 c hnet14 VSS! nfet m=1 l=120.0n w=580.0n nf=1 par=1 ngcon=1 
+ mSwitch=0 idg=0 psp=0
MM21 QN s VSS! VSS! nfet m=1 l=120.0n w=460.0n nf=1 par=1 ngcon=1 mSwitch=0 
+ idg=0 psp=0
MM25 cn CK VSS! VSS! nfet m=1 l=120.0n w=340.0n nf=1 par=1 ngcon=1 mSwitch=0 
+ idg=0 psp=0
MM27 Q net43 VSS! VSS! nfet m=1 l=120.0n w=460.0n nf=1 par=1 ngcon=1 mSwitch=0 
+ idg=0 psp=0
MM8 hnet30 s VSS! VSS! nfet m=1 l=120.0n w=200n nf=1 par=1 ngcon=1 mSwitch=0 
+ idg=0 psp=0
MM9 net43 cn hnet30 VSS! nfet m=1 l=120.0n w=200n nf=1 par=1 ngcon=1 mSwitch=0 
+ idg=0 psp=0
MM4 hnet22 D VSS! VSS! nfet m=1 l=120.0n w=200n nf=1 par=1 ngcon=1 mSwitch=0 
+ idg=0 psp=0
MM5 pm cn hnet22 VSS! nfet m=1 l=120.0n w=200n nf=1 par=1 ngcon=1 mSwitch=0 
+ idg=0 psp=0
MM16 s net43 VDD! VDD! pfet m=1 l=120.0n w=360.0n nf=1 par=1 ngcon=1 mSwitch=0 
+ idg=0 psp=0
MM22 c cn VDD! VDD! pfet m=1 l=120.0n w=340.0n nf=1 par=1 ngcon=1 mSwitch=0 
+ idg=0 psp=0
MM18 m pm VDD! VDD! pfet m=1 l=120.0n w=300n nf=1 par=1 ngcon=1 mSwitch=0 
+ idg=0 psp=0
MM15 hnet40 m VDD! VDD! pfet m=1 l=120.0n w=280.0n nf=1 par=1 ngcon=1 
+ mSwitch=0 idg=0 psp=0
MM14 pm cn hnet40 VDD! pfet m=1 l=120.0n w=280.0n nf=1 par=1 ngcon=1 mSwitch=0 
+ idg=0 psp=0
MM3 hnet16 m VDD! VDD! pfet m=1 l=120.0n w=800n nf=1 par=1 ngcon=1 mSwitch=0 
+ idg=0 psp=0
MM2 net43 cn hnet16 VDD! pfet m=1 l=120.0n w=800n nf=1 par=1 ngcon=1 mSwitch=0 
+ idg=0 psp=0
MM10 net43 c hnet32 VDD! pfet m=1 l=120.0n w=280.0n nf=1 par=1 ngcon=1 
+ mSwitch=0 idg=0 psp=0
MM11 hnet32 s VDD! VDD! pfet m=1 l=120.0n w=280.0n nf=1 par=1 ngcon=1 
+ mSwitch=0 idg=0 psp=0
MM20 QN s VDD! VDD! pfet m=1 l=120.0n w=640.0n nf=1 par=1 ngcon=1 mSwitch=0 
+ idg=0 psp=0
MM24 cn CK VDD! VDD! pfet m=1 l=120.0n w=480.0n nf=1 par=1 ngcon=1 mSwitch=0 
+ idg=0 psp=0
MM26 Q net43 VDD! VDD! pfet m=1 l=120.0n w=640.0n nf=1 par=1 ngcon=1 mSwitch=0 
+ idg=0 psp=0
MM6 pm c hnet24 VDD! pfet m=1 l=120.0n w=280.0n nf=1 par=1 ngcon=1 mSwitch=0 
+ idg=0 psp=0
MM7 hnet24 D VDD! VDD! pfet m=1 l=120.0n w=280.0n nf=1 par=1 ngcon=1 mSwitch=0 
+ idg=0 psp=0
.ENDS

************************************************************************
* Library Name: eecs427artisan
* Cell Name:    CLKAND2X2TR
* View Name:    schematic
************************************************************************

.SUBCKT CLKAND2X2TR A B Y
*.PININFO A:I B:I Y:O
MM5 net11 A VDD! VDD! pfet m=1 l=120.0n w=560.0n nf=1 par=1 ngcon=1 mSwitch=0 
+ idg=0 psp=0
MM0 Y net11 VDD! VDD! pfet m=1 l=120.0n w=1.3u nf=1 par=1 ngcon=1 mSwitch=0 
+ idg=0 psp=0
MM4 net11 B VDD! VDD! pfet m=1 l=120.0n w=560.0n nf=1 par=1 ngcon=1 mSwitch=0 
+ idg=0 psp=0
MM1 Y net11 VSS! VSS! nfet m=1 l=120.0n w=480.0n nf=1 par=1 ngcon=1 mSwitch=0 
+ idg=0 psp=0
MM2 hnet14 B VSS! VSS! nfet m=1 l=120.0n w=200n nf=1 par=1 ngcon=1 mSwitch=0 
+ idg=0 psp=0
MM3 net11 A hnet14 VSS! nfet m=1 l=120.0n w=200n nf=1 par=1 ngcon=1 mSwitch=0 
+ idg=0 psp=0
.ENDS

************************************************************************
* Library Name: eecs427artisan
* Cell Name:    NOR2BX1TR
* View Name:    schematic
************************************************************************

.SUBCKT NOR2BX1TR AN B Y
*.PININFO AN:I B:I Y:O
MM0 nmin1 AN VDD! VDD! pfet m=1 l=120.0n w=300n nf=1 par=1 ngcon=1 mSwitch=0 
+ idg=0 psp=0
MM4 hnet12 B VDD! VDD! pfet m=1 l=120.0n w=840.0n nf=1 par=1 ngcon=1 mSwitch=0 
+ idg=0 psp=0
MM5 Y nmin1 hnet12 VDD! pfet m=1 l=120.0n w=840.0n nf=1 par=1 ngcon=1 
+ mSwitch=0 idg=0 psp=0
MM1 nmin1 AN VSS! VSS! nfet m=1 l=120.0n w=220.0n nf=1 par=1 ngcon=1 mSwitch=0 
+ idg=0 psp=0
MM2 Y B VSS! VSS! nfet m=1 l=120.0n w=460.0n nf=1 par=1 ngcon=1 mSwitch=0 
+ idg=0 psp=0
MM3 Y nmin1 VSS! VSS! nfet m=1 l=120.0n w=460.0n nf=1 par=1 ngcon=1 mSwitch=0 
+ idg=0 psp=0
.ENDS

************************************************************************
* Library Name: eecs427artisan
* Cell Name:    NAND4X1TR
* View Name:    schematic
************************************************************************

.SUBCKT NAND4X1TR A B C D Y
*.PININFO A:I B:I C:I D:I Y:O
MM4 Y D VDD! VDD! pfet m=1 l=120.0n w=640.0n nf=1 par=1 ngcon=1 mSwitch=0 
+ idg=0 psp=0
MM5 Y C VDD! VDD! pfet m=1 l=120.0n w=640.0n nf=1 par=1 ngcon=1 mSwitch=0 
+ idg=0 psp=0
MM6 Y B VDD! VDD! pfet m=1 l=120.0n w=640.0n nf=1 par=1 ngcon=1 mSwitch=0 
+ idg=0 psp=0
MM7 Y A VDD! VDD! pfet m=1 l=120.0n w=640.0n nf=1 par=1 ngcon=1 mSwitch=0 
+ idg=0 psp=0
MM3 Y A hnet10 VSS! nfet m=1 l=120.0n w=780.0n nf=1 par=1 ngcon=1 mSwitch=0 
+ idg=0 psp=0
MM2 hnet10 B hnet8 VSS! nfet m=1 l=120.0n w=780.0n nf=1 par=1 ngcon=1 
+ mSwitch=0 idg=0 psp=0
MM0 hnet9 D VSS! VSS! nfet m=1 l=120.0n w=780.0n nf=1 par=1 ngcon=1 mSwitch=0 
+ idg=0 psp=0
MM1 hnet8 C hnet9 VSS! nfet m=1 l=120.0n w=780.0n nf=1 par=1 ngcon=1 mSwitch=0 
+ idg=0 psp=0
.ENDS

************************************************************************
* Library Name: eecs427artisan
* Cell Name:    NAND2BX1TR
* View Name:    schematic
************************************************************************

.SUBCKT NAND2BX1TR AN B Y
*.PININFO AN:I B:I Y:O
MM1 nmin1 AN VSS! VSS! nfet m=1 l=120.0n w=200n nf=1 par=1 ngcon=1 mSwitch=0 
+ idg=0 psp=0
MM2 hnet14 B VSS! VSS! nfet m=1 l=120.0n w=600n nf=1 par=1 ngcon=1 mSwitch=0 
+ idg=0 psp=0
MM3 Y nmin1 hnet14 VSS! nfet m=1 l=120.0n w=600n nf=1 par=1 ngcon=1 mSwitch=0 
+ idg=0 psp=0
MM0 nmin1 AN VDD! VDD! pfet m=1 l=120.0n w=280.0n nf=1 par=1 ngcon=1 mSwitch=0 
+ idg=0 psp=0
MM4 Y B VDD! VDD! pfet m=1 l=120.0n w=640.0n nf=1 par=1 ngcon=1 mSwitch=0 
+ idg=0 psp=0
MM5 Y nmin1 VDD! VDD! pfet m=1 l=120.0n w=640.0n nf=1 par=1 ngcon=1 mSwitch=0 
+ idg=0 psp=0
.ENDS

************************************************************************
* Library Name: eecs427artisan
* Cell Name:    AND3X2TR
* View Name:    schematic
************************************************************************

.SUBCKT AND3X2TR A B C Y
*.PININFO A:I B:I C:I Y:O
MM0 Y net14 VDD! VDD! pfet m=1 l=120.0n w=1.28u nf=1 par=1 ngcon=1 mSwitch=0 
+ idg=0 psp=0
MM6 net14 B VDD! VDD! pfet m=1 l=120.0n w=500n nf=1 par=1 ngcon=1 mSwitch=0 
+ idg=0 psp=0
MM7 net14 A VDD! VDD! pfet m=1 l=120.0n w=500n nf=1 par=1 ngcon=1 mSwitch=0 
+ idg=0 psp=0
MM5 net14 C VDD! VDD! pfet m=1 l=120.0n w=500n nf=1 par=1 ngcon=1 mSwitch=0 
+ idg=0 psp=0
MM2 hnet17 C VSS! VSS! nfet m=1 l=120.0n w=580.0n nf=1 par=1 ngcon=1 mSwitch=0 
+ idg=0 psp=0
MM3 hnet12 B hnet17 VSS! nfet m=1 l=120.0n w=580.0n nf=1 par=1 ngcon=1 
+ mSwitch=0 idg=0 psp=0
MM4 net14 A hnet12 VSS! nfet m=1 l=120.0n w=580.0n nf=1 par=1 ngcon=1 
+ mSwitch=0 idg=0 psp=0
MM1 Y net14 VSS! VSS! nfet m=1 l=120.0n w=920.0n nf=1 par=1 ngcon=1 mSwitch=0 
+ idg=0 psp=0
.ENDS

************************************************************************
* Library Name: eecs427artisan
* Cell Name:    NOR3X1TR
* View Name:    schematic
************************************************************************

.SUBCKT NOR3X1TR A B C Y
*.PININFO A:I B:I C:I Y:O
MM1 Y B VSS! VSS! nfet m=1 l=120.0n w=460.0n nf=1 par=1 ngcon=1 mSwitch=0 
+ idg=0 psp=0
MM2 Y A VSS! VSS! nfet m=1 l=120.0n w=460.0n nf=1 par=1 ngcon=1 mSwitch=0 
+ idg=0 psp=0
MM0 Y C VSS! VSS! nfet m=1 l=120.0n w=460.0n nf=1 par=1 ngcon=1 mSwitch=0 
+ idg=0 psp=0
MM5 Y A hnet13 VDD! pfet m=1 l=120.0n w=1.02u nf=1 par=1 ngcon=1 mSwitch=0 
+ idg=0 psp=0
MM3 hnet14 C VDD! VDD! pfet m=1 l=120.0n w=1.02u nf=1 par=1 ngcon=1 mSwitch=0 
+ idg=0 psp=0
MM4 hnet13 B hnet14 VDD! pfet m=1 l=120.0n w=1.02u nf=1 par=1 ngcon=1 
+ mSwitch=0 idg=0 psp=0
.ENDS

************************************************************************
* Library Name: eecs427artisan
* Cell Name:    TIEHITR
* View Name:    schematic
************************************************************************

.SUBCKT TIEHITR Y
*.PININFO Y:O
MM1 VDD! net4 Y VDD! pfet m=1 l=120.0n w=640.0n nf=1 par=1 ngcon=1 mSwitch=0 
+ idg=0 psp=0
MM0 net4 net4 VSS! VSS! nfet m=1 l=120.0n w=200n nf=1 par=1 ngcon=1 mSwitch=0 
+ idg=0 psp=0
.ENDS

************************************************************************
* Library Name: eecs427artisan
* Cell Name:    INVX2TR
* View Name:    schematic
************************************************************************

.SUBCKT INVX2TR A Y
*.PININFO A:I Y:O
MM1 Y A VSS! VSS! nfet m=1 l=120.0n w=920.0n nf=1 par=1 ngcon=1 mSwitch=0 
+ idg=0 psp=0
MM0 Y A VDD! VDD! pfet m=1 l=120.0n w=1.28u nf=1 par=1 ngcon=1 mSwitch=0 idg=0 
+ psp=0
.ENDS

************************************************************************
* Library Name: eecs427artisan
* Cell Name:    AOI21X1TR
* View Name:    schematic
************************************************************************

.SUBCKT AOI21X1TR A0 A1 B0 Y
*.PININFO A0:I A1:I B0:I Y:O
MM5 Y B0 VSS! VSS! nfet m=1 l=120.0n w=460.0n nf=1 par=1 ngcon=1 mSwitch=0 
+ idg=0 psp=0
MM0 hnet13 A1 VSS! VSS! nfet m=1 l=120.0n w=600n nf=1 par=1 ngcon=1 mSwitch=0 
+ idg=0 psp=0
MM1 Y A0 hnet13 VSS! nfet m=1 l=120.0n w=600n nf=1 par=1 ngcon=1 mSwitch=0 
+ idg=0 psp=0
MM3 VDD! A1 net29 VDD! pfet m=1 l=120.0n w=840.0n nf=1 par=1 ngcon=1 mSwitch=0 
+ idg=0 psp=0
MM2 net29 B0 Y VDD! pfet m=1 l=120.0n w=840.0n nf=1 par=1 ngcon=1 mSwitch=0 
+ idg=0 psp=0
MM4 VDD! A0 net29 VDD! pfet m=1 l=120.0n w=840.0n nf=1 par=1 ngcon=1 mSwitch=0 
+ idg=0 psp=0
.ENDS

************************************************************************
* Library Name: eecs427artisan
* Cell Name:    OAI211X4TR
* View Name:    schematic
************************************************************************

.SUBCKT OAI211X4TR A0 A1 B0 C0 Y
*.PININFO A0:I A1:I B0:I C0:I Y:O
MM1 net19 net23 VSS! VSS! nfet m=1 l=120.0n w=740.0n nf=1 par=1 ngcon=1 
+ mSwitch=0 idg=0 psp=0
MM3 Y net19 VSS! VSS! nfet m=1 l=120.0n w=1.84u nf=1 par=1 ngcon=1 mSwitch=0 
+ idg=0 psp=0
MM8 net37 A1 VSS! VSS! nfet m=1 l=120.0n w=460.0n nf=1 par=1 ngcon=1 mSwitch=0 
+ idg=0 psp=0
MM9 net37 A0 VSS! VSS! nfet m=1 l=120.0n w=460.0n nf=1 par=1 ngcon=1 mSwitch=0 
+ idg=0 psp=0
MM6 net30 C0 net37 VSS! nfet m=1 l=120.0n w=460.0n nf=1 par=1 ngcon=1 
+ mSwitch=0 idg=0 psp=0
MM7 net23 B0 net30 VSS! nfet m=1 l=120.0n w=460.0n nf=1 par=1 ngcon=1 
+ mSwitch=0 idg=0 psp=0
MM2 Y net19 VDD! VDD! pfet m=1 l=120.0n w=2.56u nf=1 par=1 ngcon=1 mSwitch=0 
+ idg=0 psp=0
MM0 net19 net23 VDD! VDD! pfet m=1 l=120.0n w=1.02u nf=1 par=1 ngcon=1 
+ mSwitch=0 idg=0 psp=0
MM5 net23 A0 hnet21 VDD! pfet m=1 l=120.0n w=540.0n nf=1 par=1 ngcon=1 
+ mSwitch=0 idg=0 psp=0
MM4 hnet21 A1 VDD! VDD! pfet m=1 l=120.0n w=540.0n nf=1 par=1 ngcon=1 
+ mSwitch=0 idg=0 psp=0
MM11 VDD! B0 net23 VDD! pfet m=1 l=120.0n w=400n nf=1 par=1 ngcon=1 mSwitch=0 
+ idg=0 psp=0
MM10 VDD! C0 net23 VDD! pfet m=1 l=120.0n w=400n nf=1 par=1 ngcon=1 mSwitch=0 
+ idg=0 psp=0
.ENDS

************************************************************************
* Library Name: eecs427artisan
* Cell Name:    AOI22X1TR
* View Name:    schematic
************************************************************************

.SUBCKT AOI22X1TR A0 A1 B0 B1 Y
*.PININFO A0:I A1:I B0:I B1:I Y:O
MM2 hnet18 B1 VSS! VSS! nfet m=1 l=120.0n w=600n nf=1 par=1 ngcon=1 mSwitch=0 
+ idg=0 psp=0
MM3 Y B0 hnet18 VSS! nfet m=1 l=120.0n w=600n nf=1 par=1 ngcon=1 mSwitch=0 
+ idg=0 psp=0
MM1 Y A0 hnet13 VSS! nfet m=1 l=120.0n w=600n nf=1 par=1 ngcon=1 mSwitch=0 
+ idg=0 psp=0
MM0 hnet13 A1 VSS! VSS! nfet m=1 l=120.0n w=600n nf=1 par=1 ngcon=1 mSwitch=0 
+ idg=0 psp=0
MM4 VDD! B0 net30 VDD! pfet m=1 l=120.0n w=840.0n nf=1 par=1 ngcon=1 mSwitch=0 
+ idg=0 psp=0
MM6 VDD! B1 net30 VDD! pfet m=1 l=120.0n w=840.0n nf=1 par=1 ngcon=1 mSwitch=0 
+ idg=0 psp=0
MM5 net30 A0 Y VDD! pfet m=1 l=120.0n w=840.0n nf=1 par=1 ngcon=1 mSwitch=0 
+ idg=0 psp=0
MM7 net30 A1 Y VDD! pfet m=1 l=120.0n w=840.0n nf=1 par=1 ngcon=1 mSwitch=0 
+ idg=0 psp=0
.ENDS

************************************************************************
* Library Name: eecs427artisan
* Cell Name:    OAI33X1TR
* View Name:    schematic
************************************************************************

.SUBCKT OAI33X1TR A0 A1 A2 B0 B1 B2 Y
*.PININFO A0:I A1:I A2:I B0:I B1:I B2:I Y:O
MM8 Y A1 net57 VSS! nfet m=1 l=120.0n w=600n nf=1 par=1 ngcon=1 mSwitch=0 
+ idg=0 psp=0
MM7 Y A0 net57 VSS! nfet m=1 l=120.0n w=600n nf=1 par=1 ngcon=1 mSwitch=0 
+ idg=0 psp=0
MM11 net57 B2 VSS! VSS! nfet m=1 l=120.0n w=600n nf=1 par=1 ngcon=1 mSwitch=0 
+ idg=0 psp=0
MM10 net57 B1 VSS! VSS! nfet m=1 l=120.0n w=600n nf=1 par=1 ngcon=1 mSwitch=0 
+ idg=0 psp=0
MM9 Y A2 net57 VSS! nfet m=1 l=120.0n w=600n nf=1 par=1 ngcon=1 mSwitch=0 
+ idg=0 psp=0
MM6 net57 B0 VSS! VSS! nfet m=1 l=120.0n w=600n nf=1 par=1 ngcon=1 mSwitch=0 
+ idg=0 psp=0
MM2 Y A0 hnet18 VDD! pfet m=1 l=120.0n w=1.02u nf=1 par=1 ngcon=1 mSwitch=0 
+ idg=0 psp=0
MM3 hnet19 B2 VDD! VDD! pfet m=1 l=120.0n w=1.02u nf=1 par=1 ngcon=1 mSwitch=0 
+ idg=0 psp=0
MM0 hnet12 A2 VDD! VDD! pfet m=1 l=120.0n w=1.02u nf=1 par=1 ngcon=1 mSwitch=0 
+ idg=0 psp=0
MM5 Y B0 hnet25 VDD! pfet m=1 l=120.0n w=1.02u nf=1 par=1 ngcon=1 mSwitch=0 
+ idg=0 psp=0
MM1 hnet18 A1 hnet12 VDD! pfet m=1 l=120.0n w=1.02u nf=1 par=1 ngcon=1 
+ mSwitch=0 idg=0 psp=0
MM4 hnet25 B1 hnet19 VDD! pfet m=1 l=120.0n w=1.02u nf=1 par=1 ngcon=1 
+ mSwitch=0 idg=0 psp=0
.ENDS

************************************************************************
* Library Name: eecs427artisan
* Cell Name:    XNOR2X1TR
* View Name:    schematic
************************************************************************

.SUBCKT XNOR2X1TR A B Y
*.PININFO A:I B:I Y:O
MM7 net35 nmin2 VSS! VSS! nfet m=1 l=120.0n w=560.0n nf=1 par=1 ngcon=1 
+ mSwitch=0 idg=0 psp=0
MM3 Y nmin1 nmin2 VSS! nfet m=1 l=120.0n w=560.0n nf=1 par=1 ngcon=1 mSwitch=0 
+ idg=0 psp=0
MM2 Y A net35 VSS! nfet m=1 l=120.0n w=560.0n nf=1 par=1 ngcon=1 mSwitch=0 
+ idg=0 psp=0
MM9 nmin2 B VSS! VSS! nfet m=1 l=120.0n w=560.0n nf=1 par=1 ngcon=1 mSwitch=0 
+ idg=0 psp=0
MM5 nmin1 A VSS! VSS! nfet m=1 l=120.0n w=220.0n nf=1 par=1 ngcon=1 mSwitch=0 
+ idg=0 psp=0
MM8 nmin2 B VDD! VDD! pfet m=1 l=120.0n w=720.0n nf=1 par=1 ngcon=1 mSwitch=0 
+ idg=0 psp=0
MM1 nmin2 A Y VDD! pfet m=1 l=120.0n w=780.0n nf=1 par=1 ngcon=1 mSwitch=0 
+ idg=0 psp=0
MM6 net35 nmin2 VDD! VDD! pfet m=1 l=120.0n w=780.0n nf=1 par=1 ngcon=1 
+ mSwitch=0 idg=0 psp=0
MM0 net35 nmin1 Y VDD! pfet m=1 l=120.0n w=780.0n nf=1 par=1 ngcon=1 mSwitch=0 
+ idg=0 psp=0
MM4 nmin1 A VDD! VDD! pfet m=1 l=120.0n w=300n nf=1 par=1 ngcon=1 mSwitch=0 
+ idg=0 psp=0
.ENDS

************************************************************************
* Library Name: eecs427artisan
* Cell Name:    AO21X1TR
* View Name:    schematic
************************************************************************

.SUBCKT AO21X1TR A0 A1 B0 Y
*.PININFO A0:I A1:I B0:I Y:O
MM7 nmin B0 VSS! VSS! nfet m=1 l=120.0n w=200n nf=1 par=1 ngcon=1 mSwitch=0 
+ idg=0 psp=0
MM1 Y nmin VSS! VSS! nfet m=1 l=120.0n w=460.0n nf=1 par=1 ngcon=1 mSwitch=0 
+ idg=0 psp=0
MM2 hnet16 A1 VSS! VSS! nfet m=1 l=120.0n w=240.0n nf=1 par=1 ngcon=1 
+ mSwitch=0 idg=0 psp=0
MM3 nmin A0 hnet16 VSS! nfet m=1 l=120.0n w=240.0n nf=1 par=1 ngcon=1 
+ mSwitch=0 idg=0 psp=0
MM5 VDD! A1 net31 VDD! pfet m=1 l=120.0n w=340.0n nf=1 par=1 ngcon=1 mSwitch=0 
+ idg=0 psp=0
MM4 net31 B0 nmin VDD! pfet m=1 l=120.0n w=340.0n nf=1 par=1 ngcon=1 mSwitch=0 
+ idg=0 psp=0
MM6 VDD! A0 net31 VDD! pfet m=1 l=120.0n w=340.0n nf=1 par=1 ngcon=1 mSwitch=0 
+ idg=0 psp=0
MM0 Y nmin VDD! VDD! pfet m=1 l=120.0n w=640.0n nf=1 par=1 ngcon=1 mSwitch=0 
+ idg=0 psp=0
.ENDS

************************************************************************
* Library Name: eecs427artisan
* Cell Name:    NOR3XLTR
* View Name:    schematic
************************************************************************

.SUBCKT NOR3XLTR A B C Y
*.PININFO A:I B:I C:I Y:O
MM1 Y B VSS! VSS! nfet m=1 l=120.0n w=240.0n nf=1 par=1 ngcon=1 mSwitch=0 
+ idg=0 psp=0
MM2 Y A VSS! VSS! nfet m=1 l=120.0n w=240.0n nf=1 par=1 ngcon=1 mSwitch=0 
+ idg=0 psp=0
MM0 Y C VSS! VSS! nfet m=1 l=120.0n w=240.0n nf=1 par=1 ngcon=1 mSwitch=0 
+ idg=0 psp=0
MM5 Y A hnet13 VDD! pfet m=1 l=120.0n w=540.0n nf=1 par=1 ngcon=1 mSwitch=0 
+ idg=0 psp=0
MM3 hnet14 C VDD! VDD! pfet m=1 l=120.0n w=540.0n nf=1 par=1 ngcon=1 mSwitch=0 
+ idg=0 psp=0
MM4 hnet13 B hnet14 VDD! pfet m=1 l=120.0n w=540.0n nf=1 par=1 ngcon=1 
+ mSwitch=0 idg=0 psp=0
.ENDS

************************************************************************
* Library Name: eecs427artisan
* Cell Name:    OAI31X1TR
* View Name:    schematic
************************************************************************

.SUBCKT OAI31X1TR A0 A1 A2 B0 Y
*.PININFO A0:I A1:I A2:I B0:I Y:O
MM0 hnet11 A2 VDD! VDD! pfet m=1 l=120.0n w=1.02u nf=1 par=1 ngcon=1 mSwitch=0 
+ idg=0 psp=0
MM1 hnet16 A1 hnet11 VDD! pfet m=1 l=120.0n w=1.02u nf=1 par=1 ngcon=1 
+ mSwitch=0 idg=0 psp=0
MM2 Y A0 hnet16 VDD! pfet m=1 l=120.0n w=1.02u nf=1 par=1 ngcon=1 mSwitch=0 
+ idg=0 psp=0
MM7 VDD! B0 Y VDD! pfet m=1 l=120.0n w=640.0n nf=1 par=1 ngcon=1 mSwitch=0 
+ idg=0 psp=0
MM6 net24 A1 VSS! VSS! nfet m=1 l=120.0n w=600n nf=1 par=1 ngcon=1 mSwitch=0 
+ idg=0 psp=0
MM3 net24 A0 VSS! VSS! nfet m=1 l=120.0n w=600n nf=1 par=1 ngcon=1 mSwitch=0 
+ idg=0 psp=0
MM5 net24 A2 VSS! VSS! nfet m=1 l=120.0n w=600n nf=1 par=1 ngcon=1 mSwitch=0 
+ idg=0 psp=0
MM4 Y B0 net24 VSS! nfet m=1 l=120.0n w=600n nf=1 par=1 ngcon=1 mSwitch=0 
+ idg=0 psp=0
.ENDS

************************************************************************
* Library Name: eecs427artisan
* Cell Name:    AOI31X1TR
* View Name:    schematic
************************************************************************

.SUBCKT AOI31X1TR A0 A1 A2 B0 Y
*.PININFO A0:I A1:I A2:I B0:I Y:O
MM1 hnet11 A1 hnet16 VSS! nfet m=1 l=120.0n w=660.0n nf=1 par=1 ngcon=1 
+ mSwitch=0 idg=0 psp=0
MM0 hnet16 A2 VSS! VSS! nfet m=1 l=120.0n w=660.0n nf=1 par=1 ngcon=1 
+ mSwitch=0 idg=0 psp=0
MM7 Y B0 VSS! VSS! nfet m=1 l=120.0n w=460.0n nf=1 par=1 ngcon=1 mSwitch=0 
+ idg=0 psp=0
MM2 Y A0 hnet11 VSS! nfet m=1 l=120.0n w=660.0n nf=1 par=1 ngcon=1 mSwitch=0 
+ idg=0 psp=0
MM6 VDD! A1 net23 VDD! pfet m=1 l=120.0n w=840.0n nf=1 par=1 ngcon=1 mSwitch=0 
+ idg=0 psp=0
MM3 VDD! A0 net23 VDD! pfet m=1 l=120.0n w=840.0n nf=1 par=1 ngcon=1 mSwitch=0 
+ idg=0 psp=0
MM5 VDD! A2 net23 VDD! pfet m=1 l=120.0n w=840.0n nf=1 par=1 ngcon=1 mSwitch=0 
+ idg=0 psp=0
MM4 net23 B0 Y VDD! pfet m=1 l=120.0n w=840.0n nf=1 par=1 ngcon=1 mSwitch=0 
+ idg=0 psp=0
.ENDS

************************************************************************
* Library Name: eecs427artisan
* Cell Name:    OR2X2TR
* View Name:    schematic
************************************************************************

.SUBCKT OR2X2TR A B Y
*.PININFO A:I B:I Y:O
MM0 Y nmin VDD! VDD! pfet m=1 l=120.0n w=1.28u nf=1 par=1 ngcon=1 mSwitch=0 
+ idg=0 psp=0
MM4 hnet12 B VDD! VDD! pfet m=1 l=120.0n w=660.0n nf=1 par=1 ngcon=1 mSwitch=0 
+ idg=0 psp=0
MM5 nmin A hnet12 VDD! pfet m=1 l=120.0n w=660.0n nf=1 par=1 ngcon=1 mSwitch=0 
+ idg=0 psp=0
MM2 nmin B VSS! VSS! nfet m=1 l=120.0n w=360.0n nf=1 par=1 ngcon=1 mSwitch=0 
+ idg=0 psp=0
MM3 nmin A VSS! VSS! nfet m=1 l=120.0n w=360.0n nf=1 par=1 ngcon=1 mSwitch=0 
+ idg=0 psp=0
MM1 Y nmin VSS! VSS! nfet m=1 l=120.0n w=920.0n nf=1 par=1 ngcon=1 mSwitch=0 
+ idg=0 psp=0
.ENDS

************************************************************************
* Library Name: eecs427artisan
* Cell Name:    OAI32XLTR
* View Name:    schematic
************************************************************************

.SUBCKT OAI32XLTR A0 A1 A2 B0 B1 Y
*.PININFO A0:I A1:I A2:I B0:I B1:I Y:O
MM3 hnet21 B1 VDD! VDD! pfet m=1 l=120.0n w=440.0n nf=1 par=1 ngcon=1 
+ mSwitch=0 idg=0 psp=0
MM2 Y A0 hnet17 VDD! pfet m=1 l=120.0n w=540.0n nf=1 par=1 ngcon=1 mSwitch=0 
+ idg=0 psp=0
MM0 hnet11 A2 VDD! VDD! pfet m=1 l=120.0n w=540.0n nf=1 par=1 ngcon=1 
+ mSwitch=0 idg=0 psp=0
MM1 hnet17 A1 hnet11 VDD! pfet m=1 l=120.0n w=540.0n nf=1 par=1 ngcon=1 
+ mSwitch=0 idg=0 psp=0
MM4 Y B0 hnet21 VDD! pfet m=1 l=120.0n w=440.0n nf=1 par=1 ngcon=1 mSwitch=0 
+ idg=0 psp=0
MM5 net46 A0 VSS! VSS! nfet m=1 l=120.0n w=400n nf=1 par=1 ngcon=1 mSwitch=0 
+ idg=0 psp=0
MM8 net46 A1 VSS! VSS! nfet m=1 l=120.0n w=400n nf=1 par=1 ngcon=1 mSwitch=0 
+ idg=0 psp=0
MM9 net46 A2 VSS! VSS! nfet m=1 l=120.0n w=400n nf=1 par=1 ngcon=1 mSwitch=0 
+ idg=0 psp=0
MM7 Y B1 net46 VSS! nfet m=1 l=120.0n w=400n nf=1 par=1 ngcon=1 mSwitch=0 
+ idg=0 psp=0
MM6 Y B0 net46 VSS! nfet m=1 l=120.0n w=400n nf=1 par=1 ngcon=1 mSwitch=0 
+ idg=0 psp=0
.ENDS

************************************************************************
* Library Name: eecs427artisan
* Cell Name:    AOI32X1TR
* View Name:    schematic
************************************************************************

.SUBCKT AOI32X1TR A0 A1 A2 B0 B1 Y
*.PININFO A0:I A1:I A2:I B0:I B1:I Y:O
MM0 hnet17 A2 VSS! VSS! nfet m=1 l=120.0n w=720.0n nf=1 par=1 ngcon=1 
+ mSwitch=0 idg=0 psp=0
MM1 hnet11 A1 hnet17 VSS! nfet m=1 l=120.0n w=720.0n nf=1 par=1 ngcon=1 
+ mSwitch=0 idg=0 psp=0
MM4 Y B0 hnet21 VSS! nfet m=1 l=120.0n w=600n nf=1 par=1 ngcon=1 mSwitch=0 
+ idg=0 psp=0
MM3 hnet21 B1 VSS! VSS! nfet m=1 l=120.0n w=600n nf=1 par=1 ngcon=1 mSwitch=0 
+ idg=0 psp=0
MM2 Y A0 hnet11 VSS! nfet m=1 l=120.0n w=720.0n nf=1 par=1 ngcon=1 mSwitch=0 
+ idg=0 psp=0
MM8 VDD! A2 net37 VDD! pfet m=1 l=120.0n w=840.0n nf=1 par=1 ngcon=1 mSwitch=0 
+ idg=0 psp=0
MM9 net37 B1 Y VDD! pfet m=1 l=120.0n w=840.0n nf=1 par=1 ngcon=1 mSwitch=0 
+ idg=0 psp=0
MM5 VDD! A0 net37 VDD! pfet m=1 l=120.0n w=840.0n nf=1 par=1 ngcon=1 mSwitch=0 
+ idg=0 psp=0
MM6 VDD! A1 net37 VDD! pfet m=1 l=120.0n w=840.0n nf=1 par=1 ngcon=1 mSwitch=0 
+ idg=0 psp=0
MM7 net37 B0 Y VDD! pfet m=1 l=120.0n w=840.0n nf=1 par=1 ngcon=1 mSwitch=0 
+ idg=0 psp=0
.ENDS

************************************************************************
* Library Name: CAD8_LIB
* Cell Name:    controller
* View Name:    schematic
************************************************************************

.SUBCKT controller AluSEL<1> AluSEL<0> Amount<1> Amount<0> Br C CEN DIn<15> 
+ DIn<14> DIn<13> DIn<12> DIn<11> DIn<10> DIn<9> DIn<8> DIn<7> DIn<6> DIn<5> 
+ DIn<4> DIn<3> DIn<2> DIn<1> DIn<0> DOut<15> DOut<14> DOut<13> DOut<12> 
+ DOut<11> DOut<10> DOut<9> DOut<8> DOut<7> DOut<6> DOut<5> DOut<4> DOut<3> 
+ DOut<2> DOut<1> DOut<0> DSEL<1> DSEL<0> F FunISEL<1> FunISEL<0> Jmp LuiSEL 
+ MovSEL N ReadA<15> ReadA<14> ReadA<13> ReadA<12> ReadA<11> ReadA<10> 
+ ReadA<9> ReadA<8> ReadA<7> ReadA<6> ReadA<5> ReadA<4> ReadA<3> ReadA<2> 
+ ReadA<1> ReadA<0> ReadB<15> ReadB<14> ReadB<13> ReadB<12> ReadB<11> 
+ ReadB<10> ReadB<9> ReadB<8> ReadB<7> ReadB<6> ReadB<5> ReadB<4> ReadB<3> 
+ ReadB<2> ReadB<1> ReadB<0> SEL1 WE<15> WE<14> WE<13> WE<12> WE<11> WE<10> 
+ WE<9> WE<8> WE<7> WE<6> WE<5> WE<4> WE<3> WE<2> WE<1> WE<0> WEMaster WEN Z 
+ clk imm8_disp<7> imm8_disp<6> imm8_disp<5> imm8_disp<4> imm8_disp<3> 
+ imm8_disp<2> imm8_disp<1> imm8_disp<0> instruIn<15> instruIn<14> 
+ instruIn<13> instruIn<12> instruIn<11> instruIn<10> instruIn<9> instruIn<8> 
+ instruIn<7> instruIn<6> instruIn<5> instruIn<4> instruIn<3> instruIn<2> 
+ instruIn<1> instruIn<0> pc<9> pc<8> pc<7> pc<6> pc<5> pc<4> pc<3> pc<2> 
+ pc<1> pc<0>
*.PININFO C:I DIn<15>:I DIn<14>:I DIn<13>:I DIn<12>:I DIn<11>:I DIn<10>:I 
*.PININFO DIn<9>:I DIn<8>:I DIn<7>:I DIn<6>:I DIn<5>:I DIn<4>:I DIn<3>:I 
*.PININFO DIn<2>:I DIn<1>:I DIn<0>:I F:I N:I Z:I clk:I instruIn<15>:I 
*.PININFO instruIn<14>:I instruIn<13>:I instruIn<12>:I instruIn<11>:I 
*.PININFO instruIn<10>:I instruIn<9>:I instruIn<8>:I instruIn<7>:I 
*.PININFO instruIn<6>:I instruIn<5>:I instruIn<4>:I instruIn<3>:I 
*.PININFO instruIn<2>:I instruIn<1>:I instruIn<0>:I pc<9>:I pc<8>:I pc<7>:I 
*.PININFO pc<6>:I pc<5>:I pc<4>:I pc<3>:I pc<2>:I pc<1>:I pc<0>:I AluSEL<1>:O 
*.PININFO AluSEL<0>:O Amount<1>:O Amount<0>:O Br:O CEN:O DOut<15>:O DOut<14>:O 
*.PININFO DOut<13>:O DOut<12>:O DOut<11>:O DOut<10>:O DOut<9>:O DOut<8>:O 
*.PININFO DOut<7>:O DOut<6>:O DOut<5>:O DOut<4>:O DOut<3>:O DOut<2>:O 
*.PININFO DOut<1>:O DOut<0>:O DSEL<1>:O DSEL<0>:O FunISEL<1>:O FunISEL<0>:O 
*.PININFO Jmp:O LuiSEL:O MovSEL:O ReadA<15>:O ReadA<14>:O ReadA<13>:O 
*.PININFO ReadA<12>:O ReadA<11>:O ReadA<10>:O ReadA<9>:O ReadA<8>:O ReadA<7>:O 
*.PININFO ReadA<6>:O ReadA<5>:O ReadA<4>:O ReadA<3>:O ReadA<2>:O ReadA<1>:O 
*.PININFO ReadA<0>:O ReadB<15>:O ReadB<14>:O ReadB<13>:O ReadB<12>:O 
*.PININFO ReadB<11>:O ReadB<10>:O ReadB<9>:O ReadB<8>:O ReadB<7>:O ReadB<6>:O 
*.PININFO ReadB<5>:O ReadB<4>:O ReadB<3>:O ReadB<2>:O ReadB<1>:O ReadB<0>:O 
*.PININFO SEL1:O WE<15>:O WE<14>:O WE<13>:O WE<12>:O WE<11>:O WE<10>:O WE<9>:O 
*.PININFO WE<8>:O WE<7>:O WE<6>:O WE<5>:O WE<4>:O WE<3>:O WE<2>:O WE<1>:O 
*.PININFO WE<0>:O WEMaster:O WEN:O imm8_disp<7>:O imm8_disp<6>:O 
*.PININFO imm8_disp<5>:O imm8_disp<4>:O imm8_disp<3>:O imm8_disp<2>:O 
*.PININFO imm8_disp<1>:O imm8_disp<0>:O
XU254 rDest_3_0 NOUT n1 / NOR2X1TR
XU274 imm8_disp<6> Amount<1> Amount<0> / NOR2X1TR
XU218 DSEL<0> n42 DSEL<1> / NOR2X1TR
XU264 n30 n101 SEL1 / NOR2X1TR
XU267 opCode_2_0 opCode_3_0 n46 / NOR2X1TR
XU272 imm8_disp<6> n125 n48 / NOR2X1TR
XU215 n120 n117 ReadA<15> / NOR2X1TR
XU214 n119 n117 ReadA<14> / NOR2X1TR
XU213 n121 n120 ReadA<7> / NOR2X1TR
XU212 n121 n119 ReadA<6> / NOR2X1TR
XU211 n120 n118 ReadA<3> / NOR2X1TR
XU207 n123 n120 ReadA<11> / NOR2X1TR
XU210 n119 n118 ReadA<2> / NOR2X1TR
XU206 n123 n119 ReadA<10> / NOR2X1TR
XU209 n122 n117 ReadA<12> / NOR2X1TR
XU204 n124 n117 ReadA<13> / NOR2X1TR
XU208 n122 n121 ReadA<4> / NOR2X1TR
XU205 n123 n122 ReadA<8> / NOR2X1TR
XU158 n122 n118 ReadA<0> / NOR2X1TR
XU203 n124 n123 ReadA<9> / NOR2X1TR
XU202 n124 n121 ReadA<5> / NOR2X1TR
XU201 n124 n118 ReadA<1> / NOR2X1TR
XU227 n100 rDest_1_0 n9 / NOR2X1TR
XU200 n112 n109 ReadB<15> / NOR2X1TR
XU199 n112 n110 ReadB<3> / NOR2X1TR
XU198 n113 n112 ReadB<7> / NOR2X1TR
XU196 n115 n112 ReadB<11> / NOR2X1TR
XU197 n113 n111 ReadB<6> / NOR2X1TR
XU195 n115 n111 ReadB<10> / NOR2X1TR
XU189 n111 n109 ReadB<14> / NOR2X1TR
XU188 n111 n110 ReadB<2> / NOR2X1TR
XU194 n115 n114 ReadB<8> / NOR2X1TR
XU187 n114 n109 ReadB<12> / NOR2X1TR
XU186 n114 n113 ReadB<4> / NOR2X1TR
XU157 n114 n110 ReadB<0> / NOR2X1TR
XU190 n116 n110 ReadB<1> / NOR2X1TR
XU191 n116 n113 ReadB<5> / NOR2X1TR
XU193 n116 n109 ReadB<13> / NOR2X1TR
XU192 n116 n115 ReadB<9> / NOR2X1TR
XU269 ZOUT NOUT N189 / NAND2X1TR
XU219 n39 n40 Jmp / NAND2X1TR
XU263 opCode_0_0 opCode_2_0 n31 / NAND2X1TR
XU159 n41 n90 FunISEL<0> / NAND2X1TR
XU271 opCode_3_0 n43 n34 / NAND2X1TR
XU217 n29 n101 WEN / NAND2X1TR
XU154 imm8_disp<2> imm8_disp<3> n117 / NAND2X1TR
XU150 imm8_disp<1> imm8_disp<0> n120 / NAND2X1TR
XU152 imm8_disp<1> n108 n119 / NAND2X1TR
XU182 n108 n107 n122 / NAND2X1TR
XU149 imm8_disp<3> n106 n123 / NAND2X1TR
XU148 imm8_disp<0> n107 n124 / NAND2X1TR
XU184 n106 n105 n118 / NAND2X1TR
XU151 imm8_disp<2> n105 n121 / NAND2X1TR
XU153 rDest_1_0 rDest_0_0 n112 / NAND2X1TR
XU144 rDest_1_0 n100 n111 / NAND2X1TR
XU181 n100 n99 n114 / NAND2X1TR
XU147 rDest_0_0 n99 n116 / NAND2X1TR
XU183 n98 n97 n110 / NAND2X1TR
XU146 rDest_2_0 n97 n113 / NAND2X1TR
XU155 rDest_2_0 rDest_3_0 n109 / NAND2X1TR
XU145 rDest_3_0 n98 n115 / NAND2X1TR
XFOUT_reg clk__N0 F NeTt_663 N280 / DFFXLTR
XCOUT_reg clk__N0 C COUT NeTt_664 / DFFXLTR
XWE_reg_15_0 clk__L1_N0 N78 WE<15> NeTt_665 / DFFXLTR
XWE_reg_14_0 clk__L1_N0 N77 WE<14> NeTt_666 / DFFXLTR
XWE_reg_13_0 clk__L1_N0 N76 WE<13> NeTt_667 / DFFXLTR
XWE_reg_12_0 clk__L1_N0 N75 WE<12> NeTt_668 / DFFXLTR
XWE_reg_11_0 clk__L1_N0 N74 WE<11> NeTt_669 / DFFXLTR
XWE_reg_10_0 clk__L1_N0 N73 WE<10> NeTt_670 / DFFXLTR
XWE_reg_9_0 clk__L1_N0 N72 WE<9> NeTt_671 / DFFXLTR
XWE_reg_8_0 clk__L1_N0 N71 WE<8> NeTt_672 / DFFXLTR
XWE_reg_7_0 clk__L1_N0 N70 WE<7> NeTt_673 / DFFXLTR
XWE_reg_6_0 clk__L1_N0 N69 WE<6> NeTt_674 / DFFXLTR
XWE_reg_5_0 clk__L1_N0 N68 WE<5> NeTt_675 / DFFXLTR
XWE_reg_4_0 clk__L1_N0 N67 WE<4> NeTt_676 / DFFXLTR
XWE_reg_3_0 clk__L1_N0 N66 WE<3> NeTt_677 / DFFXLTR
XWE_reg_2_0 clk__L1_N0 N65 WE<2> NeTt_678 / DFFXLTR
XWE_reg_1_0 clk__N0 N64 WE<1> NeTt_679 / DFFXLTR
XWE_reg_0_0 clk__N0 N63 WE<0> NeTt_680 / DFFXLTR
XinstruReg_reg_5_0 clk__N0 instruIn<5> imm8_disp<5> n103 / DFFXLTR
XinstruReg_reg_4_0 clk__N0 instruIn<4> imm8_disp<4> n104 / DFFXLTR
XinstruReg_reg_15_0 clk__N0 instruIn<15> opCode_3_0 n90 / DFFXLTR
XinstruReg_reg_14_0 clk__N0 instruIn<14> opCode_2_0 n93 / DFFXLTR
XinstruReg_reg_13_0 clk__L1_N0 instruIn<13> opCode_1_0 n94 / DFFXLTR
XinstruReg_reg_7_0 clk__N0 instruIn<7> n125 n101 / DFFXLTR
XinstruReg_reg_12_0 clk__N0 instruIn<12> opCode_0_0 NeTt_681 / DFFXLTR
XinstruReg_reg_0_0 clk__N0 instruIn<0> imm8_disp<0> n108 / DFFXLTR
XinstruReg_reg_1_0 clk__N0 instruIn<1> imm8_disp<1> n107 / DFFXLTR
XinstruReg_reg_2_0 clk__N0 instruIn<2> imm8_disp<2> n106 / DFFXLTR
XinstruReg_reg_3_0 clk__N0 instruIn<3> imm8_disp<3> n105 / DFFXLTR
XZOUT_reg clk__N0 Z ZOUT NeTt_682 / DFFXLTR
XinstruReg_reg_8_0 clk__L1_N0 instruIn<8> rDest_0_0 n100 / DFFXLTR
XinstruReg_reg_9_0 clk__L1_N0 instruIn<9> rDest_1_0 n99 / DFFXLTR
XinstruReg_reg_10_0 clk__L1_N0 instruIn<10> rDest_2_0 n98 / DFFXLTR
XinstruReg_reg_11_0 clk__L1_N0 instruIn<11> rDest_3_0 n97 / DFFXLTR
XU120 rDest_3_0 n650 / CLKINVX2TR
XU252 n3 n96 / CLKINVX2TR
XU238 n7 n95 / CLKINVX2TR
XU122 rDest_0_0 n670 / CLKINVX2TR
XU261 n47 n92 / CLKINVX2TR
XU258 n46 n91 / CLKINVX2TR
XU121 n93 n660 / CLKINVX2TR
XU124 n101 imm8_disp<7> / CLKINVX2TR
XU156 FunISEL<0> n88 / CLKINVX2TR
XU127 n94 n720 / CLKINVX2TR
XFE_DBTC0_n39 n39 FE_DBTN0_n39 / CLKINVX2TR
XU22 clk__Exclude_0_NET WEMaster / CLKINVX2TR
Xclk__Exclude_0 clk clk__Exclude_0_NET / CLKBUFX8TR
Xclk__I0 clk clk__N0 / CLKBUFX20TR
Xclk__L1_I0 clk clk__L1_N0 / CLKBUFX20TR
XNOUT_reg clk__N0 N NOUT / DFFQXLTR
XU251 DIn<9> n39 pc<9> FE_DBTN0_n39 DOut<9> / AO22X1TR
XU250 DIn<8> n39 pc<8> FE_DBTN0_n39 DOut<8> / AO22X1TR
XU249 DIn<7> n39 pc<7> FE_DBTN0_n39 DOut<7> / AO22X1TR
XU248 DIn<6> n39 pc<6> FE_DBTN0_n39 DOut<6> / AO22X1TR
XU247 DIn<5> n39 pc<5> FE_DBTN0_n39 DOut<5> / AO22X1TR
XU246 DIn<4> n39 pc<4> FE_DBTN0_n39 DOut<4> / AO22X1TR
XU245 DIn<3> n39 pc<3> FE_DBTN0_n39 DOut<3> / AO22X1TR
XU244 DIn<2> n39 pc<2> FE_DBTN0_n39 DOut<2> / AO22X1TR
XU243 DIn<1> n39 pc<1> FE_DBTN0_n39 DOut<1> / AO22X1TR
XU242 DIn<0> n39 pc<0> FE_DBTN0_n39 DOut<0> / AO22X1TR
XU270 n41 opCode_3_0 n44 Amount<1> / NAND3X1TR
XU256 n88 n103 imm8_disp<6> n38 / NAND3X1TR
XU220 imm8_disp<7> n37 N190 n40 / NAND3X1TR
XU237 n37 n102 n125 n39 / NAND3X1TR
XU273 n720 opCode_0_0 n46 n47 / NAND3X1TR
XinstruReg_reg_6_0 clk__N0 instruIn<6> imm8_disp<6> n102 / DFFX1TR
XU164 n43 n90 n42 / CLKAND2X2TR
XU241 n37 imm8_disp<6> n29 / CLKAND2X2TR
XU180 ReadB<15> n32 N78 / NOR2BX1TR
XU179 ReadB<14> n32 N77 / NOR2BX1TR
XU178 ReadB<13> n32 N76 / NOR2BX1TR
XU177 ReadB<12> n32 N75 / NOR2BX1TR
XU176 ReadB<11> n32 N74 / NOR2BX1TR
XU175 ReadB<10> n32 N73 / NOR2BX1TR
XU174 ReadB<9> n32 N72 / NOR2BX1TR
XU173 ReadB<8> n32 N71 / NOR2BX1TR
XU172 ReadB<7> n32 N70 / NOR2BX1TR
XU171 ReadB<6> n32 N69 / NOR2BX1TR
XU170 ReadB<5> n32 N68 / NOR2BX1TR
XU169 ReadB<4> n32 N67 / NOR2BX1TR
XU168 ReadB<3> n32 N66 / NOR2BX1TR
XU167 ReadB<2> n32 N65 / NOR2BX1TR
XU166 ReadB<1> n32 N64 / NOR2BX1TR
XU165 ReadB<0> n32 N63 / NOR2BX1TR
XU236 DIn<15> FE_DBTN0_n39 DOut<15> / NOR2BX1TR
XU235 DIn<14> FE_DBTN0_n39 DOut<14> / NOR2BX1TR
XU234 DIn<13> FE_DBTN0_n39 DOut<13> / NOR2BX1TR
XU233 DIn<12> FE_DBTN0_n39 DOut<12> / NOR2BX1TR
XU232 DIn<11> FE_DBTN0_n39 DOut<11> / NOR2BX1TR
XU231 DIn<10> FE_DBTN0_n39 DOut<10> / NOR2BX1TR
XU160 N190 n34 Br / NOR2BX1TR
XU230 imm8_disp<4> n125 n88 n102 n33 / NAND4X1TR
XU216 n36 n33 FunISEL<1> / NAND2BX1TR
XU163 n42 n104 n103 n37 / AND3X2TR
XU275 opCode_0_0 n93 opCode_3_0 n36 / AND3X2TR
XU185 n94 n90 n31 LuiSEL / NOR3X1TR
XU223 opCode_1_0 n660 opCode_0_0 n41 / NOR3X1TR
XU226 opCode_0_0 opCode_1_0 n93 n43 / NOR3X1TR
Xtie_LTIEHI tie_LTIEHI_NET / TIEHITR
XU114 tie_LTIEHI_NET CEN / INVX2TR
XU259 n48 imm8_disp<5> n720 n49 / AOI21X1TR
XU225 opCode_1_0 n36 n29 n35 / AOI21X1TR
XU224 n33 n103 n34 n35 n32 / OAI211X4TR
XU228 rDest_1_0 n2 ZOUT n9 n4 / AOI22X1TR
XU222 N188 n9 N189 n670 n8 / AOI22X1TR
XU265 opCode_3_0 n31 opCode_2_0 n90 n30 / AOI22X1TR
XU255 n31 n720 n90 n38 n101 n104 MovSEL / OAI33X1TR
XU239 n100 n1 n6 / XNOR2X1TR
XU229 rDest_0_0 COUT n2 / XNOR2X1TR
XU262 imm8_disp<4> n48 opCode_0_0 n45 / AO21X1TR
XU266 opCode_3_0 n41 LuiSEL DSEL<0> / AO21X1TR
XU118 imm8_disp<4> imm8_disp<7> imm8_disp<5> n44 / NOR3XLTR
XU253 rDest_1_0 ZOUT rDest_0_0 n650 n3 / OAI31X1TR
XU221 n8 n97 n98 n95 N190 / OAI31X1TR
XU257 n91 opCode_0_0 n49 n47 AluSEL<0> / OAI31X1TR
XU260 n45 n94 n46 n92 AluSEL<1> / AOI31X1TR
XU268 ZOUT NOUT N188 / OR2X2TR
XU117 n98 n99 n6 rDest_2_0 n5 n7 / OAI32XLTR
XU240 rDest_3_0 n99 N280 n4 n96 n5 / AOI32X1TR
.ENDS

