 -L/afs/umich.edu/class/eecs427/ibm13/cmrf8sf/V1.8.0.6LM/HSPICE/models/./:/usr/caen/hspice-2017.03-SP1/hspice/parts/ad;/usr/caen/hspice-2017.03-SP1/hspice/parts/behave;/usr/caen/hspice-2017.03-SP1/hspice/parts/bjt;/usr/caen/hspice-2017.03-SP1/hspice/parts/burr_brn;/usr/caen/hspice-2017.03-SP1/hspice/parts/comlinear;/usr/caen/hspice-2017.03-SP1/hspice/parts/dio;/usr/caen/hspice-2017.03-SP1/hspice/parts/fet;/usr/caen/hspice-2017.03-SP1/hspice/parts/lin_tech;/usr/caen/hspice-2017.03-SP1/hspice/parts/pci;/usr/caen/hspice-2017.03-SP1/hspice/parts/signet;/usr/caen/hspice-2017.03-SP1/hspice/parts/ti;/usr/caen/hspice-2017.03-SP1/hspice/parts/tline;/usr/caen/hspice-2017.03-SP1/hspice/parts/xilinx /afs/umich.edu/class/eecs427/ibm13/cmrf8sf/V1.8.0.6LM/HSPICE/models/././coupled_cpw.va #/afs/umich.edu/class/eecs427/ibm13/cmrf8sf/V1.8.0.6LM/HSPICE/models/./models.inc:10 
 -L/afs/umich.edu/class/eecs427/ibm13/cmrf8sf/V1.8.0.6LM/HSPICE/models/./:/usr/caen/hspice-2017.03-SP1/hspice/parts/ad;/usr/caen/hspice-2017.03-SP1/hspice/parts/behave;/usr/caen/hspice-2017.03-SP1/hspice/parts/bjt;/usr/caen/hspice-2017.03-SP1/hspice/parts/burr_brn;/usr/caen/hspice-2017.03-SP1/hspice/parts/comlinear;/usr/caen/hspice-2017.03-SP1/hspice/parts/dio;/usr/caen/hspice-2017.03-SP1/hspice/parts/fet;/usr/caen/hspice-2017.03-SP1/hspice/parts/lin_tech;/usr/caen/hspice-2017.03-SP1/hspice/parts/pci;/usr/caen/hspice-2017.03-SP1/hspice/parts/signet;/usr/caen/hspice-2017.03-SP1/hspice/parts/ti;/usr/caen/hspice-2017.03-SP1/hspice/parts/tline;/usr/caen/hspice-2017.03-SP1/hspice/parts/xilinx /afs/umich.edu/class/eecs427/ibm13/cmrf8sf/V1.8.0.6LM/HSPICE/models/././hacap.va #/afs/umich.edu/class/eecs427/ibm13/cmrf8sf/V1.8.0.6LM/HSPICE/models/./models.inc:11 
 -L/afs/umich.edu/class/eecs427/ibm13/cmrf8sf/V1.8.0.6LM/HSPICE/models/./:/usr/caen/hspice-2017.03-SP1/hspice/parts/ad;/usr/caen/hspice-2017.03-SP1/hspice/parts/behave;/usr/caen/hspice-2017.03-SP1/hspice/parts/bjt;/usr/caen/hspice-2017.03-SP1/hspice/parts/burr_brn;/usr/caen/hspice-2017.03-SP1/hspice/parts/comlinear;/usr/caen/hspice-2017.03-SP1/hspice/parts/dio;/usr/caen/hspice-2017.03-SP1/hspice/parts/fet;/usr/caen/hspice-2017.03-SP1/hspice/parts/lin_tech;/usr/caen/hspice-2017.03-SP1/hspice/parts/pci;/usr/caen/hspice-2017.03-SP1/hspice/parts/signet;/usr/caen/hspice-2017.03-SP1/hspice/parts/ti;/usr/caen/hspice-2017.03-SP1/hspice/parts/tline;/usr/caen/hspice-2017.03-SP1/hspice/parts/xilinx /afs/umich.edu/class/eecs427/ibm13/cmrf8sf/V1.8.0.6LM/HSPICE/models/././mvcap.va #/afs/umich.edu/class/eecs427/ibm13/cmrf8sf/V1.8.0.6LM/HSPICE/models/./models.inc:12 
 -L/afs/umich.edu/class/eecs427/ibm13/cmrf8sf/V1.8.0.6LM/HSPICE/models/./:/usr/caen/hspice-2017.03-SP1/hspice/parts/ad;/usr/caen/hspice-2017.03-SP1/hspice/parts/behave;/usr/caen/hspice-2017.03-SP1/hspice/parts/bjt;/usr/caen/hspice-2017.03-SP1/hspice/parts/burr_brn;/usr/caen/hspice-2017.03-SP1/hspice/parts/comlinear;/usr/caen/hspice-2017.03-SP1/hspice/parts/dio;/usr/caen/hspice-2017.03-SP1/hspice/parts/fet;/usr/caen/hspice-2017.03-SP1/hspice/parts/lin_tech;/usr/caen/hspice-2017.03-SP1/hspice/parts/pci;/usr/caen/hspice-2017.03-SP1/hspice/parts/signet;/usr/caen/hspice-2017.03-SP1/hspice/parts/ti;/usr/caen/hspice-2017.03-SP1/hspice/parts/tline;/usr/caen/hspice-2017.03-SP1/hspice/parts/xilinx /afs/umich.edu/class/eecs427/ibm13/cmrf8sf/V1.8.0.6LM/HSPICE/models/././esd_modules.va #/afs/umich.edu/class/eecs427/ibm13/cmrf8sf/V1.8.0.6LM/HSPICE/models/./models.inc:13 
 -L/afs/umich.edu/class/eecs427/ibm13/cmrf8sf/V1.8.0.6LM/HSPICE/models/./:/usr/caen/hspice-2017.03-SP1/hspice/parts/ad;/usr/caen/hspice-2017.03-SP1/hspice/parts/behave;/usr/caen/hspice-2017.03-SP1/hspice/parts/bjt;/usr/caen/hspice-2017.03-SP1/hspice/parts/burr_brn;/usr/caen/hspice-2017.03-SP1/hspice/parts/comlinear;/usr/caen/hspice-2017.03-SP1/hspice/parts/dio;/usr/caen/hspice-2017.03-SP1/hspice/parts/fet;/usr/caen/hspice-2017.03-SP1/hspice/parts/lin_tech;/usr/caen/hspice-2017.03-SP1/hspice/parts/pci;/usr/caen/hspice-2017.03-SP1/hspice/parts/signet;/usr/caen/hspice-2017.03-SP1/hspice/parts/ti;/usr/caen/hspice-2017.03-SP1/hspice/parts/tline;/usr/caen/hspice-2017.03-SP1/hspice/parts/xilinx /afs/umich.edu/class/eecs427/ibm13/cmrf8sf/V1.8.0.6LM/HSPICE/models/././esdnsh_spe.va #/afs/umich.edu/class/eecs427/ibm13/cmrf8sf/V1.8.0.6LM/HSPICE/models/./models.inc:14 
 -L/afs/umich.edu/class/eecs427/ibm13/cmrf8sf/V1.8.0.6LM/HSPICE/models/./:/usr/caen/hspice-2017.03-SP1/hspice/parts/ad;/usr/caen/hspice-2017.03-SP1/hspice/parts/behave;/usr/caen/hspice-2017.03-SP1/hspice/parts/bjt;/usr/caen/hspice-2017.03-SP1/hspice/parts/burr_brn;/usr/caen/hspice-2017.03-SP1/hspice/parts/comlinear;/usr/caen/hspice-2017.03-SP1/hspice/parts/dio;/usr/caen/hspice-2017.03-SP1/hspice/parts/fet;/usr/caen/hspice-2017.03-SP1/hspice/parts/lin_tech;/usr/caen/hspice-2017.03-SP1/hspice/parts/pci;/usr/caen/hspice-2017.03-SP1/hspice/parts/signet;/usr/caen/hspice-2017.03-SP1/hspice/parts/ti;/usr/caen/hspice-2017.03-SP1/hspice/parts/tline;/usr/caen/hspice-2017.03-SP1/hspice/parts/xilinx /afs/umich.edu/class/eecs427/ibm13/cmrf8sf/V1.8.0.6LM/HSPICE/models/././gsnap.va #/afs/umich.edu/class/eecs427/ibm13/cmrf8sf/V1.8.0.6LM/HSPICE/models/./models.inc:15 
 -L/afs/umich.edu/class/eecs427/ibm13/cmrf8sf/V1.8.0.6LM/HSPICE/models/./:/usr/caen/hspice-2017.03-SP1/hspice/parts/ad;/usr/caen/hspice-2017.03-SP1/hspice/parts/behave;/usr/caen/hspice-2017.03-SP1/hspice/parts/bjt;/usr/caen/hspice-2017.03-SP1/hspice/parts/burr_brn;/usr/caen/hspice-2017.03-SP1/hspice/parts/comlinear;/usr/caen/hspice-2017.03-SP1/hspice/parts/dio;/usr/caen/hspice-2017.03-SP1/hspice/parts/fet;/usr/caen/hspice-2017.03-SP1/hspice/parts/lin_tech;/usr/caen/hspice-2017.03-SP1/hspice/parts/pci;/usr/caen/hspice-2017.03-SP1/hspice/parts/signet;/usr/caen/hspice-2017.03-SP1/hspice/parts/ti;/usr/caen/hspice-2017.03-SP1/hspice/parts/tline;/usr/caen/hspice-2017.03-SP1/hspice/parts/xilinx /afs/umich.edu/class/eecs427/ibm13/cmrf8sf/V1.8.0.6LM/HSPICE/models/././single_cpw.va #/afs/umich.edu/class/eecs427/ibm13/cmrf8sf/V1.8.0.6LM/HSPICE/models/./models.inc:16 
