\o Program:		@(#)$CDS: libManager version 6.1.7 - CAT35 06/05/2018 21:25 (sjfhw306) $
\o Sub version:		sub-version  s211 
\o Arguments:		-mpssession virtuoso6486 -mpshost caen-vnc-vm08.engin.umich.edu 
\o Working Directory:	caen-vnc-vm08.engin.umich.edu:/afs/umich.edu/class/eecs427/f18/rayhan/CAD1
\o 64-bit offsets
\o Qt version: 		4.8.5
\o Log file is "/afs/umich.edu/class/eecs427/f18/rayhan/CAD1/libManager.log.1".
\o Opening libManager window.
\a nrSetCurrentWindow(cdsLibManager)
\a nrResizeWindow(cdsLibManager list(120 141 1342 758))
\o changeWorkingDir("/afs/umich.edu/class/eecs427/f18/rayhan/CAD1") unnecessary.
\o ddSetForcedLib("") unnecessary.
\o MPS service: map window
\o Library Manager customization server connected.
\a cdsLibManager->libListBox->value = "CAD1_LIB"
\a cdsLibManager->libLineEdit->value = "CAD1_LIB"
\a cdsLibManager->cellListBox->value = "INV_test"
\a cdsLibManager->cellLineEdit->value = "INV_test"
\a cdsLibManager->cellListBox->value = "MUX21"
\a cdsLibManager->cellLineEdit->value = "MUX21"
\a cdsLibManager->viewListBox->value = "layout"
\a cdsLibManager->viewLineEdit->value = "layout"
\o MPS request: edit design
\a nrListItemAction(cdsLibManager->gdmXTView 1 0)
\a cdsLibManager->libListBox->value = nil
\a cdsLibManager->libLineEdit->value = ""
\a cdsLibManager->cellListBox->value = nil
\a cdsLibManager->viewLineEdit->value = ""
\a cdsLibManager->viewListBox->value = nil
\a cdsLibManager->cellLineEdit->value = ""
\a cdsLibManager->libListBox->value = "CAD1_LIB"
\a cdsLibManager->libLineEdit->value = "CAD1_LIB"
\a cdsLibManager->cellListBox->value = "MUX21"
\a cdsLibManager->cellLineEdit->value = "MUX21"
\a cdsLibManager->viewListBox->value = "layout"
\a cdsLibManager->viewLineEdit->value = "layout"
\a cdsLibManager->viewLineEdit->value = ""
\a cdsLibManager->viewListBox->value = nil
\a cdsLibManager->viewListBox->value = "layout"
\a cdsLibManager->viewLineEdit->value = "layout"
\a nrSetCurrentWindow(cdsLibManager)
\a _lmgrCloseIconify("cdsLibManager" 1)
