s1(16Nov2018:09:38:58):  ncxlmode +delay_mode_path +typdelays -v /afs/umich.edu/class/eecs427/ibm13/resource/ibm13_verilog.include -l simout.tmp /afs/umich.edu/class/eecs427/f18/group2/CAD8/controller_test_run1/testfixture.template -f /afs/umich.edu/class/eecs427/f18/group2/CAD8/controller_test_run1/verilog.inpfiles +nostdout +nocopyright +compile +ncvlogargs+ -neverwarn -nostdout -nocopyright  
s2(16Nov2018:09:38:58):  ncxlmode +delay_mode_path +typdelays -v /afs/umich.edu/class/eecs427/ibm13/resource/ibm13_verilog.include -l simout.tmp /afs/umich.edu/class/eecs427/f18/group2/CAD8/controller_test_run1/testfixture.template -f /afs/umich.edu/class/eecs427/f18/group2/CAD8/controller_test_run1/verilog.inpfiles +nostdout +nocopyright +elaborate +ncvlogargs+ -neverwarn -nostdout -nocopyright  +ncelabargs+ -neg_tchk  -nonotifier  -sdf_NOCheck_celltype  -access +r  -pulse_e 100  -pulse_r 100  -neverwarn  -timescale 1ns/1ps -nostdout -nocopyright 
s3(16Nov2018:09:38:59):  ncxlmode +delay_mode_path +typdelays -v /afs/umich.edu/class/eecs427/ibm13/resource/ibm13_verilog.include -l simout.tmp /afs/umich.edu/class/eecs427/f18/group2/CAD8/controller_test_run1/testfixture.template -f /afs/umich.edu/class/eecs427/f18/group2/CAD8/controller_test_run1/verilog.inpfiles +nostdout +nocopyright +ncvlogargs+ -neverwarn -nostdout -nocopyright  +ncelabargs+ -neg_tchk  -nonotifier  -sdf_NOCheck_celltype  -access +r  -pulse_e 100  -pulse_r 100  -neverwarn  -timescale 1ns/1ps -nostdout -nocopyright +ncsimargs+ -neverwarn  -nocopyright -gui -input /afs/umich.edu/class/eecs427/f18/group2/CAD8/controller_test_run1/.simTmpNCCmd  +mpssession+virtuoso28430 +mpshost+eecs2331p08.engin.umich.edu 
s4(16Nov2018:16:28:42):  ncxlmode +delay_mode_path +typdelays -v /afs/umich.edu/class/eecs427/ibm13/resource/ibm13_verilog.include -l simout.tmp /afs/umich.edu/class/eecs427/f18/group2/CAD8/controller_test_run1/testfixture.template -f /afs/umich.edu/class/eecs427/f18/group2/CAD8/controller_test_run1/verilog.inpfiles +nostdout +nocopyright +compile +ncvlogargs+ -neverwarn -nostdout -nocopyright  
s5(16Nov2018:16:48:03):  ncxlmode +delay_mode_path +typdelays -v /afs/umich.edu/class/eecs427/ibm13/resource/ibm13_verilog.include -l simout.tmp /afs/umich.edu/class/eecs427/f18/group2/CAD8/controller_test_run1/testfixture.template -f /afs/umich.edu/class/eecs427/f18/group2/CAD8/controller_test_run1/verilog.inpfiles +nostdout +nocopyright +compile +ncvlogargs+ -neverwarn -nostdout -nocopyright  
s6(16Nov2018:16:48:15):  ncxlmode +delay_mode_path +typdelays -v /afs/umich.edu/class/eecs427/ibm13/resource/ibm13_verilog.include -l simout.tmp /afs/umich.edu/class/eecs427/f18/group2/CAD8/controller_test_run1/testfixture.template -f /afs/umich.edu/class/eecs427/f18/group2/CAD8/controller_test_run1/verilog.inpfiles +nostdout +nocopyright +compile +ncvlogargs+ -neverwarn -nostdout -nocopyright  
s7(16Nov2018:16:48:16):  ncxlmode +delay_mode_path +typdelays -v /afs/umich.edu/class/eecs427/ibm13/resource/ibm13_verilog.include -l simout.tmp /afs/umich.edu/class/eecs427/f18/group2/CAD8/controller_test_run1/testfixture.template -f /afs/umich.edu/class/eecs427/f18/group2/CAD8/controller_test_run1/verilog.inpfiles +nostdout +nocopyright +elaborate +ncvlogargs+ -neverwarn -nostdout -nocopyright  +ncelabargs+ -neg_tchk  -nonotifier  -sdf_NOCheck_celltype  -access +r  -pulse_e 100  -pulse_r 100  -neverwarn  -timescale 1ns/1ps -nostdout -nocopyright 
s8(16Nov2018:16:48:17):  ncxlmode +delay_mode_path +typdelays -v /afs/umich.edu/class/eecs427/ibm13/resource/ibm13_verilog.include -l simout.tmp /afs/umich.edu/class/eecs427/f18/group2/CAD8/controller_test_run1/testfixture.template -f /afs/umich.edu/class/eecs427/f18/group2/CAD8/controller_test_run1/verilog.inpfiles +nostdout +nocopyright +ncvlogargs+ -neverwarn -nostdout -nocopyright  +ncelabargs+ -neg_tchk  -nonotifier  -sdf_NOCheck_celltype  -access +r  -pulse_e 100  -pulse_r 100  -neverwarn  -timescale 1ns/1ps -nostdout -nocopyright +ncsimargs+ -neverwarn  -nocopyright -gui -input /afs/umich.edu/class/eecs427/f18/group2/CAD8/controller_test_run1/.simTmpNCCmd  +mpssession+virtuoso30145 +mpshost+eecs2331p08.engin.umich.edu 
s9(16Nov2018:16:54:37):  ncxlmode +delay_mode_path +typdelays -v /afs/umich.edu/class/eecs427/ibm13/resource/ibm13_verilog.include -l simout.tmp /afs/umich.edu/class/eecs427/f18/group2/CAD8/controller_test_run1/testfixture.template -f /afs/umich.edu/class/eecs427/f18/group2/CAD8/controller_test_run1/verilog.inpfiles +nostdout +nocopyright +ncvlogargs+ -neverwarn -nostdout -nocopyright  +ncelabargs+ -neg_tchk  -nonotifier  -sdf_NOCheck_celltype  -access +r  -pulse_e 100  -pulse_r 100  -neverwarn  -timescale 1ns/1ps -nostdout -nocopyright +ncsimargs+ -neverwarn  -nocopyright -gui -input /afs/umich.edu/class/eecs427/f18/group2/CAD8/controller_test_run1/.simTmpNCCmd  +mpssession+virtuoso30145 +mpshost+eecs2331p08.engin.umich.edu -s  
s10(16Nov2018:16:54:48):  ncxlmode +delay_mode_path +typdelays -v /afs/umich.edu/class/eecs427/ibm13/resource/ibm13_verilog.include -l simout.tmp /afs/umich.edu/class/eecs427/f18/group2/CAD8/controller_test_run1/testfixture.template -f /afs/umich.edu/class/eecs427/f18/group2/CAD8/controller_test_run1/verilog.inpfiles +nostdout +nocopyright +ncvlogargs+ -neverwarn -nostdout -nocopyright  +ncelabargs+ -neg_tchk  -nonotifier  -sdf_NOCheck_celltype  -access +r  -pulse_e 100  -pulse_r 100  -neverwarn  -timescale 1ns/1ps -nostdout -nocopyright +ncsimargs+ -neverwarn  -nocopyright -gui -input /afs/umich.edu/class/eecs427/f18/group2/CAD8/controller_test_run1/.simTmpNCCmd  +mpssession+virtuoso30145 +mpshost+eecs2331p08.engin.umich.edu -s 
s11(16Nov2018:16:55:12):  ncxlmode +delay_mode_path +typdelays -v /afs/umich.edu/class/eecs427/ibm13/resource/ibm13_verilog.include -l simout.tmp /afs/umich.edu/class/eecs427/f18/group2/CAD8/controller_test_run1/testfixture.template -f /afs/umich.edu/class/eecs427/f18/group2/CAD8/controller_test_run1/verilog.inpfiles +nostdout +nocopyright +ncvlogargs+ -neverwarn -nostdout -nocopyright  +ncelabargs+ -neg_tchk  -nonotifier  -sdf_NOCheck_celltype  -access +r  -pulse_e 100  -pulse_r 100  -neverwarn  -timescale 1ns/1ps -nostdout -nocopyright +ncsimargs+ -neverwarn  -nocopyright -gui -input /afs/umich.edu/class/eecs427/f18/group2/CAD8/controller_test_run1/.simTmpNCCmd  +mpssession+virtuoso30145 +mpshost+eecs2331p08.engin.umich.edu -s 
s12(16Nov2018:16:56:45):  ncxlmode +delay_mode_path +typdelays -v /afs/umich.edu/class/eecs427/ibm13/resource/ibm13_verilog.include -l simout.tmp /afs/umich.edu/class/eecs427/f18/group2/CAD8/controller_test_run1/testfixture.template -f /afs/umich.edu/class/eecs427/f18/group2/CAD8/controller_test_run1/verilog.inpfiles +nostdout +nocopyright +ncvlogargs+ -neverwarn -nostdout -nocopyright  +ncelabargs+ -neg_tchk  -nonotifier  -sdf_NOCheck_celltype  -access +r  -pulse_e 100  -pulse_r 100  -neverwarn  -timescale 1ns/1ps -nostdout -nocopyright +ncsimargs+ -neverwarn  -nocopyright -gui -input /afs/umich.edu/class/eecs427/f18/group2/CAD8/controller_test_run1/.simTmpNCCmd  +mpssession+virtuoso30145 +mpshost+eecs2331p08.engin.umich.edu -s 
s13(16Nov2018:16:57:30):  ncxlmode +delay_mode_path +typdelays -v /afs/umich.edu/class/eecs427/ibm13/resource/ibm13_verilog.include -l simout.tmp /afs/umich.edu/class/eecs427/f18/group2/CAD8/controller_test_run1/testfixture.template -f /afs/umich.edu/class/eecs427/f18/group2/CAD8/controller_test_run1/verilog.inpfiles +nostdout +nocopyright +ncvlogargs+ -neverwarn -nostdout -nocopyright  +ncelabargs+ -neg_tchk  -nonotifier  -sdf_NOCheck_celltype  -access +r  -pulse_e 100  -pulse_r 100  -neverwarn  -timescale 1ns/1ps -nostdout -nocopyright +ncsimargs+ -neverwarn  -nocopyright -gui -input /afs/umich.edu/class/eecs427/f18/group2/CAD8/controller_test_run1/.simTmpNCCmd  +mpssession+virtuoso30145 +mpshost+eecs2331p08.engin.umich.edu -s 
s14(16Nov2018:16:58:02):  ncxlmode +delay_mode_path +typdelays -v /afs/umich.edu/class/eecs427/ibm13/resource/ibm13_verilog.include -l simout.tmp /afs/umich.edu/class/eecs427/f18/group2/CAD8/controller_test_run1/testfixture.template -f /afs/umich.edu/class/eecs427/f18/group2/CAD8/controller_test_run1/verilog.inpfiles +nostdout +nocopyright +ncvlogargs+ -neverwarn -nostdout -nocopyright  +ncelabargs+ -neg_tchk  -nonotifier  -sdf_NOCheck_celltype  -access +r  -pulse_e 100  -pulse_r 100  -neverwarn  -timescale 1ns/1ps -nostdout -nocopyright +ncsimargs+ -neverwarn  -nocopyright -gui -input /afs/umich.edu/class/eecs427/f18/group2/CAD8/controller_test_run1/.simTmpNCCmd  +mpssession+virtuoso30145 +mpshost+eecs2331p08.engin.umich.edu -s 
s15(16Nov2018:16:59:13):  ncxlmode +delay_mode_path +typdelays -v /afs/umich.edu/class/eecs427/ibm13/resource/ibm13_verilog.include -l simout.tmp /afs/umich.edu/class/eecs427/f18/group2/CAD8/controller_test_run1/testfixture.template -f /afs/umich.edu/class/eecs427/f18/group2/CAD8/controller_test_run1/verilog.inpfiles +nostdout +nocopyright +ncvlogargs+ -neverwarn -nostdout -nocopyright  +ncelabargs+ -neg_tchk  -nonotifier  -sdf_NOCheck_celltype  -access +r  -pulse_e 100  -pulse_r 100  -neverwarn  -timescale 1ns/1ps -nostdout -nocopyright +ncsimargs+ -neverwarn  -nocopyright -gui -input /afs/umich.edu/class/eecs427/f18/group2/CAD8/controller_test_run1/.simTmpNCCmd  +mpssession+virtuoso30145 +mpshost+eecs2331p08.engin.umich.edu -s 
s16(16Nov2018:16:59:52):  ncxlmode +delay_mode_path +typdelays -v /afs/umich.edu/class/eecs427/ibm13/resource/ibm13_verilog.include -l simout.tmp /afs/umich.edu/class/eecs427/f18/group2/CAD8/controller_test_run1/testfixture.template -f /afs/umich.edu/class/eecs427/f18/group2/CAD8/controller_test_run1/verilog.inpfiles +nostdout +nocopyright +ncvlogargs+ -neverwarn -nostdout -nocopyright  +ncelabargs+ -neg_tchk  -nonotifier  -sdf_NOCheck_celltype  -access +r  -pulse_e 100  -pulse_r 100  -neverwarn  -timescale 1ns/1ps -nostdout -nocopyright +ncsimargs+ -neverwarn  -nocopyright -gui -input /afs/umich.edu/class/eecs427/f18/group2/CAD8/controller_test_run1/.simTmpNCCmd  +mpssession+virtuoso30145 +mpshost+eecs2331p08.engin.umich.edu -s 
s17(16Nov2018:17:07:53):  ncxlmode +delay_mode_path +typdelays -v /afs/umich.edu/class/eecs427/ibm13/resource/ibm13_verilog.include -l simout.tmp /afs/umich.edu/class/eecs427/f18/group2/CAD8/controller_test_run1/testfixture.template -f /afs/umich.edu/class/eecs427/f18/group2/CAD8/controller_test_run1/verilog.inpfiles +nostdout +nocopyright +ncvlogargs+ -neverwarn -nostdout -nocopyright  +ncelabargs+ -neg_tchk  -nonotifier  -sdf_NOCheck_celltype  -access +r  -pulse_e 100  -pulse_r 100  -neverwarn  -timescale 1ns/1ps -nostdout -nocopyright +ncsimargs+ -neverwarn  -nocopyright -gui -input /afs/umich.edu/class/eecs427/f18/group2/CAD8/controller_test_run1/.simTmpNCCmd  +mpssession+virtuoso30145 +mpshost+eecs2331p08.engin.umich.edu -s 
s18(16Nov2018:17:08:23):  ncxlmode +delay_mode_path +typdelays -v /afs/umich.edu/class/eecs427/ibm13/resource/ibm13_verilog.include -l simout.tmp /afs/umich.edu/class/eecs427/f18/group2/CAD8/controller_test_run1/testfixture.template -f /afs/umich.edu/class/eecs427/f18/group2/CAD8/controller_test_run1/verilog.inpfiles +nostdout +nocopyright +ncvlogargs+ -neverwarn -nostdout -nocopyright  +ncelabargs+ -neg_tchk  -nonotifier  -sdf_NOCheck_celltype  -access +r  -pulse_e 100  -pulse_r 100  -neverwarn  -timescale 1ns/1ps -nostdout -nocopyright +ncsimargs+ -neverwarn  -nocopyright -gui -input /afs/umich.edu/class/eecs427/f18/group2/CAD8/controller_test_run1/.simTmpNCCmd  +mpssession+virtuoso30145 +mpshost+eecs2331p08.engin.umich.edu -s 
s19(16Nov2018:17:09:40):  ncxlmode +delay_mode_path +typdelays -v /afs/umich.edu/class/eecs427/ibm13/resource/ibm13_verilog.include -l simout.tmp /afs/umich.edu/class/eecs427/f18/group2/CAD8/controller_test_run1/testfixture.template -f /afs/umich.edu/class/eecs427/f18/group2/CAD8/controller_test_run1/verilog.inpfiles +nostdout +nocopyright +ncvlogargs+ -neverwarn -nostdout -nocopyright  +ncelabargs+ -neg_tchk  -nonotifier  -sdf_NOCheck_celltype  -access +r  -pulse_e 100  -pulse_r 100  -neverwarn  -timescale 1ns/1ps -nostdout -nocopyright +ncsimargs+ -neverwarn  -nocopyright -gui -input /afs/umich.edu/class/eecs427/f18/group2/CAD8/controller_test_run1/.simTmpNCCmd  +mpssession+virtuoso30145 +mpshost+eecs2331p08.engin.umich.edu -s 
s20(16Nov2018:17:10:19):  ncxlmode +delay_mode_path +typdelays -v /afs/umich.edu/class/eecs427/ibm13/resource/ibm13_verilog.include -l simout.tmp /afs/umich.edu/class/eecs427/f18/group2/CAD8/controller_test_run1/testfixture.template -f /afs/umich.edu/class/eecs427/f18/group2/CAD8/controller_test_run1/verilog.inpfiles +nostdout +nocopyright +ncvlogargs+ -neverwarn -nostdout -nocopyright  +ncelabargs+ -neg_tchk  -nonotifier  -sdf_NOCheck_celltype  -access +r  -pulse_e 100  -pulse_r 100  -neverwarn  -timescale 1ns/1ps -nostdout -nocopyright +ncsimargs+ -neverwarn  -nocopyright -gui -input /afs/umich.edu/class/eecs427/f18/group2/CAD8/controller_test_run1/.simTmpNCCmd  +mpssession+virtuoso30145 +mpshost+eecs2331p08.engin.umich.edu -s 
s21(16Nov2018:17:11:17):  ncxlmode +delay_mode_path +typdelays -v /afs/umich.edu/class/eecs427/ibm13/resource/ibm13_verilog.include -l simout.tmp /afs/umich.edu/class/eecs427/f18/group2/CAD8/controller_test_run1/testfixture.template -f /afs/umich.edu/class/eecs427/f18/group2/CAD8/controller_test_run1/verilog.inpfiles +nostdout +nocopyright +ncvlogargs+ -neverwarn -nostdout -nocopyright  +ncelabargs+ -neg_tchk  -nonotifier  -sdf_NOCheck_celltype  -access +r  -pulse_e 100  -pulse_r 100  -neverwarn  -timescale 1ns/1ps -nostdout -nocopyright +ncsimargs+ -neverwarn  -nocopyright -gui -input /afs/umich.edu/class/eecs427/f18/group2/CAD8/controller_test_run1/.simTmpNCCmd  +mpssession+virtuoso30145 +mpshost+eecs2331p08.engin.umich.edu -s 
