F_mux21 1000
nfet33_err001
0 0 2 Oct 10 16:12:55 2018                                                      
Rule File Pathname: /afs/umich.edu/class/eecs427/f18/group2/CAD4/Calibre/LVS/_cmrf8sf.lvs.cal_
nfet33 in PI is currently not supported 
lvtnfet_err001
0 0 2 Oct 10 16:12:55 2018                                                      
Rule File Pathname: /afs/umich.edu/class/eecs427/f18/group2/CAD4/Calibre/LVS/_cmrf8sf.lvs.cal_
lvtnfet in PI is currently not supported 
lpnfet_err001
0 0 2 Oct 10 16:12:55 2018                                                      
Rule File Pathname: /afs/umich.edu/class/eecs427/f18/group2/CAD4/Calibre/LVS/_cmrf8sf.lvs.cal_
lpnfet in PI is currently not supported 
nfet33_err002
0 0 2 Oct 10 16:12:55 2018                                                      
Rule File Pathname: /afs/umich.edu/class/eecs427/f18/group2/CAD4/Calibre/LVS/_cmrf8sf.lvs.cal_
nfet33tw and nfet33tw_rf in PI is currently not supported 
lvtnfet_err002
0 0 2 Oct 10 16:12:55 2018                                                      
Rule File Pathname: /afs/umich.edu/class/eecs427/f18/group2/CAD4/Calibre/LVS/_cmrf8sf.lvs.cal_
lvtnfettw and lvtnfettw_rf in PI is currently not supported 
lpnfet_err002
0 0 2 Oct 10 16:12:55 2018                                                      
Rule File Pathname: /afs/umich.edu/class/eecs427/f18/group2/CAD4/Calibre/LVS/_cmrf8sf.lvs.cal_
lpnfettw and lpnfettw_rf in PI is currently not supported 
silres_err001
0 0 3 Oct 10 16:12:55 2018                                                      
Rule File Pathname: /afs/umich.edu/class/eecs427/f18/group2/CAD4/Calibre/LVS/_cmrf8sf.lvs.cal_
silres in BFMOAT is not allowed with the current ground rules
There may be some changes to this device in the future 
sbd_err001
0 0 2 Oct 10 16:12:55 2018                                                      
Rule File Pathname: /afs/umich.edu/class/eecs427/f18/group2/CAD4/Calibre/LVS/_cmrf8sf.lvs.cal_
SBD device not touching BB 
FLOATING_NW
0 0 1 Oct 10 16:12:55 2018                                                      
Rule File Pathname: /afs/umich.edu/class/eecs427/f18/group2/CAD4/Calibre/LVS/_cmrf8sf.lvs.cal_
