//OK 
//NUMBER_OF_HEADER_LINES: 6
//VERSION: 1
//TOKEN_DELIMITER: "
//TOKEN_SEPARATOR: " "
//FORMAT: "time" "calibre version" "command line"
"Sat Oct 20 12:29:41 2018 " "v2017.2_37.29" "-xrc -pdb -rcc -turbo 1 /afs/umich.edu/class/eecs427/f18/group2/CAD5/Calibre/xRC/_cmrf8sf_8LM_620_detailed.xrc.cal_"
"Sat Oct 20 12:29:53 2018 " "v2017.2_37.29" "-xrc -fmt -all /afs/umich.edu/class/eecs427/f18/group2/CAD5/Calibre/xRC/_cmrf8sf_8LM_620_detailed.xrc.cal_"
