1
 
****************************************
Report : area
Design : pc
Version: O-2018.06
Date   : Sun Dec  9 18:55:28 2018
****************************************

Library(s) Used:

    typical (File: /afs/umich.edu/class/eecs427/ibm13/parts/artisan_cells/synopsys/typical.db)

Number of ports:                           48
Number of nets:                           177
Number of cells:                          150
Number of combinational cells:            139
Number of sequential cells:                11
Number of macros/black boxes:               0
Number of buf/inv:                         37
Number of references:                      43

Combinational area:               1270.080020
Buf/Inv area:                      203.040007
Noncombinational area:             311.040003
Macro/Black Box area:                0.000000
Net Interconnect area:           15866.746246

Total cell area:                  1581.120023
Total area:                      17447.866270
1
Information: Propagating switching activity (medium effort zero delay simulation). (PWR-6)
Warning: Design has unannotated primary inputs. (PWR-414)
Warning: Design has unannotated sequential cell outputs. (PWR-415)
 
****************************************
Report : power
        -hier
        -analysis_effort medium
Design : pc
Version: O-2018.06
Date   : Sun Dec  9 18:55:28 2018
****************************************


Library(s) Used:

    typical (File: /afs/umich.edu/class/eecs427/ibm13/parts/artisan_cells/synopsys/typical.db)


Operating Conditions: typical   Library: typical
Wire Load Model Mode: segmented

Design        Wire Load Model            Library
------------------------------------------------
pc                     ibm13_wl10        typical


Global Operating Voltage = 1.2  
Power-specific unit information :
    Voltage Units = 1V
    Capacitance Units = 1.000000pf
    Time Units = 1ns
    Dynamic Power Units = 1mW    (derived from V,C,T units)
    Leakage Power Units = 1pW


--------------------------------------------------------------------------------
                                       Switch   Int      Leak     Total
Hierarchy                              Power    Power    Power    Power    %
--------------------------------------------------------------------------------
pc                                        0.225    0.227 5.45e+04    0.453 100.0
1
 
****************************************
Report : design
Design : pc
Version: O-2018.06
Date   : Sun Dec  9 18:55:28 2018
****************************************

Design allows ideal nets on clock nets.

Library(s) Used:

    typical (File: /afs/umich.edu/class/eecs427/ibm13/parts/artisan_cells/synopsys/typical.db)

Local Link Library:

    {typical.db}

Flip-Flop Types:

    No flip-flop types specified.

Latch Types:

    No latch types specified.

Operating Conditions:


    Operating Condition Name : typical
    Library : typical
    Process :   1.00
    Temperature :  25.00
    Voltage :   1.20
    Interconnect Model : balanced_tree

Wire Loading Model:

    Selected manually by the user.

Name           :   ibm13_wl10
Location       :   typical
Resistance     :   8.5e-08
Capacitance    :   0.00015
Area           :   0.7
Slope          :   66.667
Fanout   Length   Points Average Cap Std Deviation
--------------------------------------------------------------
     1    66.67



Wire Loading Model Mode: segmented.

Timing Ranges:

    No timing ranges specified.

Pin Input Delays:

    None specified.

Pin Output Delays:

    None specified.

Disabled Timing Arcs:

    No arcs disabled.

Required Licenses:

    DesignWare

Design Parameters:

    None specified.
1
 
****************************************
Report : cell
Design : pc
Version: O-2018.06
Date   : Sun Dec  9 18:55:28 2018
****************************************

Attributes:
    b - black box (unknown)
    d - dont_touch
    h - hierarchical
    n - noncombinational
    r - removable
    u - contains unmapped logic

Cell                      Reference       Library             Area  Attributes
--------------------------------------------------------------------------------
U40                       CLKBUFX2TR      typical         5.760000  
U41                       CLKBUFX2TR      typical         5.760000  
U42                       INVX2TR         typical         4.320000  
U43                       NAND2BX1TR      typical         7.200000  
U44                       AOI21X2TR       typical         12.960000 
U45                       OAI21X1TR       typical         7.200000  
U46                       INVX2TR         typical         4.320000  
U47                       NAND2X4TR       typical         11.520000 
U48                       NAND2X2TR       typical         7.200000  
U49                       NAND2X2TR       typical         7.200000  
U50                       BUFX8TR         typical         12.960000 
U51                       CLKINVX1TR      typical         4.320000  
U52                       CLKINVX1TR      typical         4.320000  
U53                       NAND2X1TR       typical         5.760000  
U54                       XOR2X1TR        typical         11.520000 
U55                       NAND2X4TR       typical         11.520000 
U56                       INVX2TR         typical         4.320000  
U57                       INVX2TR         typical         4.320000  
U58                       INVX2TR         typical         4.320000  
U59                       INVX3TR         typical         5.760000  
U60                       INVX2TR         typical         4.320000  
U61                       CLKINVX2TR      typical         4.320000  
U62                       INVX2TR         typical         4.320000  
U63                       CLKINVX2TR      typical         4.320000  
U64                       CLKINVX2TR      typical         4.320000  
U65                       CLKINVX2TR      typical         4.320000  
U66                       OR2X2TR         typical         7.200000  
U67                       CLKBUFX2TR      typical         5.760000  
U68                       INVX2TR         typical         4.320000  
U69                       INVX2TR         typical         4.320000  
U70                       OAI211X2TR      typical         14.400000 
U71                       OAI211X2TR      typical         14.400000 
U72                       OAI211X1TR      typical         8.640000  
U73                       XNOR2X2TR       typical         18.719999 
U74                       OAI21X2TR       typical         12.960000 
U75                       NAND2X1TR       typical         5.760000  
U76                       NAND2X1TR       typical         5.760000  
U77                       INVX2TR         typical         4.320000  
U78                       NAND2X1TR       typical         5.760000  
U79                       NAND2X1TR       typical         5.760000  
U80                       NAND2X1TR       typical         5.760000  
U81                       NAND2X1TR       typical         5.760000  
U82                       NAND2X1TR       typical         5.760000  
U83                       AOI22X1TR       typical         8.640000  
U84                       AOI22X1TR       typical         8.640000  
U85                       AOI22X1TR       typical         8.640000  
U86                       OR2X2TR         typical         7.200000  
U87                       NAND2X1TR       typical         5.760000  
U88                       AOI22X1TR       typical         8.640000  
U89                       NOR2X4TR        typical         11.520000 
U90                       NAND2X1TR       typical         5.760000  
U91                       NOR3BX2TR       typical         11.520000 
U92                       BUFX6TR         typical         11.520000 
U93                       NOR2X6TR        typical         14.400000 
U94                       NAND2X1TR       typical         5.760000  
U95                       NOR3X2TR        typical         10.080000 
U96                       XOR2X4TR        typical         28.799999 
U97                       NOR2BX4TR       typical         12.960000 
U98                       NOR2X4TR        typical         11.520000 
U99                       NAND2X2TR       typical         7.200000  
U100                      NOR2X4TR        typical         11.520000 
U101                      NOR2BX2TR       typical         10.080000 
U102                      NAND2X2TR       typical         7.200000  
U103                      OAI211X1TR      typical         8.640000  
U104                      CLKINVX6TR      typical         7.200000  
U105                      NAND2X4TR       typical         11.520000 
U106                      NAND2X2TR       typical         7.200000  
U107                      NOR2X4TR        typical         11.520000 
U108                      AND2X1TR        typical         7.200000  
U109                      OR2X1TR         typical         7.200000  
U110                      CLKINVX1TR      typical         4.320000  
U111                      CLKBUFX2TR      typical         5.760000  
U112                      OAI211X1TR      typical         8.640000  
U113                      OAI211X1TR      typical         8.640000  
U114                      CLKBUFX2TR      typical         5.760000  
U115                      NOR2BX2TR       typical         10.080000 
U116                      NOR2BX2TR       typical         10.080000 
U117                      OR2X2TR         typical         7.200000  
U118                      INVX16TR        typical         17.280001 d
U119                      NOR2BX4TR       typical         12.960000 
U120                      NOR2X4TR        typical         11.520000 
U121                      OAI21X4TR       typical         17.280001 
U122                      NOR2X8TR        typical         18.719999 
U123                      NOR2X2TR        typical         7.200000  
U124                      NAND2X2TR       typical         7.200000  
U125                      OAI21X2TR       typical         12.960000 
U126                      AOI21X4TR       typical         17.280001 
U127                      NOR2X2TR        typical         7.200000  
U128                      CLKINVX2TR      typical         4.320000  
U129                      NOR2X2TR        typical         7.200000  
U130                      OAI21X4TR       typical         17.280001 
U131                      NOR2BX2TR       typical         10.080000 
U132                      NOR2X4TR        typical         11.520000 
U133                      XOR2X4TR        typical         28.799999 
U134                      AOI21X4TR       typical         17.280001 
U135                      CLKINVX2TR      typical         4.320000  
U136                      NAND2X1TR       typical         5.760000  
U137                      XOR2X4TR        typical         28.799999 
U138                      NOR2X4TR        typical         11.520000 
U139                      NAND2X2TR       typical         7.200000  
U140                      AOI21X4TR       typical         17.280001 
U141                      OAI21X4TR       typical         17.280001 
U142                      NOR2BX1TR       typical         7.200000  
U143                      NAND2X1TR       typical         5.760000  
U144                      XNOR2X2TR       typical         18.719999 
U145                      AOI21X4TR       typical         17.280001 
U146                      NOR2BX1TR       typical         7.200000  
U147                      NAND2X1TR       typical         5.760000  
U148                      XOR2X4TR        typical         28.799999 
U149                      NAND2X1TR       typical         5.760000  
U150                      INVX4TR         typical         5.760000  
U151                      OAI21X4TR       typical         17.280001 
U152                      CLKINVX2TR      typical         4.320000  
U153                      NAND2X1TR       typical         5.760000  
U154                      XNOR2X1TR       typical         11.520000 
U155                      CLKINVX2TR      typical         4.320000  
U156                      NAND2X1TR       typical         5.760000  
U157                      XOR2X1TR        typical         11.520000 
U158                      CLKINVX2TR      typical         4.320000  
U159                      AOI22X1TR       typical         8.640000  
U160                      AND2X2TR        typical         7.200000  
U161                      NAND2X1TR       typical         5.760000  
U162                      OAI211X1TR      typical         8.640000  
U163                      CLKBUFX2TR      typical         5.760000  
U164                      CLKINVX2TR      typical         4.320000  
U165                      OAI211X1TR      typical         8.640000  
U166                      AOI22X1TR       typical         8.640000  
U167                      OAI211X1TR      typical         8.640000  
U168                      CLKINVX2TR      typical         4.320000  
U169                      AOI22X1TR       typical         8.640000  
U170                      NAND2X1TR       typical         5.760000  
U171                      OAI211X1TR      typical         8.640000  
U172                      AOI21X4TR       typical         17.280001 
U173                      CLKINVX2TR      typical         4.320000  
U174                      NAND2X1TR       typical         5.760000  
U175                      AOI22X1TR       typical         8.640000  
U176                      AOI22X1TR       typical         8.640000  
U177                      AOI22X1TR       typical         8.640000  
U178                      NAND2X1TR       typical         5.760000  
addr_reg_0_0              DFFQX4TR        typical         27.360001 n
addr_reg_1_0              DFFQX4TR        typical         27.360001 n
addr_reg_2_0              DFFQX4TR        typical         27.360001 n
addr_reg_3_0              DFFQX4TR        typical         27.360001 n
addr_reg_4_0              DFFHQX2TR       typical         31.680000 n
addr_reg_5_0              DFFQX4TR        typical         27.360001 n
addr_reg_6_0              DFFQX4TR        typical         27.360001 n
addr_reg_7_0              DFFQX4TR        typical         27.360001 n
addr_reg_8_0              DFFHQX1TR       typical         28.799999 n
addr_reg_9_0              DFFHQX1TR       typical         28.799999 n
scan_out_reg              DFFTRX1TR       typical         30.240000 n
--------------------------------------------------------------------------------
Total 150 cells                                           1581.120023
1
 
****************************************
Report : port
        -verbose
Design : pc
Version: O-2018.06
Date   : Sun Dec  9 18:55:28 2018
****************************************



Attributes:
    d - dont_touch_network
    i - ideal_network

                       Pin      Wire     Max     Max     Connection
Port           Dir     Load     Load     Trans   Cap     Class      Attrs
--------------------------------------------------------------------------------
RF_in[0]       in      0.0000   0.0000   --      --      --         
RF_in[1]       in      0.0000   0.0000   --      --      --         
RF_in[2]       in      0.0000   0.0000   --      --      --         
RF_in[3]       in      0.0000   0.0000   --      --      --         
RF_in[4]       in      0.0000   0.0000   --      --      --         
RF_in[5]       in      0.0000   0.0000   --      --      --         
RF_in[6]       in      0.0000   0.0000   --      --      --         
RF_in[7]       in      0.0000   0.0000   --      --      --         
RF_in[8]       in      0.0000   0.0000   --      --      --         
RF_in[9]       in      0.0000   0.0000   --      --      --         
br             in      0.0000   0.0000   --      --      --         
clk            in      0.0000   0.0000   --      --      --         d
disp[0]        in      0.0000   0.0000   --      --      --         
disp[1]        in      0.0000   0.0000   --      --      --         
disp[2]        in      0.0000   0.0000   --      --      --         
disp[3]        in      0.0000   0.0000   --      --      --         
disp[4]        in      0.0000   0.0000   --      --      --         
disp[5]        in      0.0000   0.0000   --      --      --         
disp[6]        in      0.0000   0.0000   --      --      --         
disp[7]        in      0.0000   0.0000   --      --      --         
disp[8]        in      0.0000   0.0000   --      --      --         
disp[9]        in      0.0000   0.0000   --      --      --         
jmp            in      0.0000   0.0000   --      --      --         
resetn         in      0.0000   0.0000   --      --      --         i
scan_en        in      0.0000   0.0000   --      --      --         
scan_in        in      0.0000   0.0000   --      --      --         
stall          in      0.0000   0.0000   --      --      --         
Rlink[0]       out     0.0100   0.0000   --      --      --         
Rlink[1]       out     0.0100   0.0000   --      --      --         
Rlink[2]       out     0.0100   0.0000   --      --      --         
Rlink[3]       out     0.0100   0.0000   --      --      --         
Rlink[4]       out     0.0100   0.0000   --      --      --         
Rlink[5]       out     0.0100   0.0000   --      --      --         
Rlink[6]       out     0.0100   0.0000   --      --      --         
Rlink[7]       out     0.0100   0.0000   --      --      --         
Rlink[8]       out     0.0100   0.0000   --      --      --         
Rlink[9]       out     0.0100   0.0000   --      --      --         
addr[0]        out     0.0100   0.0000   --      --      --         
addr[1]        out     0.0100   0.0000   --      --      --         
addr[2]        out     0.0100   0.0000   --      --      --         
addr[3]        out     0.0100   0.0000   --      --      --         
addr[4]        out     0.0100   0.0000   --      --      --         
addr[5]        out     0.0100   0.0000   --      --      --         
addr[6]        out     0.0100   0.0000   --      --      --         
addr[7]        out     0.0100   0.0000   --      --      --         
addr[8]        out     0.0100   0.0000   --      --      --         
addr[9]        out     0.0100   0.0000   --      --      --         
scan_out       out     0.0100   0.0000   --      --      --         


              External  Max             Min                Min       Min
              Number    Wireload        Wireload           Pin       Wire
Port          Points    Model           Model              Load      Load
--------------------------------------------------------------------------------
RF_in[0]           1      --              --              --        -- 
RF_in[1]           1      --              --              --        -- 
RF_in[2]           1      --              --              --        -- 
RF_in[3]           1      --              --              --        -- 
RF_in[4]           1      --              --              --        -- 
RF_in[5]           1      --              --              --        -- 
RF_in[6]           1      --              --              --        -- 
RF_in[7]           1      --              --              --        -- 
RF_in[8]           1      --              --              --        -- 
RF_in[9]           1      --              --              --        -- 
br                 1      --              --              --        -- 
clk                1      --              --              --        -- 
disp[0]            1      --              --              --        -- 
disp[1]            1      --              --              --        -- 
disp[2]            1      --              --              --        -- 
disp[3]            1      --              --              --        -- 
disp[4]            1      --              --              --        -- 
disp[5]            1      --              --              --        -- 
disp[6]            1      --              --              --        -- 
disp[7]            1      --              --              --        -- 
disp[8]            1      --              --              --        -- 
disp[9]            1      --              --              --        -- 
jmp                1      --              --              --        -- 
resetn             1      --              --              --        -- 
scan_en            1      --              --              --        -- 
scan_in            1      --              --              --        -- 
stall              1      --              --              --        -- 
Rlink[0]           1      --              --              --        -- 
Rlink[1]           1      --              --              --        -- 
Rlink[2]           1      --              --              --        -- 
Rlink[3]           1      --              --              --        -- 
Rlink[4]           1      --              --              --        -- 
Rlink[5]           1      --              --              --        -- 
Rlink[6]           1      --              --              --        -- 
Rlink[7]           1      --              --              --        -- 
Rlink[8]           1      --              --              --        -- 
Rlink[9]           1      --              --              --        -- 
addr[0]            1      --              --              --        -- 
addr[1]            1      --              --              --        -- 
addr[2]            1      --              --              --        -- 
addr[3]            1      --              --              --        -- 
addr[4]            1      --              --              --        -- 
addr[5]            1      --              --              --        -- 
addr[6]            1      --              --              --        -- 
addr[7]            1      --              --              --        -- 
addr[8]            1      --              --              --        -- 
addr[9]            1      --              --              --        -- 
scan_out           1      --              --              --        -- 

                    Input Delay
                  Min             Max       Related   Max
Input Port    Rise    Fall    Rise    Fall   Clock  Fanout
--------------------------------------------------------------------------------
RF_in[0]      0.10    0.10    0.10    0.10  clk       --    
RF_in[1]      0.10    0.10    0.10    0.10  clk       --    
RF_in[2]      0.10    0.10    0.10    0.10  clk       --    
RF_in[3]      0.10    0.10    0.10    0.10  clk       --    
RF_in[4]      0.10    0.10    0.10    0.10  clk       --    
RF_in[5]      0.10    0.10    0.10    0.10  clk       --    
RF_in[6]      0.10    0.10    0.10    0.10  clk       --    
RF_in[7]      0.10    0.10    0.10    0.10  clk       --    
RF_in[8]      0.10    0.10    0.10    0.10  clk       --    
RF_in[9]      0.10    0.10    0.10    0.10  clk       --    
br            0.10    0.10    0.10    0.10  clk       --    
clk           --      --      --      --      --      -- 
disp[0]       0.10    0.10    0.10    0.10  clk       --    
disp[1]       0.10    0.10    0.10    0.10  clk       --    
disp[2]       0.10    0.10    0.10    0.10  clk       --    
disp[3]       0.10    0.10    0.10    0.10  clk       --    
disp[4]       0.10    0.10    0.10    0.10  clk       --    
disp[5]       0.10    0.10    0.10    0.10  clk       --    
disp[6]       0.10    0.10    0.10    0.10  clk       --    
disp[7]       0.10    0.10    0.10    0.10  clk       --    
disp[8]       0.10    0.10    0.10    0.10  clk       --    
disp[9]       0.10    0.10    0.10    0.10  clk       --    
jmp           0.10    0.10    0.10    0.10  clk       --    
resetn        0.10    0.10    0.10    0.10  clk       --    
scan_en       0.10    0.10    0.10    0.10  clk       --    
scan_in       0.10    0.10    0.10    0.10  clk       --    
stall         0.10    0.10    0.10    0.10  clk       --    


               Max Drive      Min Drive      Resistance    Min    Min       Cell
Input Port    Rise    Fall   Rise    Fall   Max     Min    Cap    Fanout    Deg
--------------------------------------------------------------------------------
RF_in[0]      --      --     --      --     --      --     --     --        -- 
RF_in[1]      --      --     --      --     --      --     --     --        -- 
RF_in[2]      --      --     --      --     --      --     --     --        -- 
RF_in[3]      --      --     --      --     --      --     --     --        -- 
RF_in[4]      --      --     --      --     --      --     --     --        -- 
RF_in[5]      --      --     --      --     --      --     --     --        -- 
RF_in[6]      --      --     --      --     --      --     --     --        -- 
RF_in[7]      --      --     --      --     --      --     --     --        -- 
RF_in[8]      --      --     --      --     --      --     --     --        -- 
RF_in[9]      --      --     --      --     --      --     --     --        -- 
br            --      --     --      --     --      --     --     --        -- 
clk           --      --     --      --     --      --     --     --        -- 
disp[0]       --      --     --      --     --      --     --     --        -- 
disp[1]       --      --     --      --     --      --     --     --        -- 
disp[2]       --      --     --      --     --      --     --     --        -- 
disp[3]       --      --     --      --     --      --     --     --        -- 
disp[4]       --      --     --      --     --      --     --     --        -- 
disp[5]       --      --     --      --     --      --     --     --        -- 
disp[6]       --      --     --      --     --      --     --     --        -- 
disp[7]       --      --     --      --     --      --     --     --        -- 
disp[8]       --      --     --      --     --      --     --     --        -- 
disp[9]       --      --     --      --     --      --     --     --        -- 
jmp           --      --     --      --     --      --     --     --        -- 
resetn        --      --     --      --     --      --     --     --        -- 
scan_en       --      --     --      --     --      --     --     --        -- 
scan_in       --      --     --      --     --      --     --     --        -- 
stall         --      --     --      --     --      --     --     --        -- 


               Max Tran        Min Tran
Input Port    Rise    Fall    Rise    Fall
--------------------------------------------------------------------------------
RF_in[0]      --      --      --      -- 
RF_in[1]      --      --      --      -- 
RF_in[2]      --      --      --      -- 
RF_in[3]      --      --      --      -- 
RF_in[4]      --      --      --      -- 
RF_in[5]      --      --      --      -- 
RF_in[6]      --      --      --      -- 
RF_in[7]      --      --      --      -- 
RF_in[8]      --      --      --      -- 
RF_in[9]      --      --      --      -- 
br            --      --      --      -- 
clk           --      --      --      -- 
disp[0]       --      --      --      -- 
disp[1]       --      --      --      -- 
disp[2]       --      --      --      -- 
disp[3]       --      --      --      -- 
disp[4]       --      --      --      -- 
disp[5]       --      --      --      -- 
disp[6]       --      --      --      -- 
disp[7]       --      --      --      -- 
disp[8]       --      --      --      -- 
disp[9]       --      --      --      -- 
jmp           --      --      --      -- 
resetn        --      --      --      -- 
scan_en       --      --      --      -- 
scan_in       --      --      --      -- 
stall         --      --      --      -- 


                    Output Delay
                  Min             Max      Related  Fanout
Output Port   Rise    Fall    Rise    Fall  Clock     Load
--------------------------------------------------------------------------------
Rlink[0]      0.10    0.10    0.10    0.10  clk       0.00  
Rlink[1]      0.10    0.10    0.10    0.10  clk       0.00  
Rlink[2]      0.10    0.10    0.10    0.10  clk       0.00  
Rlink[3]      0.10    0.10    0.10    0.10  clk       0.00  
Rlink[4]      0.10    0.10    0.10    0.10  clk       0.00  
Rlink[5]      0.10    0.10    0.10    0.10  clk       0.00  
Rlink[6]      0.10    0.10    0.10    0.10  clk       0.00  
Rlink[7]      0.10    0.10    0.10    0.10  clk       0.00  
Rlink[8]      0.10    0.10    0.10    0.10  clk       0.00  
Rlink[9]      0.10    0.10    0.10    0.10  clk       0.00  
addr[0]       0.10    0.10    0.10    0.10  clk       0.00  
addr[1]       0.10    0.10    0.10    0.10  clk       0.00  
addr[2]       0.10    0.10    0.10    0.10  clk       0.00  
addr[3]       0.10    0.10    0.10    0.10  clk       0.00  
addr[4]       0.10    0.10    0.10    0.10  clk       0.00  
addr[5]       0.10    0.10    0.10    0.10  clk       0.00  
addr[6]       0.10    0.10    0.10    0.10  clk       0.00  
addr[7]       0.10    0.10    0.10    0.10  clk       0.00  
addr[8]       0.10    0.10    0.10    0.10  clk       0.00  
addr[9]       0.10    0.10    0.10    0.10  clk       0.00  
scan_out      0.10    0.10    0.10    0.10  clk       0.00  

1
 
****************************************
Report : compile_options
Design : pc
Version: O-2018.06
Date   : Sun Dec  9 18:55:28 2018
****************************************

Design                                   Compile Option         Value
--------------------------------------------------------------------------------
pc                                       flatten                false
                                         structure              true
                                         structure_boolean      false
                                         structure_timing       true
                                         fix_multiple_port_nets feedthroughs
                                                                buffer_constants
                                         isolate_port           disabled
--------------------------------------------------------------------------------
1
 
****************************************
Report : constraint
        -all_violators
        -verbose
Design : pc
Version: O-2018.06
Date   : Sun Dec  9 18:55:28 2018
****************************************

This design has no violated constraints.

1
 
****************************************
Report : timing
        -path full
        -delay max
        -nworst 100
        -max_paths 20
Design : pc
Version: O-2018.06
Date   : Sun Dec  9 18:55:28 2018
****************************************

Operating Conditions: typical   Library: typical
Wire Load Model Mode: segmented

  Startpoint: br (input port clocked by clk)
  Endpoint: addr_reg_9_0
            (rising edge-triggered flip-flop clocked by clk)
  Path Group: clk
  Path Type: max

  Des/Clust/Port     Wire Load Model       Library
  ------------------------------------------------
  pc                 ibm13_wl10            typical

  Point                                    Incr       Path
  -----------------------------------------------------------
  clock clk (rise edge)                    0.00       0.00
  clock network delay (ideal)              0.00       0.00
  input external delay                     0.10       0.10 f
  br (in)                                  0.00       0.10 f
  U55/Y (NAND2X4TR)                        0.10       0.20 r
  U50/Y (BUFX8TR)                          0.10       0.30 r
  U131/Y (NOR2BX2TR)                       0.07       0.38 f
  U53/Y (NAND2X1TR)                        0.18       0.56 r
  U45/Y (OAI21X1TR)                        0.13       0.69 f
  U140/Y (AOI21X4TR)                       0.11       0.80 r
  U141/Y (OAI21X4TR)                       0.07       0.87 f
  U145/Y (AOI21X4TR)                       0.09       0.96 r
  U148/Y (XOR2X4TR)                        0.11       1.07 r
  U59/Y (INVX3TR)                          0.04       1.11 f
  U103/Y (OAI211X1TR)                      0.18       1.29 r
  addr_reg_9_0/D (DFFHQX1TR)               0.00       1.29 r
  data arrival time                                   1.29

  clock clk (rise edge)                    1.50       1.50
  clock network delay (ideal)              0.00       1.50
  clock uncertainty                       -0.10       1.40
  addr_reg_9_0/CK (DFFHQX1TR)              0.00       1.40 r
  library setup time                      -0.11       1.29
  data required time                                  1.29
  -----------------------------------------------------------
  data required time                                  1.29
  data arrival time                                  -1.29
  -----------------------------------------------------------
  slack (MET)                                         0.00


  Startpoint: br (input port clocked by clk)
  Endpoint: addr_reg_9_0
            (rising edge-triggered flip-flop clocked by clk)
  Path Group: clk
  Path Type: max

  Des/Clust/Port     Wire Load Model       Library
  ------------------------------------------------
  pc                 ibm13_wl10            typical

  Point                                    Incr       Path
  -----------------------------------------------------------
  clock clk (rise edge)                    0.00       0.00
  clock network delay (ideal)              0.00       0.00
  input external delay                     0.10       0.10 r
  br (in)                                  0.00       0.10 r
  U55/Y (NAND2X4TR)                        0.06       0.16 f
  U50/Y (BUFX8TR)                          0.10       0.26 f
  U131/Y (NOR2BX2TR)                       0.18       0.43 r
  U53/Y (NAND2X1TR)                        0.15       0.58 f
  U45/Y (OAI21X1TR)                        0.17       0.76 r
  U140/Y (AOI21X4TR)                       0.06       0.81 f
  U141/Y (OAI21X4TR)                       0.09       0.91 r
  U145/Y (AOI21X4TR)                       0.06       0.97 f
  U148/Y (XOR2X4TR)                        0.10       1.07 r
  U59/Y (INVX3TR)                          0.04       1.11 f
  U103/Y (OAI211X1TR)                      0.18       1.29 r
  addr_reg_9_0/D (DFFHQX1TR)               0.00       1.29 r
  data arrival time                                   1.29

  clock clk (rise edge)                    1.50       1.50
  clock network delay (ideal)              0.00       1.50
  clock uncertainty                       -0.10       1.40
  addr_reg_9_0/CK (DFFHQX1TR)              0.00       1.40 r
  library setup time                      -0.11       1.29
  data required time                                  1.29
  -----------------------------------------------------------
  data required time                                  1.29
  data arrival time                                  -1.29
  -----------------------------------------------------------
  slack (MET)                                         0.01


  Startpoint: resetn (input port clocked by clk)
  Endpoint: addr_reg_9_0
            (rising edge-triggered flip-flop clocked by clk)
  Path Group: clk
  Path Type: max

  Des/Clust/Port     Wire Load Model       Library
  ------------------------------------------------
  pc                 ibm13_wl10            typical

  Point                                    Incr       Path
  -----------------------------------------------------------
  clock clk (rise edge)                    0.00       0.00
  clock network delay (ideal)              0.00       0.00
  input external delay                     0.10       0.10 r
  resetn (in)                              0.00       0.10 r
  U118/Y (INVX16TR)                        0.00       0.10 f
  U55/Y (NAND2X4TR)                        0.09       0.19 r
  U50/Y (BUFX8TR)                          0.10       0.30 r
  U131/Y (NOR2BX2TR)                       0.07       0.37 f
  U53/Y (NAND2X1TR)                        0.18       0.55 r
  U45/Y (OAI21X1TR)                        0.13       0.69 f
  U140/Y (AOI21X4TR)                       0.11       0.80 r
  U141/Y (OAI21X4TR)                       0.07       0.86 f
  U145/Y (AOI21X4TR)                       0.09       0.96 r
  U148/Y (XOR2X4TR)                        0.11       1.06 r
  U59/Y (INVX3TR)                          0.04       1.11 f
  U103/Y (OAI211X1TR)                      0.18       1.29 r
  addr_reg_9_0/D (DFFHQX1TR)               0.00       1.29 r
  data arrival time                                   1.29

  clock clk (rise edge)                    1.50       1.50
  clock network delay (ideal)              0.00       1.50
  clock uncertainty                       -0.10       1.40
  addr_reg_9_0/CK (DFFHQX1TR)              0.00       1.40 r
  library setup time                      -0.11       1.29
  data required time                                  1.29
  -----------------------------------------------------------
  data required time                                  1.29
  data arrival time                                  -1.29
  -----------------------------------------------------------
  slack (MET)                                         0.01


  Startpoint: br (input port clocked by clk)
  Endpoint: addr_reg_4_0
            (rising edge-triggered flip-flop clocked by clk)
  Path Group: clk
  Path Type: max

  Des/Clust/Port     Wire Load Model       Library
  ------------------------------------------------
  pc                 ibm13_wl10            typical

  Point                                    Incr       Path
  -----------------------------------------------------------
  clock clk (rise edge)                    0.00       0.00
  clock network delay (ideal)              0.00       0.00
  input external delay                     0.10       0.10 r
  br (in)                                  0.00       0.10 r
  U55/Y (NAND2X4TR)                        0.06       0.16 f
  U50/Y (BUFX8TR)                          0.10       0.26 f
  U116/Y (NOR2BX2TR)                       0.20       0.46 r
  U124/Y (NAND2X2TR)                       0.10       0.56 f
  U125/Y (OAI21X2TR)                       0.11       0.67 r
  U126/Y (AOI21X4TR)                       0.07       0.74 f
  U104/Y (CLKINVX6TR)                      0.10       0.84 r
  U73/Y (XNOR2X2TR)                        0.17       1.01 r
  U168/Y (CLKINVX2TR)                      0.10       1.10 f
  U171/Y (OAI211X1TR)                      0.19       1.30 r
  addr_reg_4_0/D (DFFHQX2TR)               0.00       1.30 r
  data arrival time                                   1.30

  clock clk (rise edge)                    1.50       1.50
  clock network delay (ideal)              0.00       1.50
  clock uncertainty                       -0.10       1.40
  addr_reg_4_0/CK (DFFHQX2TR)              0.00       1.40 r
  library setup time                      -0.09       1.31
  data required time                                  1.31
  -----------------------------------------------------------
  data required time                                  1.31
  data arrival time                                  -1.30
  -----------------------------------------------------------
  slack (MET)                                         0.01


  Startpoint: br (input port clocked by clk)
  Endpoint: addr_reg_3_0
            (rising edge-triggered flip-flop clocked by clk)
  Path Group: clk
  Path Type: max

  Des/Clust/Port     Wire Load Model       Library
  ------------------------------------------------
  pc                 ibm13_wl10            typical

  Point                                    Incr       Path
  -----------------------------------------------------------
  clock clk (rise edge)                    0.00       0.00
  clock network delay (ideal)              0.00       0.00
  input external delay                     0.10       0.10 r
  br (in)                                  0.00       0.10 r
  U55/Y (NAND2X4TR)                        0.06       0.16 f
  U50/Y (BUFX8TR)                          0.10       0.26 f
  U116/Y (NOR2BX2TR)                       0.20       0.46 r
  U124/Y (NAND2X2TR)                       0.10       0.56 f
  U153/Y (NAND2X1TR)                       0.13       0.70 r
  U154/Y (XNOR2X1TR)                       0.31       1.01 r
  U42/Y (INVX2TR)                          0.07       1.07 f
  U167/Y (OAI211X1TR)                      0.20       1.27 r
  addr_reg_3_0/D (DFFQX4TR)                0.00       1.27 r
  data arrival time                                   1.27

  clock clk (rise edge)                    1.50       1.50
  clock network delay (ideal)              0.00       1.50
  clock uncertainty                       -0.10       1.40
  addr_reg_3_0/CK (DFFQX4TR)               0.00       1.40 r
  library setup time                      -0.12       1.28
  data required time                                  1.28
  -----------------------------------------------------------
  data required time                                  1.28
  data arrival time                                  -1.27
  -----------------------------------------------------------
  slack (MET)                                         0.01


  Startpoint: addr_reg_1_0
              (rising edge-triggered flip-flop clocked by clk)
  Endpoint: addr_reg_7_0
            (rising edge-triggered flip-flop clocked by clk)
  Path Group: clk
  Path Type: max

  Des/Clust/Port     Wire Load Model       Library
  ------------------------------------------------
  pc                 ibm13_wl10            typical

  Point                                    Incr       Path
  -----------------------------------------------------------
  clock clk (rise edge)                    0.00       0.00
  clock network delay (ideal)              0.00       0.00
  addr_reg_1_0/CK (DFFQX4TR)               0.00       0.00 r
  addr_reg_1_0/Q (DFFQX4TR)                0.35       0.35 f
  U48/Y (NAND2X2TR)                        0.14       0.49 r
  U121/Y (OAI21X4TR)                       0.08       0.57 f
  U126/Y (AOI21X4TR)                       0.14       0.71 r
  U104/Y (CLKINVX6TR)                      0.11       0.82 f
  U44/Y (AOI21X2TR)                        0.14       0.97 r
  U133/Y (XOR2X4TR)                        0.12       1.09 r
  U58/Y (INVX2TR)                          0.06       1.15 f
  U70/Y (OAI211X2TR)                       0.13       1.28 r
  addr_reg_7_0/D (DFFQX4TR)                0.00       1.28 r
  data arrival time                                   1.28

  clock clk (rise edge)                    1.50       1.50
  clock network delay (ideal)              0.00       1.50
  clock uncertainty                       -0.10       1.40
  addr_reg_7_0/CK (DFFQX4TR)               0.00       1.40 r
  library setup time                      -0.11       1.29
  data required time                                  1.29
  -----------------------------------------------------------
  data required time                                  1.29
  data arrival time                                  -1.28
  -----------------------------------------------------------
  slack (MET)                                         0.01


  Startpoint: br (input port clocked by clk)
  Endpoint: addr_reg_4_0
            (rising edge-triggered flip-flop clocked by clk)
  Path Group: clk
  Path Type: max

  Des/Clust/Port     Wire Load Model       Library
  ------------------------------------------------
  pc                 ibm13_wl10            typical

  Point                                    Incr       Path
  -----------------------------------------------------------
  clock clk (rise edge)                    0.00       0.00
  clock network delay (ideal)              0.00       0.00
  input external delay                     0.10       0.10 r
  br (in)                                  0.00       0.10 r
  U55/Y (NAND2X4TR)                        0.06       0.16 f
  U50/Y (BUFX8TR)                          0.10       0.26 f
  U116/Y (NOR2BX2TR)                       0.20       0.46 r
  U93/Y (NOR2X6TR)                         0.07       0.53 f
  U125/Y (OAI21X2TR)                       0.14       0.67 r
  U126/Y (AOI21X4TR)                       0.07       0.74 f
  U104/Y (CLKINVX6TR)                      0.10       0.84 r
  U73/Y (XNOR2X2TR)                        0.17       1.00 r
  U168/Y (CLKINVX2TR)                      0.10       1.10 f
  U171/Y (OAI211X1TR)                      0.19       1.30 r
  addr_reg_4_0/D (DFFHQX2TR)               0.00       1.30 r
  data arrival time                                   1.30

  clock clk (rise edge)                    1.50       1.50
  clock network delay (ideal)              0.00       1.50
  clock uncertainty                       -0.10       1.40
  addr_reg_4_0/CK (DFFHQX2TR)              0.00       1.40 r
  library setup time                      -0.09       1.31
  data required time                                  1.31
  -----------------------------------------------------------
  data required time                                  1.31
  data arrival time                                  -1.30
  -----------------------------------------------------------
  slack (MET)                                         0.01


  Startpoint: addr_reg_1_0
              (rising edge-triggered flip-flop clocked by clk)
  Endpoint: addr_reg_5_0
            (rising edge-triggered flip-flop clocked by clk)
  Path Group: clk
  Path Type: max

  Des/Clust/Port     Wire Load Model       Library
  ------------------------------------------------
  pc                 ibm13_wl10            typical

  Point                                    Incr       Path
  -----------------------------------------------------------
  clock clk (rise edge)                    0.00       0.00
  clock network delay (ideal)              0.00       0.00
  addr_reg_1_0/CK (DFFQX4TR)               0.00       0.00 r
  addr_reg_1_0/Q (DFFQX4TR)                0.35       0.35 f
  U48/Y (NAND2X2TR)                        0.14       0.49 r
  U121/Y (OAI21X4TR)                       0.08       0.57 f
  U126/Y (AOI21X4TR)                       0.14       0.71 r
  U104/Y (CLKINVX6TR)                      0.11       0.82 f
  U172/Y (AOI21X4TR)                       0.10       0.92 r
  U96/Y (XOR2X4TR)                         0.11       1.03 r
  U56/Y (INVX2TR)                          0.06       1.09 f
  U112/Y (OAI211X1TR)                      0.18       1.27 r
  addr_reg_5_0/D (DFFQX4TR)                0.00       1.27 r
  data arrival time                                   1.27

  clock clk (rise edge)                    1.50       1.50
  clock network delay (ideal)              0.00       1.50
  clock uncertainty                       -0.10       1.40
  addr_reg_5_0/CK (DFFQX4TR)               0.00       1.40 r
  library setup time                      -0.12       1.28
  data required time                                  1.28
  -----------------------------------------------------------
  data required time                                  1.28
  data arrival time                                  -1.27
  -----------------------------------------------------------
  slack (MET)                                         0.01


  Startpoint: addr_reg_1_0
              (rising edge-triggered flip-flop clocked by clk)
  Endpoint: addr_reg_6_0
            (rising edge-triggered flip-flop clocked by clk)
  Path Group: clk
  Path Type: max

  Des/Clust/Port     Wire Load Model       Library
  ------------------------------------------------
  pc                 ibm13_wl10            typical

  Point                                    Incr       Path
  -----------------------------------------------------------
  clock clk (rise edge)                    0.00       0.00
  clock network delay (ideal)              0.00       0.00
  addr_reg_1_0/CK (DFFQX4TR)               0.00       0.00 r
  addr_reg_1_0/Q (DFFQX4TR)                0.35       0.35 f
  U48/Y (NAND2X2TR)                        0.14       0.49 r
  U121/Y (OAI21X4TR)                       0.08       0.57 f
  U126/Y (AOI21X4TR)                       0.14       0.71 r
  U104/Y (CLKINVX6TR)                      0.11       0.82 f
  U134/Y (AOI21X4TR)                       0.10       0.92 r
  U137/Y (XOR2X4TR)                        0.11       1.03 r
  U57/Y (INVX2TR)                          0.06       1.09 f
  U113/Y (OAI211X1TR)                      0.18       1.27 r
  addr_reg_6_0/D (DFFQX4TR)                0.00       1.27 r
  data arrival time                                   1.27

  clock clk (rise edge)                    1.50       1.50
  clock network delay (ideal)              0.00       1.50
  clock uncertainty                       -0.10       1.40
  addr_reg_6_0/CK (DFFQX4TR)               0.00       1.40 r
  library setup time                      -0.12       1.28
  data required time                                  1.28
  -----------------------------------------------------------
  data required time                                  1.28
  data arrival time                                  -1.27
  -----------------------------------------------------------
  slack (MET)                                         0.01


  Startpoint: resetn (input port clocked by clk)
  Endpoint: addr_reg_9_0
            (rising edge-triggered flip-flop clocked by clk)
  Path Group: clk
  Path Type: max

  Des/Clust/Port     Wire Load Model       Library
  ------------------------------------------------
  pc                 ibm13_wl10            typical

  Point                                    Incr       Path
  -----------------------------------------------------------
  clock clk (rise edge)                    0.00       0.00
  clock network delay (ideal)              0.00       0.00
  input external delay                     0.10       0.10 f
  resetn (in)                              0.00       0.10 f
  U118/Y (INVX16TR)                        0.00       0.10 r
  U55/Y (NAND2X4TR)                        0.06       0.16 f
  U50/Y (BUFX8TR)                          0.10       0.26 f
  U131/Y (NOR2BX2TR)                       0.18       0.43 r
  U53/Y (NAND2X1TR)                        0.15       0.58 f
  U45/Y (OAI21X1TR)                        0.17       0.76 r
  U140/Y (AOI21X4TR)                       0.06       0.81 f
  U141/Y (OAI21X4TR)                       0.09       0.90 r
  U145/Y (AOI21X4TR)                       0.06       0.96 f
  U148/Y (XOR2X4TR)                        0.10       1.06 r
  U59/Y (INVX3TR)                          0.04       1.11 f
  U103/Y (OAI211X1TR)                      0.18       1.28 r
  addr_reg_9_0/D (DFFHQX1TR)               0.00       1.28 r
  data arrival time                                   1.28

  clock clk (rise edge)                    1.50       1.50
  clock network delay (ideal)              0.00       1.50
  clock uncertainty                       -0.10       1.40
  addr_reg_9_0/CK (DFFHQX1TR)              0.00       1.40 r
  library setup time                      -0.11       1.29
  data required time                                  1.29
  -----------------------------------------------------------
  data required time                                  1.29
  data arrival time                                  -1.28
  -----------------------------------------------------------
  slack (MET)                                         0.01


  Startpoint: br (input port clocked by clk)
  Endpoint: addr_reg_9_0
            (rising edge-triggered flip-flop clocked by clk)
  Path Group: clk
  Path Type: max

  Des/Clust/Port     Wire Load Model       Library
  ------------------------------------------------
  pc                 ibm13_wl10            typical

  Point                                    Incr       Path
  -----------------------------------------------------------
  clock clk (rise edge)                    0.00       0.00
  clock network delay (ideal)              0.00       0.00
  input external delay                     0.10       0.10 r
  br (in)                                  0.00       0.10 r
  U55/Y (NAND2X4TR)                        0.06       0.16 f
  U50/Y (BUFX8TR)                          0.10       0.26 f
  U101/Y (NOR2BX2TR)                       0.18       0.44 r
  U100/Y (NOR2X4TR)                        0.09       0.54 f
  U107/Y (NOR2X4TR)                        0.15       0.69 r
  U139/Y (NAND2X2TR)                       0.08       0.77 f
  U141/Y (OAI21X4TR)                       0.14       0.90 r
  U145/Y (AOI21X4TR)                       0.06       0.96 f
  U148/Y (XOR2X4TR)                        0.10       1.06 r
  U59/Y (INVX3TR)                          0.04       1.11 f
  U103/Y (OAI211X1TR)                      0.18       1.28 r
  addr_reg_9_0/D (DFFHQX1TR)               0.00       1.28 r
  data arrival time                                   1.28

  clock clk (rise edge)                    1.50       1.50
  clock network delay (ideal)              0.00       1.50
  clock uncertainty                       -0.10       1.40
  addr_reg_9_0/CK (DFFHQX1TR)              0.00       1.40 r
  library setup time                      -0.11       1.29
  data required time                                  1.29
  -----------------------------------------------------------
  data required time                                  1.29
  data arrival time                                  -1.28
  -----------------------------------------------------------
  slack (MET)                                         0.01


  Startpoint: resetn (input port clocked by clk)
  Endpoint: addr_reg_4_0
            (rising edge-triggered flip-flop clocked by clk)
  Path Group: clk
  Path Type: max

  Des/Clust/Port     Wire Load Model       Library
  ------------------------------------------------
  pc                 ibm13_wl10            typical

  Point                                    Incr       Path
  -----------------------------------------------------------
  clock clk (rise edge)                    0.00       0.00
  clock network delay (ideal)              0.00       0.00
  input external delay                     0.10       0.10 f
  resetn (in)                              0.00       0.10 f
  U118/Y (INVX16TR)                        0.00       0.10 r
  U55/Y (NAND2X4TR)                        0.06       0.16 f
  U50/Y (BUFX8TR)                          0.10       0.26 f
  U116/Y (NOR2BX2TR)                       0.20       0.46 r
  U124/Y (NAND2X2TR)                       0.10       0.56 f
  U125/Y (OAI21X2TR)                       0.11       0.67 r
  U126/Y (AOI21X4TR)                       0.07       0.74 f
  U104/Y (CLKINVX6TR)                      0.10       0.84 r
  U73/Y (XNOR2X2TR)                        0.17       1.00 r
  U168/Y (CLKINVX2TR)                      0.10       1.10 f
  U171/Y (OAI211X1TR)                      0.19       1.30 r
  addr_reg_4_0/D (DFFHQX2TR)               0.00       1.30 r
  data arrival time                                   1.30

  clock clk (rise edge)                    1.50       1.50
  clock network delay (ideal)              0.00       1.50
  clock uncertainty                       -0.10       1.40
  addr_reg_4_0/CK (DFFHQX2TR)              0.00       1.40 r
  library setup time                      -0.09       1.31
  data required time                                  1.31
  -----------------------------------------------------------
  data required time                                  1.31
  data arrival time                                  -1.30
  -----------------------------------------------------------
  slack (MET)                                         0.01


  Startpoint: br (input port clocked by clk)
  Endpoint: addr_reg_4_0
            (rising edge-triggered flip-flop clocked by clk)
  Path Group: clk
  Path Type: max

  Des/Clust/Port     Wire Load Model       Library
  ------------------------------------------------
  pc                 ibm13_wl10            typical

  Point                                    Incr       Path
  -----------------------------------------------------------
  clock clk (rise edge)                    0.00       0.00
  clock network delay (ideal)              0.00       0.00
  input external delay                     0.10       0.10 r
  br (in)                                  0.00       0.10 r
  U55/Y (NAND2X4TR)                        0.06       0.16 f
  U50/Y (BUFX8TR)                          0.10       0.26 f
  U116/Y (NOR2BX2TR)                       0.20       0.46 r
  U93/Y (NOR2X6TR)                         0.07       0.53 f
  U123/Y (NOR2X2TR)                        0.13       0.66 r
  U126/Y (AOI21X4TR)                       0.08       0.74 f
  U104/Y (CLKINVX6TR)                      0.10       0.84 r
  U73/Y (XNOR2X2TR)                        0.17       1.00 r
  U168/Y (CLKINVX2TR)                      0.10       1.10 f
  U171/Y (OAI211X1TR)                      0.19       1.30 r
  addr_reg_4_0/D (DFFHQX2TR)               0.00       1.30 r
  data arrival time                                   1.30

  clock clk (rise edge)                    1.50       1.50
  clock network delay (ideal)              0.00       1.50
  clock uncertainty                       -0.10       1.40
  addr_reg_4_0/CK (DFFHQX2TR)              0.00       1.40 r
  library setup time                      -0.09       1.31
  data required time                                  1.31
  -----------------------------------------------------------
  data required time                                  1.31
  data arrival time                                  -1.30
  -----------------------------------------------------------
  slack (MET)                                         0.01


  Startpoint: resetn (input port clocked by clk)
  Endpoint: addr_reg_3_0
            (rising edge-triggered flip-flop clocked by clk)
  Path Group: clk
  Path Type: max

  Des/Clust/Port     Wire Load Model       Library
  ------------------------------------------------
  pc                 ibm13_wl10            typical

  Point                                    Incr       Path
  -----------------------------------------------------------
  clock clk (rise edge)                    0.00       0.00
  clock network delay (ideal)              0.00       0.00
  input external delay                     0.10       0.10 f
  resetn (in)                              0.00       0.10 f
  U118/Y (INVX16TR)                        0.00       0.10 r
  U55/Y (NAND2X4TR)                        0.06       0.16 f
  U50/Y (BUFX8TR)                          0.10       0.26 f
  U116/Y (NOR2BX2TR)                       0.20       0.46 r
  U124/Y (NAND2X2TR)                       0.10       0.56 f
  U153/Y (NAND2X1TR)                       0.13       0.69 r
  U154/Y (XNOR2X1TR)                       0.31       1.01 r
  U42/Y (INVX2TR)                          0.07       1.07 f
  U167/Y (OAI211X1TR)                      0.20       1.27 r
  addr_reg_3_0/D (DFFQX4TR)                0.00       1.27 r
  data arrival time                                   1.27

  clock clk (rise edge)                    1.50       1.50
  clock network delay (ideal)              0.00       1.50
  clock uncertainty                       -0.10       1.40
  addr_reg_3_0/CK (DFFQX4TR)               0.00       1.40 r
  library setup time                      -0.12       1.28
  data required time                                  1.28
  -----------------------------------------------------------
  data required time                                  1.28
  data arrival time                                  -1.27
  -----------------------------------------------------------
  slack (MET)                                         0.01


  Startpoint: br (input port clocked by clk)
  Endpoint: addr_reg_7_0
            (rising edge-triggered flip-flop clocked by clk)
  Path Group: clk
  Path Type: max

  Des/Clust/Port     Wire Load Model       Library
  ------------------------------------------------
  pc                 ibm13_wl10            typical

  Point                                    Incr       Path
  -----------------------------------------------------------
  clock clk (rise edge)                    0.00       0.00
  clock network delay (ideal)              0.00       0.00
  input external delay                     0.10       0.10 f
  br (in)                                  0.00       0.10 f
  U55/Y (NAND2X4TR)                        0.10       0.20 r
  U92/Y (BUFX6TR)                          0.12       0.31 r
  U119/Y (NOR2BX4TR)                       0.06       0.37 f
  U48/Y (NAND2X2TR)                        0.12       0.49 r
  U121/Y (OAI21X4TR)                       0.08       0.57 f
  U126/Y (AOI21X4TR)                       0.14       0.71 r
  U104/Y (CLKINVX6TR)                      0.11       0.82 f
  U44/Y (AOI21X2TR)                        0.14       0.96 r
  U133/Y (XOR2X4TR)                        0.12       1.09 r
  U58/Y (INVX2TR)                          0.06       1.15 f
  U70/Y (OAI211X2TR)                       0.13       1.28 r
  addr_reg_7_0/D (DFFQX4TR)                0.00       1.28 r
  data arrival time                                   1.28

  clock clk (rise edge)                    1.50       1.50
  clock network delay (ideal)              0.00       1.50
  clock uncertainty                       -0.10       1.40
  addr_reg_7_0/CK (DFFQX4TR)               0.00       1.40 r
  library setup time                      -0.11       1.29
  data required time                                  1.29
  -----------------------------------------------------------
  data required time                                  1.29
  data arrival time                                  -1.28
  -----------------------------------------------------------
  slack (MET)                                         0.01


  Startpoint: br (input port clocked by clk)
  Endpoint: addr_reg_5_0
            (rising edge-triggered flip-flop clocked by clk)
  Path Group: clk
  Path Type: max

  Des/Clust/Port     Wire Load Model       Library
  ------------------------------------------------
  pc                 ibm13_wl10            typical

  Point                                    Incr       Path
  -----------------------------------------------------------
  clock clk (rise edge)                    0.00       0.00
  clock network delay (ideal)              0.00       0.00
  input external delay                     0.10       0.10 f
  br (in)                                  0.00       0.10 f
  U55/Y (NAND2X4TR)                        0.10       0.20 r
  U92/Y (BUFX6TR)                          0.12       0.31 r
  U119/Y (NOR2BX4TR)                       0.06       0.37 f
  U48/Y (NAND2X2TR)                        0.12       0.49 r
  U121/Y (OAI21X4TR)                       0.08       0.57 f
  U126/Y (AOI21X4TR)                       0.14       0.71 r
  U104/Y (CLKINVX6TR)                      0.11       0.82 f
  U172/Y (AOI21X4TR)                       0.10       0.92 r
  U96/Y (XOR2X4TR)                         0.11       1.03 r
  U56/Y (INVX2TR)                          0.06       1.08 f
  U112/Y (OAI211X1TR)                      0.18       1.27 r
  addr_reg_5_0/D (DFFQX4TR)                0.00       1.27 r
  data arrival time                                   1.27

  clock clk (rise edge)                    1.50       1.50
  clock network delay (ideal)              0.00       1.50
  clock uncertainty                       -0.10       1.40
  addr_reg_5_0/CK (DFFQX4TR)               0.00       1.40 r
  library setup time                      -0.12       1.28
  data required time                                  1.28
  -----------------------------------------------------------
  data required time                                  1.28
  data arrival time                                  -1.27
  -----------------------------------------------------------
  slack (MET)                                         0.01


  Startpoint: br (input port clocked by clk)
  Endpoint: addr_reg_6_0
            (rising edge-triggered flip-flop clocked by clk)
  Path Group: clk
  Path Type: max

  Des/Clust/Port     Wire Load Model       Library
  ------------------------------------------------
  pc                 ibm13_wl10            typical

  Point                                    Incr       Path
  -----------------------------------------------------------
  clock clk (rise edge)                    0.00       0.00
  clock network delay (ideal)              0.00       0.00
  input external delay                     0.10       0.10 f
  br (in)                                  0.00       0.10 f
  U55/Y (NAND2X4TR)                        0.10       0.20 r
  U92/Y (BUFX6TR)                          0.12       0.31 r
  U119/Y (NOR2BX4TR)                       0.06       0.37 f
  U48/Y (NAND2X2TR)                        0.12       0.49 r
  U121/Y (OAI21X4TR)                       0.08       0.57 f
  U126/Y (AOI21X4TR)                       0.14       0.71 r
  U104/Y (CLKINVX6TR)                      0.11       0.82 f
  U134/Y (AOI21X4TR)                       0.10       0.92 r
  U137/Y (XOR2X4TR)                        0.11       1.03 r
  U57/Y (INVX2TR)                          0.06       1.08 f
  U113/Y (OAI211X1TR)                      0.18       1.27 r
  addr_reg_6_0/D (DFFQX4TR)                0.00       1.27 r
  data arrival time                                   1.27

  clock clk (rise edge)                    1.50       1.50
  clock network delay (ideal)              0.00       1.50
  clock uncertainty                       -0.10       1.40
  addr_reg_6_0/CK (DFFQX4TR)               0.00       1.40 r
  library setup time                      -0.12       1.28
  data required time                                  1.28
  -----------------------------------------------------------
  data required time                                  1.28
  data arrival time                                  -1.27
  -----------------------------------------------------------
  slack (MET)                                         0.01


  Startpoint: resetn (input port clocked by clk)
  Endpoint: addr_reg_4_0
            (rising edge-triggered flip-flop clocked by clk)
  Path Group: clk
  Path Type: max

  Des/Clust/Port     Wire Load Model       Library
  ------------------------------------------------
  pc                 ibm13_wl10            typical

  Point                                    Incr       Path
  -----------------------------------------------------------
  clock clk (rise edge)                    0.00       0.00
  clock network delay (ideal)              0.00       0.00
  input external delay                     0.10       0.10 f
  resetn (in)                              0.00       0.10 f
  U118/Y (INVX16TR)                        0.00       0.10 r
  U55/Y (NAND2X4TR)                        0.06       0.16 f
  U50/Y (BUFX8TR)                          0.10       0.26 f
  U116/Y (NOR2BX2TR)                       0.20       0.46 r
  U93/Y (NOR2X6TR)                         0.07       0.52 f
  U125/Y (OAI21X2TR)                       0.14       0.67 r
  U126/Y (AOI21X4TR)                       0.07       0.74 f
  U104/Y (CLKINVX6TR)                      0.10       0.84 r
  U73/Y (XNOR2X2TR)                        0.17       1.00 r
  U168/Y (CLKINVX2TR)                      0.10       1.10 f
  U171/Y (OAI211X1TR)                      0.19       1.29 r
  addr_reg_4_0/D (DFFHQX2TR)               0.00       1.29 r
  data arrival time                                   1.29

  clock clk (rise edge)                    1.50       1.50
  clock network delay (ideal)              0.00       1.50
  clock uncertainty                       -0.10       1.40
  addr_reg_4_0/CK (DFFHQX2TR)              0.00       1.40 r
  library setup time                      -0.09       1.31
  data required time                                  1.31
  -----------------------------------------------------------
  data required time                                  1.31
  data arrival time                                  -1.29
  -----------------------------------------------------------
  slack (MET)                                         0.01


  Startpoint: resetn (input port clocked by clk)
  Endpoint: addr_reg_9_0
            (rising edge-triggered flip-flop clocked by clk)
  Path Group: clk
  Path Type: max

  Des/Clust/Port     Wire Load Model       Library
  ------------------------------------------------
  pc                 ibm13_wl10            typical

  Point                                    Incr       Path
  -----------------------------------------------------------
  clock clk (rise edge)                    0.00       0.00
  clock network delay (ideal)              0.00       0.00
  input external delay                     0.10       0.10 f
  resetn (in)                              0.00       0.10 f
  U118/Y (INVX16TR)                        0.00       0.10 r
  U55/Y (NAND2X4TR)                        0.06       0.16 f
  U50/Y (BUFX8TR)                          0.10       0.26 f
  U101/Y (NOR2BX2TR)                       0.18       0.44 r
  U100/Y (NOR2X4TR)                        0.09       0.53 f
  U107/Y (NOR2X4TR)                        0.15       0.69 r
  U139/Y (NAND2X2TR)                       0.08       0.76 f
  U141/Y (OAI21X4TR)                       0.14       0.90 r
  U145/Y (AOI21X4TR)                       0.06       0.96 f
  U148/Y (XOR2X4TR)                        0.10       1.06 r
  U59/Y (INVX3TR)                          0.04       1.10 f
  U103/Y (OAI211X1TR)                      0.18       1.28 r
  addr_reg_9_0/D (DFFHQX1TR)               0.00       1.28 r
  data arrival time                                   1.28

  clock clk (rise edge)                    1.50       1.50
  clock network delay (ideal)              0.00       1.50
  clock uncertainty                       -0.10       1.40
  addr_reg_9_0/CK (DFFHQX1TR)              0.00       1.40 r
  library setup time                      -0.11       1.29
  data required time                                  1.29
  -----------------------------------------------------------
  data required time                                  1.29
  data arrival time                                  -1.28
  -----------------------------------------------------------
  slack (MET)                                         0.01


  Startpoint: br (input port clocked by clk)
  Endpoint: addr_reg_7_0
            (rising edge-triggered flip-flop clocked by clk)
  Path Group: clk
  Path Type: max

  Des/Clust/Port     Wire Load Model       Library
  ------------------------------------------------
  pc                 ibm13_wl10            typical

  Point                                    Incr       Path
  -----------------------------------------------------------
  clock clk (rise edge)                    0.00       0.00
  clock network delay (ideal)              0.00       0.00
  input external delay                     0.10       0.10 f
  br (in)                                  0.00       0.10 f
  U55/Y (NAND2X4TR)                        0.10       0.20 r
  U50/Y (BUFX8TR)                          0.10       0.30 r
  U116/Y (NOR2BX2TR)                       0.08       0.38 f
  U93/Y (NOR2X6TR)                         0.11       0.49 r
  U123/Y (NOR2X2TR)                        0.07       0.56 f
  U126/Y (AOI21X4TR)                       0.14       0.71 r
  U104/Y (CLKINVX6TR)                      0.11       0.82 f
  U44/Y (AOI21X2TR)                        0.14       0.96 r
  U133/Y (XOR2X4TR)                        0.12       1.08 r
  U58/Y (INVX2TR)                          0.06       1.15 f
  U70/Y (OAI211X2TR)                       0.13       1.28 r
  addr_reg_7_0/D (DFFQX4TR)                0.00       1.28 r
  data arrival time                                   1.28

  clock clk (rise edge)                    1.50       1.50
  clock network delay (ideal)              0.00       1.50
  clock uncertainty                       -0.10       1.40
  addr_reg_7_0/CK (DFFQX4TR)               0.00       1.40 r
  library setup time                      -0.11       1.29
  data required time                                  1.29
  -----------------------------------------------------------
  data required time                                  1.29
  data arrival time                                  -1.28
  -----------------------------------------------------------
  slack (MET)                                         0.01


1
