\o Program:		@(#)$CDS: libManager version 6.1.7 - CAT35 06/05/2018 21:25 (sjfhw306) $
\o Sub version:		sub-version  s211 
\o Arguments:		-mpssession virtuoso31864 -mpshost pierb507p33.engin.umich.edu 
\o Working Directory:	pierb507p33.engin.umich.edu:/afs/umich.edu/class/eecs427/f18/group2/CAD6
\o 64-bit offsets
\o Qt version: 		4.8.5
\o Log file is "/afs/umich.edu/class/eecs427/f18/group2/CAD6/libManager.log.1".
\o Opening libManager window.
\a nrSetCurrentWindow(cdsLibManager)
\a nrResizeWindow(cdsLibManager list(1250 20 1280 1341))
\o changeWorkingDir("/afs/umich.edu/class/eecs427/f18/group2/CAD6") unnecessary.
\o ddSetForcedLib("") unnecessary.
\o MPS service: map window
\o Library Manager customization server connected.
\a nrSetCurrentWindow(cdsLibManager)
\a nrSetCurrentWindow(cdsLibManager)
\a cdsLibManager->libListBox->value = "CAD6_newest"
\a cdsLibManager->libLineEdit->value = "CAD6_newest"
\a cdsLibManager->cellListBox->value = "pc_functional"
\a cdsLibManager->cellLineEdit->value = "pc_functional"
\a nrSetCurrentWindow(cdsLibManager)
\a cdsLibManager->libListBox->value = nil
\a cdsLibManager->libLineEdit->value = ""
\a cdsLibManager->cellListBox->value = nil
\a cdsLibManager->cellLineEdit->value = ""
\a cdsLibManager->libListBox->value = "CAD6_newest"
\a cdsLibManager->libLineEdit->value = "CAD6_newest"
\a cdsLibManager->cellListBox->value = "pc_functional"
\a cdsLibManager->cellLineEdit->value = "pc_functional"
\a cdsLibManager->cellLineEdit->value = ""
\a cdsLibManager->cellListBox->value = nil
\a cdsLibManager->cellListBox->value = "pc_functional"
\a cdsLibManager->cellLineEdit->value = "pc_functional"
\a cdsLibManager->libListBox->value = nil
\a cdsLibManager->libLineEdit->value = ""
\a cdsLibManager->cellListBox->value = nil
\a cdsLibManager->cellLineEdit->value = ""
\a cdsLibManager->libListBox->value = "CAD6_newest"
\a cdsLibManager->libLineEdit->value = "CAD6_newest"
\a cdsLibManager->cellListBox->value = "pc_functional"
\a cdsLibManager->cellLineEdit->value = "pc_functional"
\a cdsLibManager->cellLineEdit->value = ""
\a cdsLibManager->cellListBox->value = nil
\a cdsLibManager->cellListBox->value = "pc_functional"
\a cdsLibManager->cellLineEdit->value = "pc_functional"
\a nrSetCurrentWindow(cdsLibManager)
\a cdsLibManager->libListBox->value = nil
\a cdsLibManager->libLineEdit->value = ""
\a cdsLibManager->cellListBox->value = nil
\a cdsLibManager->cellLineEdit->value = ""
\a cdsLibManager->libListBox->value = "CAD6_newest"
\a cdsLibManager->libLineEdit->value = "CAD6_newest"
\a cdsLibManager->cellListBox->value = "pc_functional"
\a cdsLibManager->cellLineEdit->value = "pc_functional"
\a cdsLibManager->cellLineEdit->value = ""
\a cdsLibManager->cellListBox->value = nil
\a cdsLibManager->cellListBox->value = "pc_functional"
\a cdsLibManager->cellLineEdit->value = "pc_functional"
\a cdsLibManager->libListBox->value = nil
\a cdsLibManager->libLineEdit->value = ""
\a cdsLibManager->cellListBox->value = nil
\a cdsLibManager->cellLineEdit->value = ""
\a cdsLibManager->libListBox->value = "CAD6_newest"
\a cdsLibManager->libLineEdit->value = "CAD6_newest"
\a cdsLibManager->cellListBox->value = "pc_functional"
\a cdsLibManager->cellLineEdit->value = "pc_functional"
\a cdsLibManager->cellLineEdit->value = ""
\a cdsLibManager->cellListBox->value = nil
\a cdsLibManager->cellListBox->value = "pc_functional"
\a cdsLibManager->cellLineEdit->value = "pc_functional"
\a nrSetCurrentWindow(cdsLibManager)
\a cdsLibManager->libListBox->value = "LEF_EXAMPLE"
\a cdsLibManager->libLineEdit->value = "LEF_EXAMPLE"
\a cdsLibManager->cellLineEdit->value = ""
\a cdsLibManager->cellListBox->value = nil
\a cdsLibManager->libListBox->value = "CAD6_newest"
\a cdsLibManager->libLineEdit->value = "CAD6_newest"
\a cdsLibManager->cellListBox->value = "pc_functional"
\a cdsLibManager->cellLineEdit->value = "pc_functional"
\a cdsLibManager->libListBox->value = "CAD6_LIB_fix"
\a cdsLibManager->libLineEdit->value = "CAD6_LIB_fix"
\a cdsLibManager->cellLineEdit->value = ""
\a cdsLibManager->cellListBox->value = nil
\a cdsLibManager->cellListBox->value = "pc_functional"
\a cdsLibManager->cellLineEdit->value = "pc_functional"
\a cdsLibManager->libListBox->value = "CAD6_LIB_newest"
\a cdsLibManager->libLineEdit->value = "CAD6_LIB_newest"
\a cdsLibManager->cellLineEdit->value = ""
\a cdsLibManager->cellListBox->value = nil
\a cdsLibManager->libListBox->value = nil
\a cdsLibManager->libLineEdit->value = ""
\a cdsLibManager->libListBox->value = "CAD6_LIB_newest"
\a cdsLibManager->libLineEdit->value = "CAD6_LIB_newest"
\a cdsLibManager->cellListBox->value = "pc"
\a cdsLibManager->cellLineEdit->value = "pc"
\a cdsLibManager->viewListBox->value = "layout"
\a cdsLibManager->viewLineEdit->value = "layout"
\a cdsLibManager->cellLineEdit->value = ""
\a cdsLibManager->cellListBox->value = nil
\a cdsLibManager->viewLineEdit->value = ""
\a cdsLibManager->viewListBox->value = nil
\a cdsLibManager->cellListBox->value = "pc"
\a cdsLibManager->cellLineEdit->value = "pc"
\a cdsLibManager->viewListBox->value = "layout"
\a cdsLibManager->viewLineEdit->value = "layout"
\a cdsLibManager->viewLineEdit->value = ""
\a cdsLibManager->viewListBox->value = nil
\a cdsLibManager->viewListBox->value = "layout"
\a cdsLibManager->viewLineEdit->value = "layout"
\a nrSetCurrentWindow(cdsLibManager)
\a cdsLibManager->viewListBox->value = nil
\a cdsLibManager->viewLineEdit->value = ""
\a cdsLibManager->libListBox->value = "LEF_EXAMPLE"
\a cdsLibManager->libLineEdit->value = "LEF_EXAMPLE"
\a cdsLibManager->cellLineEdit->value = ""
\a cdsLibManager->cellListBox->value = nil
\a cdsLibManager->libListBox->value = "CAD6_LIB_newest"
\a cdsLibManager->libLineEdit->value = "CAD6_LIB_newest"
\a cdsLibManager->cellListBox->value = "pc"
\a cdsLibManager->cellLineEdit->value = "pc"
\a cdsLibManager->viewListBox->value = "layout"
\a cdsLibManager->viewLineEdit->value = "layout"
\a cdsLibManager->libListBox->value = "CAD6_newest"
\a cdsLibManager->libLineEdit->value = "CAD6_newest"
\a cdsLibManager->cellLineEdit->value = ""
\a cdsLibManager->cellListBox->value = nil
\a cdsLibManager->viewLineEdit->value = ""
\a cdsLibManager->viewListBox->value = nil
\a cdsLibManager->cellListBox->value = "pc_functional"
\a cdsLibManager->cellLineEdit->value = "pc_functional"
\a cdsLibManager->libListBox->value = "CAD6_LIB_newest"
\a cdsLibManager->libLineEdit->value = "CAD6_LIB_newest"
\a cdsLibManager->cellLineEdit->value = ""
\a cdsLibManager->cellListBox->value = nil
\a cdsLibManager->cellListBox->value = "pc"
\a cdsLibManager->cellLineEdit->value = "pc"
\a cdsLibManager->viewListBox->value = "layout"
\a cdsLibManager->viewLineEdit->value = "layout"
\a cdsLibManager->libListBox->value = "CAD6_newest"
\a cdsLibManager->libLineEdit->value = "CAD6_newest"
\a cdsLibManager->cellLineEdit->value = ""
\a cdsLibManager->cellListBox->value = nil
\a cdsLibManager->viewLineEdit->value = ""
\a cdsLibManager->viewListBox->value = nil
\a cdsLibManager->cellListBox->value = "pc_functional"
\a cdsLibManager->cellLineEdit->value = "pc_functional"
\a cdsLibManager->libListBox->value = "CAD6_LIB_newest"
\a cdsLibManager->libLineEdit->value = "CAD6_LIB_newest"
\a cdsLibManager->cellLineEdit->value = ""
\a cdsLibManager->cellListBox->value = nil
\a cdsLibManager->cellListBox->value = "pc"
\a cdsLibManager->cellLineEdit->value = "pc"
\a cdsLibManager->viewListBox->value = "layout"
\a cdsLibManager->viewLineEdit->value = "layout"
\a cdsLibManager->libListBox->value = "CAD6_newest"
\a cdsLibManager->libLineEdit->value = "CAD6_newest"
\a cdsLibManager->cellLineEdit->value = ""
\a cdsLibManager->cellListBox->value = nil
\a cdsLibManager->viewLineEdit->value = ""
\a cdsLibManager->viewListBox->value = nil
\a cdsLibManager->cellListBox->value = "pc_functional"
\a cdsLibManager->cellLineEdit->value = "pc_functional"
\a cdsLibManager->libListBox->value = "CAD6_LIB_newest"
\a cdsLibManager->libLineEdit->value = "CAD6_LIB_newest"
\a cdsLibManager->cellLineEdit->value = ""
\a cdsLibManager->cellListBox->value = nil
\a cdsLibManager->cellListBox->value = "pc"
\a cdsLibManager->cellLineEdit->value = "pc"
\a cdsLibManager->viewListBox->value = "layout"
\a cdsLibManager->viewLineEdit->value = "layout"
\a cdsLibManager->libListBox->value = "CAD6_newest"
\a cdsLibManager->libLineEdit->value = "CAD6_newest"
\a cdsLibManager->cellLineEdit->value = ""
\a cdsLibManager->cellListBox->value = nil
\a cdsLibManager->viewLineEdit->value = ""
\a cdsLibManager->viewListBox->value = nil
\a cdsLibManager->cellListBox->value = "pc_functional"
\a cdsLibManager->cellLineEdit->value = "pc_functional"
\a lmgrLogShowPopup("mainListPopup1" 52 5 2 "pc_functional")
\a cdsLibManager->copySimpleButton->value = t
\a basicCopyForm->CategoryCellsEdit->value = "*"
\a basicCopyForm->CellsSkipLibraries->value = t
\a basicCopyForm->CellsSkipLibrariesEdit->value = "*"
\a basicCopyForm->CellsSkipLibrariesEdit->value = "*"
\a basicCopyForm->ViewsSkipLibraries->value = t
\a basicCopyForm->ViewsSkipLibrariesEdit->value = "*"
\a basicCopyForm->CopyFromLibrary->value = "CAD"
\a basicCopyForm->CopyToLibrary->value = "CAD"
\a basicCopyForm->CopyFromLibrary->value = "CAD6_newest"
\a basicCopyForm->CopyFromCell->value = "pc_functional"
\a basicCopyForm->CopyToLibrary->value = "CAD6_newest"
\a basicCopyForm->CopyToCell->value = "pc_functional"
\a basicCopyForm->CellsViewsToCopy->value = "functional symbol"
\a basicCopyForm->CellsSkipLibrariesEdit->value = ""
\a basicCopyForm->CellsSkipLibrariesEdit->value = "CAD CAD6_LIB CAD6_LIB_backup CAD6_LIB_fix CAD6_LIB_newest LEF_EXAMPLE RA1SH16x512 ROVSD16x1024 US_8ths analogLib basic cdsDefTechLib cmrf8sf eecs427Lib eecs427artisan eecs427pads esd8rf sample sbaLib"
\a basicCopyForm->ViewsSkipLibrariesEdit->value = "CAD CAD6_LIB CAD6_LIB_backup CAD6_LIB_fix CAD6_LIB_newest LEF_EXAMPLE RA1SH16x512 ROVSD16x1024 US_8ths analogLib basic cdsDefTechLib cmrf8sf eecs427Lib eecs427artisan eecs427pads esd8rf sample sbaLib"
\a nrSetWindowVisibility(basicCopyForm "show")
\a nrSetCurrentWindow(basicCopyForm)
\a nrResizeWindow(basicCopyForm list(1668 258 444 625))
\a basicCopyForm->CopyToLibrary->value = "CAD6_LIB_newest"
\a basicCopyForm->OK->value = t
\o Beginning simple copy to library "CAD6_LIB_newest".
\o Processing files to be copied...
\a nrSetWindowVisibility(workingDialogForm "show")
\o ERROR (CLM-173): One or more of the following problems have occurred:\n      1. The source file does not exist.\n      2. A destination file will be overwritten.\n      3. A destination file is checked out.\n      4. A destination file is opened for edit.\n      5. A destination file conflicts with another.\n      6. A source library file is not valid in a different library.\n      7. A source OpenAccess cellview master file has zero size.
\a nrSetWindowVisibility(copyProblemsDialog "show")
\a nrSetCurrentWindow(workingDialogForm)
\a nrSetCurrentWindow(basicCopyForm)
\a nrSetCurrentWindow(copyProblemsDialog)
\a nrResizeWindow(workingDialogForm list(1764 431 273 132))
\a nrResizeWindow(copyProblemsDialog list(1478 357 825 441))
\a nrSetWindowVisibility(copyProblemsDialog "hide")
\a basicCopyForm->CellsSkipLibrariesEdit->value = "*"
\a basicCopyForm->CellsSkipLibrariesEdit->value = "CAD CAD6_LIB CAD6_LIB_backup CAD6_LIB_fix CAD6_LIB_newest LEF_EXAMPLE RA1SH16x512 ROVSD16x1024 US_8ths analogLib basic cdsDefTechLib cmrf8sf eecs427Lib eecs427artisan eecs427pads esd8rf sample sbaLib"
\a nrSetCurrentWindow(basicCopyForm)
\a nrResizeWindow(basicCopyForm list(477 457 444 625))
\a basicCopyForm->OK->value = t
\o Beginning simple copy to library "CAD6_LIB_newest".
\o Processing files to be copied...
\a nrSetWindowVisibility(workingDialogForm "show")
\a nrSetWindowVisibility(copyProblemsDialog "show")
\a nrSetCurrentWindow(copyProblemsDialog)
\a nrResizeWindow(workingDialogForm list(1754 629 273 132))
\a nrResizeWindow(copyProblemsDialog list(287 556 825 441))
\a copyProblemsDialog->OK->value = t
\a nrSetCurrentWindow(basicCopyForm)
\a nrSetWindowVisibility(workingDialogForm "show")
\a nrSetCurrentWindow(cdsLibManager)
\a nrSetCurrentWindow(workingDialogForm)
\a nrResizeWindow(workingDialogForm list(1754 423 273 132))
\a basicCopyForm->CellsSkipLibrariesEdit->value = "*"
\a basicCopyForm->CellsSkipLibrariesEdit->value = "CAD CAD6_LIB CAD6_LIB_backup CAD6_LIB_fix CAD6_LIB_newest LEF_EXAMPLE RA1SH16x512 ROVSD16x1024 US_8ths analogLib basic cdsDefTechLib cmrf8sf eecs427Lib eecs427artisan eecs427pads esd8rf sample sbaLib"
\a nrSetCurrentWindow(cdsLibManager)
\a cdsLibManager->libListBox->value = "CAD6_LIB_newest"
\a cdsLibManager->libLineEdit->value = "CAD6_LIB_newest"
\a cdsLibManager->cellLineEdit->value = ""
\a cdsLibManager->cellListBox->value = nil
\a cdsLibManager->cellListBox->value = "pc_functional"
\a cdsLibManager->cellLineEdit->value = "pc_functional"
\a cdsLibManager->cellListBox->value = "pc"
\a cdsLibManager->cellLineEdit->value = "pc"
\a cdsLibManager->viewListBox->value = "layout"
\a cdsLibManager->viewLineEdit->value = "layout"
\a cdsLibManager->cellListBox->value = "pc_functional"
\a cdsLibManager->cellLineEdit->value = "pc_functional"
\a cdsLibManager->viewLineEdit->value = ""
\a cdsLibManager->viewListBox->value = nil
\a cdsLibManager->viewListBox->value = "functional"
\a cdsLibManager->viewLineEdit->value = "functional"
\o MPS request: edit design
\a nrListItemAction(cdsLibManager->gdmXTView 0 0)
\a nrSetCurrentWindow(cdsLibManager)
\a nrSetCurrentWindow(cdsLibManager)
\a nrSetCurrentWindow(cdsLibManager)
\a nrSetCurrentWindow(cdsLibManager)
\a cdsLibManager->cellListBox->value = "pc"
\a cdsLibManager->cellLineEdit->value = "pc"
\a cdsLibManager->viewLineEdit->value = ""
\a cdsLibManager->viewListBox->value = nil
\a cdsLibManager->viewListBox->value = "layout"
\a cdsLibManager->viewLineEdit->value = "layout"
\o MPS request: edit design
\a nrListItemAction(cdsLibManager->gdmXTView 0 0)
\a nrSetCurrentWindow(cdsLibManager)
\o MPS service: shutdown
\o libManager is exiting.
\a nrSetWindowVisibility(cdsLibManager "hide")
\a exit(0)
