************************************************************************
* auCdl Netlist:
* 
* Library Name:  CAD5_LIB
* Top Cell Name: Select_Buffer
* View Name:     schematic
* Netlisted on:  Oct 20 11:56:26 2018
************************************************************************

*.EQUATION
*.SCALE METER
*.MEGA
.PARAM

*.GLOBAL VDD!
+        VSS!

*.PIN VDD!
*+    VSS!

************************************************************************
* Library Name: CAD5_LIB
* Cell Name:    Select_Buffer
* View Name:    schematic
************************************************************************

.SUBCKT Select_Buffer SH0 SH0_BAR SH1 SH1_BAR SH2 SH2_BAR SH3 SH3_BAR SH<0> 
+ SH<1> SH<2> SH<3>
*.PININFO SH0:I SH1:I SH2:I SH3:I SH0_BAR:O SH1_BAR:O SH2_BAR:O SH3_BAR:O 
*.PININFO SH<0>:O SH<1>:O SH<2>:O SH<3>:O
MT16 SH3_BAR SH<3> VSS! VSS! nfet m=2 l=120.0n w=1.21u nf=1 par=2 ngcon=1 
+ mSwitch=1 idg=0 psp=0
MT15 SH<3> net027 VSS! VSS! nfet m=2 l=120.0n w=760.0n nf=1 par=2 ngcon=1 
+ mSwitch=1 idg=0 psp=0
MT14 net027 SH3 VSS! VSS! nfet m=1 l=120.0n w=400n nf=1 par=1 ngcon=1 
+ mSwitch=0 idg=0 psp=0
MT13 net018 SH2 VSS! VSS! nfet m=1 l=120.0n w=400n nf=1 par=1 ngcon=1 
+ mSwitch=0 idg=0 psp=0
MT12 SH<2> net018 VSS! VSS! nfet m=2 l=120.0n w=760.0n nf=1 par=2 ngcon=1 
+ mSwitch=1 idg=0 psp=0
MT11 SH2_BAR SH<2> VSS! VSS! nfet m=2 l=120.0n w=1.21u nf=1 par=2 ngcon=1 
+ mSwitch=1 idg=0 psp=0
MT4 SH1_BAR SH<1> VSS! VSS! nfet m=2 l=120.0n w=1.21u nf=1 par=2 ngcon=1 
+ mSwitch=1 idg=0 psp=0
MT2 net024 SH1 VSS! VSS! nfet m=1 l=120.0n w=400n nf=1 par=1 ngcon=1 mSwitch=0 
+ idg=0 psp=0
MT3 SH<1> net024 VSS! VSS! nfet m=2 l=120.0n w=760.0n nf=1 par=2 ngcon=1 
+ mSwitch=1 idg=0 psp=0
MT755 SH0_BAR SH<0> VSS! VSS! nfet m=2 l=120.0n w=1.21u nf=1 par=2 ngcon=1 
+ mSwitch=1 idg=0 psp=0
MT752 SH<0> net5 VSS! VSS! nfet m=2 l=120.0n w=760.0n nf=1 par=2 ngcon=1 
+ mSwitch=1 idg=0 psp=0
MT322 net5 SH0 VSS! VSS! nfet m=1 l=120.0n w=400n nf=1 par=1 ngcon=1 mSwitch=0 
+ idg=0 psp=0
MT19 SH3_BAR SH<3> VDD! VDD! pfet m=2 l=120.0n w=2.34u nf=1 par=2 ngcon=1 
+ mSwitch=1 idg=0 psp=0
MT18 SH<3> net027 VDD! VDD! pfet m=2 l=120.0n w=1.6u nf=1 par=2 ngcon=1 
+ mSwitch=1 idg=0 psp=0
MT17 net027 SH3 VDD! VDD! pfet m=1 l=120.0n w=760.0n nf=1 par=1 ngcon=1 
+ mSwitch=0 idg=0 psp=0
MT10 net018 SH2 VDD! VDD! pfet m=1 l=120.0n w=760.0n nf=1 par=1 ngcon=1 
+ mSwitch=0 idg=0 psp=0
MT9 SH<2> net018 VDD! VDD! pfet m=2 l=120.0n w=1.6u nf=1 par=2 ngcon=1 
+ mSwitch=1 idg=0 psp=0
MT8 SH2_BAR SH<2> VDD! VDD! pfet m=2 l=120.0n w=2.34u nf=1 par=2 ngcon=1 
+ mSwitch=1 idg=0 psp=0
MT7 SH1_BAR SH<1> VDD! VDD! pfet m=2 l=120.0n w=2.34u nf=1 par=2 ngcon=1 
+ mSwitch=1 idg=0 psp=0
MT5 net024 SH1 VDD! VDD! pfet m=1 l=120.0n w=760.0n nf=1 par=1 ngcon=1 
+ mSwitch=0 idg=0 psp=0
MT6 SH<1> net024 VDD! VDD! pfet m=2 l=120.0n w=1.6u nf=1 par=2 ngcon=1 
+ mSwitch=1 idg=0 psp=0
MT754 SH0_BAR SH<0> VDD! VDD! pfet m=2 l=120.0n w=2.34u nf=1 par=2 ngcon=1 
+ mSwitch=1 idg=0 psp=0
MT753 SH<0> net5 VDD! VDD! pfet m=2 l=120.0n w=1.6u nf=1 par=2 ngcon=1 
+ mSwitch=1 idg=0 psp=0
MT323 net5 SH0 VDD! VDD! pfet m=1 l=120.0n w=760.0n nf=1 par=1 ngcon=1 
+ mSwitch=0 idg=0 psp=0
.ENDS

