************************************************************************
* auCdl Netlist:
* 
* Library Name:  CAD5_LIB
* Top Cell Name: SHIFTER
* View Name:     schematic
* Netlisted on:  Oct 20 12:29:10 2018
************************************************************************

*.EQUATION
*.SCALE METER
*.MEGA
.PARAM

*.GLOBAL VSS!
+        VDD!

*.PIN VSS!
*+    VDD!

************************************************************************
* Library Name: CAD5_LIB
* Cell Name:    Select_Buffer
* View Name:    schematic
************************************************************************

.SUBCKT Select_Buffer SH0 SH0_BAR SH1 SH1_BAR SH2 SH2_BAR SH3 SH3_BAR SH<0> 
+ SH<1> SH<2> SH<3>
*.PININFO SH0:I SH1:I SH2:I SH3:I SH0_BAR:O SH1_BAR:O SH2_BAR:O SH3_BAR:O 
*.PININFO SH<0>:O SH<1>:O SH<2>:O SH<3>:O
MT16 SH3_BAR SH<3> VSS! VSS! nfet m=2 l=120.0n w=1.21u nf=1 par=2 ngcon=1 
+ mSwitch=1 idg=0 psp=0
MT15 SH<3> net027 VSS! VSS! nfet m=2 l=120.0n w=760.0n nf=1 par=2 ngcon=1 
+ mSwitch=1 idg=0 psp=0
MT14 net027 SH3 VSS! VSS! nfet m=1 l=120.0n w=400n nf=1 par=1 ngcon=1 
+ mSwitch=0 idg=0 psp=0
MT13 net018 SH2 VSS! VSS! nfet m=1 l=120.0n w=400n nf=1 par=1 ngcon=1 
+ mSwitch=0 idg=0 psp=0
MT12 SH<2> net018 VSS! VSS! nfet m=2 l=120.0n w=760.0n nf=1 par=2 ngcon=1 
+ mSwitch=1 idg=0 psp=0
MT11 SH2_BAR SH<2> VSS! VSS! nfet m=2 l=120.0n w=1.21u nf=1 par=2 ngcon=1 
+ mSwitch=1 idg=0 psp=0
MT4 SH1_BAR SH<1> VSS! VSS! nfet m=2 l=120.0n w=1.21u nf=1 par=2 ngcon=1 
+ mSwitch=1 idg=0 psp=0
MT2 net024 SH1 VSS! VSS! nfet m=1 l=120.0n w=400n nf=1 par=1 ngcon=1 mSwitch=0 
+ idg=0 psp=0
MT3 SH<1> net024 VSS! VSS! nfet m=2 l=120.0n w=760.0n nf=1 par=2 ngcon=1 
+ mSwitch=1 idg=0 psp=0
MT755 SH0_BAR SH<0> VSS! VSS! nfet m=2 l=120.0n w=1.21u nf=1 par=2 ngcon=1 
+ mSwitch=1 idg=0 psp=0
MT752 SH<0> net5 VSS! VSS! nfet m=2 l=120.0n w=760.0n nf=1 par=2 ngcon=1 
+ mSwitch=1 idg=0 psp=0
MT322 net5 SH0 VSS! VSS! nfet m=1 l=120.0n w=400n nf=1 par=1 ngcon=1 mSwitch=0 
+ idg=0 psp=0
MT19 SH3_BAR SH<3> VDD! VDD! pfet m=2 l=120.0n w=2.34u nf=1 par=2 ngcon=1 
+ mSwitch=1 idg=0 psp=0
MT18 SH<3> net027 VDD! VDD! pfet m=2 l=120.0n w=1.6u nf=1 par=2 ngcon=1 
+ mSwitch=1 idg=0 psp=0
MT17 net027 SH3 VDD! VDD! pfet m=1 l=120.0n w=760.0n nf=1 par=1 ngcon=1 
+ mSwitch=0 idg=0 psp=0
MT10 net018 SH2 VDD! VDD! pfet m=1 l=120.0n w=760.0n nf=1 par=1 ngcon=1 
+ mSwitch=0 idg=0 psp=0
MT9 SH<2> net018 VDD! VDD! pfet m=2 l=120.0n w=1.6u nf=1 par=2 ngcon=1 
+ mSwitch=1 idg=0 psp=0
MT8 SH2_BAR SH<2> VDD! VDD! pfet m=2 l=120.0n w=2.34u nf=1 par=2 ngcon=1 
+ mSwitch=1 idg=0 psp=0
MT7 SH1_BAR SH<1> VDD! VDD! pfet m=2 l=120.0n w=2.34u nf=1 par=2 ngcon=1 
+ mSwitch=1 idg=0 psp=0
MT5 net024 SH1 VDD! VDD! pfet m=1 l=120.0n w=760.0n nf=1 par=1 ngcon=1 
+ mSwitch=0 idg=0 psp=0
MT6 SH<1> net024 VDD! VDD! pfet m=2 l=120.0n w=1.6u nf=1 par=2 ngcon=1 
+ mSwitch=1 idg=0 psp=0
MT754 SH0_BAR SH<0> VDD! VDD! pfet m=2 l=120.0n w=2.34u nf=1 par=2 ngcon=1 
+ mSwitch=1 idg=0 psp=0
MT753 SH<0> net5 VDD! VDD! pfet m=2 l=120.0n w=1.6u nf=1 par=2 ngcon=1 
+ mSwitch=1 idg=0 psp=0
MT323 net5 SH0 VDD! VDD! pfet m=1 l=120.0n w=760.0n nf=1 par=1 ngcon=1 
+ mSwitch=0 idg=0 psp=0
.ENDS

************************************************************************
* Library Name: CAD5_LIB
* Cell Name:    SHIFTER
* View Name:    schematic
************************************************************************

.SUBCKT SHIFTER A<15> A<14> A<13> A<12> A<11> A<10> A<9> A<8> A<7> A<6> A<5> 
+ A<4> A<3> A<2> A<1> A<0> E<15> E<14> E<13> E<12> E<11> E<10> E<9> E<8> E<7> 
+ E<6> E<5> E<4> E<3> E<2> E<1> E<0> SEL<3> SEL<2> SEL<1> SEL<0>
*.PININFO A<15>:I A<14>:I A<13>:I A<12>:I A<11>:I A<10>:I A<9>:I A<8>:I A<7>:I 
*.PININFO A<6>:I A<5>:I A<4>:I A<3>:I A<2>:I A<1>:I A<0>:I SEL<3>:I SEL<2>:I 
*.PININFO SEL<1>:I SEL<0>:I E<15>:O E<14>:O E<13>:O E<12>:O E<11>:O E<10>:O 
*.PININFO E<9>:O E<8>:O E<7>:O E<6>:O E<5>:O E<4>:O E<3>:O E<2>:O E<1>:O E<0>:O
MT686 D15 net0211 VDD! VDD! pfet m=1 l=120.0n w=1.26u nf=1 par=1 ngcon=1 
+ mSwitch=0 idg=0 psp=0
MT684 D13 net0213 VDD! VDD! pfet m=1 l=120.0n w=1.26u nf=1 par=1 ngcon=1 
+ mSwitch=0 idg=0 psp=0
MT683 D14 net0212 VDD! VDD! pfet m=1 l=120.0n w=1.26u nf=1 par=1 ngcon=1 
+ mSwitch=0 idg=0 psp=0
MT680 D12 net0214 VDD! VDD! pfet m=1 l=120.0n w=1.26u nf=1 par=1 ngcon=1 
+ mSwitch=0 idg=0 psp=0
MT679 D8 net0222 VDD! VDD! pfet m=1 l=120.0n w=1.26u nf=1 par=1 ngcon=1 
+ mSwitch=0 idg=0 psp=0
MT676 D9 net0221 VDD! VDD! pfet m=1 l=120.0n w=1.26u nf=1 par=1 ngcon=1 
+ mSwitch=0 idg=0 psp=0
MT674 D10 net0220 VDD! VDD! pfet m=1 l=120.0n w=1.26u nf=1 par=1 ngcon=1 
+ mSwitch=0 idg=0 psp=0
MT673 D11 net0219 VDD! VDD! pfet m=1 l=120.0n w=1.26u nf=1 par=1 ngcon=1 
+ mSwitch=0 idg=0 psp=0
MT671 D4 net0218 VDD! VDD! pfet m=1 l=120.0n w=1.26u nf=1 par=1 ngcon=1 
+ mSwitch=0 idg=0 psp=0
MT668 D5 net0217 VDD! VDD! pfet m=1 l=120.0n w=1.26u nf=1 par=1 ngcon=1 
+ mSwitch=0 idg=0 psp=0
MT666 D6 net0216 VDD! VDD! pfet m=1 l=120.0n w=1.26u nf=1 par=1 ngcon=1 
+ mSwitch=0 idg=0 psp=0
MT665 D7 net0215 VDD! VDD! pfet m=1 l=120.0n w=1.26u nf=1 par=1 ngcon=1 
+ mSwitch=0 idg=0 psp=0
MT663 D2 net0224 VDD! VDD! pfet m=1 l=120.0n w=1.26u nf=1 par=1 ngcon=1 
+ mSwitch=0 idg=0 psp=0
MT660 D3 net0223 VDD! VDD! pfet m=1 l=120.0n w=1.26u nf=1 par=1 ngcon=1 
+ mSwitch=0 idg=0 psp=0
MT659 D1 net0225 VDD! VDD! pfet m=1 l=120.0n w=1.26u nf=1 par=1 ngcon=1 
+ mSwitch=0 idg=0 psp=0
MT656 D0 net0226 VDD! VDD! pfet m=1 l=120.0n w=1.26u nf=1 par=1 ngcon=1 
+ mSwitch=0 idg=0 psp=0
MT716 net0423 net0359 VDD! VDD! pfet m=2 l=120.0n w=500n nf=1 par=2 ngcon=1 
+ mSwitch=1 idg=0 psp=0
MT653 net0401 net0291 VDD! VDD! pfet m=1 l=120.0n w=730.0n nf=1 par=1 ngcon=1 
+ mSwitch=0 idg=0 psp=0
MT746 E<14> net0438 VDD! VDD! pfet m=6 l=120.0n w=700n nf=1 par=6 ngcon=1 
+ mSwitch=1 idg=0 psp=0
MT744 E<15> net0465 VDD! VDD! pfet m=6 l=120.0n w=700n nf=1 par=6 ngcon=1 
+ mSwitch=1 idg=0 psp=0
MT646 net0374 net0292 VDD! VDD! pfet m=1 l=120.0n w=730.0n nf=1 par=1 ngcon=1 
+ mSwitch=0 idg=0 psp=0
MT714 net0420 net0356 VDD! VDD! pfet m=2 l=120.0n w=500n nf=1 par=2 ngcon=1 
+ mSwitch=1 idg=0 psp=0
MT742 E<12> net0423 VDD! VDD! pfet m=6 l=120.0n w=700n nf=1 par=6 ngcon=1 
+ mSwitch=1 idg=0 psp=0
MT640 net0356 net0293 VDD! VDD! pfet m=1 l=120.0n w=730.0n nf=1 par=1 ngcon=1 
+ mSwitch=0 idg=0 psp=0
MT712 net0438 net0374 VDD! VDD! pfet m=2 l=120.0n w=500n nf=1 par=2 ngcon=1 
+ mSwitch=1 idg=0 psp=0
MT740 E<13> net0420 VDD! VDD! pfet m=6 l=120.0n w=700n nf=1 par=6 ngcon=1 
+ mSwitch=1 idg=0 psp=0
MT634 net0359 net0294 VDD! VDD! pfet m=1 l=120.0n w=730.0n nf=1 par=1 ngcon=1 
+ mSwitch=0 idg=0 psp=0
MT710 net0465 net0401 VDD! VDD! pfet m=2 l=120.0n w=500n nf=1 par=2 ngcon=1 
+ mSwitch=1 idg=0 psp=0
MT630 net0367 net0300 VDD! VDD! pfet m=1 l=120.0n w=730.0n nf=1 par=1 ngcon=1 
+ mSwitch=0 idg=0 psp=0
MT709 net0412 net0364 VDD! VDD! pfet m=2 l=120.0n w=500n nf=1 par=2 ngcon=1 
+ mSwitch=1 idg=0 psp=0
MT739 E<9> net0418 VDD! VDD! pfet m=6 l=120.0n w=700n nf=1 par=6 ngcon=1 
+ mSwitch=1 idg=0 psp=0
MT737 E<8> net0421 VDD! VDD! pfet m=6 l=120.0n w=700n nf=1 par=6 ngcon=1 
+ mSwitch=1 idg=0 psp=0
MT622 net0364 net0299 VDD! VDD! pfet m=1 l=120.0n w=730.0n nf=1 par=1 ngcon=1 
+ mSwitch=0 idg=0 psp=0
MT707 net0415 net0367 VDD! VDD! pfet m=2 l=120.0n w=500n nf=1 par=2 ngcon=1 
+ mSwitch=1 idg=0 psp=0
MT618 net0373 net0302 VDD! VDD! pfet m=1 l=120.0n w=730.0n nf=1 par=1 ngcon=1 
+ mSwitch=0 idg=0 psp=0
MT705 net0418 net0370 VDD! VDD! pfet m=2 l=120.0n w=500n nf=1 par=2 ngcon=1 
+ mSwitch=1 idg=0 psp=0
MT735 E<11> net0412 VDD! VDD! pfet m=6 l=120.0n w=700n nf=1 par=6 ngcon=1 
+ mSwitch=1 idg=0 psp=0
MT733 E<10> net0415 VDD! VDD! pfet m=6 l=120.0n w=700n nf=1 par=6 ngcon=1 
+ mSwitch=1 idg=0 psp=0
MT610 net0370 net0301 VDD! VDD! pfet m=1 l=120.0n w=730.0n nf=1 par=1 ngcon=1 
+ mSwitch=0 idg=0 psp=0
MT703 net0421 net0373 VDD! VDD! pfet m=2 l=120.0n w=500n nf=1 par=2 ngcon=1 
+ mSwitch=1 idg=0 psp=0
MT606 net0351 net0296 VDD! VDD! pfet m=1 l=120.0n w=730.0n nf=1 par=1 ngcon=1 
+ mSwitch=0 idg=0 psp=0
MT701 net382 net350 VDD! VDD! pfet m=2 l=120.0n w=500n nf=1 par=2 ngcon=1 
+ mSwitch=1 idg=0 psp=0
MT730 E<6> net0383 VDD! VDD! pfet m=6 l=120.0n w=700n nf=1 par=6 ngcon=1 
+ mSwitch=1 idg=0 psp=0
MT728 E<7> net382 VDD! VDD! pfet m=6 l=120.0n w=700n nf=1 par=6 ngcon=1 
+ mSwitch=1 idg=0 psp=0
MT598 net359 net298 VDD! VDD! pfet m=1 l=120.0n w=730.0n nf=1 par=1 ngcon=1 
+ mSwitch=0 idg=0 psp=0
MT699 net0383 net0351 VDD! VDD! pfet m=2 l=120.0n w=500n nf=1 par=2 ngcon=1 
+ mSwitch=1 idg=0 psp=0
MT726 E<4> net391 VDD! VDD! pfet m=6 l=120.0n w=700n nf=1 par=6 ngcon=1 
+ mSwitch=1 idg=0 psp=0
MT724 E<5> net388 VDD! VDD! pfet m=6 l=120.0n w=700n nf=1 par=6 ngcon=1 
+ mSwitch=1 idg=0 psp=0
MT697 net388 net356 VDD! VDD! pfet m=2 l=120.0n w=500n nf=1 par=2 ngcon=1 
+ mSwitch=1 idg=0 psp=0
MT589 net356 net297 VDD! VDD! pfet m=1 l=120.0n w=730.0n nf=1 par=1 ngcon=1 
+ mSwitch=0 idg=0 psp=0
MT586 net350 net0295 VDD! VDD! pfet m=1 l=120.0n w=730.0n nf=1 par=1 ngcon=1 
+ mSwitch=0 idg=0 psp=0
MT695 net391 net359 VDD! VDD! pfet m=2 l=120.0n w=500n nf=1 par=2 ngcon=1 
+ mSwitch=1 idg=0 psp=0
MT582 net365 net304 VDD! VDD! pfet m=1 l=120.0n w=730.0n nf=1 par=1 ngcon=1 
+ mSwitch=0 idg=0 psp=0
MT692 net397 net365 VDD! VDD! pfet m=2 l=120.0n w=500n nf=1 par=2 ngcon=1 
+ mSwitch=1 idg=0 psp=0
MT722 E<2> net397 VDD! VDD! pfet m=6 l=120.0n w=700n nf=1 par=6 ngcon=1 
+ mSwitch=1 idg=0 psp=0
MT720 E<3> net394 VDD! VDD! pfet m=6 l=120.0n w=700n nf=1 par=6 ngcon=1 
+ mSwitch=1 idg=0 psp=0
MT6 net371 net306 VDD! VDD! pfet m=1 l=120.0n w=730.0n nf=1 par=1 ngcon=1 
+ mSwitch=0 idg=0 psp=0
MT14 net403 net371 VDD! VDD! pfet m=2 l=120.0n w=500n nf=1 par=2 ngcon=1 
+ mSwitch=1 idg=0 psp=0
MT12 E<0> net403 VDD! VDD! pfet m=6 l=120.0n w=700n nf=1 par=6 ngcon=1 
+ mSwitch=1 idg=0 psp=0
MT718 E<1> net400 VDD! VDD! pfet m=6 l=120.0n w=700n nf=1 par=6 ngcon=1 
+ mSwitch=1 idg=0 psp=0
MT690 net394 net362 VDD! VDD! pfet m=2 l=120.0n w=500n nf=1 par=2 ngcon=1 
+ mSwitch=1 idg=0 psp=0
MT570 net368 net305 VDD! VDD! pfet m=1 l=120.0n w=730.0n nf=1 par=1 ngcon=1 
+ mSwitch=0 idg=0 psp=0
MT573 net362 net303 VDD! VDD! pfet m=1 l=120.0n w=730.0n nf=1 par=1 ngcon=1 
+ mSwitch=0 idg=0 psp=0
MT688 net400 net368 VDD! VDD! pfet m=2 l=120.0n w=500n nf=1 par=2 ngcon=1 
+ mSwitch=1 idg=0 psp=0
MT487 net0295 SH<3> D7 VDD! pfet m=1 l=120.0n w=340.0n nf=1 par=1 ngcon=1 
+ mSwitch=0 idg=0 psp=0
MT500 net0300 SH3_BAR D2 VDD! pfet m=1 l=120.0n w=340.0n nf=1 par=1 ngcon=1 
+ mSwitch=0 idg=0 psp=0
MT480 net297 SH<3> D5 VDD! pfet m=1 l=120.0n w=340.0n nf=1 par=1 ngcon=1 
+ mSwitch=0 idg=0 psp=0
MT492 net0301 SH<3> D9 VDD! pfet m=1 l=120.0n w=340.0n nf=1 par=1 ngcon=1 
+ mSwitch=0 idg=0 psp=0
MT484 net0296 SH3_BAR VDD! VDD! pfet m=1 l=120.0n w=340.0n nf=1 par=1 ngcon=1 
+ mSwitch=0 idg=0 psp=0
MT498 net0299 SH3_BAR D3 VDD! pfet m=1 l=120.0n w=340.0n nf=1 par=1 ngcon=1 
+ mSwitch=0 idg=0 psp=0
MT478 net297 SH3_BAR VDD! VDD! pfet m=1 l=120.0n w=340.0n nf=1 par=1 ngcon=1 
+ mSwitch=0 idg=0 psp=0
MT491 net0302 SH<3> D8 VDD! pfet m=1 l=120.0n w=340.0n nf=1 par=1 ngcon=1 
+ mSwitch=0 idg=0 psp=0
MT504 net0300 SH<3> D10 VDD! pfet m=1 l=120.0n w=340.0n nf=1 par=1 ngcon=1 
+ mSwitch=0 idg=0 psp=0
MT497 net0301 SH3_BAR D1 VDD! pfet m=1 l=120.0n w=340.0n nf=1 par=1 ngcon=1 
+ mSwitch=0 idg=0 psp=0
MT503 net0299 SH<3> D11 VDD! pfet m=1 l=120.0n w=340.0n nf=1 par=1 ngcon=1 
+ mSwitch=0 idg=0 psp=0
MT482 net0295 SH3_BAR VDD! VDD! pfet m=1 l=120.0n w=340.0n nf=1 par=1 ngcon=1 
+ mSwitch=0 idg=0 psp=0
MT488 net0296 SH<3> D6 VDD! pfet m=1 l=120.0n w=340.0n nf=1 par=1 ngcon=1 
+ mSwitch=0 idg=0 psp=0
MT508 net0293 SH<3> D13 VDD! pfet m=1 l=120.0n w=340.0n nf=1 par=1 ngcon=1 
+ mSwitch=0 idg=0 psp=0
MT495 net0302 SH3_BAR D0 VDD! pfet m=1 l=120.0n w=340.0n nf=1 par=1 ngcon=1 
+ mSwitch=0 idg=0 psp=0
MT511 net0294 SH3_BAR D4 VDD! pfet m=1 l=120.0n w=340.0n nf=1 par=1 ngcon=1 
+ mSwitch=0 idg=0 psp=0
MT519 net0291 SH<3> D15 VDD! pfet m=1 l=120.0n w=340.0n nf=1 par=1 ngcon=1 
+ mSwitch=0 idg=0 psp=0
MT507 net0294 SH<3> D12 VDD! pfet m=1 l=120.0n w=340.0n nf=1 par=1 ngcon=1 
+ mSwitch=0 idg=0 psp=0
MT514 net0291 SH3_BAR D7 VDD! pfet m=1 l=120.0n w=340.0n nf=1 par=1 ngcon=1 
+ mSwitch=0 idg=0 psp=0
MT513 net0293 SH3_BAR D5 VDD! pfet m=1 l=120.0n w=340.0n nf=1 par=1 ngcon=1 
+ mSwitch=0 idg=0 psp=0
MT516 net0292 SH3_BAR D6 VDD! pfet m=1 l=120.0n w=340.0n nf=1 par=1 ngcon=1 
+ mSwitch=0 idg=0 psp=0
MT520 net0292 SH<3> D14 VDD! pfet m=1 l=120.0n w=340.0n nf=1 par=1 ngcon=1 
+ mSwitch=0 idg=0 psp=0
MT361 B4 SH0_BAR A<3> VDD! pfet m=1 l=120.0n w=280.0n nf=1 par=1 ngcon=1 
+ mSwitch=0 idg=0 psp=0
MT358 B4 SH<0> A<4> VDD! pfet m=1 l=120.0n w=280.0n nf=1 par=1 ngcon=1 
+ mSwitch=0 idg=0 psp=0
MT376 net0223 SH<2> C3 VDD! pfet m=1 l=120.0n w=280.0n nf=1 par=1 ngcon=1 
+ mSwitch=0 idg=0 psp=0
MT374 net0223 SH2_BAR VSS! VDD! pfet m=1 l=120.0n w=280.0n nf=1 par=1 ngcon=1 
+ mSwitch=0 idg=0 psp=0
MT345 B2 SH<0> A<2> VDD! pfet m=1 l=120.0n w=280.0n nf=1 par=1 ngcon=1 
+ mSwitch=0 idg=0 psp=0
MT342 B2 SH0_BAR A<1> VDD! pfet m=1 l=120.0n w=280.0n nf=1 par=1 ngcon=1 
+ mSwitch=0 idg=0 psp=0
MT328 B1 SH<0> A<1> VDD! pfet m=1 l=120.0n w=280.0n nf=1 par=1 ngcon=1 
+ mSwitch=0 idg=0 psp=0
MT326 B1 SH0_BAR A<0> VDD! pfet m=1 l=120.0n w=280.0n nf=1 par=1 ngcon=1 
+ mSwitch=0 idg=0 psp=0
MT193 net306 SH3_BAR VDD! VDD! pfet m=1 l=120.0n w=340.0n nf=1 par=1 ngcon=1 
+ mSwitch=0 idg=0 psp=0
MT192 net306 SH<3> D0 VDD! pfet m=1 l=120.0n w=340.0n nf=1 par=1 ngcon=1 
+ mSwitch=0 idg=0 psp=0
MT448 C9 SH1_BAR B7 VDD! pfet m=1 l=120.0n w=560.0n nf=1 par=1 ngcon=1 
+ mSwitch=0 idg=0 psp=0
MT454 C10 SH1_BAR B8 VDD! pfet m=1 l=120.0n w=560.0n nf=1 par=1 ngcon=1 
+ mSwitch=0 idg=0 psp=0
MT446 C9 SH<1> B9 VDD! pfet m=1 l=120.0n w=560.0n nf=1 par=1 ngcon=1 mSwitch=0 
+ idg=0 psp=0
MT460 C10 SH<1> B10 VDD! pfet m=1 l=120.0n w=560.0n nf=1 par=1 ngcon=1 
+ mSwitch=0 idg=0 psp=0
MT453 C8 SH<1> B8 VDD! pfet m=1 l=120.0n w=560.0n nf=1 par=1 ngcon=1 mSwitch=0 
+ idg=0 psp=0
MT445 C7 SH<1> B7 VDD! pfet m=1 l=120.0n w=560.0n nf=1 par=1 ngcon=1 mSwitch=0 
+ idg=0 psp=0
MT439 C5 SH<1> B5 VDD! pfet m=1 l=120.0n w=560.0n nf=1 par=1 ngcon=1 mSwitch=0 
+ idg=0 psp=0
MT451 C8 SH1_BAR B6 VDD! pfet m=1 l=120.0n w=560.0n nf=1 par=1 ngcon=1 
+ mSwitch=0 idg=0 psp=0
MT465 C13 SH<1> B13 VDD! pfet m=1 l=120.0n w=560.0n nf=1 par=1 ngcon=1 
+ mSwitch=0 idg=0 psp=0
MT458 C11 SH<1> B11 VDD! pfet m=1 l=120.0n w=560.0n nf=1 par=1 ngcon=1 
+ mSwitch=0 idg=0 psp=0
MT443 C7 SH1_BAR B5 VDD! pfet m=1 l=120.0n w=560.0n nf=1 par=1 ngcon=1 
+ mSwitch=0 idg=0 psp=0
MT457 C11 SH1_BAR B9 VDD! pfet m=1 l=120.0n w=560.0n nf=1 par=1 ngcon=1 
+ mSwitch=0 idg=0 psp=0
MT463 C12 SH<1> B12 VDD! pfet m=1 l=120.0n w=560.0n nf=1 par=1 ngcon=1 
+ mSwitch=0 idg=0 psp=0
MT474 C15 SH<1> B15 VDD! pfet m=1 l=120.0n w=560.0n nf=1 par=1 ngcon=1 
+ mSwitch=0 idg=0 psp=0
MT470 C14 SH1_BAR B12 VDD! pfet m=1 l=120.0n w=560.0n nf=1 par=1 ngcon=1 
+ mSwitch=0 idg=0 psp=0
MT476 C14 SH<1> B14 VDD! pfet m=1 l=120.0n w=560.0n nf=1 par=1 ngcon=1 
+ mSwitch=0 idg=0 psp=0
MT466 C13 SH1_BAR B11 VDD! pfet m=1 l=120.0n w=560.0n nf=1 par=1 ngcon=1 
+ mSwitch=0 idg=0 psp=0
MT473 C15 SH1_BAR B13 VDD! pfet m=1 l=120.0n w=560.0n nf=1 par=1 ngcon=1 
+ mSwitch=0 idg=0 psp=0
MT469 C12 SH1_BAR B10 VDD! pfet m=1 l=120.0n w=560.0n nf=1 par=1 ngcon=1 
+ mSwitch=0 idg=0 psp=0
MT435 C5 SH1_BAR B3 VDD! pfet m=1 l=120.0n w=560.0n nf=1 par=1 ngcon=1 
+ mSwitch=0 idg=0 psp=0
MT438 C6 SH<1> B6 VDD! pfet m=1 l=120.0n w=560.0n nf=1 par=1 ngcon=1 mSwitch=0 
+ idg=0 psp=0
MT434 C6 SH1_BAR B4 VDD! pfet m=1 l=120.0n w=560.0n nf=1 par=1 ngcon=1 
+ mSwitch=0 idg=0 psp=0
MT365 B3 SH0_BAR A<2> VDD! pfet m=1 l=120.0n w=280.0n nf=1 par=1 ngcon=1 
+ mSwitch=0 idg=0 psp=0
MT363 B3 SH<0> A<3> VDD! pfet m=1 l=120.0n w=280.0n nf=1 par=1 ngcon=1 
+ mSwitch=0 idg=0 psp=0
MT381 net0218 SH2_BAR C0 VDD! pfet m=1 l=120.0n w=280.0n nf=1 par=1 ngcon=1 
+ mSwitch=0 idg=0 psp=0
MT379 net0218 SH<2> C4 VDD! pfet m=1 l=120.0n w=280.0n nf=1 par=1 ngcon=1 
+ mSwitch=0 idg=0 psp=0
MT347 C2 SH1_BAR B0 VDD! pfet m=1 l=120.0n w=560.0n nf=1 par=1 ngcon=1 
+ mSwitch=0 idg=0 psp=0
MT348 C2 SH<1> B2 VDD! pfet m=1 l=120.0n w=560.0n nf=1 par=1 ngcon=1 mSwitch=0 
+ idg=0 psp=0
MT332 C1 SH<1> B1 VDD! pfet m=1 l=120.0n w=560.0n nf=1 par=1 ngcon=1 mSwitch=0 
+ idg=0 psp=0
MT330 C1 SH1_BAR VSS! VDD! pfet m=1 l=120.0n w=560.0n nf=1 par=1 ngcon=1 
+ mSwitch=0 idg=0 psp=0
MT129 net0226 SH2_BAR VSS! VDD! pfet m=1 l=120.0n w=280.0n nf=1 par=1 ngcon=1 
+ mSwitch=0 idg=0 psp=0
MT128 net0226 SH<2> C0 VDD! pfet m=1 l=120.0n w=280.0n nf=1 par=1 ngcon=1 
+ mSwitch=0 idg=0 psp=0
MT531 net0222 SH2_BAR C4 VDD! pfet m=1 l=120.0n w=280.0n nf=1 par=1 ngcon=1 
+ mSwitch=0 idg=0 psp=0
MT538 net0221 SH2_BAR C5 VDD! pfet m=1 l=120.0n w=280.0n nf=1 par=1 ngcon=1 
+ mSwitch=0 idg=0 psp=0
MT544 net0220 SH2_BAR C6 VDD! pfet m=1 l=120.0n w=280.0n nf=1 par=1 ngcon=1 
+ mSwitch=0 idg=0 psp=0
MT543 net0219 SH2_BAR C7 VDD! pfet m=1 l=120.0n w=280.0n nf=1 par=1 ngcon=1 
+ mSwitch=0 idg=0 psp=0
MT523 net0217 SH2_BAR C1 VDD! pfet m=1 l=120.0n w=280.0n nf=1 par=1 ngcon=1 
+ mSwitch=0 idg=0 psp=0
MT536 net0215 SH<2> C7 VDD! pfet m=1 l=120.0n w=280.0n nf=1 par=1 ngcon=1 
+ mSwitch=0 idg=0 psp=0
MT522 net0216 SH2_BAR C2 VDD! pfet m=1 l=120.0n w=280.0n nf=1 par=1 ngcon=1 
+ mSwitch=0 idg=0 psp=0
MT534 net0222 SH<2> C8 VDD! pfet m=1 l=120.0n w=280.0n nf=1 par=1 ngcon=1 
+ mSwitch=0 idg=0 psp=0
MT527 net0217 SH<2> C5 VDD! pfet m=1 l=120.0n w=280.0n nf=1 par=1 ngcon=1 
+ mSwitch=0 idg=0 psp=0
MT541 net0221 SH<2> C9 VDD! pfet m=1 l=120.0n w=280.0n nf=1 par=1 ngcon=1 
+ mSwitch=0 idg=0 psp=0
MT526 net0216 SH<2> C6 VDD! pfet m=1 l=120.0n w=280.0n nf=1 par=1 ngcon=1 
+ mSwitch=0 idg=0 psp=0
MT532 net0215 SH2_BAR C3 VDD! pfet m=1 l=120.0n w=280.0n nf=1 par=1 ngcon=1 
+ mSwitch=0 idg=0 psp=0
MT546 net0219 SH<2> C11 VDD! pfet m=1 l=120.0n w=280.0n nf=1 par=1 ngcon=1 
+ mSwitch=0 idg=0 psp=0
MT553 net0213 SH<2> C13 VDD! pfet m=1 l=120.0n w=280.0n nf=1 par=1 ngcon=1 
+ mSwitch=0 idg=0 psp=0
MT550 net0214 SH<2> C12 VDD! pfet m=1 l=120.0n w=280.0n nf=1 par=1 ngcon=1 
+ mSwitch=0 idg=0 psp=0
MT555 net0214 SH2_BAR C8 VDD! pfet m=1 l=120.0n w=280.0n nf=1 par=1 ngcon=1 
+ mSwitch=0 idg=0 psp=0
MT556 net0213 SH2_BAR C9 VDD! pfet m=1 l=120.0n w=280.0n nf=1 par=1 ngcon=1 
+ mSwitch=0 idg=0 psp=0
MT549 net0220 SH<2> C10 VDD! pfet m=1 l=120.0n w=280.0n nf=1 par=1 ngcon=1 
+ mSwitch=0 idg=0 psp=0
MT559 net0211 SH2_BAR C11 VDD! pfet m=1 l=120.0n w=280.0n nf=1 par=1 ngcon=1 
+ mSwitch=0 idg=0 psp=0
MT560 net0212 SH2_BAR C10 VDD! pfet m=1 l=120.0n w=280.0n nf=1 par=1 ngcon=1 
+ mSwitch=0 idg=0 psp=0
MT565 net0212 SH<2> C14 VDD! pfet m=1 l=120.0n w=280.0n nf=1 par=1 ngcon=1 
+ mSwitch=0 idg=0 psp=0
MT562 net0211 SH<2> C15 VDD! pfet m=1 l=120.0n w=280.0n nf=1 par=1 ngcon=1 
+ mSwitch=0 idg=0 psp=0
MT368 C3 SH<1> B3 VDD! pfet m=1 l=120.0n w=560.0n nf=1 par=1 ngcon=1 mSwitch=0 
+ idg=0 psp=0
MT366 C3 SH1_BAR B1 VDD! pfet m=1 l=120.0n w=560.0n nf=1 par=1 ngcon=1 
+ mSwitch=0 idg=0 psp=0
MT384 net303 SH<3> D3 VDD! pfet m=1 l=120.0n w=340.0n nf=1 par=1 ngcon=1 
+ mSwitch=0 idg=0 psp=0
MT382 net303 SH3_BAR VDD! VDD! pfet m=1 l=120.0n w=340.0n nf=1 par=1 ngcon=1 
+ mSwitch=0 idg=0 psp=0
MT353 net0224 SH<2> C2 VDD! pfet m=1 l=120.0n w=280.0n nf=1 par=1 ngcon=1 
+ mSwitch=0 idg=0 psp=0
MT351 net0224 SH2_BAR VSS! VDD! pfet m=1 l=120.0n w=280.0n nf=1 par=1 ngcon=1 
+ mSwitch=0 idg=0 psp=0
MT336 net0225 SH<2> C1 VDD! pfet m=1 l=120.0n w=280.0n nf=1 par=1 ngcon=1 
+ mSwitch=0 idg=0 psp=0
MT334 net0225 SH2_BAR VSS! VDD! pfet m=1 l=120.0n w=280.0n nf=1 par=1 ngcon=1 
+ mSwitch=0 idg=0 psp=0
MT65 C0 SH1_BAR VSS! VDD! pfet m=1 l=120.0n w=560.0n nf=1 par=1 ngcon=1 
+ mSwitch=0 idg=0 psp=0
MT64 C0 SH<1> B0 VDD! pfet m=1 l=120.0n w=560.0n nf=1 par=1 ngcon=1 mSwitch=0 
+ idg=0 psp=0
MT417 B10 SH0_BAR A<9> VDD! pfet m=1 l=120.0n w=280.0n nf=1 par=1 ngcon=1 
+ mSwitch=0 idg=0 psp=0
MT425 B13 SH<0> A<13> VDD! pfet m=1 l=120.0n w=280.0n nf=1 par=1 ngcon=1 
+ mSwitch=0 idg=0 psp=0
MT421 B12 SH<0> A<12> VDD! pfet m=1 l=120.0n w=280.0n nf=1 par=1 ngcon=1 
+ mSwitch=0 idg=0 psp=0
MT412 B11 SH0_BAR A<10> VDD! pfet m=1 l=120.0n w=280.0n nf=1 par=1 ngcon=1 
+ mSwitch=0 idg=0 psp=0
MT423 B13 SH0_BAR A<12> VDD! pfet m=1 l=120.0n w=280.0n nf=1 par=1 ngcon=1 
+ mSwitch=0 idg=0 psp=0
MT414 B10 SH<0> A<10> VDD! pfet m=1 l=120.0n w=280.0n nf=1 par=1 ngcon=1 
+ mSwitch=0 idg=0 psp=0
MT410 B11 SH<0> A<11> VDD! pfet m=1 l=120.0n w=280.0n nf=1 par=1 ngcon=1 
+ mSwitch=0 idg=0 psp=0
MT418 B12 SH0_BAR A<11> VDD! pfet m=1 l=120.0n w=280.0n nf=1 par=1 ngcon=1 
+ mSwitch=0 idg=0 psp=0
MT428 B15 SH0_BAR A<14> VDD! pfet m=1 l=120.0n w=280.0n nf=1 par=1 ngcon=1 
+ mSwitch=0 idg=0 psp=0
MT426 B15 SH<0> A<15> VDD! pfet m=1 l=120.0n w=280.0n nf=1 par=1 ngcon=1 
+ mSwitch=0 idg=0 psp=0
MT391 B5 SH<0> A<5> VDD! pfet m=1 l=120.0n w=280.0n nf=1 par=1 ngcon=1 
+ mSwitch=0 idg=0 psp=0
MT392 B5 SH0_BAR A<4> VDD! pfet m=1 l=120.0n w=280.0n nf=1 par=1 ngcon=1 
+ mSwitch=0 idg=0 psp=0
MT395 B6 SH0_BAR A<5> VDD! pfet m=1 l=120.0n w=280.0n nf=1 par=1 ngcon=1 
+ mSwitch=0 idg=0 psp=0
MT396 B6 SH<0> A<6> VDD! pfet m=1 l=120.0n w=280.0n nf=1 par=1 ngcon=1 
+ mSwitch=0 idg=0 psp=0
MT399 B7 SH<0> A<7> VDD! pfet m=1 l=120.0n w=280.0n nf=1 par=1 ngcon=1 
+ mSwitch=0 idg=0 psp=0
MT400 B7 SH0_BAR A<6> VDD! pfet m=1 l=120.0n w=280.0n nf=1 par=1 ngcon=1 
+ mSwitch=0 idg=0 psp=0
MT405 B8 SH<0> A<8> VDD! pfet m=1 l=120.0n w=280.0n nf=1 par=1 ngcon=1 
+ mSwitch=0 idg=0 psp=0
MT402 B8 SH0_BAR A<7> VDD! pfet m=1 l=120.0n w=280.0n nf=1 par=1 ngcon=1 
+ mSwitch=0 idg=0 psp=0
MT407 B9 SH0_BAR A<8> VDD! pfet m=1 l=120.0n w=280.0n nf=1 par=1 ngcon=1 
+ mSwitch=0 idg=0 psp=0
MT408 B9 SH<0> A<9> VDD! pfet m=1 l=120.0n w=280.0n nf=1 par=1 ngcon=1 
+ mSwitch=0 idg=0 psp=0
MT433 B14 SH0_BAR A<13> VDD! pfet m=1 l=120.0n w=280.0n nf=1 par=1 ngcon=1 
+ mSwitch=0 idg=0 psp=0
MT430 B14 SH<0> A<14> VDD! pfet m=1 l=120.0n w=280.0n nf=1 par=1 ngcon=1 
+ mSwitch=0 idg=0 psp=0
MT373 C4 SH1_BAR B2 VDD! pfet m=1 l=120.0n w=560.0n nf=1 par=1 ngcon=1 
+ mSwitch=0 idg=0 psp=0
MT371 C4 SH<1> B4 VDD! pfet m=1 l=120.0n w=560.0n nf=1 par=1 ngcon=1 mSwitch=0 
+ idg=0 psp=0
MT389 net298 SH3_BAR VDD! VDD! pfet m=1 l=120.0n w=340.0n nf=1 par=1 ngcon=1 
+ mSwitch=0 idg=0 psp=0
MT387 net298 SH<3> D4 VDD! pfet m=1 l=120.0n w=340.0n nf=1 par=1 ngcon=1 
+ mSwitch=0 idg=0 psp=0
MT357 net304 SH<3> D2 VDD! pfet m=1 l=120.0n w=340.0n nf=1 par=1 ngcon=1 
+ mSwitch=0 idg=0 psp=0
MT354 net304 SH3_BAR VDD! VDD! pfet m=1 l=120.0n w=340.0n nf=1 par=1 ngcon=1 
+ mSwitch=0 idg=0 psp=0
MT340 net305 SH<3> D1 VDD! pfet m=1 l=120.0n w=340.0n nf=1 par=1 ngcon=1 
+ mSwitch=0 idg=0 psp=0
MT338 net305 SH3_BAR VDD! VDD! pfet m=1 l=120.0n w=340.0n nf=1 par=1 ngcon=1 
+ mSwitch=0 idg=0 psp=0
MT1 B0 SH0_BAR VSS! VDD! pfet m=1 l=120.0n w=280.0n nf=1 par=1 ngcon=1 
+ mSwitch=0 idg=0 psp=0
MT0 B0 SH<0> A<0> VDD! pfet m=1 l=120.0n w=280.0n nf=1 par=1 ngcon=1 mSwitch=0 
+ idg=0 psp=0
MT687 D15 net0211 VSS! VSS! nfet m=1 l=120.0n w=1.26u nf=1 par=1 ngcon=1 
+ mSwitch=0 idg=0 psp=0
MT685 D13 net0213 VSS! VSS! nfet m=1 l=120.0n w=1.26u nf=1 par=1 ngcon=1 
+ mSwitch=0 idg=0 psp=0
MT682 D14 net0212 VSS! VSS! nfet m=1 l=120.0n w=1.26u nf=1 par=1 ngcon=1 
+ mSwitch=0 idg=0 psp=0
MT681 D12 net0214 VSS! VSS! nfet m=1 l=120.0n w=1.26u nf=1 par=1 ngcon=1 
+ mSwitch=0 idg=0 psp=0
MT678 D8 net0222 VSS! VSS! nfet m=1 l=120.0n w=1.26u nf=1 par=1 ngcon=1 
+ mSwitch=0 idg=0 psp=0
MT677 D9 net0221 VSS! VSS! nfet m=1 l=120.0n w=1.26u nf=1 par=1 ngcon=1 
+ mSwitch=0 idg=0 psp=0
MT675 D10 net0220 VSS! VSS! nfet m=1 l=120.0n w=1.26u nf=1 par=1 ngcon=1 
+ mSwitch=0 idg=0 psp=0
MT672 D11 net0219 VSS! VSS! nfet m=1 l=120.0n w=1.26u nf=1 par=1 ngcon=1 
+ mSwitch=0 idg=0 psp=0
MT670 D4 net0218 VSS! VSS! nfet m=1 l=120.0n w=1.26u nf=1 par=1 ngcon=1 
+ mSwitch=0 idg=0 psp=0
MT669 D5 net0217 VSS! VSS! nfet m=1 l=120.0n w=1.26u nf=1 par=1 ngcon=1 
+ mSwitch=0 idg=0 psp=0
MT667 D6 net0216 VSS! VSS! nfet m=1 l=120.0n w=1.26u nf=1 par=1 ngcon=1 
+ mSwitch=0 idg=0 psp=0
MT664 D7 net0215 VSS! VSS! nfet m=1 l=120.0n w=1.26u nf=1 par=1 ngcon=1 
+ mSwitch=0 idg=0 psp=0
MT662 D2 net0224 VSS! VSS! nfet m=1 l=120.0n w=1.26u nf=1 par=1 ngcon=1 
+ mSwitch=0 idg=0 psp=0
MT661 D3 net0223 VSS! VSS! nfet m=1 l=120.0n w=1.26u nf=1 par=1 ngcon=1 
+ mSwitch=0 idg=0 psp=0
MT658 D1 net0225 VSS! VSS! nfet m=1 l=120.0n w=1.26u nf=1 par=1 ngcon=1 
+ mSwitch=0 idg=0 psp=0
MT657 D0 net0226 VSS! VSS! nfet m=1 l=120.0n w=1.26u nf=1 par=1 ngcon=1 
+ mSwitch=0 idg=0 psp=0
MT717 net0423 net0359 VSS! VSS! nfet m=2 l=120.0n w=500n nf=1 par=2 ngcon=1 
+ mSwitch=1 idg=0 psp=0
MT652 net0401 net0291 VSS! VSS! nfet m=1 l=120.0n w=730.0n nf=1 par=1 ngcon=1 
+ mSwitch=0 idg=0 psp=0
MT747 E<14> net0438 VSS! VSS! nfet m=6 l=120.0n w=700n nf=1 par=6 ngcon=1 
+ mSwitch=1 idg=0 psp=0
MT745 E<15> net0465 VSS! VSS! nfet m=6 l=120.0n w=700n nf=1 par=6 ngcon=1 
+ mSwitch=1 idg=0 psp=0
MT647 net0374 net0292 VSS! VSS! nfet m=1 l=120.0n w=730.0n nf=1 par=1 ngcon=1 
+ mSwitch=0 idg=0 psp=0
MT715 net0420 net0356 VSS! VSS! nfet m=2 l=120.0n w=500n nf=1 par=2 ngcon=1 
+ mSwitch=1 idg=0 psp=0
MT743 E<12> net0423 VSS! VSS! nfet m=6 l=120.0n w=700n nf=1 par=6 ngcon=1 
+ mSwitch=1 idg=0 psp=0
MT641 net0356 net0293 VSS! VSS! nfet m=1 l=120.0n w=730.0n nf=1 par=1 ngcon=1 
+ mSwitch=0 idg=0 psp=0
MT713 net0438 net0374 VSS! VSS! nfet m=2 l=120.0n w=500n nf=1 par=2 ngcon=1 
+ mSwitch=1 idg=0 psp=0
MT741 E<13> net0420 VSS! VSS! nfet m=6 l=120.0n w=700n nf=1 par=6 ngcon=1 
+ mSwitch=1 idg=0 psp=0
MT635 net0359 net0294 VSS! VSS! nfet m=1 l=120.0n w=730.0n nf=1 par=1 ngcon=1 
+ mSwitch=0 idg=0 psp=0
MT711 net0465 net0401 VSS! VSS! nfet m=2 l=120.0n w=500n nf=1 par=2 ngcon=1 
+ mSwitch=1 idg=0 psp=0
MT631 net0367 net0300 VSS! VSS! nfet m=1 l=120.0n w=730.0n nf=1 par=1 ngcon=1 
+ mSwitch=0 idg=0 psp=0
MT708 net0412 net0364 VSS! VSS! nfet m=2 l=120.0n w=500n nf=1 par=2 ngcon=1 
+ mSwitch=1 idg=0 psp=0
MT738 E<9> net0418 VSS! VSS! nfet m=6 l=120.0n w=700n nf=1 par=6 ngcon=1 
+ mSwitch=1 idg=0 psp=0
MT736 E<8> net0421 VSS! VSS! nfet m=6 l=120.0n w=700n nf=1 par=6 ngcon=1 
+ mSwitch=1 idg=0 psp=0
MT623 net0364 net0299 VSS! VSS! nfet m=1 l=120.0n w=730.0n nf=1 par=1 ngcon=1 
+ mSwitch=0 idg=0 psp=0
MT706 net0415 net0367 VSS! VSS! nfet m=2 l=120.0n w=500n nf=1 par=2 ngcon=1 
+ mSwitch=1 idg=0 psp=0
MT619 net0373 net0302 VSS! VSS! nfet m=1 l=120.0n w=730.0n nf=1 par=1 ngcon=1 
+ mSwitch=0 idg=0 psp=0
MT704 net0418 net0370 VSS! VSS! nfet m=2 l=120.0n w=500n nf=1 par=2 ngcon=1 
+ mSwitch=1 idg=0 psp=0
MT734 E<11> net0412 VSS! VSS! nfet m=6 l=120.0n w=700n nf=1 par=6 ngcon=1 
+ mSwitch=1 idg=0 psp=0
MT732 E<10> net0415 VSS! VSS! nfet m=6 l=120.0n w=700n nf=1 par=6 ngcon=1 
+ mSwitch=1 idg=0 psp=0
MT611 net0370 net0301 VSS! VSS! nfet m=1 l=120.0n w=730.0n nf=1 par=1 ngcon=1 
+ mSwitch=0 idg=0 psp=0
MT702 net0421 net0373 VSS! VSS! nfet m=2 l=120.0n w=500n nf=1 par=2 ngcon=1 
+ mSwitch=1 idg=0 psp=0
MT607 net0351 net0296 VSS! VSS! nfet m=1 l=120.0n w=730.0n nf=1 par=1 ngcon=1 
+ mSwitch=0 idg=0 psp=0
MT700 net382 net350 VSS! VSS! nfet m=2 l=120.0n w=500n nf=1 par=2 ngcon=1 
+ mSwitch=1 idg=0 psp=0
MT731 E<6> net0383 VSS! VSS! nfet m=6 l=120.0n w=700n nf=1 par=6 ngcon=1 
+ mSwitch=1 idg=0 psp=0
MT729 E<7> net382 VSS! VSS! nfet m=6 l=120.0n w=700n nf=1 par=6 ngcon=1 
+ mSwitch=1 idg=0 psp=0
MT599 net359 net298 VSS! VSS! nfet m=1 l=120.0n w=730.0n nf=1 par=1 ngcon=1 
+ mSwitch=0 idg=0 psp=0
MT698 net0383 net0351 VSS! VSS! nfet m=2 l=120.0n w=500n nf=1 par=2 ngcon=1 
+ mSwitch=1 idg=0 psp=0
MT727 E<4> net391 VSS! VSS! nfet m=6 l=120.0n w=700n nf=1 par=6 ngcon=1 
+ mSwitch=1 idg=0 psp=0
MT725 E<5> net388 VSS! VSS! nfet m=6 l=120.0n w=700n nf=1 par=6 ngcon=1 
+ mSwitch=1 idg=0 psp=0
MT696 net388 net356 VSS! VSS! nfet m=2 l=120.0n w=500n nf=1 par=2 ngcon=1 
+ mSwitch=1 idg=0 psp=0
MT588 net356 net297 VSS! VSS! nfet m=1 l=120.0n w=730.0n nf=1 par=1 ngcon=1 
+ mSwitch=0 idg=0 psp=0
MT587 net350 net0295 VSS! VSS! nfet m=1 l=120.0n w=730.0n nf=1 par=1 ngcon=1 
+ mSwitch=0 idg=0 psp=0
MT694 net391 net359 VSS! VSS! nfet m=2 l=120.0n w=500n nf=1 par=2 ngcon=1 
+ mSwitch=1 idg=0 psp=0
MT583 net365 net304 VSS! VSS! nfet m=1 l=120.0n w=730.0n nf=1 par=1 ngcon=1 
+ mSwitch=0 idg=0 psp=0
MT693 net397 net365 VSS! VSS! nfet m=2 l=120.0n w=500n nf=1 par=2 ngcon=1 
+ mSwitch=1 idg=0 psp=0
MT723 E<2> net397 VSS! VSS! nfet m=6 l=120.0n w=700n nf=1 par=6 ngcon=1 
+ mSwitch=1 idg=0 psp=0
MT721 E<3> net394 VSS! VSS! nfet m=6 l=120.0n w=700n nf=1 par=6 ngcon=1 
+ mSwitch=1 idg=0 psp=0
MT4 net371 net306 VSS! VSS! nfet m=1 l=120.0n w=730.0n nf=1 par=1 ngcon=1 
+ mSwitch=0 idg=0 psp=0
MT13 net403 net371 VSS! VSS! nfet m=2 l=120.0n w=500n nf=1 par=2 ngcon=1 
+ mSwitch=1 idg=0 psp=0
MT11 E<0> net403 VSS! VSS! nfet m=6 l=120.0n w=700n nf=1 par=6 ngcon=1 
+ mSwitch=1 idg=0 psp=0
MT719 E<1> net400 VSS! VSS! nfet m=6 l=120.0n w=700n nf=1 par=6 ngcon=1 
+ mSwitch=1 idg=0 psp=0
MT691 net394 net362 VSS! VSS! nfet m=2 l=120.0n w=500n nf=1 par=2 ngcon=1 
+ mSwitch=1 idg=0 psp=0
MT571 net368 net305 VSS! VSS! nfet m=1 l=120.0n w=730.0n nf=1 par=1 ngcon=1 
+ mSwitch=0 idg=0 psp=0
MT572 net362 net303 VSS! VSS! nfet m=1 l=120.0n w=730.0n nf=1 par=1 ngcon=1 
+ mSwitch=0 idg=0 psp=0
MT689 net400 net368 VSS! VSS! nfet m=2 l=120.0n w=500n nf=1 par=2 ngcon=1 
+ mSwitch=1 idg=0 psp=0
MT501 net0300 SH<3> D2 VSS! nfet m=1 l=120.0n w=340.0n nf=1 par=1 ngcon=1 
+ mSwitch=0 idg=0 psp=0
MT481 net297 SH3_BAR D5 VSS! nfet m=1 l=120.0n w=340.0n nf=1 par=1 ngcon=1 
+ mSwitch=0 idg=0 psp=0
MT494 net0302 SH<3> D0 VSS! nfet m=1 l=120.0n w=340.0n nf=1 par=1 ngcon=1 
+ mSwitch=0 idg=0 psp=0
MT486 net0295 SH3_BAR D7 VSS! nfet m=1 l=120.0n w=340.0n nf=1 par=1 ngcon=1 
+ mSwitch=0 idg=0 psp=0
MT493 net0301 SH3_BAR D9 VSS! nfet m=1 l=120.0n w=340.0n nf=1 par=1 ngcon=1 
+ mSwitch=0 idg=0 psp=0
MT485 net0296 SH<3> VDD! VSS! nfet m=1 l=120.0n w=340.0n nf=1 par=1 ngcon=1 
+ mSwitch=0 idg=0 psp=0
MT499 net0299 SH<3> D3 VSS! nfet m=1 l=120.0n w=340.0n nf=1 par=1 ngcon=1 
+ mSwitch=0 idg=0 psp=0
MT479 net297 SH<3> VDD! VSS! nfet m=1 l=120.0n w=340.0n nf=1 par=1 ngcon=1 
+ mSwitch=0 idg=0 psp=0
MT490 net0302 SH3_BAR D8 VSS! nfet m=1 l=120.0n w=340.0n nf=1 par=1 ngcon=1 
+ mSwitch=0 idg=0 psp=0
MT483 net0295 SH<3> VDD! VSS! nfet m=1 l=120.0n w=340.0n nf=1 par=1 ngcon=1 
+ mSwitch=0 idg=0 psp=0
MT489 net0296 SH3_BAR D6 VSS! nfet m=1 l=120.0n w=340.0n nf=1 par=1 ngcon=1 
+ mSwitch=0 idg=0 psp=0
MT496 net0301 SH<3> D1 VSS! nfet m=1 l=120.0n w=340.0n nf=1 par=1 ngcon=1 
+ mSwitch=0 idg=0 psp=0
MT502 net0299 SH3_BAR D11 VSS! nfet m=1 l=120.0n w=340.0n nf=1 par=1 ngcon=1 
+ mSwitch=0 idg=0 psp=0
MT515 net0291 SH<3> D7 VSS! nfet m=1 l=120.0n w=340.0n nf=1 par=1 ngcon=1 
+ mSwitch=0 idg=0 psp=0
MT510 net0294 SH<3> D4 VSS! nfet m=1 l=120.0n w=340.0n nf=1 par=1 ngcon=1 
+ mSwitch=0 idg=0 psp=0
MT518 net0291 SH3_BAR D15 VSS! nfet m=1 l=120.0n w=340.0n nf=1 par=1 ngcon=1 
+ mSwitch=0 idg=0 psp=0
MT506 net0294 SH3_BAR D12 VSS! nfet m=1 l=120.0n w=340.0n nf=1 par=1 ngcon=1 
+ mSwitch=0 idg=0 psp=0
MT509 net0293 SH3_BAR D13 VSS! nfet m=1 l=120.0n w=340.0n nf=1 par=1 ngcon=1 
+ mSwitch=0 idg=0 psp=0
MT517 net0292 SH<3> D6 VSS! nfet m=1 l=120.0n w=340.0n nf=1 par=1 ngcon=1 
+ mSwitch=0 idg=0 psp=0
MT505 net0300 SH3_BAR D10 VSS! nfet m=1 l=120.0n w=340.0n nf=1 par=1 ngcon=1 
+ mSwitch=0 idg=0 psp=0
MT521 net0292 SH3_BAR D14 VSS! nfet m=1 l=120.0n w=340.0n nf=1 par=1 ngcon=1 
+ mSwitch=0 idg=0 psp=0
MT512 net0293 SH<3> D5 VSS! nfet m=1 l=120.0n w=340.0n nf=1 par=1 ngcon=1 
+ mSwitch=0 idg=0 psp=0
MT359 B4 SH0_BAR A<4> VSS! nfet m=1 l=120.0n w=280.0n nf=1 par=1 ngcon=1 
+ mSwitch=0 idg=0 psp=0
MT360 B4 SH<0> A<3> VSS! nfet m=1 l=120.0n w=280.0n nf=1 par=1 ngcon=1 
+ mSwitch=0 idg=0 psp=0
MT377 net0223 SH2_BAR C3 VSS! nfet m=1 l=120.0n w=280.0n nf=1 par=1 ngcon=1 
+ mSwitch=0 idg=0 psp=0
MT375 net0223 SH<2> VSS! VSS! nfet m=1 l=120.0n w=280.0n nf=1 par=1 ngcon=1 
+ mSwitch=0 idg=0 psp=0
MT343 B2 SH<0> A<1> VSS! nfet m=1 l=120.0n w=280.0n nf=1 par=1 ngcon=1 
+ mSwitch=0 idg=0 psp=0
MT344 B2 SH0_BAR A<2> VSS! nfet m=1 l=120.0n w=280.0n nf=1 par=1 ngcon=1 
+ mSwitch=0 idg=0 psp=0
MT329 B1 SH0_BAR A<1> VSS! nfet m=1 l=120.0n w=280.0n nf=1 par=1 ngcon=1 
+ mSwitch=0 idg=0 psp=0
MT327 B1 SH<0> A<0> VSS! nfet m=1 l=120.0n w=280.0n nf=1 par=1 ngcon=1 
+ mSwitch=0 idg=0 psp=0
MT195 net306 SH<3> VDD! VSS! nfet m=1 l=120.0n w=340.0n nf=1 par=1 ngcon=1 
+ mSwitch=0 idg=0 psp=0
MT194 net306 SH3_BAR D0 VSS! nfet m=1 l=120.0n w=340.0n nf=1 par=1 ngcon=1 
+ mSwitch=0 idg=0 psp=0
MT462 C12 SH1_BAR B12 VSS! nfet m=1 l=120.0n w=560.0n nf=1 par=1 ngcon=1 
+ mSwitch=0 idg=0 psp=0
MT442 C7 SH<1> B5 VSS! nfet m=1 l=120.0n w=560.0n nf=1 par=1 ngcon=1 mSwitch=0 
+ idg=0 psp=0
MT455 C10 SH<1> B8 VSS! nfet m=1 l=120.0n w=560.0n nf=1 par=1 ngcon=1 
+ mSwitch=0 idg=0 psp=0
MT447 C9 SH1_BAR B9 VSS! nfet m=1 l=120.0n w=560.0n nf=1 par=1 ngcon=1 
+ mSwitch=0 idg=0 psp=0
MT461 C10 SH1_BAR B10 VSS! nfet m=1 l=120.0n w=560.0n nf=1 par=1 ngcon=1 
+ mSwitch=0 idg=0 psp=0
MT441 C5 SH1_BAR B5 VSS! nfet m=1 l=120.0n w=560.0n nf=1 par=1 ngcon=1 
+ mSwitch=0 idg=0 psp=0
MT440 C6 SH1_BAR B6 VSS! nfet m=1 l=120.0n w=560.0n nf=1 par=1 ngcon=1 
+ mSwitch=0 idg=0 psp=0
MT459 C11 SH1_BAR B11 VSS! nfet m=1 l=120.0n w=560.0n nf=1 par=1 ngcon=1 
+ mSwitch=0 idg=0 psp=0
MT452 C8 SH1_BAR B8 VSS! nfet m=1 l=120.0n w=560.0n nf=1 par=1 ngcon=1 
+ mSwitch=0 idg=0 psp=0
MT444 C7 SH1_BAR B7 VSS! nfet m=1 l=120.0n w=560.0n nf=1 par=1 ngcon=1 
+ mSwitch=0 idg=0 psp=0
MT450 C8 SH<1> B6 VSS! nfet m=1 l=120.0n w=560.0n nf=1 par=1 ngcon=1 mSwitch=0 
+ idg=0 psp=0
MT464 C13 SH1_BAR B13 VSS! nfet m=1 l=120.0n w=560.0n nf=1 par=1 ngcon=1 
+ mSwitch=0 idg=0 psp=0
MT449 C9 SH<1> B7 VSS! nfet m=1 l=120.0n w=560.0n nf=1 par=1 ngcon=1 mSwitch=0 
+ idg=0 psp=0
MT468 C12 SH<1> B10 VSS! nfet m=1 l=120.0n w=560.0n nf=1 par=1 ngcon=1 
+ mSwitch=0 idg=0 psp=0
MT456 C11 SH<1> B9 VSS! nfet m=1 l=120.0n w=560.0n nf=1 par=1 ngcon=1 
+ mSwitch=0 idg=0 psp=0
MT471 C14 SH<1> B12 VSS! nfet m=1 l=120.0n w=560.0n nf=1 par=1 ngcon=1 
+ mSwitch=0 idg=0 psp=0
MT477 C14 SH1_BAR B14 VSS! nfet m=1 l=120.0n w=560.0n nf=1 par=1 ngcon=1 
+ mSwitch=0 idg=0 psp=0
MT467 C13 SH<1> B11 VSS! nfet m=1 l=120.0n w=560.0n nf=1 par=1 ngcon=1 
+ mSwitch=0 idg=0 psp=0
MT475 C15 SH1_BAR B15 VSS! nfet m=1 l=120.0n w=560.0n nf=1 par=1 ngcon=1 
+ mSwitch=0 idg=0 psp=0
MT472 C15 SH<1> B13 VSS! nfet m=1 l=120.0n w=560.0n nf=1 par=1 ngcon=1 
+ mSwitch=0 idg=0 psp=0
MT436 C6 SH<1> B4 VSS! nfet m=1 l=120.0n w=560.0n nf=1 par=1 ngcon=1 mSwitch=0 
+ idg=0 psp=0
MT437 C5 SH<1> B3 VSS! nfet m=1 l=120.0n w=560.0n nf=1 par=1 ngcon=1 mSwitch=0 
+ idg=0 psp=0
MT364 B3 SH<0> A<2> VSS! nfet m=1 l=120.0n w=280.0n nf=1 par=1 ngcon=1 
+ mSwitch=0 idg=0 psp=0
MT362 B3 SH0_BAR A<3> VSS! nfet m=1 l=120.0n w=280.0n nf=1 par=1 ngcon=1 
+ mSwitch=0 idg=0 psp=0
MT380 net0218 SH<2> C0 VSS! nfet m=1 l=120.0n w=280.0n nf=1 par=1 ngcon=1 
+ mSwitch=0 idg=0 psp=0
MT378 net0218 SH2_BAR C4 VSS! nfet m=1 l=120.0n w=280.0n nf=1 par=1 ngcon=1 
+ mSwitch=0 idg=0 psp=0
MT349 C2 SH1_BAR B2 VSS! nfet m=1 l=120.0n w=560.0n nf=1 par=1 ngcon=1 
+ mSwitch=0 idg=0 psp=0
MT346 C2 SH<1> B0 VSS! nfet m=1 l=120.0n w=560.0n nf=1 par=1 ngcon=1 mSwitch=0 
+ idg=0 psp=0
MT333 C1 SH1_BAR B1 VSS! nfet m=1 l=120.0n w=560.0n nf=1 par=1 ngcon=1 
+ mSwitch=0 idg=0 psp=0
MT331 C1 SH<1> VSS! VSS! nfet m=1 l=120.0n w=560.0n nf=1 par=1 ngcon=1 
+ mSwitch=0 idg=0 psp=0
MT131 net0226 SH<2> VSS! VSS! nfet m=1 l=120.0n w=280.0n nf=1 par=1 ngcon=1 
+ mSwitch=0 idg=0 psp=0
MT130 net0226 SH2_BAR C0 VSS! nfet m=1 l=120.0n w=280.0n nf=1 par=1 ngcon=1 
+ mSwitch=0 idg=0 psp=0
MT545 net0220 SH<2> C6 VSS! nfet m=1 l=120.0n w=280.0n nf=1 par=1 ngcon=1 
+ mSwitch=0 idg=0 psp=0
MT525 net0217 SH<2> C1 VSS! nfet m=1 l=120.0n w=280.0n nf=1 par=1 ngcon=1 
+ mSwitch=0 idg=0 psp=0
MT530 net0222 SH<2> C4 VSS! nfet m=1 l=120.0n w=280.0n nf=1 par=1 ngcon=1 
+ mSwitch=0 idg=0 psp=0
MT524 net0216 SH<2> C2 VSS! nfet m=1 l=120.0n w=280.0n nf=1 par=1 ngcon=1 
+ mSwitch=0 idg=0 psp=0
MT537 net0215 SH2_BAR C7 VSS! nfet m=1 l=120.0n w=280.0n nf=1 par=1 ngcon=1 
+ mSwitch=0 idg=0 psp=0
MT529 net0217 SH2_BAR C5 VSS! nfet m=1 l=120.0n w=280.0n nf=1 par=1 ngcon=1 
+ mSwitch=0 idg=0 psp=0
MT528 net0216 SH2_BAR C6 VSS! nfet m=1 l=120.0n w=280.0n nf=1 par=1 ngcon=1 
+ mSwitch=0 idg=0 psp=0
MT542 net0219 SH<2> C7 VSS! nfet m=1 l=120.0n w=280.0n nf=1 par=1 ngcon=1 
+ mSwitch=0 idg=0 psp=0
MT535 net0222 SH2_BAR C8 VSS! nfet m=1 l=120.0n w=280.0n nf=1 par=1 ngcon=1 
+ mSwitch=0 idg=0 psp=0
MT548 net0220 SH2_BAR C10 VSS! nfet m=1 l=120.0n w=280.0n nf=1 par=1 ngcon=1 
+ mSwitch=0 idg=0 psp=0
MT533 net0215 SH<2> C3 VSS! nfet m=1 l=120.0n w=280.0n nf=1 par=1 ngcon=1 
+ mSwitch=0 idg=0 psp=0
MT547 net0219 SH2_BAR C11 VSS! nfet m=1 l=120.0n w=280.0n nf=1 par=1 ngcon=1 
+ mSwitch=0 idg=0 psp=0
MT540 net0221 SH2_BAR C9 VSS! nfet m=1 l=120.0n w=280.0n nf=1 par=1 ngcon=1 
+ mSwitch=0 idg=0 psp=0
MT551 net0214 SH2_BAR C12 VSS! nfet m=1 l=120.0n w=280.0n nf=1 par=1 ngcon=1 
+ mSwitch=0 idg=0 psp=0
MT539 net0221 SH<2> C5 VSS! nfet m=1 l=120.0n w=280.0n nf=1 par=1 ngcon=1 
+ mSwitch=0 idg=0 psp=0
MT557 net0213 SH<2> C9 VSS! nfet m=1 l=120.0n w=280.0n nf=1 par=1 ngcon=1 
+ mSwitch=0 idg=0 psp=0
MT552 net0213 SH2_BAR C13 VSS! nfet m=1 l=120.0n w=280.0n nf=1 par=1 ngcon=1 
+ mSwitch=0 idg=0 psp=0
MT554 net0214 SH<2> C8 VSS! nfet m=1 l=120.0n w=280.0n nf=1 par=1 ngcon=1 
+ mSwitch=0 idg=0 psp=0
MT561 net0212 SH<2> C10 VSS! nfet m=1 l=120.0n w=280.0n nf=1 par=1 ngcon=1 
+ mSwitch=0 idg=0 psp=0
MT558 net0211 SH<2> C11 VSS! nfet m=1 l=120.0n w=280.0n nf=1 par=1 ngcon=1 
+ mSwitch=0 idg=0 psp=0
MT563 net0211 SH2_BAR C15 VSS! nfet m=1 l=120.0n w=280.0n nf=1 par=1 ngcon=1 
+ mSwitch=0 idg=0 psp=0
MT564 net0212 SH2_BAR C14 VSS! nfet m=1 l=120.0n w=280.0n nf=1 par=1 ngcon=1 
+ mSwitch=0 idg=0 psp=0
MT369 C3 SH1_BAR B3 VSS! nfet m=1 l=120.0n w=560.0n nf=1 par=1 ngcon=1 
+ mSwitch=0 idg=0 psp=0
MT367 C3 SH<1> B1 VSS! nfet m=1 l=120.0n w=560.0n nf=1 par=1 ngcon=1 mSwitch=0 
+ idg=0 psp=0
MT385 net303 SH3_BAR D3 VSS! nfet m=1 l=120.0n w=340.0n nf=1 par=1 ngcon=1 
+ mSwitch=0 idg=0 psp=0
MT383 net303 SH<3> VDD! VSS! nfet m=1 l=120.0n w=340.0n nf=1 par=1 ngcon=1 
+ mSwitch=0 idg=0 psp=0
MT352 net0224 SH2_BAR C2 VSS! nfet m=1 l=120.0n w=280.0n nf=1 par=1 ngcon=1 
+ mSwitch=0 idg=0 psp=0
MT350 net0224 SH<2> VSS! VSS! nfet m=1 l=120.0n w=280.0n nf=1 par=1 ngcon=1 
+ mSwitch=0 idg=0 psp=0
MT337 net0225 SH2_BAR C1 VSS! nfet m=1 l=120.0n w=280.0n nf=1 par=1 ngcon=1 
+ mSwitch=0 idg=0 psp=0
MT335 net0225 SH<2> VSS! VSS! nfet m=1 l=120.0n w=280.0n nf=1 par=1 ngcon=1 
+ mSwitch=0 idg=0 psp=0
MT67 C0 SH<1> VSS! VSS! nfet m=1 l=120.0n w=560.0n nf=1 par=1 ngcon=1 
+ mSwitch=0 idg=0 psp=0
MT66 C0 SH1_BAR B0 VSS! nfet m=1 l=120.0n w=560.0n nf=1 par=1 ngcon=1 
+ mSwitch=0 idg=0 psp=0
MT413 B11 SH<0> A<10> VSS! nfet m=1 l=120.0n w=280.0n nf=1 par=1 ngcon=1 
+ mSwitch=0 idg=0 psp=0
MT416 B10 SH<0> A<9> VSS! nfet m=1 l=120.0n w=280.0n nf=1 par=1 ngcon=1 
+ mSwitch=0 idg=0 psp=0
MT424 B13 SH0_BAR A<13> VSS! nfet m=1 l=120.0n w=280.0n nf=1 par=1 ngcon=1 
+ mSwitch=0 idg=0 psp=0
MT420 B12 SH0_BAR A<12> VSS! nfet m=1 l=120.0n w=280.0n nf=1 par=1 ngcon=1 
+ mSwitch=0 idg=0 psp=0
MT415 B10 SH0_BAR A<10> VSS! nfet m=1 l=120.0n w=280.0n nf=1 par=1 ngcon=1 
+ mSwitch=0 idg=0 psp=0
MT411 B11 SH0_BAR A<11> VSS! nfet m=1 l=120.0n w=280.0n nf=1 par=1 ngcon=1 
+ mSwitch=0 idg=0 psp=0
MT419 B12 SH<0> A<11> VSS! nfet m=1 l=120.0n w=280.0n nf=1 par=1 ngcon=1 
+ mSwitch=0 idg=0 psp=0
MT422 B13 SH<0> A<12> VSS! nfet m=1 l=120.0n w=280.0n nf=1 par=1 ngcon=1 
+ mSwitch=0 idg=0 psp=0
MT429 B15 SH<0> A<14> VSS! nfet m=1 l=120.0n w=280.0n nf=1 par=1 ngcon=1 
+ mSwitch=0 idg=0 psp=0
MT427 B15 SH0_BAR A<15> VSS! nfet m=1 l=120.0n w=280.0n nf=1 par=1 ngcon=1 
+ mSwitch=0 idg=0 psp=0
MT393 B5 SH<0> A<4> VSS! nfet m=1 l=120.0n w=280.0n nf=1 par=1 ngcon=1 
+ mSwitch=0 idg=0 psp=0
MT390 B5 SH0_BAR A<5> VSS! nfet m=1 l=120.0n w=280.0n nf=1 par=1 ngcon=1 
+ mSwitch=0 idg=0 psp=0
MT397 B6 SH0_BAR A<6> VSS! nfet m=1 l=120.0n w=280.0n nf=1 par=1 ngcon=1 
+ mSwitch=0 idg=0 psp=0
MT394 B6 SH<0> A<5> VSS! nfet m=1 l=120.0n w=280.0n nf=1 par=1 ngcon=1 
+ mSwitch=0 idg=0 psp=0
MT401 B7 SH<0> A<6> VSS! nfet m=1 l=120.0n w=280.0n nf=1 par=1 ngcon=1 
+ mSwitch=0 idg=0 psp=0
MT398 B7 SH0_BAR A<7> VSS! nfet m=1 l=120.0n w=280.0n nf=1 par=1 ngcon=1 
+ mSwitch=0 idg=0 psp=0
MT403 B8 SH<0> A<7> VSS! nfet m=1 l=120.0n w=280.0n nf=1 par=1 ngcon=1 
+ mSwitch=0 idg=0 psp=0
MT404 B8 SH0_BAR A<8> VSS! nfet m=1 l=120.0n w=280.0n nf=1 par=1 ngcon=1 
+ mSwitch=0 idg=0 psp=0
MT409 B9 SH0_BAR A<9> VSS! nfet m=1 l=120.0n w=280.0n nf=1 par=1 ngcon=1 
+ mSwitch=0 idg=0 psp=0
MT406 B9 SH<0> A<8> VSS! nfet m=1 l=120.0n w=280.0n nf=1 par=1 ngcon=1 
+ mSwitch=0 idg=0 psp=0
MT431 B14 SH0_BAR A<14> VSS! nfet m=1 l=120.0n w=280.0n nf=1 par=1 ngcon=1 
+ mSwitch=0 idg=0 psp=0
MT432 B14 SH<0> A<13> VSS! nfet m=1 l=120.0n w=280.0n nf=1 par=1 ngcon=1 
+ mSwitch=0 idg=0 psp=0
MT372 C4 SH<1> B2 VSS! nfet m=1 l=120.0n w=560.0n nf=1 par=1 ngcon=1 mSwitch=0 
+ idg=0 psp=0
MT370 C4 SH1_BAR B4 VSS! nfet m=1 l=120.0n w=560.0n nf=1 par=1 ngcon=1 
+ mSwitch=0 idg=0 psp=0
MT388 net298 SH<3> VDD! VSS! nfet m=1 l=120.0n w=340.0n nf=1 par=1 ngcon=1 
+ mSwitch=0 idg=0 psp=0
MT386 net298 SH3_BAR D4 VSS! nfet m=1 l=120.0n w=340.0n nf=1 par=1 ngcon=1 
+ mSwitch=0 idg=0 psp=0
MT355 net304 SH<3> VDD! VSS! nfet m=1 l=120.0n w=340.0n nf=1 par=1 ngcon=1 
+ mSwitch=0 idg=0 psp=0
MT356 net304 SH3_BAR D2 VSS! nfet m=1 l=120.0n w=340.0n nf=1 par=1 ngcon=1 
+ mSwitch=0 idg=0 psp=0
MT341 net305 SH3_BAR D1 VSS! nfet m=1 l=120.0n w=340.0n nf=1 par=1 ngcon=1 
+ mSwitch=0 idg=0 psp=0
MT339 net305 SH<3> VDD! VSS! nfet m=1 l=120.0n w=340.0n nf=1 par=1 ngcon=1 
+ mSwitch=0 idg=0 psp=0
MT3 B0 SH<0> VSS! VSS! nfet m=1 l=120.0n w=280.0n nf=1 par=1 ngcon=1 mSwitch=0 
+ idg=0 psp=0
MT2 B0 SH0_BAR A<0> VSS! nfet m=1 l=120.0n w=280.0n nf=1 par=1 ngcon=1 
+ mSwitch=0 idg=0 psp=0
XI222 SEL<0> SH0_BAR SEL<1> SH1_BAR SEL<2> SH2_BAR SEL<3> SH3_BAR SH<0> SH<1> 
+ SH<2> SH<3> / Select_Buffer
.ENDS

