************************************************************************
* auCdl Netlist:
* 
* Library Name:  CAD9_LIB
* Top Cell Name: REN_Driver
* View Name:     schematic
* Netlisted on:  Dec 10 01:13:34 2018
************************************************************************

*.EQUATION
*.SCALE METER
*.MEGA
.PARAM

*.GLOBAL VSS!
+        VDD!

*.PIN VSS!
*+    VDD!

************************************************************************
* Library Name: CAD9_LIB
* Cell Name:    REN_Driver_1bit
* View Name:    schematic
************************************************************************

.SUBCKT REN_Driver_1bit IN REN RENB
*.PININFO IN:I REN:O RENB:O
MT6 RENB net13 VSS! VSS! nfet m=1 l=120.0n w=1.76u nf=1 par=1 ngcon=1 
+ mSwitch=0 idg=0 psp=0
MT2 net13 net9 VSS! VSS! nfet m=1 l=120.0n w=800n nf=1 par=1 ngcon=1 mSwitch=0 
+ idg=0 psp=0
MT19 net9 IN VSS! VSS! nfet m=1 l=120.0n w=400n nf=1 par=1 ngcon=1 mSwitch=0 
+ idg=0 psp=0
MT4 REN net8 VSS! VSS! nfet m=1 l=120.0n w=400n nf=1 par=1 ngcon=1 mSwitch=0 
+ idg=0 psp=0
MT0 net8 IN VSS! VSS! nfet m=1 l=120.0n w=280.0n nf=1 par=1 ngcon=1 mSwitch=0 
+ idg=0 psp=0
MT7 RENB net13 VDD! VDD! pfet m=1 l=120.0n w=3.2u nf=1 par=1 ngcon=1 mSwitch=0 
+ idg=0 psp=0
MT3 net13 net9 VDD! VDD! pfet m=1 l=120.0n w=1.6u nf=1 par=1 ngcon=1 mSwitch=0 
+ idg=0 psp=0
MT20 net9 IN VDD! VDD! pfet m=1 l=120.0n w=780.0n nf=1 par=1 ngcon=1 mSwitch=0 
+ idg=0 psp=0
MT5 REN net8 VDD! VDD! pfet m=1 l=120.0n w=840.0n nf=1 par=1 ngcon=1 mSwitch=0 
+ idg=0 psp=0
MT1 net8 IN VDD! VDD! pfet m=1 l=120.0n w=660.0n nf=1 par=1 ngcon=1 mSwitch=0 
+ idg=0 psp=0
.ENDS

************************************************************************
* Library Name: CAD9_LIB
* Cell Name:    REN_Driver
* View Name:    schematic
************************************************************************

.SUBCKT REN_Driver REN<15> REN<14> REN<13> REN<12> REN<11> REN<10> REN<9> 
+ REN<8> REN<7> REN<6> REN<5> REN<4> REN<3> REN<2> REN<1> REN<0> RENB<15> 
+ RENB<14> RENB<13> RENB<12> RENB<11> RENB<10> RENB<9> RENB<8> RENB<7> RENB<6> 
+ RENB<5> RENB<4> RENB<3> RENB<2> RENB<1> RENB<0> REN_SRAM
*.PININFO REN_SRAM:I REN<15>:O REN<14>:O REN<13>:O REN<12>:O REN<11>:O 
*.PININFO REN<10>:O REN<9>:O REN<8>:O REN<7>:O REN<6>:O REN<5>:O REN<4>:O 
*.PININFO REN<3>:O REN<2>:O REN<1>:O REN<0>:O RENB<15>:O RENB<14>:O RENB<13>:O 
*.PININFO RENB<12>:O RENB<11>:O RENB<10>:O RENB<9>:O RENB<8>:O RENB<7>:O 
*.PININFO RENB<6>:O RENB<5>:O RENB<4>:O RENB<3>:O RENB<2>:O RENB<1>:O RENB<0>:O
XI18 REN_SRAM REN<8> RENB<8> / REN_Driver_1bit
XI17 REN_SRAM REN<12> RENB<12> / REN_Driver_1bit
XI16 REN_SRAM REN<14> RENB<14> / REN_Driver_1bit
XI15 REN_SRAM REN<15> RENB<15> / REN_Driver_1bit
XI14 REN_SRAM REN<13> RENB<13> / REN_Driver_1bit
XI13 REN_SRAM REN<10> RENB<10> / REN_Driver_1bit
XI12 REN_SRAM REN<11> RENB<11> / REN_Driver_1bit
XI11 REN_SRAM REN<9> RENB<9> / REN_Driver_1bit
XI10 REN_SRAM REN<4> RENB<4> / REN_Driver_1bit
XI9 REN_SRAM REN<6> RENB<6> / REN_Driver_1bit
XI8 REN_SRAM REN<7> RENB<7> / REN_Driver_1bit
XI7 REN_SRAM REN<5> RENB<5> / REN_Driver_1bit
XI6 REN_SRAM REN<2> RENB<2> / REN_Driver_1bit
XI5 REN_SRAM REN<3> RENB<3> / REN_Driver_1bit
XI4 REN_SRAM REN<1> RENB<1> / REN_Driver_1bit
XI0 REN_SRAM REN<0> RENB<0> / REN_Driver_1bit
.ENDS

