************************************************************************
* auCdl Netlist:
* 
* Library Name:  CAD9_LIB
* Top Cell Name: select_buffer4
* View Name:     schematic
* Netlisted on:  Dec  7 16:56:43 2018
************************************************************************

*.EQUATION
*.SCALE METER
*.MEGA
.PARAM

*.GLOBAL VDD!
+        VSS!

*.PIN VDD!
*+    VSS!

************************************************************************
* Library Name: CAD9_LIB
* Cell Name:    select_buffer4
* View Name:    schematic
************************************************************************

.SUBCKT select_buffer4 SH3 SH3_BAR SH<3>
*.PININFO SH3:I SH3_BAR:O SH<3>:O
MT16 SH3_BAR SH<3> VSS! VSS! nfet m=1 l=120.0n w=4.4u nf=1 par=1 ngcon=1 
+ mSwitch=0 idg=0 psp=0
MT15 SH<3> net9 VSS! VSS! nfet m=1 l=120.0n w=2.15u nf=1 par=1 ngcon=1 
+ mSwitch=0 idg=0 psp=0
MT14 net9 SH3 VSS! VSS! nfet m=1 l=120.0n w=840.0n nf=1 par=1 ngcon=1 
+ mSwitch=0 idg=0 psp=0
MT19 SH3_BAR SH<3> VDD! VDD! pfet m=1 l=120.0n w=7.8u nf=1 par=1 ngcon=1 
+ mSwitch=0 idg=0 psp=0
MT18 SH<3> net9 VDD! VDD! pfet m=1 l=120.0n w=3.9u nf=1 par=1 ngcon=1 
+ mSwitch=0 idg=0 psp=0
MT17 net9 SH3 VDD! VDD! pfet m=1 l=120.0n w=1.62u nf=1 par=1 ngcon=1 mSwitch=0 
+ idg=0 psp=0
.ENDS

