### Custom WaveView ADV log file, revision N-2017.12-SP2 (build May 31, ) ###
### created at 21:32:27 on Wed Oct 17 2018 (Linux AMD64) ###
### Host Name: caen-vnc-vm01.engin.umich.edu   User ID: pochaoyu   PID: 6490   ###
wv_start_log
# (0) running in waveview only mode
# (0) SW_SX_PERL_LIB defined
# (0) SW_SX_TCL_LIB defined
# (0) HOME defined
wv_resize_window {Custom WaveView} 800 586
wv_move_window {Custom WaveView} {} 40 70
wv_resize_window {Custom WaveView} 800 400
wv_select_window {Custom WaveView} 
wv_move_window {Custom WaveView} {} -10 20
wv_press_tool_button {Custom WaveView} {} {OpenWaveform0} 
wv_move_window {FileDialog} {} 756 158
wv_move_window {FileDialog} {} 756 160
wv_select_dialog {FileDialog} 
wv_select_list_item {FileDialog} {} {FileList} {netlist.tr0@1} 17
wv_dclick_list_item {FileDialog} {} {FileList} {netlist.tr0@1} 17
wv_select_tree_item {Custom WaveView} {} {hierview} {D0:netlist.tr0@1(0)} {0} {+sep=/}
wv_expand_tree_item {Custom WaveView} {} {hierview} {D0:netlist.tr0@1(0)} {+sep=/}
wv_select_tree_item {Custom WaveView} {} {hierview} {D0:netlist.tr0@1(0)/toplevel(0)} {0} {+sep=/}
wv_select_list_item {Custom WaveView} {} {sigview} {a<0>} 1
wv_select_list_item {Custom WaveView} {} {sigview} {vdd!} 17
wv_dclick_list_item {Custom WaveView} {} {sigview} {vdd!} 17
wv_select_list_item {Custom WaveView} {} {sigview} {vss!} 18
wv_dclick_list_item {Custom WaveView} {} {sigview} {vss!} 18
wv_select_list_item {Custom WaveView} {} {sigview} {sh<0>} 13
wv_dclick_list_item {Custom WaveView} {} {sigview} {sh<0>} 13
wv_select_list_item {Custom WaveView} {} {sigview} {sh<1>} 14
wv_dclick_list_item {Custom WaveView} {} {sigview} {sh<1>} 14
wv_select_list_item {Custom WaveView} {} {sigview} {sh<2>} 15
wv_dclick_list_item {Custom WaveView} {} {sigview} {sh<2>} 15
wv_select_list_item {Custom WaveView} {} {sigview} {sh<3>} 16
wv_dclick_list_item {Custom WaveView} {} {sigview} {sh<3>} 16
wv_select_waveview 1 {waveview 1}
wv_select_wv_item WV1.PANEL6:1.LEGEND
wv_select_panel WV1.PANEL6:1.LEGEND
wv_select_waveview 1 {waveview 1}
wv_shift_select_panel WV1.PANEL1:1.LEGEND
wv_release_wv_item WV1 38 93
wv_press_key Delete 282 270
wv_select_dialog {Confirmation} 
wv_press_button {Confirmation} {} {Ok} 
wv_select_list_item {Custom WaveView} {} {sigview} {a<0>} 1
wv_select_list_item {Custom WaveView} {} {sigview} {a<0>} 1
wv_dclick_list_item {Custom WaveView} {} {sigview} {a<0>} 1
wv_ctrl_wheel_down WV1.PANEL1:1
wv_ctrl_wheel_down WV1.PANEL1:1
wv_ctrl_wheel_down WV1.PANEL1:1
wv_ctrl_wheel_down WV1.PANEL1:1
wv_ctrl_wheel_down WV1.PANEL1:1
wv_ctrl_wheel_down WV1.PANEL1:1
wv_ctrl_wheel_down WV1.PANEL1:1
wv_ctrl_wheel_down WV1.PANEL1:1
wv_ctrl_wheel_down WV1.PANEL1:1
wv_select_list_item {Custom WaveView} {} {sigview} {e<15>} 4
wv_dclick_list_item {Custom WaveView} {} {sigview} {e<15>} 4
wv_select_waveview 1 {waveview 1}
wv_select_wv_item WV1.PANEL2:1.LINE1
wv_drag_item_to WV1 33 363
wv_select_line WV1.PANEL2:1.LINE1
wv_drag_enter WV1
wv_drag_to WV1 33 327
wv_drop_on WV1
wv_drag_item_to WV1 33 363
wv_press_tool_button {Custom WaveView} {} {WaveformMeasurementTool0} 
wv_move_window {MeasurementTool} {} 615 182
wv_select_dialog {MeasurementTool} 
wv_move_scrollbar {MeasurementTool} {} {TypeList.VScrollBar} {3}
wv_move_scrollbar {MeasurementTool} {} {TypeList.VScrollBar} {6}
wv_move_scrollbar {MeasurementTool} {} {TypeList.VScrollBar} {9}
wv_move_scrollbar {MeasurementTool} {} {TypeList.VScrollBar} {12}
wv_move_scrollbar {MeasurementTool} {} {TypeList.VScrollBar} {15}
wv_move_scrollbar {MeasurementTool} {} {TypeList.VScrollBar} {18}
wv_move_scrollbar {MeasurementTool} {} {TypeList.VScrollBar} {21}
wv_move_scrollbar {MeasurementTool} {} {TypeList.VScrollBar} {15}
wv_move_scrollbar {MeasurementTool} {} {TypeList.VScrollBar} {12}
wv_move_scrollbar {MeasurementTool} {} {TypeList.VScrollBar} {3}
wv_move_scrollbar {MeasurementTool} {} {TypeList.VScrollBar} {0}
wv_move_scrollbar {MeasurementTool} {} {TypeList.VScrollBar} {0}
wv_move_scrollbar {MeasurementTool} {} {TypeList.VScrollBar} {0}
wv_move_scrollbar {MeasurementTool} {} {TypeList.VScrollBar} {0}
wv_move_scrollbar {MeasurementTool} {} {TypeList.VScrollBar} {0}
wv_move_scrollbar {MeasurementTool} {} {TypeList.VScrollBar} {0}
wv_select_tree_item {MeasurementTool} {} {TypeList} {General.Data(X,Y)} {0} {+sep=.}
wv_select_tree_item {MeasurementTool} {} {TypeList} {General.Data(X,Y)} {0} {+sep=.}
wv_close_dialog {MeasurementTool} 
wv_select_window {Custom WaveView} 
wv_select_waveview 1 {waveview 1}
wv_select_toolbar_item {Custom WaveView} {waveview 1:1} {Vertical Cursor} 
wv_select_waveview 1 {waveview 1}
wv_select_panel WV1.PANEL1:1 5.03801e-09 0.0119139
wv_drag_item_to WV1 925 480
wv_zoom WV1.PANEL1:1 5.03801e-09 0.0119139 4.9067e-09 0.0494014
wv_select_waveview 1 {waveview 1}
wv_select_toolbar_item {Custom WaveView} {waveview 1:1} {Full Unzoom} 
wv_select_waveview 1 {waveview 1}
wv_select_wv_item WV1.PANEL1:1.CURSORX1
wv_drag_item_to WV1 922 658
wv_move_wv_item WV1.PANEL1:1.CURSOR1 845 332
wv_select_waveview 1 {waveview 1}
wv_select_toolbar_item {Custom WaveView} {waveview 1:1} {Measurement Tool} 
wv_move_window {MeasurementTool} {} 615 182
wv_select_dialog {MeasurementTool} 
wv_select_tree_item {MeasurementTool} {} {TypeList} {General.Width} {0} {+sep=.}
wv_select_tree_item {MeasurementTool} {} {TypeList} {General.Difference} {0} {+sep=.}
wv_set_check {MeasurementTool} {} {LockedLevel} 1
wv_press_button {MeasurementTool} {} {Ok} 
wv_select_window {Custom WaveView} 
wv_select_waveview 1 {waveview 1}
wv_select_wv_item WV1.MEAS1
wv_drag_item_to WV1 918 356
wv_move_wv_item WV1.MEAS1 749 353
wv_select_waveview 1 {waveview 1}
wv_select_wv_item WV1.MEAS1
wv_drag_item_to WV1 764 375
wv_move_wv_item WV1.MEAS1 814 359
wv_press_key Ctrl_O 212 438
wv_move_window {FileDialog} {} 10 38
wv_move_window {FileDialog} {} 756 160
wv_select_dialog {FileDialog} 
wv_move_scrollbar {FileDialog} {} {FileList.HScrollBar} {951}
wv_select_list_item {FileDialog} {} {FileList} {try.tr0} 59
wv_dclick_list_item {FileDialog} {} {FileList} {try.tr0} 59
wv_expand_tree_item {Custom WaveView} {} {hierview} {D0:try.tr0(1)} {+sep=@}
wv_select_tree_item {Custom WaveView} {} {hierview} {D0:try.tr0(1)@toplevel(0)} {0} {+sep=@}
wv_select_list_item {Custom WaveView} {} {sigview} {e<0>} 2
wv_select_list_item {Custom WaveView} {} {sigview} {e<0>} 2
wv_dclick_list_item {Custom WaveView} {} {sigview} {e<0>} 2
wv_select_list_item {Custom WaveView} {} {sigview} {e<15>} 4
wv_dclick_list_item {Custom WaveView} {} {sigview} {e<15>} 4
wv_select_list_item {Custom WaveView} {} {sigview} {a<0>} 1
wv_dclick_list_item {Custom WaveView} {} {sigview} {a<0>} 1
wv_select_waveview 1 {waveview 1}
wv_select_wv_item WV1.PANEL4:1.LEGEND
wv_drag_item_to WV1 48 525
wv_drag_enter WV1
wv_drag_to WV1 50 515
wv_drop_on WV1
wv_drag_item_to WV1 50 515
wv_select_waveview 1 {waveview 1}
wv_select_wv_item WV1.MEAS1
wv_drag_item_to WV1 822 129
wv_move_wv_item WV1.MEAS1 794 565
wv_select_waveview 1 {waveview 1}
wv_select_wv_item WV1.MEAS1
wv_drag_item_to WV1 804 587
wv_move_wv_item WV1.MEAS1 762 573
wv_select_waveview 1 {waveview 1}
wv_select_wv_item WV1.MEAS1
wv_drag_item_to WV1 828 589
wv_move_wv_item WV1.MEAS1 773 576
wv_select_waveview 1 {waveview 1}
wv_select_wv_item WV1.MEAS1
wv_drag_item_to WV1 781 603
wv_move_wv_item WV1.MEAS1 802 584
wv_select_waveview 1 {waveview 1}
wv_select_wv_item WV1.MEAS1
wv_drag_item_to WV1 903 624
wv_move_wv_item WV1.MEAS1 804 584
wv_select_waveview 1 {waveview 1}
wv_select_wv_item WV1.MEAS1
wv_drag_item_to WV1 809 602
wv_move_wv_item WV1.MEAS1 770 588
wv_select_window {Custom WaveView} 
wv_select_waveview 1 {waveview 1}
wv_select_wv_item WV1.MEAS1
wv_drag_item_to WV1 884 622
wv_move_wv_item WV1.MEAS1 771 581
wv_select_waveview 1 {waveview 1}
wv_select_wv_item WV1.MEAS1
wv_drag_item_to WV1 782 601
wv_move_wv_item WV1.MEAS1 804 587
wv_select_waveview 1 {waveview 1}
wv_select_wv_item WV1.MEAS1
wv_drag_item_to WV1 812 600
wv_move_wv_item WV1.MEAS1 930 578
wv_select_waveview 1 {waveview 1}
wv_select_wv_item WV1.MEAS1
wv_drag_item_to WV1 941 596
wv_move_wv_item WV1.MEAS1 907 577
wv_select_tree_item {Custom WaveView} {} {hierview} {D0:try.tr0(1)} {0} {+sep=@}
wv_select_window {Custom WaveView} 
wv_select_tree_item {Custom WaveView} {} {hierview} {D0:netlist.tr0@1(0)} {0} {+sep=/}
wv_select_window {Custom WaveView} 
wv_tree_context_menu {Custom WaveView} {} {hierview} 113 15 {D0:netlist.tr0@1(0)} {+sep=/}
wv_select_menu_item {Custom WaveView} {} {FileViewPopMenu.Close All} 
wv_select_dialog {Confirmation} 
wv_press_button {Confirmation} {} {Ok} 
wv_select_waveview 1 {waveview 1}
wv_release_wv_item WV1 956 459
wv_close_window {Custom WaveView} 
wv_select_dialog {Confirmation} 
#wv_press_button {Confirmation} {} {Ok} 
#*WARNING* Can not remove '/home/pochaoyu/.cx_hostport/.cx_hostport_caen-vnc-vm01.engin.umich.edu_6490'.
