### Custom WaveView ADV log file, revision N-2017.12-SP2 (build May 31, ) ###
### created at 15:12:21 on Thu Oct 18 2018 (Linux AMD64) ###
### Host Name: beyster1620p32.engin.umich.edu   User ID: pochaoyu   PID: 5830   ###
wv_start_log
# (0) running in waveview only mode
# (0) SW_SX_PERL_LIB defined
# (0) SW_SX_TCL_LIB defined
# (0) HOME defined
wv_move_window {Custom WaveView} {} -10 20
wv_resize_window {Custom WaveView} 800 586
wv_move_window {Custom WaveView} {} 40 70
wv_resize_window {Custom WaveView} 800 400
wv_select_window {Custom WaveView} 
wv_move_window {Custom WaveView} {} 203 20
wv_press_tool_button {Custom WaveView} {} {OpenWaveform0} 
wv_move_window {FileDialog} {} 969 160
wv_select_dialog {FileDialog} 
wv_move_window {Custom WaveView} {} 196 20
wv_move_window {FileDialog} {} 962 160
wv_move_window {Custom WaveView} {} 187 20
wv_move_window {FileDialog} {} 953 160
wv_move_window {Custom WaveView} {} 177 20
wv_move_window {FileDialog} {} 943 160
wv_move_window {Custom WaveView} {} 176 20
wv_move_window {FileDialog} {} 942 160
wv_move_window {Custom WaveView} {} 175 20
wv_move_window {FileDialog} {} 941 160
wv_move_window {FileDialog} {} 938 160
wv_resize_window {FileDialog} 395 652
wv_move_window {FileDialog} {} 906 160
wv_resize_window {FileDialog} 459 652
wv_move_window {FileDialog} {} 614 160
wv_resize_window {FileDialog} 1043 652
wv_move_window {FileDialog} {} 456 160
wv_resize_window {FileDialog} 1359 652
wv_move_window {FileDialog} {} 308 160
wv_resize_window {FileDialog} 1655 652
wv_move_window {FileDialog} {} 305 160
wv_resize_window {FileDialog} 1661 652
wv_move_window {FileDialog} {} 304 160
wv_resize_window {FileDialog} 1663 652
wv_move_window {FileDialog} {} 300 160
wv_resize_window {FileDialog} 1671 652
wv_move_window {FileDialog} {} 299 160
wv_resize_window {FileDialog} 1673 652
wv_move_scrollbar {FileDialog} {} {FileList.HScrollBar} {541}
wv_close_dialog {FileDialog} 
wv_select_window {Custom WaveView} 
wv_press_key Esc 1272 719
wv_press_key Esc 1719 69
wv_close_window {Custom WaveView} 
wv_select_dialog {Confirmation} 
#wv_press_button {Confirmation} {} {Ok} 
#*WARNING* Can not remove '/home/pochaoyu/.cx_hostport/.cx_hostport_beyster1620p32.engin.umich.edu_5830'.
