### Custom WaveView ADV log file, revision N-2017.12-SP2 (build May 31, ) ###
### created at 21:27:02 on Wed Oct 17 2018 (Linux AMD64) ###
### Host Name: caen-vnc-vm01.engin.umich.edu   User ID: pochaoyu   PID: 4612   ###
wv_start_log
# (0) running in waveview only mode
# (0) SW_SX_PERL_LIB defined
# (0) SW_SX_TCL_LIB defined
# (0) HOME defined
wv_move_window {Custom WaveView} {} 40 70
wv_select_window {Custom WaveView} 
wv_move_window {Custom WaveView} {} -10 20
wv_resize_window {Custom WaveView} 1920 918
wv_press_tool_button {Custom WaveView} {} {OpenWaveform0} 
wv_move_window {FileDialog} {} 756 158
wv_move_window {FileDialog} {} 756 160
wv_select_dialog {FileDialog} 
wv_move_scrollbar {FileDialog} {} {FileList.HScrollBar} {228}
wv_select_list_item {FileDialog} {} {FileList} {netlist.tr0} 15
wv_move_window {FileDialog} {} 749 160
wv_resize_window {FileDialog} 403 652
wv_move_window {FileDialog} {} 745 160
wv_resize_window {FileDialog} 411 652
wv_move_window {FileDialog} {} 713 160
wv_resize_window {FileDialog} 475 652
wv_move_window {FileDialog} {} 680 160
wv_resize_window {FileDialog} 541 652
wv_move_window {FileDialog} {} 586 160
wv_resize_window {FileDialog} 729 652
wv_move_window {FileDialog} {} 545 160
wv_resize_window {FileDialog} 811 652
wv_move_window {FileDialog} {} 517 160
wv_resize_window {FileDialog} 867 652
wv_move_window {FileDialog} {} 505 160
wv_resize_window {FileDialog} 891 652
wv_move_window {FileDialog} {} 498 160
wv_resize_window {FileDialog} 905 652
wv_move_window {FileDialog} {} 491 160
wv_resize_window {FileDialog} 919 652
wv_select_list_item {FileDialog} {} {FileList} {netlist.tr0@11} 26 +shift
wv_press_button {FileDialog} {} {Ok} 
wv_select_tree_item {Custom WaveView} {} {hierview} {D0:netlist.tr0(0)} {0} {+sep=@}
wv_expand_tree_item {Custom WaveView} {} {hierview} {D0:netlist.tr0(0)} {+sep=@}
wv_select_tree_item {Custom WaveView} {} {hierview} {D0:netlist.tr0(0)@toplevel(0)} {0} {+sep=@}
wv_select_list_item {Custom WaveView} {} {sigview} {e<15>} 7
wv_dclick_list_item {Custom WaveView} {} {sigview} {e<15>} 7
wv_ctrl_wheel_down WV1.PANEL1:1
wv_ctrl_wheel_down WV1.PANEL1:1
wv_ctrl_wheel_down WV1.PANEL1:1
wv_ctrl_wheel_down WV1.PANEL1:1
wv_ctrl_wheel_down WV1.PANEL1:1
wv_ctrl_wheel_down WV1.PANEL1:1
wv_ctrl_wheel_down WV1.PANEL1:1
wv_ctrl_wheel_down WV1.PANEL1:1
wv_ctrl_wheel_down WV1.PANEL1:1
wv_ctrl_wheel_down WV1.PANEL1:1
wv_ctrl_wheel_down WV1.PANEL1:1
wv_ctrl_wheel_down WV1.PANEL1:1
wv_ctrl_wheel_down WV1.PANEL1:1
wv_ctrl_wheel_down WV1.PANEL1:1
wv_ctrl_wheel_down WV1.PANEL1:1
wv_ctrl_wheel_down WV1.PANEL1:1
wv_ctrl_wheel_down WV1.PANEL1:1
wv_ctrl_wheel_down WV1.PANEL1:1
wv_ctrl_wheel_down WV1.PANEL1:1
wv_ctrl_wheel_down WV1.PANEL1:1
wv_ctrl_wheel_down WV1.PANEL1:1
wv_ctrl_wheel_down WV1.PANEL1:1
wv_select_list_item {Custom WaveView} {} {sigview} {a<0>} 1
wv_dclick_list_item {Custom WaveView} {} {sigview} {a<0>} 1
wv_ctrl_wheel_down WV1.PANEL2:1
wv_ctrl_wheel_down WV1.PANEL2:1
wv_ctrl_wheel_down WV1.PANEL2:1
wv_ctrl_wheel_down WV1.PANEL2:1
wv_ctrl_wheel_down WV1.PANEL2:1
wv_ctrl_wheel_down WV1.PANEL2:1
wv_ctrl_wheel_down WV1.PANEL2:1
wv_select_waveview 1 {waveview 1}
wv_select_panel WV1.PANEL2:1 7.60053e-09 0.599443
wv_select_waveview 1 {waveview 1}
wv_select_panel WV1.PANEL2:1 7.65985e-09 0.599443
wv_select_window {Custom WaveView} 
wv_close_window {Custom WaveView} 
wv_select_dialog {Confirmation} 
#wv_press_button {Confirmation} {} {Ok} 
#*WARNING* Can not remove '/home/pochaoyu/.cx_hostport/.cx_hostport_caen-vnc-vm01.engin.umich.edu_4612'.
