s1(16Nov2018:04:47:47):  ncxlmode +delay_mode_path +typdelays -v /afs/umich.edu/class/eecs427/ibm13/resource/ibm13_verilog.include -l simout.tmp /afs/umich.edu/class/eecs427/f18/group2/CAD8/sdfa_run1/testfixture.template -f /afs/umich.edu/class/eecs427/f18/group2/CAD8/sdfa_run1/verilog.inpfiles +nostdout +nocopyright +compile +ncvlogargs+ -neverwarn -nostdout -nocopyright  
s2(16Nov2018:04:48:51):  ncxlmode +delay_mode_path +typdelays -v /afs/umich.edu/class/eecs427/ibm13/resource/ibm13_verilog.include -l simout.tmp /afs/umich.edu/class/eecs427/f18/group2/CAD8/sdfa_run1/testfixture.template -f /afs/umich.edu/class/eecs427/f18/group2/CAD8/sdfa_run1/verilog.inpfiles +nostdout +nocopyright +compile +ncvlogargs+ -neverwarn -nostdout -nocopyright  
s3(16Nov2018:04:48:51):  ncxlmode +delay_mode_path +typdelays -v /afs/umich.edu/class/eecs427/ibm13/resource/ibm13_verilog.include -l simout.tmp /afs/umich.edu/class/eecs427/f18/group2/CAD8/sdfa_run1/testfixture.template -f /afs/umich.edu/class/eecs427/f18/group2/CAD8/sdfa_run1/verilog.inpfiles +nostdout +nocopyright +elaborate +ncvlogargs+ -neverwarn -nostdout -nocopyright  +ncelabargs+ -neg_tchk  -nonotifier  -sdf_NOCheck_celltype  -access +r  -pulse_e 100  -pulse_r 100  -neverwarn  -timescale 1ns/1ps -nostdout -nocopyright 
s4(16Nov2018:04:48:52):  ncxlmode +delay_mode_path +typdelays -v /afs/umich.edu/class/eecs427/ibm13/resource/ibm13_verilog.include -l simout.tmp /afs/umich.edu/class/eecs427/f18/group2/CAD8/sdfa_run1/testfixture.template -f /afs/umich.edu/class/eecs427/f18/group2/CAD8/sdfa_run1/verilog.inpfiles +nostdout +nocopyright +ncvlogargs+ -neverwarn -nostdout -nocopyright  +ncelabargs+ -neg_tchk  -nonotifier  -sdf_NOCheck_celltype  -access +r  -pulse_e 100  -pulse_r 100  -neverwarn  -timescale 1ns/1ps -nostdout -nocopyright +ncsimargs+ -neverwarn  -nocopyright -gui -input /afs/umich.edu/class/eecs427/f18/group2/CAD8/sdfa_run1/.simTmpNCCmd  +mpssession+virtuoso2880 +mpshost+eecs2331p08.engin.umich.edu 
