\o Program:		@(#)$CDS: libManager version 6.1.7 - CAT35 06/05/2018 21:25 (sjfhw306) $
\o Sub version:		sub-version  s211 
\o Arguments:		-mpssession virtuoso14412 -mpshost ggbl2517p30.engin.umich.edu 
\o Working Directory:	ggbl2517p30.engin.umich.edu:/afs/umich.edu/class/eecs427/f18/group2/CAD8
\o 64-bit offsets
\o Qt version: 		4.8.5
\o Log file is "/afs/umich.edu/class/eecs427/f18/group2/CAD8/libManager.log.2".
\o Opening libManager window.
\a nrSetCurrentWindow(cdsLibManager)
\o changeWorkingDir("/afs/umich.edu/class/eecs427/f18/group2/CAD8") unnecessary.
\o ddSetForcedLib("") unnecessary.
\o MPS service: map window
\o Library Manager customization server connected.
\a nrResizeWindow(cdsLibManager list(242 239 1920 981))
\a cdsLibManager->libListBox->value = "LEF_EXAMPLE"
\a cdsLibManager->libLineEdit->value = "LEF_EXAMPLE"
\a cdsLibManager->libListBox->value = "CAD8_LIB"
\a cdsLibManager->libLineEdit->value = "CAD8_LIB"
\a cdsLibManager->cellListBox->value = "mult"
\a cdsLibManager->cellLineEdit->value = "mult"
\a cdsLibManager->cellLineEdit->value = ""
\a cdsLibManager->cellListBox->value = nil
\a cdsLibManager->cellListBox->value = "mult"
\a cdsLibManager->cellLineEdit->value = "mult"
\o MPS request: edit design
\a nrListItemAction(cdsLibManager->cellListBox 3 0)
\a cdsLibManager->libListBox->value = nil
\a cdsLibManager->libLineEdit->value = ""
\a cdsLibManager->cellLineEdit->value = ""
\a cdsLibManager->cellListBox->value = nil
\a cdsLibManager->libListBox->value = "CAD8_LIB"
\a cdsLibManager->libLineEdit->value = "CAD8_LIB"
\a cdsLibManager->cellListBox->value = "mult"
\a cdsLibManager->cellLineEdit->value = "mult"
\a nrSetCurrentWindow(cdsLibManager)
\a cdsLibManager->libListBox->value = nil
\a cdsLibManager->libLineEdit->value = ""
\a cdsLibManager->cellListBox->value = nil
\a cdsLibManager->cellLineEdit->value = ""
\a cdsLibManager->libListBox->value = "CAD8_LIB"
\a cdsLibManager->libLineEdit->value = "CAD8_LIB"
\a cdsLibManager->cellListBox->value = "mult"
\a cdsLibManager->cellLineEdit->value = "mult"
\a nrSetCurrentWindow(cdsLibManager)
\a nrSetCurrentWindow(cdsLibManager)
\a nrSetCurrentWindow(cdsLibManager)
\a nrSetCurrentWindow(cdsLibManager)
\a nrSetCurrentWindow(cdsLibManager)
\a nrSetCurrentWindow(cdsLibManager)
\a nrSetCurrentWindow(cdsLibManager)
\a nrSetCurrentWindow(cdsLibManager)
\a nrSetCurrentWindow(cdsLibManager)
\a nrSetCurrentWindow(cdsLibManager)
\a nrSetCurrentWindow(cdsLibManager)
\a nrSetCurrentWindow(cdsLibManager)
\a nrSetCurrentWindow(cdsLibManager)
\a nrSetCurrentWindow(cdsLibManager)
\a nrSetCurrentWindow(cdsLibManager)
\a nrSetCurrentWindow(cdsLibManager)
\a _lmgrCloseIconify("cdsLibManager" 1)
\a nrSetCurrentWindow(cdsLibManager)
\a nrSetCurrentWindow(cdsLibManager)
\a nrSetCurrentWindow(cdsLibManager)
\a nrSetCurrentWindow(cdsLibManager)
\a nrSetCurrentWindow(cdsLibManager)
\a nrSetCurrentWindow(cdsLibManager)
\a nrSetCurrentWindow(cdsLibManager)
\a cdsLibManager->libListBox->value = nil
\a cdsLibManager->libLineEdit->value = ""
\a cdsLibManager->cellListBox->value = nil
\a cdsLibManager->cellLineEdit->value = ""
\a cdsLibManager->libListBox->value = "CAD8_LIB"
\a cdsLibManager->libLineEdit->value = "CAD8_LIB"
\a cdsLibManager->cellListBox->value = "mult"
\a cdsLibManager->cellLineEdit->value = "mult"
\o DB was auto refreshed.
\a cdsLibManager->libListBox->value = nil
\a cdsLibManager->libLineEdit->value = ""
\a cdsLibManager->cellListBox->value = nil
\a cdsLibManager->cellLineEdit->value = ""
\a cdsLibManager->libListBox->value = "CAD8_LIB"
\a cdsLibManager->libLineEdit->value = "CAD8_LIB"
\a cdsLibManager->cellListBox->value = "mult"
\a cdsLibManager->cellLineEdit->value = "mult"
\o DB was auto refreshed.
\a nrSetCurrentWindow(cdsLibManager)
\a cdsLibManager->libListBox->value = "CAD8_LIB_fix"
\a cdsLibManager->libLineEdit->value = "CAD8_LIB_fix"
\a cdsLibManager->cellLineEdit->value = ""
\a cdsLibManager->cellListBox->value = nil
\a cdsLibManager->libListBox->value = "CAD5_LIB"
\a cdsLibManager->libLineEdit->value = "CAD5_LIB"
\a cdsLibManager->cellListBox->value = "SHIFTER"
\a cdsLibManager->cellLineEdit->value = "SHIFTER"
\a cdsLibManager->viewListBox->value = "layout"
\a cdsLibManager->viewLineEdit->value = "layout"
\a cdsLibManager->viewListBox->value = nil
\a cdsLibManager->viewLineEdit->value = ""
\a cdsLibManager->viewListBox->value = "layout"
\a cdsLibManager->viewLineEdit->value = "layout"
\o MPS request: edit design
\a nrListItemAction(cdsLibManager->gdmXTView 1 0)
\a nrSetCurrentWindow(cdsLibManager)
\a nrSetCurrentWindow(cdsLibManager)
\a cdsLibManager->cellListBox->value = "Albert_test"
\a cdsLibManager->cellLineEdit->value = "Albert_test"
\a cdsLibManager->viewLineEdit->value = ""
\a cdsLibManager->viewListBox->value = nil
\a cdsLibManager->cellListBox->value = "3rd_bit"
\a cdsLibManager->cellLineEdit->value = "3rd_bit"
\a cdsLibManager->viewListBox->value = "layout"
\a cdsLibManager->viewLineEdit->value = "layout"
\a cdsLibManager->cellListBox->value = "1st_bit"
\a cdsLibManager->cellLineEdit->value = "1st_bit"
\a cdsLibManager->viewLineEdit->value = ""
\a cdsLibManager->viewListBox->value = nil
\a cdsLibManager->viewListBox->value = "layout"
\a cdsLibManager->viewLineEdit->value = "layout"
\a cdsLibManager->viewListBox->value = nil
\a cdsLibManager->viewLineEdit->value = ""
\a cdsLibManager->viewListBox->value = "layout"
\a cdsLibManager->viewLineEdit->value = "layout"
\o MPS request: edit design
\a nrListItemAction(cdsLibManager->gdmXTView 0 0)
\a nrSetCurrentWindow(cdsLibManager)
\a cdsLibManager->cellListBox->value = "4th_bit"
\a cdsLibManager->cellLineEdit->value = "4th_bit"
\a cdsLibManager->viewLineEdit->value = ""
\a cdsLibManager->viewListBox->value = nil
\a cdsLibManager->viewListBox->value = "layout"
\a cdsLibManager->viewLineEdit->value = "layout"
\a cdsLibManager->cellListBox->value = "Albert_test"
\a cdsLibManager->cellLineEdit->value = "Albert_test"
\a cdsLibManager->viewLineEdit->value = ""
\a cdsLibManager->viewListBox->value = nil
\a cdsLibManager->cellListBox->value = "Data_Buffer"
\a cdsLibManager->cellLineEdit->value = "Data_Buffer"
\a cdsLibManager->viewListBox->value = "layout"
\a cdsLibManager->viewLineEdit->value = "layout"
\a cdsLibManager->cellListBox->value = "LVS_first"
\a cdsLibManager->cellLineEdit->value = "LVS_first"
\a cdsLibManager->viewLineEdit->value = ""
\a cdsLibManager->viewListBox->value = nil
\a cdsLibManager->viewListBox->value = "layout"
\a cdsLibManager->viewLineEdit->value = "layout"
\a cdsLibManager->cellListBox->value = "LVS_test_wodriver"
\a cdsLibManager->cellLineEdit->value = "LVS_test_wodriver"
\a cdsLibManager->viewLineEdit->value = ""
\a cdsLibManager->viewListBox->value = nil
\a cdsLibManager->viewListBox->value = "layout"
\a cdsLibManager->viewLineEdit->value = "layout"
\a cdsLibManager->cellListBox->value = "Data_Buffer"
\a cdsLibManager->cellLineEdit->value = "Data_Buffer"
\a cdsLibManager->viewLineEdit->value = ""
\a cdsLibManager->viewListBox->value = nil
\a cdsLibManager->viewListBox->value = "layout"
\a cdsLibManager->viewLineEdit->value = "layout"
\a cdsLibManager->viewListBox->value = "schematic"
\a cdsLibManager->viewLineEdit->value = "schematic"
\a cdsLibManager->viewListBox->value = "layout"
\a cdsLibManager->viewLineEdit->value = "layout"
\a cdsLibManager->viewListBox->value = nil
\a cdsLibManager->viewLineEdit->value = ""
\a cdsLibManager->viewListBox->value = "layout"
\a cdsLibManager->viewLineEdit->value = "layout"
\o MPS request: edit design
\a nrListItemAction(cdsLibManager->gdmXTView 0 0)
\a nrSetCurrentWindow(cdsLibManager)
\a nrSetCurrentWindow(cdsLibManager)
\a cdsLibManager->libListBox->value = "CAD8_LIB"
\a cdsLibManager->libLineEdit->value = "CAD8_LIB"
\a cdsLibManager->cellLineEdit->value = ""
\a cdsLibManager->cellListBox->value = nil
\a cdsLibManager->viewLineEdit->value = ""
\a cdsLibManager->viewListBox->value = nil
\a cdsLibManager->cellListBox->value = "total"
\a cdsLibManager->cellLineEdit->value = "total"
\a cdsLibManager->viewListBox->value = "schematic"
\a cdsLibManager->viewLineEdit->value = "schematic"
\a cdsLibManager->viewListBox->value = nil
\a cdsLibManager->viewLineEdit->value = ""
\a cdsLibManager->viewListBox->value = "schematic"
\a cdsLibManager->viewLineEdit->value = "schematic"
\o MPS request: edit design
\a nrListItemAction(cdsLibManager->gdmXTView 0 0)
\a nrSetCurrentWindow(cdsLibManager)
\a cdsLibManager->libListBox->value = "CAD8_LIB_fix"
\a cdsLibManager->libLineEdit->value = "CAD8_LIB_fix"
\a cdsLibManager->cellLineEdit->value = ""
\a cdsLibManager->cellListBox->value = nil
\a cdsLibManager->viewLineEdit->value = ""
\a cdsLibManager->viewListBox->value = nil
\a cdsLibManager->cellListBox->value = "encoder"
\a cdsLibManager->cellLineEdit->value = "encoder"
\a cdsLibManager->cellListBox->value = "controller"
\a cdsLibManager->cellLineEdit->value = "controller"
\a lmgrLogShowPopup("mainListPopup1" 64 12 2 "controller")
\a cdsLibManager->editDeleteButton->value = t
\a deleteForm->deleteBothRadioButton->value = t
\a deleteForm->deleteFilterEdit->value = "*"
\a deleteForm->notDeleteFilterEdit->value = "*"
\a nrSetWindowVisibility(deleteForm "show")
\a nrSetCurrentWindow(deleteForm)
\a nrResizeWindow(deleteForm list(879 514 627 425))
\a deleteForm->OK->value = t
\o QUESTION (CLM-199): The following 1 items are marked for deletion.  Are you sure?
\a nrSetWindowVisibility(mcMBXDLG "show")
\a nrSetCurrentWindow(mcMBXDLG)
\a nrResizeWindow(mcMBXDLG list(1025 586 334 296))
\a mcMBXDLG->pushButton1->value = t
\o Deleting cell "controller" from library "CAD8_LIB_fix".
\a nrSetWindowVisibility(workingDialogForm "show")
\a nrSetCurrentWindow(cdsLibManager)
\o delete: cell "CAD8_LIB_fix/controller" not found.
\o Failed to delete cell "controller" at "/afs/umich.edu/class/eecs427/f18/group2/CAD8/CAD8_LIB_fix/controller".
\o Deletion of cell done. 1 of 1 failed.
\a nrSetCurrentWindow(workingDialogForm)
\a nrResizeWindow(workingDialogForm list(1078 567 268 132))
\a cdsLibManager->libListBox->value = nil
\a cdsLibManager->libLineEdit->value = ""
\a cdsLibManager->cellListBox->value = nil
\a cdsLibManager->cellLineEdit->value = ""
\a cdsLibManager->libListBox->value = "CAD8_LIB_fix"
\a cdsLibManager->libLineEdit->value = "CAD8_LIB_fix"
\a cdsLibManager->cellListBox->value = "controller"
\a cdsLibManager->cellLineEdit->value = "controller"
\a nrSetCurrentWindow(cdsLibManager)
\a cdsLibManager->cellListBox->value = "encoder"
\a cdsLibManager->cellLineEdit->value = "encoder"
\a cdsLibManager->cellListBox->value = "controller"
\a cdsLibManager->cellLineEdit->value = "controller"
\a cdsLibManager->libListBox->value = "CAD8_LIB"
\a cdsLibManager->libLineEdit->value = "CAD8_LIB"
\a cdsLibManager->cellLineEdit->value = ""
\a cdsLibManager->cellListBox->value = nil
\a cdsLibManager->cellListBox->value = "controller"
\a cdsLibManager->cellLineEdit->value = "controller"
\a cdsLibManager->viewListBox->value = "schematic"
\a cdsLibManager->viewLineEdit->value = "schematic"
\a cdsLibManager->viewLineEdit->value = ""
\a cdsLibManager->viewListBox->value = nil
\a cdsLibManager->viewListBox->value = "schematic"
\a cdsLibManager->viewLineEdit->value = "schematic"
\a cdsLibManager->viewLineEdit->value = ""
\a cdsLibManager->viewListBox->value = nil
\a cdsLibManager->libListBox->value = "CAD8_LIB_fix"
\a cdsLibManager->libLineEdit->value = "CAD8_LIB_fix"
\a cdsLibManager->cellLineEdit->value = ""
\a cdsLibManager->cellListBox->value = nil
\a cdsLibManager->cellListBox->value = "controller"
\a cdsLibManager->cellLineEdit->value = "controller"
\a cdsLibManager->libListBox->value = "CAD8_LIB"
\a cdsLibManager->libLineEdit->value = "CAD8_LIB"
\a cdsLibManager->cellLineEdit->value = ""
\a cdsLibManager->cellListBox->value = nil
\a cdsLibManager->cellListBox->value = "controller"
\a cdsLibManager->cellLineEdit->value = "controller"
\a cdsLibManager->viewListBox->value = "schematic"
\a cdsLibManager->viewLineEdit->value = "schematic"
\a cdsLibManager->viewLineEdit->value = ""
\a cdsLibManager->viewListBox->value = nil
\a cdsLibManager->viewListBox->value = "schematic"
\a cdsLibManager->viewLineEdit->value = "schematic"
\a cdsLibManager->viewLineEdit->value = ""
\a cdsLibManager->viewListBox->value = nil
\a cdsLibManager->libListBox->value = "CAD8_LIB_fix"
\a cdsLibManager->libLineEdit->value = "CAD8_LIB_fix"
\a cdsLibManager->cellLineEdit->value = ""
\a cdsLibManager->cellListBox->value = nil
\a cdsLibManager->cellListBox->value = "controller"
\a cdsLibManager->cellLineEdit->value = "controller"
\a cdsLibManager->cellListBox->value = "encoder"
\a cdsLibManager->cellLineEdit->value = "encoder"
\a cdsLibManager->cellListBox->value = "controller"
\a cdsLibManager->cellLineEdit->value = "controller"
\a nrSetCurrentWindow(cdsLibManager)
\a nrSetCurrentWindow(cdsLibManager)
\a cdsLibManager->libListBox->value = "CAD8_LIB"
\a cdsLibManager->libLineEdit->value = "CAD8_LIB"
\a cdsLibManager->cellLineEdit->value = ""
\a cdsLibManager->cellListBox->value = nil
\a cdsLibManager->cellListBox->value = "controller"
\a cdsLibManager->cellLineEdit->value = "controller"
\a cdsLibManager->viewListBox->value = "schematic"
\a cdsLibManager->viewLineEdit->value = "schematic"
\a cdsLibManager->viewLineEdit->value = ""
\a cdsLibManager->viewListBox->value = nil
\a cdsLibManager->viewListBox->value = "schematic"
\a cdsLibManager->viewLineEdit->value = "schematic"
\a cdsLibManager->viewLineEdit->value = ""
\a cdsLibManager->viewListBox->value = nil
\a cdsLibManager->libListBox->value = "CAD8_LIB_fix"
\a cdsLibManager->libLineEdit->value = "CAD8_LIB_fix"
\a cdsLibManager->cellLineEdit->value = ""
\a cdsLibManager->cellListBox->value = nil
\a cdsLibManager->cellListBox->value = "controller"
\a cdsLibManager->cellLineEdit->value = "controller"
\a lmgrLogShowPopup("mainListPopup1" 45 9 2 "controller")
\a cdsLibManager->editDeleteButton->value = t
\a nrSetWindowVisibility(deleteForm "show")
\a nrSetCurrentWindow(deleteForm)
\a nrResizeWindow(deleteForm list(869 506 627 425))
\a deleteForm->OK->value = t
\o QUESTION (CLM-199): The following 1 items are marked for deletion.  Are you sure?
\a nrSetWindowVisibility(mcMBXDLG "show")
\a nrSetCurrentWindow(mcMBXDLG)
\a nrResizeWindow(mcMBXDLG list(1015 578 334 296))
\a mcMBXDLG->pushButton1->value = t
\o Deleting cell "controller" from library "CAD8_LIB_fix".
\a nrSetWindowVisibility(workingDialogForm "show")
\o delete: cell "CAD8_LIB_fix/controller" not found.
\o Failed to delete cell "controller" at "/afs/umich.edu/class/eecs427/f18/group2/CAD8/CAD8_LIB_fix/controller".
\o Deletion of cell done. 1 of 1 failed.
\a nrSetCurrentWindow(cdsLibManager)
\a nrSetCurrentWindow(workingDialogForm)
\a nrSetCurrentWindow(cdsLibManager)
\a nrResizeWindow(workingDialogForm list(1078 567 268 132))
\a cdsLibManager->libListBox->value = nil
\a cdsLibManager->libLineEdit->value = ""
\a cdsLibManager->cellLineEdit->value = ""
\a cdsLibManager->cellListBox->value = nil
\a cdsLibManager->libListBox->value = "CAD8_LIB_fix"
\a cdsLibManager->libLineEdit->value = "CAD8_LIB_fix"
\a cdsLibManager->cellListBox->value = "controller"
\a cdsLibManager->cellLineEdit->value = "controller"
\a nrSetCurrentWindow(cdsLibManager)
\a nrSetCurrentWindow(cdsLibManager)
\a nrSetCurrentWindow(cdsLibManager)
\a cdsLibManager->libListBox->value = "CAD8_LIB"
\a cdsLibManager->libLineEdit->value = "CAD8_LIB"
\a cdsLibManager->cellLineEdit->value = ""
\a cdsLibManager->cellListBox->value = nil
\a cdsLibManager->cellListBox->value = "controller"
\a cdsLibManager->cellLineEdit->value = "controller"
\a cdsLibManager->viewListBox->value = "schematic"
\a cdsLibManager->viewLineEdit->value = "schematic"
\a cdsLibManager->viewLineEdit->value = ""
\a cdsLibManager->viewListBox->value = nil
\a cdsLibManager->viewListBox->value = "schematic"
\a cdsLibManager->viewLineEdit->value = "schematic"
\a cdsLibManager->viewLineEdit->value = ""
\a cdsLibManager->viewListBox->value = nil
\a cdsLibManager->libListBox->value = "CAD8_LIB_fix"
\a cdsLibManager->libLineEdit->value = "CAD8_LIB_fix"
\a cdsLibManager->cellLineEdit->value = ""
\a cdsLibManager->cellListBox->value = nil
\a cdsLibManager->cellListBox->value = "total_fix"
\a cdsLibManager->cellLineEdit->value = "total_fix"
\a cdsLibManager->viewListBox->value = "schematic"
\a cdsLibManager->viewLineEdit->value = "schematic"
\a cdsLibManager->libListBox->value = "LEF_EXAMPLE"
\a cdsLibManager->libLineEdit->value = "LEF_EXAMPLE"
\a cdsLibManager->cellLineEdit->value = ""
\a cdsLibManager->cellListBox->value = nil
\a cdsLibManager->viewLineEdit->value = ""
\a cdsLibManager->viewListBox->value = nil
\a cdsLibManager->libListBox->value = "CAD8_LIB_fix"
\a cdsLibManager->libLineEdit->value = "CAD8_LIB_fix"
\a cdsLibManager->cellListBox->value = "controller"
\a cdsLibManager->cellLineEdit->value = "controller"
\a nrSetCurrentWindow(cdsLibManager)
\a nrSetCurrentWindow(cdsLibManager)
\a _lmgrCloseIconify("cdsLibManager" 1)
\o libManager is exiting.
\o libManager is exiting.
