\o Program:		@(#)$CDS: libManager version 6.1.7 - CAT35 06/05/2018 21:25 (sjfhw306) $
\o Sub version:		sub-version  s211 
\o Arguments:		-mpssession virtuoso9550 -mpshost dc3nep66.dc.umich.edu 
\o Working Directory:	dc3nep66.dc.umich.edu:/afs/umich.edu/class/eecs427/f18/group2/CAD8
\o 64-bit offsets
\o Qt version: 		4.8.5
\o Log file is "/afs/umich.edu/class/eecs427/f18/group2/CAD8/libManager.log.3".
\o Opening libManager window.
\a nrSetCurrentWindow(cdsLibManager)
\a nrResizeWindow(cdsLibManager list(127 203 1920 981))
\o changeWorkingDir("/afs/umich.edu/class/eecs427/f18/group2/CAD8") unnecessary.
\o ddSetForcedLib("") unnecessary.
\o MPS service: map window
\o Library Manager customization server connected.
\a nrSetCurrentWindow(cdsLibManager)
\w Warning: The directory: '/afs/umich.edu/class/eecs427/f18/group2/CAD8/CAD8_we_help' does not exist
\w 	but was defined in libFile '/afs/umich.edu/class/eecs427/f18/group2/CAD8/cds.lib' for Lib 'CAD8_we_help'.
\a nrSetCurrentWindow(cdsLibManager)
\a nrSetCurrentWindow(cdsLibManager)
\a nrSetCurrentWindow(cdsLibManager)
\a nrSetCurrentWindow(cdsLibManager)
\a nrSetCurrentWindow(cdsLibManager)
\a _lmgrCloseIconify("cdsLibManager" 1)
