************************************************************************
* auCdl Netlist:
* 
* Library Name:  CAD7_LIB
* Top Cell Name: MUX_Rdest_1bit
* View Name:     schematic
* Netlisted on:  Nov  8 16:39:06 2018
************************************************************************

*.EQUATION
*.SCALE METER
*.MEGA
.PARAM

*.GLOBAL VSS!
+        VDD!

*.PIN VSS!
*+    VDD!

************************************************************************
* Library Name: CAD7_LIB
* Cell Name:    MUX_Rdest_1bit
* View Name:    schematic
************************************************************************

.SUBCKT MUX_Rdest_1bit ALU_A Rdest SEL SEL_BAR
*.PININFO Rdest:I SEL:I SEL_BAR:I ALU_A:O
MT5 net010 net012 VSS! VSS! nfet m=1 l=120.0n w=420.0n nf=1 par=1 ngcon=1 
+ mSwitch=0 idg=0 psp=0
MT7 ALU_A net010 VSS! VSS! nfet m=1 l=120.0n w=840.0n nf=1 par=1 ngcon=1 
+ mSwitch=0 idg=0 psp=0
MT3 net012 SEL VSS! VSS! nfet m=1 l=120.0n w=280.0n nf=1 par=1 ngcon=1 
+ mSwitch=0 idg=0 psp=0
MT0 net012 SEL_BAR Rdest VSS! nfet m=1 l=120.0n w=280.0n nf=1 par=1 ngcon=1 
+ mSwitch=0 idg=0 psp=0
MT19 net010 net012 VDD! VDD! pfet m=1 l=120.0n w=720.0n nf=1 par=1 ngcon=1 
+ mSwitch=0 idg=0 psp=0
MT6 ALU_A net010 VDD! VDD! pfet m=1 l=120.0n w=1.86u nf=1 par=1 ngcon=1 
+ mSwitch=0 idg=0 psp=0
MT4 net012 SEL_BAR VSS! VDD! pfet m=1 l=120.0n w=280.0n nf=1 par=1 ngcon=1 
+ mSwitch=0 idg=0 psp=0
MT1 net012 SEL Rdest VDD! pfet m=1 l=120.0n w=280.0n nf=1 par=1 ngcon=1 
+ mSwitch=0 idg=0 psp=0
.ENDS

