s1(16Nov2018:00:22:50):  ncxlmode +delay_mode_path +typdelays -v /afs/umich.edu/class/eecs427/ibm13/resource/ibm13_verilog.include -l simout.tmp /afs/umich.edu/class/eecs427/f18/group2/CAD8/RF_slave_1_run1/testfixture.template -f /afs/umich.edu/class/eecs427/f18/group2/CAD8/RF_slave_1_run1/verilog.inpfiles +nostdout +nocopyright +compile +ncvlogargs+ -neverwarn -nostdout -nocopyright  
s2(16Nov2018:00:22:51):  ncxlmode +delay_mode_path +typdelays -v /afs/umich.edu/class/eecs427/ibm13/resource/ibm13_verilog.include -l simout.tmp /afs/umich.edu/class/eecs427/f18/group2/CAD8/RF_slave_1_run1/testfixture.template -f /afs/umich.edu/class/eecs427/f18/group2/CAD8/RF_slave_1_run1/verilog.inpfiles +nostdout +nocopyright +elaborate +ncvlogargs+ -neverwarn -nostdout -nocopyright  +ncelabargs+ -neg_tchk  -nonotifier  -sdf_NOCheck_celltype  -access +r  -pulse_e 100  -pulse_r 100  -neverwarn  -timescale 1ns/1ps -nostdout -nocopyright 
s3(16Nov2018:00:22:51):  ncxlmode +delay_mode_path +typdelays -v /afs/umich.edu/class/eecs427/ibm13/resource/ibm13_verilog.include -l simout.tmp /afs/umich.edu/class/eecs427/f18/group2/CAD8/RF_slave_1_run1/testfixture.template -f /afs/umich.edu/class/eecs427/f18/group2/CAD8/RF_slave_1_run1/verilog.inpfiles +nostdout +nocopyright +ncvlogargs+ -neverwarn -nostdout -nocopyright  +ncelabargs+ -neg_tchk  -nonotifier  -sdf_NOCheck_celltype  -access +r  -pulse_e 100  -pulse_r 100  -neverwarn  -timescale 1ns/1ps -nostdout -nocopyright +ncsimargs+ -neverwarn  -nocopyright -gui -input /afs/umich.edu/class/eecs427/f18/group2/CAD8/RF_slave_1_run1/.simTmpNCCmd  +mpssession+virtuoso3472 +mpshost+eecs2331p06.engin.umich.edu 
s4(16Nov2018:00:24:29):  ncxlmode +delay_mode_path +typdelays -v /afs/umich.edu/class/eecs427/ibm13/resource/ibm13_verilog.include -l simout.tmp /afs/umich.edu/class/eecs427/f18/group2/CAD8/RF_slave_1_run1/testfixture.template -f /afs/umich.edu/class/eecs427/f18/group2/CAD8/RF_slave_1_run1/verilog.inpfiles +nostdout +nocopyright +ncvlogargs+ -neverwarn -nostdout -nocopyright  +ncelabargs+ -neg_tchk  -nonotifier  -sdf_NOCheck_celltype  -access +r  -pulse_e 100  -pulse_r 100  -neverwarn  -timescale 1ns/1ps -nostdout -nocopyright +ncsimargs+ -neverwarn  -nocopyright -gui -input /afs/umich.edu/class/eecs427/f18/group2/CAD8/RF_slave_1_run1/.simTmpNCCmd  +mpssession+virtuoso3472 +mpshost+eecs2331p06.engin.umich.edu -s  
