************************************************************************
* auCdl Netlist:
* 
* Library Name:  CAD10_LIB
* Top Cell Name: BITCELL
* View Name:     schematic
* Netlisted on:  Dec 12 19:50:08 2018
************************************************************************

*.EQUATION
*.SCALE METER
*.MEGA
.PARAM

*.GLOBAL VSS!
+        VDD!

*.PIN VSS!
*+    VDD!

************************************************************************
* Library Name: CAD10_LIB
* Cell Name:    BITCELL
* View Name:    schematic
************************************************************************

.SUBCKT BITCELL RBL REN RENB RWLB_N RWLB_P RWL_N RWL_P WBL WBLB WWL
*.PININFO REN:I RENB:I RWLB_N:I RWLB_P:I RWL_N:I RWL_P:I WBL:I WBLB:I WWL:I 
*.PININFO RBL:O
MT4 net8 RENB RBL VDD! pfet m=1 l=120.0n w=870.0n nf=1 par=1 ngcon=1 mSwitch=0 
+ idg=0 psp=0
MT3 net8 net2 RWL_P VDD! pfet m=1 l=120.0n w=870.0n nf=1 par=1 ngcon=1 
+ mSwitch=0 idg=0 psp=0
MT2 net8 net15 RWLB_P VDD! pfet m=1 l=120.0n w=870.0n nf=1 par=1 ngcon=1 
+ mSwitch=0 idg=0 psp=0
MT1 net2 net15 VDD! VDD! pfet m=1 l=120.0n w=540.0n nf=1 par=1 ngcon=1 
+ mSwitch=0 idg=0 psp=0
MT0 net15 net2 VDD! VDD! pfet m=1 l=120.0n w=540.0n nf=1 par=1 ngcon=1 
+ mSwitch=0 idg=0 psp=0
MT11 net2 WWL WBL VSS! nfet m=1 l=120.0n w=280.0n nf=1 par=1 ngcon=1 mSwitch=0 
+ idg=0 psp=0
MT10 net15 WWL WBLB VSS! nfet m=1 l=120.0n w=280.0n nf=1 par=1 ngcon=1 
+ mSwitch=0 idg=0 psp=0
MT9 RBL REN net9 VSS! nfet m=1 l=120.0n w=280.0n nf=1 par=1 ngcon=1 mSwitch=0 
+ idg=0 psp=0
MT8 net2 net15 VSS! VSS! nfet m=1 l=120.0n w=280.0n nf=1 par=1 ngcon=1 
+ mSwitch=0 idg=0 psp=0
MT7 net9 net15 RWL_N VSS! nfet m=1 l=120.0n w=280.0n nf=1 par=1 ngcon=1 
+ mSwitch=0 idg=0 psp=0
MT6 net9 net2 RWLB_N VSS! nfet m=1 l=120.0n w=280.0n nf=1 par=1 ngcon=1 
+ mSwitch=0 idg=0 psp=0
MT5 net15 net2 VSS! VSS! nfet m=1 l=120.0n w=280.0n nf=1 par=1 ngcon=1 
+ mSwitch=0 idg=0 psp=0
.ENDS

