************************************************************************
* auCdl Netlist:
* 
* Library Name:  CAD9_LIB
* Top Cell Name: select_buffer
* View Name:     schematic
* Netlisted on:  Dec  6 21:03:27 2018
************************************************************************

*.EQUATION
*.SCALE METER
*.MEGA
.PARAM

*.GLOBAL VDD!
+        VSS!

*.PIN VDD!
*+    VSS!

************************************************************************
* Library Name: CAD9_LIB
* Cell Name:    select_buffer
* View Name:    schematic
************************************************************************

.SUBCKT select_buffer SH0 SH0_BAR
*.PININFO SH0:I SH0_BAR:O
MT322 SH0_BAR SH0 VSS! VSS! nfet m=1 l=120.0n w=700n nf=1 par=1 ngcon=1 
+ mSwitch=0 idg=0 psp=0
MT323 SH0_BAR SH0 VDD! VDD! pfet m=1 l=120.0n w=1.28u nf=1 par=1 ngcon=1 
+ mSwitch=0 idg=0 psp=0
.ENDS

