\o Program:		@(#)$CDS: libManager version 6.1.7 - CAT35 06/05/2018 21:25 (sjfhw306) $
\o Sub version:		sub-version  s211 
\o Arguments:		-mpssession virtuoso24811 -mpshost dc3nep98.dc.umich.edu 
\o Working Directory:	dc3nep98.dc.umich.edu:/afs/umich.edu/class/eecs427/f18/group2/CAD7
\o 64-bit offsets
\o Qt version: 		4.8.5
\o Log file is "/afs/umich.edu/class/eecs427/f18/group2/CAD7/libManager.log.1".
\o Opening libManager window.
\a nrSetCurrentWindow(cdsLibManager)
\a nrResizeWindow(cdsLibManager list(-10 20 1366 705))
\o changeWorkingDir("/afs/umich.edu/class/eecs427/f18/group2/CAD7") unnecessary.
\o ddSetForcedLib("") unnecessary.
\o MPS service: map window
\o Library Manager customization server connected.
\a nrResizeWindow(cdsLibManager list(495 107 1366 705))
\a nrResizeWindow(cdsLibManager list(496 107 1366 705))
\a cdsLibManager->libListBox->value = "CAD7_LIB"
\a cdsLibManager->libLineEdit->value = "CAD7_LIB"
\a cdsLibManager->cellListBox->value = "Datapath"
\a cdsLibManager->cellLineEdit->value = "Datapath"
\a cdsLibManager->viewListBox->value = "layout"
\a cdsLibManager->viewLineEdit->value = "layout"
\o MPS request: edit design
\a nrListItemAction(cdsLibManager->gdmXTView 0 0)
\a cdsLibManager->libListBox->value = nil
\a cdsLibManager->libLineEdit->value = ""
\a cdsLibManager->cellListBox->value = nil
\a cdsLibManager->viewLineEdit->value = ""
\a cdsLibManager->viewListBox->value = nil
\a cdsLibManager->cellLineEdit->value = ""
\a cdsLibManager->libListBox->value = "CAD7_LIB"
\a cdsLibManager->libLineEdit->value = "CAD7_LIB"
\a cdsLibManager->cellListBox->value = "Datapath"
\a cdsLibManager->cellLineEdit->value = "Datapath"
\a cdsLibManager->viewListBox->value = "layout"
\a cdsLibManager->viewLineEdit->value = "layout"
\a cdsLibManager->viewLineEdit->value = ""
\a cdsLibManager->viewListBox->value = nil
\a cdsLibManager->viewListBox->value = "layout"
\a cdsLibManager->viewLineEdit->value = "layout"
\a nrSetCurrentWindow(cdsLibManager)
\a _lmgrCloseIconify("cdsLibManager" 1)
\a _lmgrCloseIconify("cdsLibManager" 0)
\a _lmgrCloseIconify("cdsLibManager" 1)
\o MPS service: shutdown
\o libManager is exiting.
\a nrSetWindowVisibility(cdsLibManager "hide")
\a exit(0)
