\o Program:		@(#)$CDS: libManager version 6.1.7 - CAT35 06/05/2018 21:25 (sjfhw306) $
\o Sub version:		sub-version  s211 
\o Arguments:		-mpssession virtuoso17770 -mpshost pierb505p32.engin.umich.edu 
\o Working Directory:	pierb505p32.engin.umich.edu:/afs/umich.edu/class/eecs427/f18/group2/CAD9
\o 64-bit offsets
\o Qt version: 		4.8.5
\o Log file is "/afs/umich.edu/class/eecs427/f18/group2/CAD9/libManager.log.1".
\o Opening libManager window.
\a cdsLibManager->cellComboFilter->value = "PICS"
\a cdsLibManager->cellComboFilter->value = ""
\a nrSetCurrentWindow(cdsLibManager)
\a nrResizeWindow(cdsLibManager list(554 175 1920 996))
\o changeWorkingDir("/afs/umich.edu/class/eecs427/f18/group2/CAD9") unnecessary.
\o ddSetForcedLib("") unnecessary.
\o MPS service: map window
\o Library Manager customization server connected.
\a cdsLibManager->libListBox->value = "EECS427_TOP"
\a cdsLibManager->libLineEdit->value = "EECS427_TOP"
\a cdsLibManager->cellListBox->value = "eecs427_top"
\a cdsLibManager->cellLineEdit->value = "eecs427_top"
\a cdsLibManager->viewListBox->value = "layout"
\a cdsLibManager->viewLineEdit->value = "layout"
\a cdsLibManager->libListBox->value = "CAD9_LIB"
\a cdsLibManager->libLineEdit->value = "CAD9_LIB"
\a cdsLibManager->cellLineEdit->value = ""
\a cdsLibManager->cellListBox->value = nil
\a cdsLibManager->viewLineEdit->value = ""
\a cdsLibManager->viewListBox->value = nil
\a cdsLibManager->cellListBox->value = "Column2"
\a cdsLibManager->cellLineEdit->value = "Column2"
\a nrResizeWindow(cdsLibManager list(554 159 1920 996))
\a nrResizeWindow(cdsLibManager list(-305 1062 1920 996))
\a nrResizeWindow(cdsLibManager list(297 175 1920 996))
\a cdsLibManager->viewListBox->value = "schematic"
\a cdsLibManager->viewLineEdit->value = "schematic"
\o MPS request: edit design
\a nrListItemAction(cdsLibManager->gdmXTView 16 1)
\a cdsLibManager->libListBox->value = nil
\a cdsLibManager->libLineEdit->value = ""
\a cdsLibManager->cellListBox->value = nil
\a cdsLibManager->viewLineEdit->value = ""
\a cdsLibManager->viewListBox->value = nil
\a cdsLibManager->cellLineEdit->value = ""
\a cdsLibManager->libListBox->value = "CAD9_LIB"
\a cdsLibManager->libLineEdit->value = "CAD9_LIB"
\a cdsLibManager->cellListBox->value = "Column2"
\a cdsLibManager->cellLineEdit->value = "Column2"
\a cdsLibManager->viewListBox->value = "schematic"
\a cdsLibManager->viewLineEdit->value = "schematic"
\a cdsLibManager->viewLineEdit->value = ""
\a cdsLibManager->viewListBox->value = nil
\a cdsLibManager->viewListBox->value = "schematic"
\a cdsLibManager->viewLineEdit->value = "schematic"
\a nrSetCurrentWindow(cdsLibManager)
\a nrSetCurrentWindow(cdsLibManager)
\a nrSetCurrentWindow(cdsLibManager)
\o libManager is exiting.
\o libManager is exiting.
