\o Program:		@(#)$CDS: libManager version 6.1.7 - CAT35 06/05/2018 21:25 (sjfhw306) $
\o Sub version:		sub-version  s211 
\o Arguments:		-mpssession virtuoso4284 -mpshost pierb505p33.engin.umich.edu 
\o Working Directory:	pierb505p33.engin.umich.edu:/afs/umich.edu/class/eecs427/f18/group2/CAD9
\o 64-bit offsets
\o Qt version: 		4.8.5
\o Log file is "/afs/umich.edu/class/eecs427/f18/group2/CAD9/libManager.log.4".
\o Opening libManager window.
\a nrSetCurrentWindow(cdsLibManager)
\a nrResizeWindow(cdsLibManager list(-10 20 1280 1341))
\o changeWorkingDir("/afs/umich.edu/class/eecs427/f18/group2/CAD9") unnecessary.
\o ddSetForcedLib("") unnecessary.
\o MPS service: map window
\o Library Manager customization server connected.
\a nrSetCurrentWindow(cdsLibManager)
\a nrResizeWindow(cdsLibManager list(863 377 1280 1341))
\a nrSetCurrentWindow(cdsLibManager)
\o DB was auto refreshed.
\a nrSetCurrentWindow(cdsLibManager)
\a nrSetCurrentWindow(cdsLibManager)
\a _lmgrCloseIconify("cdsLibManager" 1)
