\o Program:		@(#)$CDS: libManager version 6.1.7 - CAT35 06/05/2018 21:25 (sjfhw306) $
\o Sub version:		sub-version  s211 
\o Arguments:		-mpssession virtuoso3118 -mpshost dc3eap07.dc.umich.edu 
\o Working Directory:	dc3eap07.dc.umich.edu:/afs/umich.edu/class/eecs427/f18/group2/CAD9
\o 64-bit offsets
\o Qt version: 		4.8.5
\o Log file is "/afs/umich.edu/class/eecs427/f18/group2/CAD9/libManager.log.5".
\o Opening libManager window.
\a nrSetCurrentWindow(cdsLibManager)
\a nrResizeWindow(cdsLibManager list(532 196 1920 981))
\o changeWorkingDir("/afs/umich.edu/class/eecs427/f18/group2/CAD9") unnecessary.
\o ddSetForcedLib("") unnecessary.
\o MPS service: map window
\o Library Manager customization server connected.
\a nrSetCurrentWindow(cdsLibManager)
\a nrSetCurrentWindow(cdsLibManager)
\a cdsLibManager->libListBox->value = "EECS427_TOP"
\a cdsLibManager->libLineEdit->value = "EECS427_TOP"
\a cdsLibManager->libListBox->value = "CAD9_LIB"
\a cdsLibManager->libLineEdit->value = "CAD9_LIB"
\a cdsLibManager->cellListBox->value = "XNOR_SRAM_16X16_ADC_MUXWBuffer_test"
\a cdsLibManager->cellLineEdit->value = "XNOR_SRAM_16X16_ADC_MUXWBuffer_test"
\a cdsLibManager->viewListBox->value = "hspiceD_state2"
\a cdsLibManager->viewLineEdit->value = "hspiceD_state2"
\o MPS request: edit design
\a nrListItemAction(cdsLibManager->gdmXTView 1 0)
\a cdsLibManager->libListBox->value = nil
\a cdsLibManager->libLineEdit->value = ""
\a cdsLibManager->cellListBox->value = nil
\a cdsLibManager->viewLineEdit->value = ""
\a cdsLibManager->viewListBox->value = nil
\a cdsLibManager->cellLineEdit->value = ""
\a cdsLibManager->libListBox->value = "CAD9_LIB"
\a cdsLibManager->libLineEdit->value = "CAD9_LIB"
\a cdsLibManager->cellListBox->value = "XNOR_SRAM_16X16_ADC_MUXWBuffer_test"
\a cdsLibManager->cellLineEdit->value = "XNOR_SRAM_16X16_ADC_MUXWBuffer_test"
\a cdsLibManager->viewListBox->value = "hspiceD_state2"
\a cdsLibManager->viewLineEdit->value = "hspiceD_state2"
\a cdsLibManager->viewLineEdit->value = ""
\a cdsLibManager->viewListBox->value = nil
\a cdsLibManager->viewListBox->value = "hspiceD_state2"
\a cdsLibManager->viewLineEdit->value = "hspiceD_state2"
\a nrSetCurrentWindow(cdsLibManager)
\a lmgrLogShowPopup("mainListPopup2" 59 22 2 "hspiceD_state2")
\a cdsLibManager->copySimpleButton->value = t
\a basicCopyForm->CategoryCellsEdit->value = "*"
\a basicCopyForm->CellsSkipLibraries->value = t
\a basicCopyForm->CellsSkipLibrariesEdit->value = "*"
\a basicCopyForm->CellsSkipLibrariesEdit->value = "*"
\a basicCopyForm->ViewsSkipLibraries->value = t
\a basicCopyForm->ViewsSkipLibrariesEdit->value = "*"
\a basicCopyForm->CopyFromLibrary->value = "CAD3_LIB"
\a basicCopyForm->CopyToLibrary->value = "CAD3_LIB"
\a basicCopyForm->CopyFromLibrary->value = "CAD9_LIB"
\a basicCopyForm->CopyFromCell->value = "XNOR_SRAM_16X16_ADC_MUXWBuffer_test"
\a basicCopyForm->CopyFromView->value = "hspiceD_state2"
\a basicCopyForm->CopyToLibrary->value = "CAD9_LIB"
\a basicCopyForm->CopyToCell->value = "XNOR_SRAM_16X16_ADC_MUXWBuffer_test"
\a basicCopyForm->CopyToView->value = "hspiceD_state2"
\a basicCopyForm->ViewsViewsToCopy->value = "hspiceD_state2"
\a basicCopyForm->CellsSkipLibrariesEdit->value = ""
\a basicCopyForm->CellsSkipLibrariesEdit->value = "CAD3_LIB CAD4_LIB CAD5_LIB CAD6_LIB CAD6_LIB_fix CAD6_LIB_newest CAD7_LIB CAD8_LIB CAD8_LIB_fix CAD8_LIB_xxx CAD8_WE_HELP CAD8_fix_ray EECS427_TOP LEF_EXAMPLE RA1SH16x512 ROVSD16x1024 US_8ths analogLib basic cdsDefTechLib cmrf8sf eecs427Lib eecs427artisan eecs427pads esd8rf sample sbaLib"
\a basicCopyForm->ViewsSkipLibrariesEdit->value = "CAD3_LIB CAD4_LIB CAD5_LIB CAD6_LIB CAD6_LIB_fix CAD6_LIB_newest CAD7_LIB CAD8_LIB CAD8_LIB_fix CAD8_LIB_xxx CAD8_WE_HELP CAD8_fix_ray EECS427_TOP LEF_EXAMPLE RA1SH16x512 ROVSD16x1024 US_8ths analogLib basic cdsDefTechLib cmrf8sf eecs427Lib eecs427artisan eecs427pads esd8rf sample sbaLib"
\a nrSetWindowVisibility(basicCopyForm "show")
\a nrSetCurrentWindow(basicCopyForm)
\a nrResizeWindow(basicCopyForm list(1270 296 444 679))
\a basicCopyForm->CopyToView->value = "hspiceD_state_Write_XAC"
\a nrDialogAccept(basicCopyForm)
\a basicCopyForm->OK->value = t
\a basicCopyForm->CopyToView->value = "hspiceD_state_Write_XAC"
\o Beginning simple copy to library "CAD9_LIB".
\o Processing files to be copied...
\a nrSetWindowVisibility(workingDialogForm "show")
\a nrSetCurrentWindow(workingDialogForm)
\a nrSetWindowVisibility(workingDialogForm "show")
\a nrSetCurrentWindow(cdsLibManager)
\a nrSetCurrentWindow(workingDialogForm)
\a cdsLibManager->libListBox->value = nil
\a cdsLibManager->libLineEdit->value = ""
\a cdsLibManager->cellListBox->value = nil
\a cdsLibManager->viewLineEdit->value = ""
\a cdsLibManager->viewListBox->value = nil
\a cdsLibManager->cellLineEdit->value = ""
\a cdsLibManager->libListBox->value = "CAD9_LIB"
\a cdsLibManager->libLineEdit->value = "CAD9_LIB"
\a cdsLibManager->cellListBox->value = "XNOR_SRAM_16X16_ADC_MUXWBuffer_test"
\a cdsLibManager->cellLineEdit->value = "XNOR_SRAM_16X16_ADC_MUXWBuffer_test"
\a cdsLibManager->viewListBox->value = "hspiceD_state2"
\a cdsLibManager->viewLineEdit->value = "hspiceD_state2"
\a cdsLibManager->viewLineEdit->value = ""
\a cdsLibManager->viewListBox->value = nil
\a cdsLibManager->viewListBox->value = "hspiceD_state2"
\a cdsLibManager->viewLineEdit->value = "hspiceD_state2"
\a nrSetCurrentWindow(cdsLibManager)
\a basicCopyForm->CellsSkipLibrariesEdit->value = "*"
\a basicCopyForm->CellsSkipLibrariesEdit->value = "CAD3_LIB CAD4_LIB CAD5_LIB CAD6_LIB CAD6_LIB_fix CAD6_LIB_newest CAD7_LIB CAD8_LIB CAD8_LIB_fix CAD8_LIB_xxx CAD8_WE_HELP CAD8_fix_ray EECS427_TOP LEF_EXAMPLE RA1SH16x512 ROVSD16x1024 US_8ths analogLib basic cdsDefTechLib cmrf8sf eecs427Lib eecs427artisan eecs427pads esd8rf sample sbaLib"
\a nrResizeWindow(workingDialogForm list(1356 588 273 132))
\a cdsLibManager->libListBox->value = nil
\a cdsLibManager->libLineEdit->value = ""
\a cdsLibManager->cellListBox->value = nil
\a cdsLibManager->viewLineEdit->value = ""
\a cdsLibManager->viewListBox->value = nil
\a cdsLibManager->cellLineEdit->value = ""
\a cdsLibManager->libListBox->value = "CAD9_LIB"
\a cdsLibManager->libLineEdit->value = "CAD9_LIB"
\a cdsLibManager->cellListBox->value = "XNOR_SRAM_16X16_ADC_MUXWBuffer_test"
\a cdsLibManager->cellLineEdit->value = "XNOR_SRAM_16X16_ADC_MUXWBuffer_test"
\a cdsLibManager->viewListBox->value = "hspiceD_state2"
\a cdsLibManager->viewLineEdit->value = "hspiceD_state2"
\a cdsLibManager->viewLineEdit->value = ""
\a cdsLibManager->viewListBox->value = nil
\a cdsLibManager->viewListBox->value = "hspiceD_state2"
\a cdsLibManager->viewLineEdit->value = "hspiceD_state2"
\a nrSetCurrentWindow(cdsLibManager)
\a nrSetCurrentWindow(cdsLibManager)
\a nrSetCurrentWindow(cdsLibManager)
\a nrSetCurrentWindow(cdsLibManager)
\a cdsLibManager->cellListBox->value = "XNOR_SRAM_16X16_ADC_MUXWBuffer"
\a cdsLibManager->cellLineEdit->value = "XNOR_SRAM_16X16_ADC_MUXWBuffer"
\a cdsLibManager->viewLineEdit->value = ""
\a cdsLibManager->viewListBox->value = nil
\a cdsLibManager->viewListBox->value = "hspiceD_state2"
\a cdsLibManager->viewLineEdit->value = "hspiceD_state2"
\a cdsLibManager->viewListBox->value = "schematic"
\a cdsLibManager->viewLineEdit->value = "schematic"
\o MPS request: edit design
\a nrListItemAction(cdsLibManager->gdmXTView 4 0)
\a nrSetCurrentWindow(cdsLibManager)
\a cdsLibManager->libListBox->value = nil
\a cdsLibManager->libLineEdit->value = ""
\a cdsLibManager->cellListBox->value = nil
\a cdsLibManager->viewLineEdit->value = ""
\a cdsLibManager->viewListBox->value = nil
\a cdsLibManager->cellLineEdit->value = ""
\a cdsLibManager->libListBox->value = "CAD9_LIB"
\a cdsLibManager->libLineEdit->value = "CAD9_LIB"
\a cdsLibManager->cellListBox->value = "XNOR_SRAM_16X16_ADC_MUXWBuffer"
\a cdsLibManager->cellLineEdit->value = "XNOR_SRAM_16X16_ADC_MUXWBuffer"
\a cdsLibManager->viewListBox->value = "schematic"
\a cdsLibManager->viewLineEdit->value = "schematic"
\a cdsLibManager->viewLineEdit->value = ""
\a cdsLibManager->viewListBox->value = nil
\a cdsLibManager->viewListBox->value = "schematic"
\a cdsLibManager->viewLineEdit->value = "schematic"
\o DB was auto refreshed.
\a cdsLibManager->libListBox->value = nil
\a cdsLibManager->libLineEdit->value = ""
\a cdsLibManager->cellListBox->value = nil
\a cdsLibManager->viewLineEdit->value = ""
\a cdsLibManager->viewListBox->value = nil
\a cdsLibManager->cellLineEdit->value = ""
\a cdsLibManager->libListBox->value = "CAD9_LIB"
\a cdsLibManager->libLineEdit->value = "CAD9_LIB"
\a cdsLibManager->cellListBox->value = "XNOR_SRAM_16X16_ADC_MUXWBuffer"
\a cdsLibManager->cellLineEdit->value = "XNOR_SRAM_16X16_ADC_MUXWBuffer"
\a cdsLibManager->viewListBox->value = "schematic"
\a cdsLibManager->viewLineEdit->value = "schematic"
\a cdsLibManager->viewLineEdit->value = ""
\a cdsLibManager->viewListBox->value = nil
\a cdsLibManager->viewListBox->value = "schematic"
\a cdsLibManager->viewLineEdit->value = "schematic"
\a cdsLibManager->libListBox->value = nil
\a cdsLibManager->libLineEdit->value = ""
\a cdsLibManager->cellListBox->value = nil
\a cdsLibManager->viewLineEdit->value = ""
\a cdsLibManager->viewListBox->value = nil
\a cdsLibManager->cellLineEdit->value = ""
\a cdsLibManager->libListBox->value = "CAD9_LIB"
\a cdsLibManager->libLineEdit->value = "CAD9_LIB"
\a cdsLibManager->cellListBox->value = "XNOR_SRAM_16X16_ADC_MUXWBuffer"
\a cdsLibManager->cellLineEdit->value = "XNOR_SRAM_16X16_ADC_MUXWBuffer"
\a cdsLibManager->viewListBox->value = "schematic"
\a cdsLibManager->viewLineEdit->value = "schematic"
\a cdsLibManager->viewLineEdit->value = ""
\a cdsLibManager->viewListBox->value = nil
\a cdsLibManager->viewListBox->value = "schematic"
\a cdsLibManager->viewLineEdit->value = "schematic"
\o DB was auto refreshed.
\a nrSetCurrentWindow(cdsLibManager)
\a cdsLibManager->libListBox->value = nil
\a cdsLibManager->libLineEdit->value = ""
\a cdsLibManager->cellListBox->value = nil
\a cdsLibManager->viewLineEdit->value = ""
\a cdsLibManager->viewListBox->value = nil
\a cdsLibManager->cellLineEdit->value = ""
\a cdsLibManager->libListBox->value = "CAD9_LIB"
\a cdsLibManager->libLineEdit->value = "CAD9_LIB"
\a cdsLibManager->cellListBox->value = "XNOR_SRAM_16X16_ADC_MUXWBuffer"
\a cdsLibManager->cellLineEdit->value = "XNOR_SRAM_16X16_ADC_MUXWBuffer"
\a cdsLibManager->viewListBox->value = "schematic"
\a cdsLibManager->viewLineEdit->value = "schematic"
\a cdsLibManager->viewLineEdit->value = ""
\a cdsLibManager->viewListBox->value = nil
\a cdsLibManager->viewListBox->value = "schematic"
\a cdsLibManager->viewLineEdit->value = "schematic"
\a nrSetCurrentWindow(cdsLibManager)
\a nrSetCurrentWindow(cdsLibManager)
\a cdsLibManager->cellListBox->value = "XNOR_SRAM_16X16_ADC_MUXWBuffer_test"
\a cdsLibManager->cellLineEdit->value = "XNOR_SRAM_16X16_ADC_MUXWBuffer_test"
\a cdsLibManager->viewLineEdit->value = ""
\a cdsLibManager->viewListBox->value = nil
\a cdsLibManager->viewListBox->value = "schematic"
\a cdsLibManager->viewLineEdit->value = "schematic"
\a cdsLibManager->viewListBox->value = nil
\a cdsLibManager->viewLineEdit->value = ""
\a cdsLibManager->viewListBox->value = "schematic"
\a cdsLibManager->viewLineEdit->value = "schematic"
\o MPS request: edit design
\a nrListItemAction(cdsLibManager->gdmXTView 4 0)
\a nrSetCurrentWindow(cdsLibManager)
\a cdsLibManager->libListBox->value = nil
\a cdsLibManager->libLineEdit->value = ""
\a cdsLibManager->cellListBox->value = nil
\a cdsLibManager->viewLineEdit->value = ""
\a cdsLibManager->viewListBox->value = nil
\a cdsLibManager->cellLineEdit->value = ""
\a cdsLibManager->libListBox->value = "CAD9_LIB"
\a cdsLibManager->libLineEdit->value = "CAD9_LIB"
\a cdsLibManager->cellListBox->value = "XNOR_SRAM_16X16_ADC_MUXWBuffer_test"
\a cdsLibManager->cellLineEdit->value = "XNOR_SRAM_16X16_ADC_MUXWBuffer_test"
\a cdsLibManager->viewListBox->value = "schematic"
\a cdsLibManager->viewLineEdit->value = "schematic"
\a cdsLibManager->viewLineEdit->value = ""
\a cdsLibManager->viewListBox->value = nil
\a cdsLibManager->viewListBox->value = "schematic"
\a cdsLibManager->viewLineEdit->value = "schematic"
\o DB was auto refreshed.
\a cdsLibManager->libListBox->value = nil
\a cdsLibManager->libLineEdit->value = ""
\a cdsLibManager->cellListBox->value = nil
\a cdsLibManager->viewLineEdit->value = ""
\a cdsLibManager->viewListBox->value = nil
\a cdsLibManager->cellLineEdit->value = ""
\a cdsLibManager->libListBox->value = "CAD9_LIB"
\a cdsLibManager->libLineEdit->value = "CAD9_LIB"
\a cdsLibManager->cellListBox->value = "XNOR_SRAM_16X16_ADC_MUXWBuffer_test"
\a cdsLibManager->cellLineEdit->value = "XNOR_SRAM_16X16_ADC_MUXWBuffer_test"
\a cdsLibManager->viewListBox->value = "schematic"
\a cdsLibManager->viewLineEdit->value = "schematic"
\a cdsLibManager->viewLineEdit->value = ""
\a cdsLibManager->viewListBox->value = nil
\a cdsLibManager->viewListBox->value = "schematic"
\a cdsLibManager->viewLineEdit->value = "schematic"
\a nrSetCurrentWindow(cdsLibManager)
\a nrSetCurrentWindow(cdsLibManager)
\a nrSetCurrentWindow(cdsLibManager)
\a nrSetCurrentWindow(cdsLibManager)
\a cdsLibManager->viewListBox->value = "symbol"
\a cdsLibManager->viewLineEdit->value = "symbol"
\a lmgrLogShowPopup("mainListPopup2" 99 90 2 "symbol")
\a cdsLibManager->editDeleteButton->value = t
\a deleteForm->deleteBothRadioButton->value = t
\a deleteForm->deleteFilterEdit->value = "*"
\a deleteForm->notDeleteFilterEdit->value = "*"
\a nrSetWindowVisibility(deleteForm "show")
\a nrSetCurrentWindow(deleteForm)
\a nrResizeWindow(deleteForm list(1169 471 627 425))
\a deleteForm->OK->value = t
\o QUESTION (CLM-199): The following 1 items are marked for deletion.  Are you sure?
\a nrSetWindowVisibility(mcMBXDLG "show")
\a nrSetCurrentWindow(mcMBXDLG)
\a nrResizeWindow(mcMBXDLG list(1315 562 334 257))
\a mcMBXDLG->pushButton1->value = t
\o Deleting view "symbol" from cell "XNOR_SRAM_16X16_ADC_MUXWBuffer_test" in library "CAD9_LIB".
\a nrSetWindowVisibility(workingDialogForm "show")
\a nrSetCurrentWindow(cdsLibManager)
\o Deleted cellview 'CAD9_LIB/XNOR_SRAM_16X16_ADC_MUXWBuffer_test/symbol'.
\o Deletion of 1 view done.
\a nrSetCurrentWindow(workingDialogForm)
\a cdsLibManager->viewLineEdit->value = "schematic"
\a cdsLibManager->viewListBox->value = nil
\a cdsLibManager->viewLineEdit->value = ""
\a nrResizeWindow(workingDialogForm list(1358 479 268 132))
\a nrSetCurrentWindow(cdsLibManager)
\a cdsLibManager->libListBox->value = nil
\a cdsLibManager->libLineEdit->value = ""
\a cdsLibManager->cellListBox->value = nil
\a cdsLibManager->cellLineEdit->value = ""
\a cdsLibManager->libListBox->value = "CAD9_LIB"
\a cdsLibManager->libLineEdit->value = "CAD9_LIB"
\a cdsLibManager->cellListBox->value = "XNOR_SRAM_16X16_ADC_MUXWBuffer_test"
\a cdsLibManager->cellLineEdit->value = "XNOR_SRAM_16X16_ADC_MUXWBuffer_test"
\a cdsLibManager->viewListBox->value = "layout"
\a cdsLibManager->viewLineEdit->value = "layout"
\a lmgrLogShowPopup("mainListPopup2" 91 64 2 "layout")
\a cdsLibManager->editDeleteButton->value = t
\a nrSetWindowVisibility(deleteForm "show")
\a nrSetCurrentWindow(deleteForm)
\a nrResizeWindow(deleteForm list(1159 463 627 425))
\a deleteForm->OK->value = t
\o QUESTION (CLM-199): The following 1 items are marked for deletion.  Are you sure?
\a nrSetWindowVisibility(mcMBXDLG "show")
\a nrSetCurrentWindow(mcMBXDLG)
\a nrResizeWindow(mcMBXDLG list(1305 562 334 242))
\a mcMBXDLG->pushButton1->value = t
\o Deleting view "layout" from cell "XNOR_SRAM_16X16_ADC_MUXWBuffer_test" in library "CAD9_LIB".
\a nrSetWindowVisibility(workingDialogForm "show")
\a nrSetCurrentWindow(cdsLibManager)
\o Deleted cellview 'CAD9_LIB/XNOR_SRAM_16X16_ADC_MUXWBuffer_test/layout'.
\o Deletion of 1 view done.
\a nrSetCurrentWindow(workingDialogForm)
\a cdsLibManager->viewLineEdit->value = "schematic"
\a cdsLibManager->viewListBox->value = nil
\a cdsLibManager->viewLineEdit->value = ""
\a nrResizeWindow(workingDialogForm list(1358 479 268 132))
\a nrSetCurrentWindow(cdsLibManager)
\a cdsLibManager->libListBox->value = nil
\a cdsLibManager->libLineEdit->value = ""
\a cdsLibManager->cellListBox->value = nil
\a cdsLibManager->cellLineEdit->value = ""
\a cdsLibManager->libListBox->value = "CAD9_LIB"
\a cdsLibManager->libLineEdit->value = "CAD9_LIB"
\a cdsLibManager->cellListBox->value = "XNOR_SRAM_16X16_ADC_MUXWBuffer_test"
\a cdsLibManager->cellLineEdit->value = "XNOR_SRAM_16X16_ADC_MUXWBuffer_test"
\a cdsLibManager->viewListBox->value = "calibre"
\a cdsLibManager->viewLineEdit->value = "calibre"
\a lmgrLogShowPopup("mainListPopup2" 98 15 2 "calibre")
\a cdsLibManager->editDeleteButton->value = t
\a nrSetWindowVisibility(deleteForm "show")
\a nrSetCurrentWindow(deleteForm)
\a nrResizeWindow(deleteForm list(1149 455 627 425))
\a deleteForm->OK->value = t
\o QUESTION (CLM-199): The following 1 items are marked for deletion.  Are you sure?
\a nrSetWindowVisibility(mcMBXDLG "show")
\a nrSetCurrentWindow(mcMBXDLG)
\a nrResizeWindow(mcMBXDLG list(1295 551 334 248))
\a mcMBXDLG->pushButton1->value = t
\o Deleting view "calibre" from cell "XNOR_SRAM_16X16_ADC_MUXWBuffer_test" in library "CAD9_LIB".
\a nrSetWindowVisibility(workingDialogForm "show")
\a nrSetCurrentWindow(cdsLibManager)
\o Deleted cellview 'CAD9_LIB/XNOR_SRAM_16X16_ADC_MUXWBuffer_test/calibre'.
\o Deletion of 1 view done.
\a nrSetCurrentWindow(workingDialogForm)
\a cdsLibManager->viewLineEdit->value = "hspiceD_state2"
\a cdsLibManager->viewListBox->value = nil
\a cdsLibManager->viewLineEdit->value = ""
\a nrResizeWindow(workingDialogForm list(1358 479 268 132))
\a nrSetCurrentWindow(cdsLibManager)
\a cdsLibManager->libListBox->value = nil
\a cdsLibManager->libLineEdit->value = ""
\a cdsLibManager->cellListBox->value = nil
\a cdsLibManager->cellLineEdit->value = ""
\a cdsLibManager->libListBox->value = "CAD9_LIB"
\a cdsLibManager->libLineEdit->value = "CAD9_LIB"
\a cdsLibManager->cellListBox->value = "XNOR_SRAM_16X16_ADC_MUXWBuffer_test"
\a cdsLibManager->cellLineEdit->value = "XNOR_SRAM_16X16_ADC_MUXWBuffer_test"
\a nrSetCurrentWindow(cdsLibManager)
\a cdsLibManager->viewListBox->value = "hspiceD_state2"
\a cdsLibManager->viewLineEdit->value = "hspiceD_state2"
\o MPS request: edit design
\a nrListItemAction(cdsLibManager->gdmXTView 0 0)
\a nrSetCurrentWindow(cdsLibManager)
\a cdsLibManager->cellListBox->value = "ADC_TEST2"
\a cdsLibManager->cellLineEdit->value = "ADC_TEST2"
\a cdsLibManager->viewLineEdit->value = ""
\a cdsLibManager->viewListBox->value = nil
\a cdsLibManager->viewListBox->value = "hspiceD_state2"
\a cdsLibManager->viewLineEdit->value = "hspiceD_state2"
\a cdsLibManager->viewListBox->value = "schematic"
\a cdsLibManager->viewLineEdit->value = "schematic"
\o MPS request: edit design
\a nrListItemAction(cdsLibManager->gdmXTView 33 0)
\a cdsLibManager->libListBox->value = nil
\a cdsLibManager->libLineEdit->value = ""
\a cdsLibManager->cellListBox->value = nil
\a cdsLibManager->viewLineEdit->value = ""
\a cdsLibManager->viewListBox->value = nil
\a cdsLibManager->cellLineEdit->value = ""
\a cdsLibManager->libListBox->value = "CAD9_LIB"
\a cdsLibManager->libLineEdit->value = "CAD9_LIB"
\a cdsLibManager->cellListBox->value = "ADC_TEST2"
\a cdsLibManager->cellLineEdit->value = "ADC_TEST2"
\a cdsLibManager->viewListBox->value = "schematic"
\a cdsLibManager->viewLineEdit->value = "schematic"
\a cdsLibManager->viewLineEdit->value = ""
\a cdsLibManager->viewListBox->value = nil
\a cdsLibManager->viewListBox->value = "schematic"
\a cdsLibManager->viewLineEdit->value = "schematic"
\o DB was auto refreshed.
\a cdsLibManager->libListBox->value = nil
\a cdsLibManager->libLineEdit->value = ""
\a cdsLibManager->cellListBox->value = nil
\a cdsLibManager->viewLineEdit->value = ""
\a cdsLibManager->viewListBox->value = nil
\a cdsLibManager->cellLineEdit->value = ""
\a cdsLibManager->libListBox->value = "CAD9_LIB"
\a cdsLibManager->libLineEdit->value = "CAD9_LIB"
\a cdsLibManager->cellListBox->value = "ADC_TEST2"
\a cdsLibManager->cellLineEdit->value = "ADC_TEST2"
\a cdsLibManager->viewListBox->value = "schematic"
\a cdsLibManager->viewLineEdit->value = "schematic"
\a cdsLibManager->viewLineEdit->value = ""
\a cdsLibManager->viewListBox->value = nil
\a cdsLibManager->viewListBox->value = "schematic"
\a cdsLibManager->viewLineEdit->value = "schematic"
\a nrSetCurrentWindow(cdsLibManager)
\a cdsLibManager->cellListBox->value = "XNOR6T"
\a cdsLibManager->cellLineEdit->value = "XNOR6T"
\a cdsLibManager->viewLineEdit->value = ""
\a cdsLibManager->viewListBox->value = nil
\a cdsLibManager->viewListBox->value = "schematic"
\a cdsLibManager->viewLineEdit->value = "schematic"
\a cdsLibManager->cellListBox->value = "XNOR_SRAM_16X16_ADC_MUXWBuffer_test"
\a cdsLibManager->cellLineEdit->value = "XNOR_SRAM_16X16_ADC_MUXWBuffer_test"
\a cdsLibManager->viewLineEdit->value = ""
\a cdsLibManager->viewListBox->value = nil
\a cdsLibManager->viewListBox->value = "schematic"
\a cdsLibManager->viewLineEdit->value = "schematic"
\a cdsLibManager->viewListBox->value = "hspiceD_state2"
\a cdsLibManager->viewLineEdit->value = "hspiceD_state2"
\o MPS request: edit design
\a nrListItemAction(cdsLibManager->gdmXTView 0 0)
\a nrSetCurrentWindow(cdsLibManager)
\a cdsLibManager->cellListBox->value = "ADC_TEST2"
\a cdsLibManager->cellLineEdit->value = "ADC_TEST2"
\a cdsLibManager->viewLineEdit->value = ""
\a cdsLibManager->viewListBox->value = nil
\a cdsLibManager->viewListBox->value = "hspiceD_state2"
\a cdsLibManager->viewLineEdit->value = "hspiceD_state2"
\a cdsLibManager->viewLineEdit->value = ""
\a cdsLibManager->viewListBox->value = nil
\a lmgrLogShowPopup("mainListPopup1" 84 262 2 "ADC_TEST2")
\a cdsLibManager->copySimpleButton->value = t
\a basicCopyForm->CellsSkipLibrariesEdit->value = "*"
\a basicCopyForm->ViewsViewsToCopy->value = ""
\a basicCopyForm->ViewsSkipLibrariesEdit->value = "*"
\a basicCopyForm->CopyFromCell->value = ""
\a basicCopyForm->CopyFromView->value = ""
\a basicCopyForm->CopyToCell->value = ""
\a basicCopyForm->CopyToView->value = ""
\a basicCopyForm->CopyFromLibrary->value = ""
\a basicCopyForm->CopyToLibrary->value = ""
\a basicCopyForm->CopyFromLibrary->value = "CAD3_LIB"
\a basicCopyForm->CopyToLibrary->value = "CAD3_LIB"
\a basicCopyForm->CopyFromLibrary->value = "CAD9_LIB"
\a basicCopyForm->CopyFromCell->value = "ADC_TEST2"
\a basicCopyForm->CopyToLibrary->value = "CAD9_LIB"
\a basicCopyForm->CopyToCell->value = "ADC_TEST2"
\a basicCopyForm->CellsViewsToCopy->value = "hspiceD_state0 hspiceD_state1 hspiceD_state2 hspiceD_state3 hspiceD_state4 hspiceD_state5 hspiceD_state6 hspiceD_state7 hspiceD_state8 hspiceD_state9 hspiceD_state10 hspiceD_state11 hspiceD_state12 hspiceD_state13 hspiceD_state14 hspiceD_state15 hspiceD_state16 hspiceD_staten1 hspiceD_staten2 hspiceD_staten3 hspiceD_staten4 hspiceD_staten5 hspiceD_staten6 hspiceD_staten7 hspiceD_staten8 hspiceD_staten9 hspiceD_staten10 hspiceD_staten11 hspiceD_staten12 hspiceD_staten13 hspiceD_staten14 hspiceD_staten15 hspiceD_staten16 schematic"
\a basicCopyForm->CellsSkipLibrariesEdit->value = ""
\a basicCopyForm->CellsSkipLibrariesEdit->value = "CAD3_LIB CAD4_LIB CAD5_LIB CAD6_LIB CAD6_LIB_fix CAD6_LIB_newest CAD7_LIB CAD8_LIB CAD8_LIB_fix CAD8_LIB_xxx CAD8_WE_HELP CAD8_fix_ray EECS427_TOP LEF_EXAMPLE RA1SH16x512 ROVSD16x1024 US_8ths analogLib basic cdsDefTechLib cmrf8sf eecs427Lib eecs427artisan eecs427pads esd8rf mem_tech sample sbaLib"
\a basicCopyForm->ViewsSkipLibrariesEdit->value = "CAD3_LIB CAD4_LIB CAD5_LIB CAD6_LIB CAD6_LIB_fix CAD6_LIB_newest CAD7_LIB CAD8_LIB CAD8_LIB_fix CAD8_LIB_xxx CAD8_WE_HELP CAD8_fix_ray EECS427_TOP LEF_EXAMPLE RA1SH16x512 ROVSD16x1024 US_8ths analogLib basic cdsDefTechLib cmrf8sf eecs427Lib eecs427artisan eecs427pads esd8rf mem_tech sample sbaLib"
\a nrSetWindowVisibility(basicCopyForm "show")
\a nrSetCurrentWindow(basicCopyForm)
\a nrResizeWindow(basicCopyForm list(1260 288 444 679))
\a basicCopyForm->CopyToCell->value = "ADC_TEST3"
\a nrDialogAccept(basicCopyForm)
\a basicCopyForm->OK->value = t
\a basicCopyForm->CopyToCell->value = "ADC_TEST3"
\o Beginning simple copy to library "CAD9_LIB".
\o Processing files to be copied...
\a nrSetWindowVisibility(workingDialogForm "show")
\a nrSetCurrentWindow(workingDialogForm)
\a nrSetWindowVisibility(workingDialogForm "show")
\a nrSetCurrentWindow(basicCopyForm)
\a nrSetCurrentWindow(cdsLibManager)
\a nrSetCurrentWindow(workingDialogForm)
\a nrResizeWindow(workingDialogForm list(1356 625 273 132))
\o Batching session updates...
\a cdsLibManager->libListBox->value = nil
\a cdsLibManager->libLineEdit->value = ""
\a cdsLibManager->cellListBox->value = nil
\a cdsLibManager->cellLineEdit->value = ""
\a cdsLibManager->libListBox->value = "CAD9_LIB"
\a cdsLibManager->libLineEdit->value = "CAD9_LIB"
\a cdsLibManager->cellListBox->value = "ADC_TEST2"
\a cdsLibManager->cellLineEdit->value = "ADC_TEST2"
\a cdsLibManager->viewListBox->value = "hspiceD_state2"
\a cdsLibManager->viewLineEdit->value = "hspiceD_state2"
\a cdsLibManager->viewLineEdit->value = ""
\a cdsLibManager->viewListBox->value = nil
\a cdsLibManager->viewListBox->value = "hspiceD_state2"
\a cdsLibManager->viewLineEdit->value = "hspiceD_state2"
\a cdsLibManager->viewLineEdit->value = ""
\a cdsLibManager->viewListBox->value = nil
\a basicCopyForm->CellsSkipLibrariesEdit->value = "*"
\a basicCopyForm->CellsSkipLibrariesEdit->value = "CAD3_LIB CAD4_LIB CAD5_LIB CAD6_LIB CAD6_LIB_fix CAD6_LIB_newest CAD7_LIB CAD8_LIB CAD8_LIB_fix CAD8_LIB_xxx CAD8_WE_HELP CAD8_fix_ray EECS427_TOP LEF_EXAMPLE RA1SH16x512 ROVSD16x1024 US_8ths analogLib basic cdsDefTechLib cmrf8sf eecs427Lib eecs427artisan eecs427pads esd8rf mem_tech sample sbaLib"
\a nrSetCurrentWindow(cdsLibManager)
\a cdsLibManager->cellListBox->value = "ADC_TEST3"
\a cdsLibManager->cellLineEdit->value = "ADC_TEST3"
\a cdsLibManager->viewListBox->value = "hspiceD_state2"
\a cdsLibManager->viewLineEdit->value = "hspiceD_state2"
\a cdsLibManager->viewListBox->value = "hspiceD_staten16"
\a cdsLibManager->viewLineEdit->value = "hspiceD_staten16"
\a cdsLibManager->viewListBox->value = "hspiceD_state0"
\a cdsLibManager->viewLineEdit->value = "hspiceD_state0"
\a lmgrLogShowPopup("mainListPopup2" 94 7 2 "hspiceD_state0")
\a cdsLibManager->viewListBox->value = "schematic"
\a cdsLibManager->viewLineEdit->value = "schematic"
\a cdsLibManager->viewListBox->value = nil
\a cdsLibManager->viewLineEdit->value = ""
\a cdsLibManager->viewListBox->value = "schematic"
\a cdsLibManager->viewLineEdit->value = "schematic"
\o MPS request: edit design
\a nrListItemAction(cdsLibManager->gdmXTView 33 0)
\a cdsLibManager->libListBox->value = nil
\a cdsLibManager->libLineEdit->value = ""
\a cdsLibManager->cellListBox->value = nil
\a cdsLibManager->viewLineEdit->value = ""
\a cdsLibManager->viewListBox->value = nil
\a cdsLibManager->cellLineEdit->value = ""
\a cdsLibManager->libListBox->value = "CAD9_LIB"
\a cdsLibManager->libLineEdit->value = "CAD9_LIB"
\a cdsLibManager->cellListBox->value = "ADC_TEST3"
\a cdsLibManager->cellLineEdit->value = "ADC_TEST3"
\a cdsLibManager->viewListBox->value = "schematic"
\a cdsLibManager->viewLineEdit->value = "schematic"
\a cdsLibManager->viewLineEdit->value = ""
\a cdsLibManager->viewListBox->value = nil
\a cdsLibManager->viewListBox->value = "schematic"
\a cdsLibManager->viewLineEdit->value = "schematic"
\o DB was auto refreshed.
\a cdsLibManager->libListBox->value = nil
\a cdsLibManager->libLineEdit->value = ""
\a cdsLibManager->cellListBox->value = nil
\a cdsLibManager->viewLineEdit->value = ""
\a cdsLibManager->viewListBox->value = nil
\a cdsLibManager->cellLineEdit->value = ""
\a cdsLibManager->libListBox->value = "CAD9_LIB"
\a cdsLibManager->libLineEdit->value = "CAD9_LIB"
\a cdsLibManager->cellListBox->value = "ADC_TEST3"
\a cdsLibManager->cellLineEdit->value = "ADC_TEST3"
\a cdsLibManager->viewListBox->value = "schematic"
\a cdsLibManager->viewLineEdit->value = "schematic"
\a cdsLibManager->viewLineEdit->value = ""
\a cdsLibManager->viewListBox->value = nil
\a cdsLibManager->viewListBox->value = "schematic"
\a cdsLibManager->viewLineEdit->value = "schematic"
\o DB was auto refreshed.
\a nrSetCurrentWindow(cdsLibManager)
\a cdsLibManager->viewListBox->value = "hspiceD_staten16"
\a cdsLibManager->viewLineEdit->value = "hspiceD_staten16"
\a cdsLibManager->viewListBox->value = "hspiceD_state1"
\a cdsLibManager->viewLineEdit->value = "hspiceD_state1"
\a lmgrLogShowPopup("mainListPopup2" 101 28 2 "hspiceD_state1")
\a cdsLibManager->viewListBox->value = "hspiceD_state0"
\a cdsLibManager->viewLineEdit->value = "hspiceD_state0"
\a cdsLibManager->viewListBox->value = "hspiceD_state1"
\a cdsLibManager->viewLineEdit->value = "hspiceD_state1"
\a cdsLibManager->viewListBox->value = "hspiceD_staten16"
\a cdsLibManager->viewLineEdit->value = "hspiceD_staten16"
\a cdsLibManager->viewListBox->value = "hspiceD_state1"
\a cdsLibManager->viewLineEdit->value = "hspiceD_state1"
\a cdsLibManager->viewListBox->value = "hspiceD_state13"
\a cdsLibManager->viewLineEdit->value = "hspiceD_state13"
\a cdsLibManager->viewListBox->value = "hspiceD_state1"
\a cdsLibManager->viewLineEdit->value = "hspiceD_state1"
\a cdsLibManager->viewListBox->value = "hspiceD_state2"
\a cdsLibManager->viewLineEdit->value = "hspiceD_state2"
\a cdsLibManager->viewListBox->value = nil
\a cdsLibManager->viewLineEdit->value = ""
\a cdsLibManager->viewListBox->value = "hspiceD_state2"
\a cdsLibManager->viewLineEdit->value = "hspiceD_state2"
\a cdsLibManager->viewListBox->value = "hspiceD_state3"
\a cdsLibManager->viewLineEdit->value = "hspiceD_state3"
\a cdsLibManager->viewListBox->value = nil
\a cdsLibManager->viewLineEdit->value = ""
\a cdsLibManager->viewListBox->value = "hspiceD_state3"
\a cdsLibManager->viewLineEdit->value = "hspiceD_state3"
\a cdsLibManager->viewListBox->value = "hspiceD_state4"
\a cdsLibManager->viewLineEdit->value = "hspiceD_state4"
\a cdsLibManager->viewListBox->value = nil
\a cdsLibManager->viewLineEdit->value = ""
\a cdsLibManager->viewListBox->value = "hspiceD_state4"
\a cdsLibManager->viewLineEdit->value = "hspiceD_state4"
\a cdsLibManager->viewListBox->value = "hspiceD_state5"
\a cdsLibManager->viewLineEdit->value = "hspiceD_state5"
\a cdsLibManager->viewListBox->value = nil
\a cdsLibManager->viewLineEdit->value = ""
\a cdsLibManager->viewListBox->value = "hspiceD_state5"
\a cdsLibManager->viewLineEdit->value = "hspiceD_state5"
\a cdsLibManager->viewListBox->value = "hspiceD_state6"
\a cdsLibManager->viewLineEdit->value = "hspiceD_state6"
\a cdsLibManager->viewListBox->value = nil
\a cdsLibManager->viewLineEdit->value = ""
\a cdsLibManager->viewListBox->value = "hspiceD_state6"
\a cdsLibManager->viewLineEdit->value = "hspiceD_state6"
\a cdsLibManager->viewListBox->value = "hspiceD_state7"
\a cdsLibManager->viewLineEdit->value = "hspiceD_state7"
\a cdsLibManager->viewListBox->value = nil
\a cdsLibManager->viewLineEdit->value = ""
\a cdsLibManager->viewListBox->value = "hspiceD_state7"
\a cdsLibManager->viewLineEdit->value = "hspiceD_state7"
\a cdsLibManager->viewListBox->value = "hspiceD_state8"
\a cdsLibManager->viewLineEdit->value = "hspiceD_state8"
\a cdsLibManager->viewListBox->value = nil
\a cdsLibManager->viewLineEdit->value = ""
\a cdsLibManager->viewListBox->value = "hspiceD_state8"
\a cdsLibManager->viewLineEdit->value = "hspiceD_state8"
\a cdsLibManager->viewListBox->value = "hspiceD_state9"
\a cdsLibManager->viewLineEdit->value = "hspiceD_state9"
\a cdsLibManager->viewListBox->value = nil
\a cdsLibManager->viewLineEdit->value = ""
\a cdsLibManager->viewListBox->value = "hspiceD_state9"
\a cdsLibManager->viewLineEdit->value = "hspiceD_state9"
\a cdsLibManager->viewListBox->value = "hspiceD_state10"
\a cdsLibManager->viewLineEdit->value = "hspiceD_state10"
\a cdsLibManager->viewListBox->value = nil
\a cdsLibManager->viewLineEdit->value = ""
\a cdsLibManager->viewListBox->value = "hspiceD_state10"
\a cdsLibManager->viewLineEdit->value = "hspiceD_state10"
\a cdsLibManager->viewListBox->value = "hspiceD_state11"
\a cdsLibManager->viewLineEdit->value = "hspiceD_state11"
\a cdsLibManager->viewListBox->value = nil
\a cdsLibManager->viewLineEdit->value = ""
\a cdsLibManager->viewListBox->value = "hspiceD_state11"
\a cdsLibManager->viewLineEdit->value = "hspiceD_state11"
\a cdsLibManager->viewListBox->value = "hspiceD_state10"
\a cdsLibManager->viewLineEdit->value = "hspiceD_state10"
\a cdsLibManager->viewListBox->value = nil
\a cdsLibManager->viewLineEdit->value = ""
\a cdsLibManager->viewListBox->value = "hspiceD_state10"
\a cdsLibManager->viewLineEdit->value = "hspiceD_state10"
\a cdsLibManager->viewListBox->value = "hspiceD_state9"
\a cdsLibManager->viewLineEdit->value = "hspiceD_state9"
\a cdsLibManager->viewListBox->value = nil
\a cdsLibManager->viewLineEdit->value = ""
\a cdsLibManager->viewListBox->value = "hspiceD_state9"
\a cdsLibManager->viewLineEdit->value = "hspiceD_state9"
\a cdsLibManager->viewListBox->value = "hspiceD_state8"
\a cdsLibManager->viewLineEdit->value = "hspiceD_state8"
\a cdsLibManager->viewListBox->value = nil
\a cdsLibManager->viewLineEdit->value = ""
\a cdsLibManager->viewListBox->value = "hspiceD_state8"
\a cdsLibManager->viewLineEdit->value = "hspiceD_state8"
\a cdsLibManager->viewListBox->value = "hspiceD_state7"
\a cdsLibManager->viewLineEdit->value = "hspiceD_state7"
\a cdsLibManager->viewListBox->value = nil
\a cdsLibManager->viewLineEdit->value = ""
\a cdsLibManager->viewListBox->value = "hspiceD_state7"
\a cdsLibManager->viewLineEdit->value = "hspiceD_state7"
\a cdsLibManager->viewListBox->value = "hspiceD_state6"
\a cdsLibManager->viewLineEdit->value = "hspiceD_state6"
\a cdsLibManager->viewListBox->value = nil
\a cdsLibManager->viewLineEdit->value = ""
\a cdsLibManager->viewListBox->value = "hspiceD_state6"
\a cdsLibManager->viewLineEdit->value = "hspiceD_state6"
\a cdsLibManager->viewListBox->value = "hspiceD_state5"
\a cdsLibManager->viewLineEdit->value = "hspiceD_state5"
\a cdsLibManager->viewListBox->value = nil
\a cdsLibManager->viewLineEdit->value = ""
\a cdsLibManager->viewListBox->value = "hspiceD_state5"
\a cdsLibManager->viewLineEdit->value = "hspiceD_state5"
\a cdsLibManager->viewListBox->value = "hspiceD_state4"
\a cdsLibManager->viewLineEdit->value = "hspiceD_state4"
\a cdsLibManager->viewListBox->value = nil
\a cdsLibManager->viewLineEdit->value = ""
\a cdsLibManager->viewListBox->value = "hspiceD_state4"
\a cdsLibManager->viewLineEdit->value = "hspiceD_state4"
\a cdsLibManager->viewListBox->value = "hspiceD_state3"
\a cdsLibManager->viewLineEdit->value = "hspiceD_state3"
\a cdsLibManager->viewListBox->value = nil
\a cdsLibManager->viewLineEdit->value = ""
\a cdsLibManager->viewListBox->value = "hspiceD_state3"
\a cdsLibManager->viewLineEdit->value = "hspiceD_state3"
\a cdsLibManager->viewListBox->value = "hspiceD_state2"
\a cdsLibManager->viewLineEdit->value = "hspiceD_state2"
\a cdsLibManager->viewListBox->value = nil
\a cdsLibManager->viewLineEdit->value = ""
\a cdsLibManager->viewListBox->value = "hspiceD_state2"
\a cdsLibManager->viewLineEdit->value = "hspiceD_state2"
\a cdsLibManager->viewListBox->value = "hspiceD_state1"
\a cdsLibManager->viewLineEdit->value = "hspiceD_state1"
\a cdsLibManager->viewListBox->value = nil
\a cdsLibManager->viewLineEdit->value = ""
\a cdsLibManager->viewListBox->value = "hspiceD_state1"
\a cdsLibManager->viewLineEdit->value = "hspiceD_state1"
\a cdsLibManager->viewListBox->value = nil
\a cdsLibManager->viewLineEdit->value = ""
\a cdsLibManager->viewListBox->value = "hspiceD_state1"
\a cdsLibManager->viewLineEdit->value = "hspiceD_state1"
\a lmgrLogShowPopup("mainListPopup2" 108 30 2 "hspiceD_state1")
\a cdsLibManager->editDeleteButton->value = t
\a nrSetWindowVisibility(deleteForm "show")
\a nrSetCurrentWindow(deleteForm)
\a nrResizeWindow(deleteForm list(1139 447 627 425))
\a deleteForm->qt_vbar->value = "60"
\a deleteForm->qt_vbar->value = "120"
\a deleteForm->qt_vbar->value = "180"
\a deleteForm->qt_vbar->value = "240"
\a deleteForm->qt_vbar->value = "300"
\a deleteForm->qt_vbar->value = "360"
\a deleteForm->qt_vbar->value = "389"
\a deleteForm->qt_vbar->value = "389"
\a deleteForm->qt_vbar->value = "389"
\a deleteForm->qt_vbar->value = "389"
\a deleteForm->qt_vbar->value = "389"
\a deleteForm->qt_vbar->value = "389"
\a deleteForm->qt_vbar->value = "329"
\a deleteForm->qt_vbar->value = "269"
\a deleteForm->qt_vbar->value = "209"
\a deleteForm->qt_vbar->value = "149"
\a deleteForm->qt_vbar->value = "89"
\a deleteForm->qt_vbar->value = "29"
\a deleteForm->qt_vbar->value = "0"
\a deleteForm->qt_vbar->value = "0"
\a deleteForm->qt_vbar->value = "0"
\a deleteForm->qt_vbar->value = "0"
\a deleteForm->qt_vbar->value = "60"
\a deleteForm->qt_vbar->value = "120"
\a deleteForm->qt_vbar->value = "180"
\a deleteForm->qt_vbar->value = "240"
\a deleteForm->qt_vbar->value = "300"
\a deleteForm->qt_vbar->value = "360"
\a deleteForm->qt_vbar->value = "389"
\a deleteForm->qt_vbar->value = "389"
\a deleteForm->qt_vbar->value = "389"
\a deleteForm->qt_vbar->value = "389"
\a deleteForm->qt_vbar->value = "389"
\a deleteForm->qt_vbar->value = "389"
\a deleteForm->qt_vbar->value = "389"
\a deleteForm->qt_vbar->value = "389"
\a deleteForm->qt_vbar->value = "389"
\a deleteForm->qt_vbar->value = "389"
\a deleteForm->qt_vbar->value = "389"
\a deleteForm->moveToDeleteButton->value = t
\a deleteForm->qt_vbar->value = "0"
\a deleteForm->qt_vbar->value = "371"
\a deleteForm->qt_vbar->value = "0"
\a deleteForm->qt_vbar->value = "0"
\a deleteForm->qt_vbar->value = "0"
\a deleteForm->qt_vbar->value = "0"
\a deleteForm->qt_vbar->value = "0"
\a deleteForm->OK->value = t
\o QUESTION (CLM-199): The following 32 items are marked for deletion.  Are you sure?
\a nrSetWindowVisibility(mcMBXDLG "show")
\a nrSetCurrentWindow(mcMBXDLG)
\a nrResizeWindow(mcMBXDLG list(1282 502 340 330))
\a mcMBXDLG->pushButton1->value = t
\o Deleting 32 views from cell "ADC_TEST3" in library "CAD9_LIB".
\a nrSetWindowVisibility(workingDialogForm "show")
\o Deleting view "hspiceD_state1".
\a nrSetCurrentWindow(cdsLibManager)
\a nrSetCurrentWindow(workingDialogForm)
\o Deleted cellview 'CAD9_LIB/ADC_TEST3/hspiceD_state1'.
\o Deleting view "hspiceD_state2".
\a cdsLibManager->viewLineEdit->value = "hspiceD_state2"
\a cdsLibManager->viewListBox->value = nil
\a cdsLibManager->viewLineEdit->value = ""
\o Deleted cellview 'CAD9_LIB/ADC_TEST3/hspiceD_state2'.
\o Deleting view "hspiceD_state3".
\o Deleted cellview 'CAD9_LIB/ADC_TEST3/hspiceD_state3'.
\o Deleting view "hspiceD_state4".
\a nrResizeWindow(workingDialogForm list(1358 479 268 132))
\o Deleted cellview 'CAD9_LIB/ADC_TEST3/hspiceD_state4'.
\o Deleting view "hspiceD_state5".
\o Deleted cellview 'CAD9_LIB/ADC_TEST3/hspiceD_state5'.
\o Deleting view "hspiceD_state6".
\o Deleted cellview 'CAD9_LIB/ADC_TEST3/hspiceD_state6'.
\o Deleting view "hspiceD_state7".
\o Deleted cellview 'CAD9_LIB/ADC_TEST3/hspiceD_state7'.
\o Deleting view "hspiceD_state8".
\o Deleted cellview 'CAD9_LIB/ADC_TEST3/hspiceD_state8'.
\o Deleting view "hspiceD_state9".
\o Deleted cellview 'CAD9_LIB/ADC_TEST3/hspiceD_state9'.
\o Deleting view "hspiceD_state10".
\o Deleted cellview 'CAD9_LIB/ADC_TEST3/hspiceD_state10'.
\o Deleting view "hspiceD_state11".
\o Deleted cellview 'CAD9_LIB/ADC_TEST3/hspiceD_state11'.
\o Deleting view "hspiceD_state12".
\o Deleted cellview 'CAD9_LIB/ADC_TEST3/hspiceD_state12'.
\o Deleting view "hspiceD_state13".
\o Deleted cellview 'CAD9_LIB/ADC_TEST3/hspiceD_state13'.
\o Deleting view "hspiceD_state14".
\o Deleted cellview 'CAD9_LIB/ADC_TEST3/hspiceD_state14'.
\o Deleting view "hspiceD_state15".
\o Deleted cellview 'CAD9_LIB/ADC_TEST3/hspiceD_state15'.
\o Deleting view "hspiceD_state16".
\o Deleted cellview 'CAD9_LIB/ADC_TEST3/hspiceD_state16'.
\o Deleting view "hspiceD_staten1".
\o Deleted cellview 'CAD9_LIB/ADC_TEST3/hspiceD_staten1'.
\o Deleting view "hspiceD_staten2".
\o Deleted cellview 'CAD9_LIB/ADC_TEST3/hspiceD_staten2'.
\o Deleting view "hspiceD_staten3".
\o Deleted cellview 'CAD9_LIB/ADC_TEST3/hspiceD_staten3'.
\o Deleting view "hspiceD_staten4".
\o Deleted cellview 'CAD9_LIB/ADC_TEST3/hspiceD_staten4'.
\o Deleting view "hspiceD_staten5".
\o Deleted cellview 'CAD9_LIB/ADC_TEST3/hspiceD_staten5'.
\o Deleting view "hspiceD_staten6".
\o Deleted cellview 'CAD9_LIB/ADC_TEST3/hspiceD_staten6'.
\o Deleting view "hspiceD_staten7".
\o Deleted cellview 'CAD9_LIB/ADC_TEST3/hspiceD_staten7'.
\o Deleting view "hspiceD_staten8".
\o Deleted cellview 'CAD9_LIB/ADC_TEST3/hspiceD_staten8'.
\o Deleting view "hspiceD_staten9".
\o Deleted cellview 'CAD9_LIB/ADC_TEST3/hspiceD_staten9'.
\o Deleting view "hspiceD_staten10".
\o Deleted cellview 'CAD9_LIB/ADC_TEST3/hspiceD_staten10'.
\o Deleting view "hspiceD_staten11".
\o Deleted cellview 'CAD9_LIB/ADC_TEST3/hspiceD_staten11'.
\o Deleting view "hspiceD_staten12".
\o Deleted cellview 'CAD9_LIB/ADC_TEST3/hspiceD_staten12'.
\o Deleting view "hspiceD_staten13".
\o Deleted cellview 'CAD9_LIB/ADC_TEST3/hspiceD_staten13'.
\o Deleting view "hspiceD_staten14".
\o Deleted cellview 'CAD9_LIB/ADC_TEST3/hspiceD_staten14'.
\o Deleting view "hspiceD_staten15".
\o Deleted cellview 'CAD9_LIB/ADC_TEST3/hspiceD_staten15'.
\o Deleting view "hspiceD_staten16".
\o Deleted cellview 'CAD9_LIB/ADC_TEST3/hspiceD_staten16'.
\o Deletion of 32 views done.
\a nrSetCurrentWindow(cdsLibManager)
\a cdsLibManager->libListBox->value = nil
\a cdsLibManager->libLineEdit->value = ""
\a cdsLibManager->cellListBox->value = nil
\a cdsLibManager->cellLineEdit->value = ""
\a cdsLibManager->libListBox->value = "CAD9_LIB"
\a cdsLibManager->libLineEdit->value = "CAD9_LIB"
\a cdsLibManager->cellListBox->value = "ADC_TEST3"
\a cdsLibManager->cellLineEdit->value = "ADC_TEST3"
\a cdsLibManager->viewListBox->value = "hspiceD_state0"
\a cdsLibManager->viewLineEdit->value = "hspiceD_state0"
\o MPS request: edit design
\a nrListItemAction(cdsLibManager->gdmXTView 0 0)
\a nrSetCurrentWindow(cdsLibManager)
\a nrSetCurrentWindow(cdsLibManager)
\a cdsLibManager->viewListBox->value = nil
\a cdsLibManager->viewLineEdit->value = ""
\a cdsLibManager->viewListBox->value = "hspiceD_state0"
\a cdsLibManager->viewLineEdit->value = "hspiceD_state0"
\o MPS request: edit design
\a nrListItemAction(cdsLibManager->gdmXTView 0 0)
\a nrSetCurrentWindow(cdsLibManager)
\a nrSetCurrentWindow(cdsLibManager)
\a cdsLibManager->cellListBox->value = "XNOR_SRAM_16X16_ADC_MUXWBuffer_test"
\a cdsLibManager->cellLineEdit->value = "XNOR_SRAM_16X16_ADC_MUXWBuffer_test"
\a cdsLibManager->viewLineEdit->value = ""
\a cdsLibManager->viewListBox->value = nil
\a cdsLibManager->viewListBox->value = "hspiceD_state2"
\a cdsLibManager->viewLineEdit->value = "hspiceD_state2"
\o MPS request: edit design
\a nrListItemAction(cdsLibManager->gdmXTView 0 0)
\a nrSetCurrentWindow(cdsLibManager)
\a cdsLibManager->libListBox->value = nil
\a cdsLibManager->libLineEdit->value = ""
\a cdsLibManager->cellListBox->value = nil
\a cdsLibManager->viewLineEdit->value = ""
\a cdsLibManager->viewListBox->value = nil
\a cdsLibManager->cellLineEdit->value = ""
\a cdsLibManager->libListBox->value = "CAD9_LIB"
\a cdsLibManager->libLineEdit->value = "CAD9_LIB"
\a cdsLibManager->cellListBox->value = "XNOR_SRAM_16X16_ADC_MUXWBuffer_test"
\a cdsLibManager->cellLineEdit->value = "XNOR_SRAM_16X16_ADC_MUXWBuffer_test"
\a cdsLibManager->viewListBox->value = "hspiceD_state2"
\a cdsLibManager->viewLineEdit->value = "hspiceD_state2"
\a cdsLibManager->viewLineEdit->value = ""
\a cdsLibManager->viewListBox->value = nil
\a cdsLibManager->viewListBox->value = "hspiceD_state2"
\a cdsLibManager->viewLineEdit->value = "hspiceD_state2"
\a nrSetCurrentWindow(cdsLibManager)
\a cdsLibManager->cellListBox->value = "ADC_TEST3"
\a cdsLibManager->cellLineEdit->value = "ADC_TEST3"
\a cdsLibManager->viewLineEdit->value = ""
\a cdsLibManager->viewListBox->value = nil
\a lmgrLogShowPopup("mainListPopup1" 52 281 2 "ADC_TEST3")
\a nrSetCurrentWindow(cdsLibManager)
\a nrSetCurrentWindow(cdsLibManager)
\a nrSetCurrentWindow(cdsLibManager)
\a cdsLibManager->libListBox->value = nil
\a cdsLibManager->libLineEdit->value = ""
\a cdsLibManager->cellListBox->value = nil
\a cdsLibManager->cellLineEdit->value = ""
\a cdsLibManager->libListBox->value = "CAD9_LIB"
\a cdsLibManager->libLineEdit->value = "CAD9_LIB"
\a cdsLibManager->cellListBox->value = "ADC_TEST3"
\a cdsLibManager->cellLineEdit->value = "ADC_TEST3"
\a cdsLibManager->libListBox->value = nil
\a cdsLibManager->libLineEdit->value = ""
\a cdsLibManager->cellListBox->value = nil
\a cdsLibManager->cellLineEdit->value = ""
\a cdsLibManager->libListBox->value = "CAD9_LIB"
\a cdsLibManager->libLineEdit->value = "CAD9_LIB"
\a cdsLibManager->cellListBox->value = "ADC_TEST3"
\a cdsLibManager->cellLineEdit->value = "ADC_TEST3"
\a nrSetCurrentWindow(cdsLibManager)
\a cdsLibManager->viewListBox->value = "schematic"
\a cdsLibManager->viewLineEdit->value = "schematic"
\a cdsLibManager->viewListBox->value = nil
\a cdsLibManager->viewLineEdit->value = ""
\a cdsLibManager->viewListBox->value = "schematic"
\a cdsLibManager->viewLineEdit->value = "schematic"
\o MPS request: edit design
\a nrListItemAction(cdsLibManager->gdmXTView 1 0)
\a nrSetCurrentWindow(cdsLibManager)
\a nrSetCurrentWindow(cdsLibManager)
\a nrSetCurrentWindow(cdsLibManager)
\a nrSetCurrentWindow(cdsLibManager)
\a cdsLibManager->viewListBox->value = "hspiceD_state0"
\a cdsLibManager->viewLineEdit->value = "hspiceD_state0"
\a lmgrLogShowPopup("mainListPopup2" 91 6 2 "hspiceD_state0")
\a cdsLibManager->viewListBox->value = "spectre_state1"
\a cdsLibManager->viewLineEdit->value = "spectre_state1"
\a lmgrLogShowPopup("mainListPopup2" 66 42 2 "spectre_state1")
\a cdsLibManager->editDeleteButton->value = t
\a deleteForm->qt_vbar->value = "0"
\a nrSetWindowVisibility(deleteForm "show")
\a nrSetCurrentWindow(deleteForm)
\a nrResizeWindow(deleteForm list(1129 439 627 425))
\a deleteForm->OK->value = t
\o QUESTION (CLM-199): The following 1 items are marked for deletion.  Are you sure?
\a nrSetWindowVisibility(mcMBXDLG "show")
\a nrSetCurrentWindow(mcMBXDLG)
\a nrResizeWindow(mcMBXDLG list(1275 494 334 330))
\a mcMBXDLG->pushButton1->value = t
\o Deleting view "spectre_state1" from cell "ADC_TEST3" in library "CAD9_LIB".
\a nrSetWindowVisibility(workingDialogForm "show")
\a nrSetCurrentWindow(cdsLibManager)
\a nrSetCurrentWindow(workingDialogForm)
\a cdsLibManager->viewLineEdit->value = "schematic"
\a cdsLibManager->viewListBox->value = nil
\a cdsLibManager->viewLineEdit->value = ""
\o Deleted cellview 'CAD9_LIB/ADC_TEST3/spectre_state1'.
\o Deletion of 1 view done.
\a nrResizeWindow(workingDialogForm list(1358 479 268 132))
\a nrSetCurrentWindow(cdsLibManager)
\a cdsLibManager->libListBox->value = nil
\a cdsLibManager->libLineEdit->value = ""
\a cdsLibManager->cellListBox->value = nil
\a cdsLibManager->cellLineEdit->value = ""
\a cdsLibManager->libListBox->value = "CAD9_LIB"
\a cdsLibManager->libLineEdit->value = "CAD9_LIB"
\a cdsLibManager->cellListBox->value = "ADC_TEST3"
\a cdsLibManager->cellLineEdit->value = "ADC_TEST3"
\a nrSetCurrentWindow(cdsLibManager)
\a nrSetCurrentWindow(cdsLibManager)
\a cdsLibManager->viewListBox->value = "hspiceD_state0"
\a cdsLibManager->viewLineEdit->value = "hspiceD_state0"
\o MPS request: edit design
\a nrListItemAction(cdsLibManager->gdmXTView 0 1)
\a nrSetCurrentWindow(cdsLibManager)
\a nrSetCurrentWindow(cdsLibManager)
\a cdsLibManager->viewListBox->value = "schematic"
\a cdsLibManager->viewLineEdit->value = "schematic"
\o MPS request: edit design
\a nrListItemAction(cdsLibManager->gdmXTView 1 0)
\a cdsLibManager->viewListBox->value = "hspiceD_state0"
\a cdsLibManager->viewLineEdit->value = "hspiceD_state0"
\o MPS request: edit design
\a nrListItemAction(cdsLibManager->gdmXTView 0 0)
\a nrSetCurrentWindow(cdsLibManager)
\a nrSetCurrentWindow(cdsLibManager)
\a cdsLibManager->libListBox->value = nil
\a cdsLibManager->libLineEdit->value = ""
\a cdsLibManager->cellListBox->value = nil
\a cdsLibManager->viewLineEdit->value = ""
\a cdsLibManager->viewListBox->value = nil
\a cdsLibManager->cellLineEdit->value = ""
\a cdsLibManager->libListBox->value = "CAD9_LIB"
\a cdsLibManager->libLineEdit->value = "CAD9_LIB"
\a cdsLibManager->cellListBox->value = "ADC_TEST3"
\a cdsLibManager->cellLineEdit->value = "ADC_TEST3"
\a cdsLibManager->viewListBox->value = "hspiceD_state0"
\a cdsLibManager->viewLineEdit->value = "hspiceD_state0"
\a cdsLibManager->viewLineEdit->value = ""
\a cdsLibManager->viewListBox->value = nil
\a cdsLibManager->viewListBox->value = "hspiceD_state0"
\a cdsLibManager->viewLineEdit->value = "hspiceD_state0"
\a cdsLibManager->libListBox->value = nil
\a cdsLibManager->libLineEdit->value = ""
\a cdsLibManager->cellListBox->value = nil
\a cdsLibManager->viewLineEdit->value = ""
\a cdsLibManager->viewListBox->value = nil
\a cdsLibManager->cellLineEdit->value = ""
\a cdsLibManager->libListBox->value = "CAD9_LIB"
\a cdsLibManager->libLineEdit->value = "CAD9_LIB"
\a cdsLibManager->cellListBox->value = "ADC_TEST3"
\a cdsLibManager->cellLineEdit->value = "ADC_TEST3"
\a cdsLibManager->viewListBox->value = "hspiceD_state0"
\a cdsLibManager->viewLineEdit->value = "hspiceD_state0"
\a cdsLibManager->viewLineEdit->value = ""
\a cdsLibManager->viewListBox->value = nil
\a cdsLibManager->viewListBox->value = "hspiceD_state0"
\a cdsLibManager->viewLineEdit->value = "hspiceD_state0"
\a nrSetCurrentWindow(cdsLibManager)
\a nrSetCurrentWindow(cdsLibManager)
\a _lmgrCloseIconify("cdsLibManager" 1)
