\o Program:		@(#)$CDS: libManager version 6.1.7 - CAT35 06/05/2018 21:25 (sjfhw306) $
\o Sub version:		sub-version  s211 
\o Arguments:		-mpssession virtuoso18529 -mpshost dc3eap11.dc.umich.edu 
\o Working Directory:	dc3eap11.dc.umich.edu:/afs/umich.edu/class/eecs427/f18/group2/CAD9
\o 64-bit offsets
\o Qt version: 		4.8.5
\o Log file is "/afs/umich.edu/class/eecs427/f18/group2/CAD9/libManager.log.8".
\o Opening libManager window.
\a nrSetCurrentWindow(cdsLibManager)
\a nrResizeWindow(cdsLibManager list(-10 20 1280 1341))
\o changeWorkingDir("/afs/umich.edu/class/eecs427/f18/group2/CAD9") unnecessary.
\o ddSetForcedLib("") unnecessary.
\o MPS service: map window
\o Library Manager customization server connected.
\a nrSetCurrentWindow(cdsLibManager)
\a cdsLibManager->libListBox->value = "IOPAD"
\a cdsLibManager->libLineEdit->value = "IOPAD"
\a cdsLibManager->cellListBox->value = "eecs427_top"
\a cdsLibManager->cellLineEdit->value = "eecs427_top"
\a cdsLibManager->viewListBox->value = "layout"
\a cdsLibManager->viewLineEdit->value = "layout"
\a lmgrLogShowPopup("mainListPopup2" 44 0 2 "layout")
\a cdsLibManager->editDeleteButton->value = t
\a deleteForm->deleteBothRadioButton->value = t
\a deleteForm->deleteFilterEdit->value = "*"
\a deleteForm->notDeleteFilterEdit->value = "*"
\a nrSetWindowVisibility(deleteForm "show")
\a nrSetCurrentWindow(deleteForm)
\a nrResizeWindow(deleteForm list(307 475 627 425))
\a deleteForm->OK->value = t
\o QUESTION (CLM-199): The following 1 items are marked for deletion.  Are you sure?
\a nrSetWindowVisibility(mcMBXDLG "show")
\a nrSetCurrentWindow(mcMBXDLG)
\a nrResizeWindow(mcMBXDLG list(453 574 334 242))
\a nrSetCurrentWindow(mcMBXDLG)
\a mcMBXDLG->pushButton1->value = t
\o Deleting view "layout" from cell "eecs427_top" in library "IOPAD".
\a nrSetWindowVisibility(workingDialogForm "show")
\a nrSetCurrentWindow(cdsLibManager)
\o Deleted cellview 'IOPAD/eecs427_top/layout'.
\o Deletion of 1 view done.
\a nrSetCurrentWindow(workingDialogForm)
\a nrSetCurrentWindow(cdsLibManager)
\a cdsLibManager->viewLineEdit->value = ""
\a cdsLibManager->cellListBox->value = nil
\a cdsLibManager->cellLineEdit->value = ""
\a nrResizeWindow(workingDialogForm list(506 468 268 132))
\a cdsLibManager->libListBox->value = nil
\a cdsLibManager->libLineEdit->value = ""
\a cdsLibManager->libListBox->value = "IOPAD"
\a cdsLibManager->libLineEdit->value = "IOPAD"
\a cdsLibManager->cellListBox->value = "integration_tutorial7"
\a cdsLibManager->cellLineEdit->value = "integration_tutorial7"
\a cdsLibManager->cellLineEdit->value = ""
\a cdsLibManager->cellListBox->value = nil
\a cdsLibManager->cellListBox->value = "integration_tutorial7"
\a cdsLibManager->cellLineEdit->value = "integration_tutorial7"
\a cdsLibManager->libListBox->value = nil
\a cdsLibManager->libLineEdit->value = ""
\a cdsLibManager->cellListBox->value = nil
\a cdsLibManager->cellLineEdit->value = ""
\a cdsLibManager->libListBox->value = "IOPAD"
\a cdsLibManager->libLineEdit->value = "IOPAD"
\a cdsLibManager->cellListBox->value = "integration_tutorial7"
\a cdsLibManager->cellLineEdit->value = "integration_tutorial7"
\a cdsLibManager->cellLineEdit->value = ""
\a cdsLibManager->cellListBox->value = nil
\a cdsLibManager->cellListBox->value = "integration_tutorial7"
\a cdsLibManager->cellLineEdit->value = "integration_tutorial7"
\a nrSetCurrentWindow(cdsLibManager)
\a nrSetCurrentWindow(cdsLibManager)
\a nrSetCurrentWindow(cdsLibManager)
\a cdsLibManager->viewListBox->value = "verilog"
\a cdsLibManager->viewLineEdit->value = "verilog"
\a cdsLibManager->libListBox->value = "LEF_EXAMPLE"
\a cdsLibManager->libLineEdit->value = "LEF_EXAMPLE"
\a cdsLibManager->cellLineEdit->value = ""
\a cdsLibManager->cellListBox->value = nil
\a cdsLibManager->viewLineEdit->value = ""
\a cdsLibManager->viewListBox->value = nil
\a cdsLibManager->libListBox->value = "IOPAD"
\a cdsLibManager->libLineEdit->value = "IOPAD"
\a cdsLibManager->cellListBox->value = "integration_tutorial7"
\a cdsLibManager->cellLineEdit->value = "integration_tutorial7"
\a cdsLibManager->viewListBox->value = "verilog"
\a cdsLibManager->viewLineEdit->value = "verilog"
\a cdsLibManager->viewListBox->value = "gds2"
\a cdsLibManager->viewLineEdit->value = "gds2"
\a cdsLibManager->viewListBox->value = "perl"
\a cdsLibManager->viewLineEdit->value = "perl"
\a cdsLibManager->viewListBox->value = "sdf"
\a cdsLibManager->viewLineEdit->value = "sdf"
\a cdsLibManager->viewListBox->value = "verilog"
\a cdsLibManager->viewLineEdit->value = "verilog"
\a cdsLibManager->viewListBox->value = "sdf"
\a cdsLibManager->viewLineEdit->value = "sdf"
\a cdsLibManager->viewListBox->value = nil
\a cdsLibManager->viewLineEdit->value = ""
\a cdsLibManager->viewListBox->value = "perl"
\a cdsLibManager->viewLineEdit->value = "perl"
\a cdsLibManager->viewListBox->value = "gds2"
\a cdsLibManager->viewLineEdit->value = "gds2"
\a cdsLibManager->viewListBox->value = nil
\a cdsLibManager->viewLineEdit->value = ""
\a cdsLibManager->viewListBox->value = "gds2"
\a cdsLibManager->viewLineEdit->value = "gds2"
\o MPS request: edit design
\a nrListItemAction(cdsLibManager->gdmXTView 1 0)
\a cdsLibManager->libListBox->value = nil
\a cdsLibManager->libLineEdit->value = ""
\a cdsLibManager->cellListBox->value = nil
\a cdsLibManager->viewLineEdit->value = ""
\a cdsLibManager->viewListBox->value = nil
\a cdsLibManager->cellLineEdit->value = ""
\a cdsLibManager->libListBox->value = "IOPAD"
\a cdsLibManager->libLineEdit->value = "IOPAD"
\a cdsLibManager->cellListBox->value = "integration_tutorial7"
\a cdsLibManager->cellLineEdit->value = "integration_tutorial7"
\a cdsLibManager->viewListBox->value = "gds2"
\a cdsLibManager->viewLineEdit->value = "gds2"
\a cdsLibManager->cellLineEdit->value = ""
\a cdsLibManager->cellListBox->value = nil
\a cdsLibManager->viewLineEdit->value = ""
\a cdsLibManager->viewListBox->value = nil
\a cdsLibManager->cellListBox->value = "integration_tutorial7"
\a cdsLibManager->cellLineEdit->value = "integration_tutorial7"
\a cdsLibManager->viewListBox->value = "gds2"
\a cdsLibManager->viewLineEdit->value = "gds2"
\a cdsLibManager->viewLineEdit->value = ""
\a cdsLibManager->viewListBox->value = nil
\a cdsLibManager->viewListBox->value = "gds2"
\a cdsLibManager->viewLineEdit->value = "gds2"
\a cdsLibManager->viewLineEdit->value = ""
\a cdsLibManager->viewListBox->value = nil
\a cdsLibManager->viewListBox->value = "gds2"
\a cdsLibManager->viewLineEdit->value = "gds2"
\a cdsLibManager->viewListBox->value = nil
\a cdsLibManager->viewLineEdit->value = ""
\a cdsLibManager->viewListBox->value = "gds2"
\a cdsLibManager->viewLineEdit->value = "gds2"
\o MPS request: edit design
\a nrListItemAction(cdsLibManager->gdmXTView 1 0)
\a cdsLibManager->libListBox->value = nil
\a cdsLibManager->libLineEdit->value = ""
\a cdsLibManager->cellListBox->value = nil
\a cdsLibManager->viewLineEdit->value = ""
\a cdsLibManager->viewListBox->value = nil
\a cdsLibManager->cellLineEdit->value = ""
\a cdsLibManager->libListBox->value = "IOPAD"
\a cdsLibManager->libLineEdit->value = "IOPAD"
\a cdsLibManager->cellListBox->value = "integration_tutorial7"
\a cdsLibManager->cellLineEdit->value = "integration_tutorial7"
\a cdsLibManager->viewListBox->value = "gds2"
\a cdsLibManager->viewLineEdit->value = "gds2"
\a cdsLibManager->cellLineEdit->value = ""
\a cdsLibManager->cellListBox->value = nil
\a cdsLibManager->viewLineEdit->value = ""
\a cdsLibManager->viewListBox->value = nil
\a cdsLibManager->cellListBox->value = "integration_tutorial7"
\a cdsLibManager->cellLineEdit->value = "integration_tutorial7"
\a cdsLibManager->viewListBox->value = "gds2"
\a cdsLibManager->viewLineEdit->value = "gds2"
\a cdsLibManager->viewLineEdit->value = ""
\a cdsLibManager->viewListBox->value = nil
\a cdsLibManager->viewListBox->value = "gds2"
\a cdsLibManager->viewLineEdit->value = "gds2"
\a cdsLibManager->viewLineEdit->value = ""
\a cdsLibManager->viewListBox->value = nil
\a cdsLibManager->viewListBox->value = "gds2"
\a cdsLibManager->viewLineEdit->value = "gds2"
\a cdsLibManager->libListBox->value = nil
\a cdsLibManager->libLineEdit->value = ""
\a cdsLibManager->cellListBox->value = nil
\a cdsLibManager->viewLineEdit->value = ""
\a cdsLibManager->viewListBox->value = nil
\a cdsLibManager->cellLineEdit->value = ""
\a cdsLibManager->libListBox->value = "IOPAD"
\a cdsLibManager->libLineEdit->value = "IOPAD"
\a cdsLibManager->cellListBox->value = "integration_tutorial7"
\a cdsLibManager->cellLineEdit->value = "integration_tutorial7"
\a cdsLibManager->viewListBox->value = "gds2"
\a cdsLibManager->viewLineEdit->value = "gds2"
\a cdsLibManager->cellLineEdit->value = ""
\a cdsLibManager->cellListBox->value = nil
\a cdsLibManager->viewLineEdit->value = ""
\a cdsLibManager->viewListBox->value = nil
\a cdsLibManager->cellListBox->value = "integration_tutorial7"
\a cdsLibManager->cellLineEdit->value = "integration_tutorial7"
\a cdsLibManager->viewListBox->value = "gds2"
\a cdsLibManager->viewLineEdit->value = "gds2"
\a cdsLibManager->viewLineEdit->value = ""
\a cdsLibManager->viewListBox->value = nil
\a cdsLibManager->viewListBox->value = "gds2"
\a cdsLibManager->viewLineEdit->value = "gds2"
\a cdsLibManager->viewLineEdit->value = ""
\a cdsLibManager->viewListBox->value = nil
\a cdsLibManager->viewListBox->value = "gds2"
\a cdsLibManager->viewLineEdit->value = "gds2"
\a nrSetCurrentWindow(cdsLibManager)
\a cdsLibManager->cellLineEdit->value = ""
\a cdsLibManager->cellListBox->value = nil
\a cdsLibManager->viewLineEdit->value = ""
\a cdsLibManager->viewListBox->value = nil
\a lmgrLogShowPopup("mainListPopup1" 154 343 2 "")
\a cdsLibManager->FileNewCVButton->value = t
\a nrSetCurrentWindow(cdsLibManager)
\a nrSetCurrentWindow(cdsLibManager)
\a nrSetCurrentWindow(cdsLibManager)
\a cdsLibManager->cellListBox->value = nil
\a lmgrLogShowPopup("mainListPopup0" 15 232 2 "IOPAD")
\a cdsLibManager->editDeleteButton->value = t
\a nrSetWindowVisibility(deleteForm "show")
\a cdsLibManager->libListBox->value = nil
\a cdsLibManager->libLineEdit->value = ""
\a cdsLibManager->libListBox->value = "IOPAD"
\a cdsLibManager->libLineEdit->value = "IOPAD"
\a cdsLibManager->cellListBox->value = "integration_tutorial7"
\a cdsLibManager->cellLineEdit->value = "integration_tutorial7"
\a cdsLibManager->viewListBox->value = "gds2"
\a cdsLibManager->viewLineEdit->value = "gds2"
\a cdsLibManager->cellLineEdit->value = ""
\a cdsLibManager->cellListBox->value = nil
\a cdsLibManager->viewLineEdit->value = ""
\a cdsLibManager->viewListBox->value = nil
\a cdsLibManager->cellListBox->value = "integration_tutorial7"
\a cdsLibManager->cellLineEdit->value = "integration_tutorial7"
\a cdsLibManager->viewListBox->value = "gds2"
\a cdsLibManager->viewLineEdit->value = "gds2"
\a cdsLibManager->viewLineEdit->value = ""
\a cdsLibManager->viewListBox->value = nil
\a cdsLibManager->viewListBox->value = "gds2"
\a cdsLibManager->viewLineEdit->value = "gds2"
\a nrSetCurrentWindow(deleteForm)
\a nrResizeWindow(deleteForm list(297 467 627 425))
\a deleteForm->OK->value = t
\o QUESTION (CLM-199): The following 1 items are marked for deletion.  Are you sure?
\a nrSetWindowVisibility(mcMBXDLG "show")
\a nrSetCurrentWindow(mcMBXDLG)
\a nrResizeWindow(mcMBXDLG list(381 522 458 330))
\a mcMBXDLG->pushButton1->value = t
\o Deleting 1 library.
\o Deleting library "IOPAD".
\a nrSetWindowVisibility(workingDialogForm "show")
\a nrSetCurrentWindow(cdsLibManager)
\a nrSetCurrentWindow(workingDialogForm)
\a cdsLibManager->viewLineEdit->value = ""
\a cdsLibManager->viewListBox->value = nil
\a cdsLibManager->cellLineEdit->value = ""
\a nrResizeWindow(workingDialogForm list(496 423 268 132))
\o Deleted library 'IOPAD'.
\o Delete of library "IOPAD" succeeded.
\o Deletion of library done.
\a workingDialogForm->Close->value = t
\a nrSetCurrentWindow(cdsLibManager)
\a cdsLibManager->libListBox->value = nil
\a cdsLibManager->libLineEdit->value = ""
\a nrSetCurrentWindow(cdsLibManager)
\a cdsLibManager->libListBox->value = "CAD9_LIB"
\a cdsLibManager->libLineEdit->value = "CAD9_LIB"
\a cdsLibManager->cellListBox->value = "ADC"
\a cdsLibManager->cellLineEdit->value = "ADC"
\a cdsLibManager->cellListBox->value = "2BITCELL"
\a cdsLibManager->cellLineEdit->value = "2BITCELL"
\a cdsLibManager->cellListBox->value = "ADC"
\a cdsLibManager->cellLineEdit->value = "ADC"
\a cdsLibManager->cellListBox->value = "ADC_MUXwBUffer"
\a cdsLibManager->cellLineEdit->value = "ADC_MUXwBUffer"
\a cdsLibManager->cellListBox->value = "Column1to16"
\a cdsLibManager->cellLineEdit->value = "Column1to16"
\a cdsLibManager->cellListBox->value = "Column1"
\a cdsLibManager->cellLineEdit->value = "Column1"
\a cdsLibManager->libListBox->value = nil
\a cdsLibManager->libLineEdit->value = ""
\a cdsLibManager->cellListBox->value = nil
\a cdsLibManager->cellLineEdit->value = ""
\a cdsLibManager->libListBox->value = "CAD9_LIB"
\a cdsLibManager->libLineEdit->value = "CAD9_LIB"
\a cdsLibManager->cellListBox->value = "Column1"
\a cdsLibManager->cellLineEdit->value = "Column1"
\a nrSetCurrentWindow(cdsLibManager)
\a nrSetCurrentWindow(cdsLibManager)
\a nrSetCurrentWindow(cdsLibManager)
\a cdsLibManager->libListBox->value = nil
\a cdsLibManager->libLineEdit->value = ""
\a cdsLibManager->cellListBox->value = nil
\a cdsLibManager->cellLineEdit->value = ""
\a cdsLibManager->libListBox->value = "CAD9_LIB"
\a cdsLibManager->libLineEdit->value = "CAD9_LIB"
\a cdsLibManager->cellListBox->value = "Column1"
\a cdsLibManager->cellLineEdit->value = "Column1"
\o DB was auto refreshed.
\a cdsLibManager->libListBox->value = nil
\a cdsLibManager->libLineEdit->value = ""
\a cdsLibManager->cellListBox->value = nil
\a cdsLibManager->cellLineEdit->value = ""
\a cdsLibManager->libListBox->value = "CAD9_LIB"
\a cdsLibManager->libLineEdit->value = "CAD9_LIB"
\a cdsLibManager->cellListBox->value = "Column1"
\a cdsLibManager->cellLineEdit->value = "Column1"
\o DB was auto refreshed.
\a nrSetCurrentWindow(cdsLibManager)
\a nrSetCurrentWindow(cdsLibManager)
\a cdsLibManager->libListBox->value = "EECS427_TOP"
\a cdsLibManager->libLineEdit->value = "EECS427_TOP"
\a cdsLibManager->cellLineEdit->value = ""
\a cdsLibManager->cellListBox->value = nil
\a cdsLibManager->cellListBox->value = "eecs427_top"
\a cdsLibManager->cellLineEdit->value = "eecs427_top"
\a cdsLibManager->viewListBox->value = "layout"
\a cdsLibManager->viewLineEdit->value = "layout"
\a cdsLibManager->libListBox->value = "CAD9_LIB"
\a cdsLibManager->libLineEdit->value = "CAD9_LIB"
\a cdsLibManager->cellLineEdit->value = ""
\a cdsLibManager->cellListBox->value = nil
\a cdsLibManager->viewLineEdit->value = ""
\a cdsLibManager->viewListBox->value = nil
\a cdsLibManager->libListBox->value = "CAD8_fix_ray"
\a cdsLibManager->libLineEdit->value = "CAD8_fix_ray"
\a cdsLibManager->libListBox->value = "CAD9_LIB"
\a cdsLibManager->libLineEdit->value = "CAD9_LIB"
\a cdsLibManager->libListBox->value = "LEF_EXAMPLE"
\a cdsLibManager->libLineEdit->value = "LEF_EXAMPLE"
\a cdsLibManager->libListBox->value = "CAD9_LIB"
\a cdsLibManager->libLineEdit->value = "CAD9_LIB"
\a nrSetCurrentWindow(cdsLibManager)
\a cdsLibManager->libListBox->value = nil
\a cdsLibManager->libLineEdit->value = ""
\a cdsLibManager->libListBox->value = "CAD9_LIB"
\a cdsLibManager->libLineEdit->value = "CAD9_LIB"
\a nrSetCurrentWindow(cdsLibManager)
\a cdsLibManager->cellListBox->value = "Column1"
\a cdsLibManager->cellLineEdit->value = "Column1"
\a cdsLibManager->viewListBox->value = "schematic"
\a cdsLibManager->viewLineEdit->value = "schematic"
\a nrSetCurrentWindow(cdsLibManager)
\o MPS service: shutdown
\o libManager is exiting.
\a nrSetWindowVisibility(cdsLibManager "hide")
\a exit(0)
