\o Program:		@(#)$CDS: libManager version 6.1.7 - CAT35 06/05/2018 21:25 (sjfhw306) $
\o Sub version:		sub-version  s211 
\o Arguments:		-mpssession virtuoso12805 -mpshost eecs2331p12.engin.umich.edu 
\o Working Directory:	eecs2331p12.engin.umich.edu:/afs/umich.edu/class/eecs427/f18/group2/CAD9
\o 64-bit offsets
\o Qt version: 		4.8.5
\o Log file is "/afs/umich.edu/class/eecs427/f18/group2/CAD9/libManager.log.6".
\o Opening libManager window.
\a nrSetCurrentWindow(cdsLibManager)
\o changeWorkingDir("/afs/umich.edu/class/eecs427/f18/group2/CAD9") unnecessary.
\o ddSetForcedLib("") unnecessary.
\o MPS service: map window
\o Library Manager customization server connected.
\a nrSetCurrentWindow(cdsLibManager)
\a nrResizeWindow(cdsLibManager list(1270 20 1280 1341))
\a nrSetCurrentWindow(cdsLibManager)
\a nrSetCurrentWindow(cdsLibManager)
\a cdsLibManager->libListBox->value = "CAD9_LIB"
\a cdsLibManager->libLineEdit->value = "CAD9_LIB"
\a nrSetCurrentWindow(cdsLibManager)
\a nrResizeWindow(cdsLibManager list(-10 20 1280 1341))
\a cdsLibManager->cellListBox->value = "datapath_final_1"
\a cdsLibManager->cellLineEdit->value = "datapath_final_1"
\a lmgrLogShowPopup("mainListPopup1" 109 396 2 "datapath_final_1")
\a cdsLibManager->copySimpleButton->value = t
\a basicCopyForm->CategoryCellsEdit->value = "*"
\a basicCopyForm->CellsSkipLibraries->value = t
\a basicCopyForm->CellsSkipLibrariesEdit->value = "*"
\a basicCopyForm->CellsSkipLibrariesEdit->value = "*"
\a basicCopyForm->ViewsSkipLibraries->value = t
\a basicCopyForm->ViewsSkipLibrariesEdit->value = "*"
\a basicCopyForm->CopyFromLibrary->value = "CAD3_LIB"
\a basicCopyForm->CopyToLibrary->value = "CAD3_LIB"
\a basicCopyForm->CopyFromLibrary->value = "CAD9_LIB"
\a basicCopyForm->CopyFromCell->value = "datapath_final_1"
\a basicCopyForm->CopyToLibrary->value = "CAD9_LIB"
\a basicCopyForm->CopyToCell->value = "datapath_final_1"
\a basicCopyForm->CellsViewsToCopy->value = "layout schematic"
\a basicCopyForm->CellsSkipLibrariesEdit->value = ""
\a basicCopyForm->CellsSkipLibrariesEdit->value = "CAD3_LIB CAD4_LIB CAD5_LIB CAD6_LIB CAD6_LIB_fix CAD6_LIB_newest CAD7_LIB CAD8_LIB CAD8_LIB_fix CAD8_LIB_xxx CAD8_WE_HELP CAD8_fix_ray EECS427_TOP LEF_EXAMPLE RA1SH16x512 ROVSD16x1024 US_8ths analogLib basic cdsDefTechLib cmrf8sf eecs427Lib eecs427artisan eecs427pads esd8rf mem_tech sample sbaLib"
\a basicCopyForm->ViewsSkipLibrariesEdit->value = "CAD3_LIB CAD4_LIB CAD5_LIB CAD6_LIB CAD6_LIB_fix CAD6_LIB_newest CAD7_LIB CAD8_LIB CAD8_LIB_fix CAD8_LIB_xxx CAD8_WE_HELP CAD8_fix_ray EECS427_TOP LEF_EXAMPLE RA1SH16x512 ROVSD16x1024 US_8ths analogLib basic cdsDefTechLib cmrf8sf eecs427Lib eecs427artisan eecs427pads esd8rf mem_tech sample sbaLib"
\a nrSetWindowVisibility(basicCopyForm "show")
\a nrSetCurrentWindow(basicCopyForm)
\a nrResizeWindow(basicCopyForm list(408 258 444 625))
\a basicCopyForm->CopyToCell->value = "datapath_final_1_backup"
\a basicCopyForm->OK->value = t
\o Beginning simple copy to library "CAD9_LIB".
\o Processing files to be copied...
\a nrSetWindowVisibility(workingDialogForm "show")
\a nrSetCurrentWindow(workingDialogForm)
\a nrSetWindowVisibility(workingDialogForm "show")
\a nrSetCurrentWindow(basicCopyForm)
\a nrSetCurrentWindow(cdsLibManager)
\a nrSetCurrentWindow(workingDialogForm)
\a nrResizeWindow(workingDialogForm list(484 584 273 132))
\a workingDialogForm->Close->value = t
\a nrSetCurrentWindow(cdsLibManager)
\a cdsLibManager->libListBox->value = nil
\a cdsLibManager->libLineEdit->value = ""
\a cdsLibManager->cellLineEdit->value = ""
\a cdsLibManager->cellListBox->value = nil
\a cdsLibManager->libListBox->value = "CAD9_LIB"
\a cdsLibManager->libLineEdit->value = "CAD9_LIB"
\a cdsLibManager->cellListBox->value = "datapath_final_1"
\a cdsLibManager->cellLineEdit->value = "datapath_final_1"
\a basicCopyForm->CellsSkipLibrariesEdit->value = "*"
\a basicCopyForm->CellsSkipLibrariesEdit->value = "CAD3_LIB CAD4_LIB CAD5_LIB CAD6_LIB CAD6_LIB_fix CAD6_LIB_newest CAD7_LIB CAD8_LIB CAD8_LIB_fix CAD8_LIB_xxx CAD8_WE_HELP CAD8_fix_ray EECS427_TOP LEF_EXAMPLE RA1SH16x512 ROVSD16x1024 US_8ths analogLib basic cdsDefTechLib cmrf8sf eecs427Lib eecs427artisan eecs427pads esd8rf mem_tech sample sbaLib"
\a cdsLibManager->cellListBox->value = "datapath_final_1_backup"
\a cdsLibManager->cellLineEdit->value = "datapath_final_1_backup"
\a cdsLibManager->viewListBox->value = "schematic"
\a cdsLibManager->viewLineEdit->value = "schematic"
\a cdsLibManager->viewListBox->value = "layout"
\a cdsLibManager->viewLineEdit->value = "layout"
\a cdsLibManager->viewListBox->value = nil
\a cdsLibManager->viewLineEdit->value = ""
\a cdsLibManager->viewListBox->value = "layout"
\a cdsLibManager->viewLineEdit->value = "layout"
\o MPS request: edit design
\a nrListItemAction(cdsLibManager->gdmXTView 0 0)
\o libManager is exiting.
\o libManager is exiting.
