###############################################################
#  Generated by:      Cadence Encounter 14.27-s035_1
#  OS:                Linux x86_64(Host ID dc3eap11.dc.umich.edu)
#  Generated on:      Wed Dec 12 00:48:09 2018
#  Design:            eecs427_top
#  Command:           verifyGeometry -reportAllCells -noSameNet -noOverlap -report eecs427_top.geom.rpt
###############################################################

SHORT: Regular Wire of Net I_A[3] & Blockage of Cell eecs427_pads0/PI_A__1_W4  ( M6 )
Bounds : ( 103.100, 544.600 ) ( 103.300, 614.400 )


SHORT: Regular Wire of Net I_A[3] & Blockage of Cell PF__S_9  ( M4 )
Bounds : ( 395.900, 113.100 ) ( 395.900, 170.500 )


SHORT: Regular Wire of Net I_A[3] & Blockage of Cell PF__S_10  ( M4 )
Bounds : ( 396.100, 113.100 ) ( 396.100, 170.500 )


SHORT: Regular Wire of Net I_A[3] & Blockage of Cell eecs427_pads0/PI_A__3_S2  ( M6 )
Bounds : ( 397.600, 113.100 ) ( 403.600, 113.300 )


SHORT: Regular Wire of Net I_A[3] & Blockage of Cell PF__S_10  ( M6 )
Bounds : ( 396.100, 113.100 ) ( 397.400, 113.300 )


SHORT: Regular Via of Net I_A[3] & Blockage of Cell PF__S_9  ( M6 )
Bounds : ( 395.900, 113.100 ) ( 395.900, 113.300 )


SHORT: Regular Via of Net I_A[3] & Blockage of Cell PF__S_10  ( M5 )
Bounds : ( 396.100, 113.100 ) ( 396.500, 113.300 )


SHORT: Regular Via of Net I_A[3] & Blockage of Cell PF__S_9  ( V5 )
Bounds : ( 395.900, 113.100 ) ( 395.900, 113.300 )


SHORT: Regular Via of Net I_A[3] & Blockage of Cell PF__S_10  ( V5 )
Bounds : ( 396.100, 113.100 ) ( 396.100, 113.300 )


SHORT: Regular Via of Net I_A[3] & Blockage of Cell PF__S_9  ( M5 )
Bounds : ( 395.900, 113.100 ) ( 395.900, 113.300 )


SHORT: Regular Via of Net I_A[3] & Blockage of Cell PF__S_9  ( V4 )
Bounds : ( 395.900, 113.100 ) ( 395.900, 113.300 )


SHORT: Regular Via of Net I_A[3] & Blockage of Cell PF__S_10  ( V4 )
Bounds : ( 396.100, 113.100 ) ( 396.100, 113.300 )


SHORT: Regular Wire of Net I_A[3] & Blockage of Cell PF__S_9  ( M6 )
Bounds : ( 395.900, 170.300 ) ( 395.900, 246.800 )


SHORT: Regular Wire of Net I_A[3] & Blockage of Cell PF__S_10  ( M6 )
Bounds : ( 396.100, 170.300 ) ( 396.100, 246.800 )


SHORT: Regular Via of Net I_A[3] & Blockage of Cell PF__S_9  ( V4 )
Bounds : ( 395.900, 170.300 ) ( 395.900, 170.500 )


SHORT: Regular Via of Net I_A[3] & Blockage of Cell PF__S_10  ( V4 )
Bounds : ( 396.100, 170.300 ) ( 396.100, 170.500 )


SHORT: Regular Via of Net I_A[3] & Blockage of Cell PF__S_9  ( M5 )
Bounds : ( 395.900, 170.300 ) ( 395.900, 170.500 )


SHORT: Regular Via of Net I_A[3] & Blockage of Cell PF__S_10  ( M5 )
Bounds : ( 396.100, 170.300 ) ( 396.500, 170.500 )


SHORT: Regular Via of Net I_A[3] & Blockage of Cell PF__S_9  ( V5 )
Bounds : ( 395.900, 170.300 ) ( 395.900, 170.500 )


SHORT: Regular Via of Net I_A[3] & Blockage of Cell PF__S_10  ( V5 )
Bounds : ( 396.100, 170.300 ) ( 396.100, 170.500 )


SHORT: Regular Wire of Net I_A[0] & Regular Wire of Net I_A[3]  ( M3 )
Bounds : ( 119.100, 541.900 ) ( 218.900, 542.100 )


SHORT: Regular Wire of Net I_A[3] & Blockage of Cell PF__W_17  ( M3 )
Bounds : ( 106.300, 542.100 ) ( 218.900, 542.100 )


SHORT: Regular Wire of Net I_A[3] & Blockage of Cell PF__W_16  ( M3 )
Bounds : ( 106.300, 541.900 ) ( 218.900, 541.900 )


SHORT: Regular Wire of Net I_A[3] & Blockage of Cell eecs427_pads0/PI_A__0_W3  ( M4 )
Bounds : ( 106.300, 471.100 ) ( 106.500, 540.900 )


SHORT: Regular Wire of Net I_A[3] & Blockage of Cell PF__W_12  ( M4 )
Bounds : ( 106.300, 467.600 ) ( 106.500, 468.400 )


SHORT: Regular Wire of Net I_A[3] & Blockage of Cell eecs427_pads0/PI_A__3_W2  ( M6 )
Bounds : ( 106.300, 461.200 ) ( 106.500, 464.500 )


SHORT: Regular Via of Net I_A[3] & Blockage of Cell eecs427_pads0/PI_A__3_W2  ( M5 )
Bounds : ( 106.300, 464.300 ) ( 106.900, 464.500 )


SHORT: Regular Via of Net I_A[3] & Blockage of Cell eecs427_pads0/PI_A__3_W2  ( V5 )
Bounds : ( 106.300, 464.300 ) ( 106.500, 464.500 )


SHORT: Regular Via of Net I_A[3] & Blockage of Cell eecs427_pads0/PI_A__3_W2  ( V4 )
Bounds : ( 106.300, 464.300 ) ( 106.500, 464.500 )


SHORT: Regular Wire of Net I_A[3] & Blockage of Cell eecs427_pads0/PI_A__3_W2  ( M4 )
Bounds : ( 106.300, 464.300 ) ( 106.500, 467.400 )


SHORT: Regular Wire of Net I_A[3] & Blockage of Cell PF__W_14  ( M4 )
Bounds : ( 106.300, 469.600 ) ( 106.500, 470.900 )


SHORT: Regular Wire of Net I_A[3] & Blockage of Cell PF__W_13  ( M4 )
Bounds : ( 106.300, 468.600 ) ( 106.500, 469.400 )


SHORT: Regular Wire of Net I_A[0] & Blockage of Cell PF__W_16  ( M6 )
Bounds : ( 113.500, 541.100 ) ( 113.700, 541.900 )


SHORT: Regular Wire of Net I_A[3] & Blockage of Cell PF__W_16  ( M4 )
Bounds : ( 106.300, 541.100 ) ( 106.500, 541.900 )


SHORT: Regular Wire of Net I_A[0] & Blockage of Cell eecs427_pads0/PI_A__0_W3  ( M6 )
Bounds : ( 113.500, 534.800 ) ( 113.700, 540.900 )


SHORT: Regular Wire of Net I_A[3] & Blockage of Cell PF__W_17  ( M5 )
Bounds : ( 103.100, 542.100 ) ( 106.500, 542.100 )


SHORT: Regular Wire of Net I_A[3] & Blockage of Cell PF__W_16  ( M5 )
Bounds : ( 103.100, 541.900 ) ( 106.500, 541.900 )


SHORT: Regular Via of Net I_A[3] & Blockage of Cell PF__W_17  ( V5 )
Bounds : ( 103.100, 542.100 ) ( 103.300, 542.100 )


SHORT: Regular Via of Net I_A[3] & Blockage of Cell PF__W_16  ( V5 )
Bounds : ( 103.100, 541.900 ) ( 103.300, 541.900 )


SHORT: Regular Wire of Net I_A[3] & Blockage of Cell PF__W_17  ( M6 )
Bounds : ( 103.100, 542.100 ) ( 103.300, 542.900 )


SHORT: Regular Wire of Net I_A[3] & Blockage of Cell PF__W_18  ( M6 )
Bounds : ( 103.100, 543.100 ) ( 103.300, 544.400 )


SHORT: Regular Wire of Net I_A[3] & Blockage of Cell PF__W_16  ( M6 )
Bounds : ( 103.100, 541.900 ) ( 103.300, 541.900 )


SHORT: Regular Via of Net I_A[3] & Blockage of Cell PF__W_17  ( V4 )
Bounds : ( 106.300, 542.100 ) ( 106.500, 542.100 )


SHORT: Regular Via of Net I_A[3] & Blockage of Cell PF__W_16  ( V4 )
Bounds : ( 106.300, 541.900 ) ( 106.500, 541.900 )


SHORT: Regular Via of Net I_A[3] & Blockage of Cell PF__W_17  ( M4 )
Bounds : ( 106.300, 542.100 ) ( 106.500, 542.100 )


SHORT: Regular Via of Net I_A[3] & Blockage of Cell PF__W_17  ( V3 )
Bounds : ( 106.300, 542.100 ) ( 106.500, 542.100 )


SHORT: Regular Via of Net I_A[3] & Blockage of Cell PF__W_16  ( V3 )
Bounds : ( 106.300, 541.900 ) ( 106.500, 541.900 )


SHORT: Regular Wire of Net I_A[0] & Blockage of Cell PF__W_17  ( M5 )
Bounds : ( 113.500, 542.100 ) ( 119.300, 542.100 )


SHORT: Regular Wire of Net I_A[0] & Blockage of Cell PF__W_16  ( M5 )
Bounds : ( 113.500, 541.900 ) ( 119.300, 541.900 )


SHORT: Regular Via of Net I_A[0] & Blockage of Cell PF__W_17  ( M6 )
Bounds : ( 113.500, 542.100 ) ( 113.700, 542.100 )


SHORT: Regular Via of Net I_A[0] & Blockage of Cell PF__W_17  ( V5 )
Bounds : ( 113.500, 542.100 ) ( 113.700, 542.100 )


SHORT: Regular Via of Net I_A[0] & Blockage of Cell PF__W_16  ( V5 )
Bounds : ( 113.500, 541.900 ) ( 113.700, 541.900 )


SHORT: Regular Via of Net I_A[0] & Blockage of Cell PF__W_17  ( M4 )
Bounds : ( 119.100, 542.100 ) ( 119.300, 542.500 )


SHORT: Regular Via of Net I_A[0] & Blockage of Cell PF__W_17  ( V4 )
Bounds : ( 119.100, 542.100 ) ( 119.300, 542.100 )


SHORT: Regular Via of Net I_A[0] & Blockage of Cell PF__W_16  ( V4 )
Bounds : ( 119.100, 541.900 ) ( 119.300, 541.900 )


SHORT: Regular Via of Net I_A[0] & Blockage of Cell PF__W_16  ( M4 )
Bounds : ( 119.100, 541.900 ) ( 119.300, 541.900 )


SHORT: Regular Via of Net I_A[0] & Blockage of Cell PF__W_17  ( V3 )
Bounds : ( 119.100, 542.100 ) ( 119.300, 542.100 )


SHORT: Regular Via of Net I_A[0] & Blockage of Cell PF__W_16  ( V3 )
Bounds : ( 119.100, 541.900 ) ( 119.300, 541.900 )


SHORT: Regular Wire of Net I_A[0] & Regular Wire of Net I_A[3]  ( M5 )
Bounds : ( 218.700, 541.900 ) ( 247.700, 542.100 )


SHORT: Regular Via of Net I_A[0] & Regular Via of Net I_A[3]  ( V3 )
Bounds : ( 218.700, 541.900 ) ( 218.900, 542.100 )


SHORT: Regular Via of Net I_A[0] & Regular Via of Net I_A[3]  ( M4 )
Bounds : ( 218.700, 541.900 ) ( 218.900, 542.500 )


SHORT: Regular Via of Net I_A[0] & Regular Via of Net I_A[3]  ( V4 )
Bounds : ( 218.700, 541.900 ) ( 218.900, 542.100 )


SHORT: Regular Wire of Net I_A[0] & Blockage of Cell PF__S_17  ( M4 )
Bounds : ( 542.100, 113.500 ) ( 542.100, 170.500 )


SHORT: Regular Wire of Net I_A[0] & Blockage of Cell PF__S_16  ( M4 )
Bounds : ( 541.900, 113.500 ) ( 541.900, 170.500 )


SHORT: Regular Wire of Net I_A[1] & Blockage of Cell eecs427_pads0/PI_A__1_S4  ( M4 )
Bounds : ( 579.100, 117.500 ) ( 579.300, 170.500 )


SHORT: Regular Wire of Net I_A[0] & Blockage of Cell eecs427_pads0/PI_A__0_S3  ( M6 )
Bounds : ( 534.800, 113.500 ) ( 540.900, 113.700 )


SHORT: Regular Wire of Net I_A[0] & Blockage of Cell PF__S_16  ( M6 )
Bounds : ( 541.100, 113.500 ) ( 541.900, 113.700 )


SHORT: Regular Via of Net I_A[0] & Blockage of Cell PF__S_17  ( M6 )
Bounds : ( 542.100, 113.500 ) ( 542.100, 113.700 )


SHORT: Regular Via of Net I_A[0] & Blockage of Cell PF__S_17  ( M5 )
Bounds : ( 542.100, 113.500 ) ( 542.500, 113.700 )


SHORT: Regular Via of Net I_A[0] & Blockage of Cell PF__S_17  ( V5 )
Bounds : ( 542.100, 113.500 ) ( 542.100, 113.700 )


SHORT: Regular Via of Net I_A[0] & Blockage of Cell PF__S_16  ( V5 )
Bounds : ( 541.900, 113.500 ) ( 541.900, 113.700 )


SHORT: Regular Via of Net I_A[0] & Blockage of Cell PF__S_16  ( M5 )
Bounds : ( 541.900, 113.500 ) ( 541.900, 113.700 )


SHORT: Regular Via of Net I_A[0] & Blockage of Cell PF__S_17  ( V4 )
Bounds : ( 542.100, 113.500 ) ( 542.100, 113.700 )


SHORT: Regular Via of Net I_A[0] & Blockage of Cell PF__S_16  ( V4 )
Bounds : ( 541.900, 113.500 ) ( 541.900, 113.700 )


SHORT: Regular Wire of Net I_A[1] & Blockage of Cell eecs427_pads0/PI_A__1_S4  ( M6 )
Bounds : ( 579.100, 113.600 ) ( 579.300, 117.700 )


SHORT: Regular Via of Net I_A[1] & Blockage of Cell eecs427_pads0/PI_A__1_S4  ( M5 )
Bounds : ( 579.100, 117.500 ) ( 579.700, 117.700 )


SHORT: Regular Via of Net I_A[1] & Blockage of Cell eecs427_pads0/PI_A__1_S4  ( V5 )
Bounds : ( 579.100, 117.500 ) ( 579.300, 117.700 )


SHORT: Regular Via of Net I_A[1] & Blockage of Cell eecs427_pads0/PI_A__1_S4  ( V4 )
Bounds : ( 579.100, 117.500 ) ( 579.300, 117.700 )


SHORT: Regular Wire of Net I_A[0] & Blockage of Cell PF__S_17  ( M6 )
Bounds : ( 542.100, 170.300 ) ( 542.100, 246.800 )


SHORT: Regular Wire of Net I_A[0] & Blockage of Cell PF__S_16  ( M6 )
Bounds : ( 541.900, 170.300 ) ( 541.900, 246.800 )


SHORT: Regular Via of Net I_A[0] & Blockage of Cell PF__S_17  ( V4 )
Bounds : ( 542.100, 170.300 ) ( 542.100, 170.500 )


SHORT: Regular Via of Net I_A[0] & Blockage of Cell PF__S_16  ( V4 )
Bounds : ( 541.900, 170.300 ) ( 541.900, 170.500 )


SHORT: Regular Via of Net I_A[0] & Blockage of Cell PF__S_17  ( M5 )
Bounds : ( 542.100, 170.300 ) ( 542.500, 170.500 )


SHORT: Regular Via of Net I_A[0] & Blockage of Cell PF__S_16  ( M5 )
Bounds : ( 541.900, 170.300 ) ( 541.900, 170.500 )


SHORT: Regular Via of Net I_A[0] & Blockage of Cell PF__S_17  ( V5 )
Bounds : ( 542.100, 170.300 ) ( 542.100, 170.500 )


SHORT: Regular Via of Net I_A[0] & Blockage of Cell PF__S_16  ( V5 )
Bounds : ( 541.900, 170.300 ) ( 541.900, 170.500 )


SHORT: Regular Wire of Net I_A[1] & Blockage of Cell eecs427_pads0/PI_A__1_S4  ( M6 )
Bounds : ( 579.100, 170.300 ) ( 579.300, 247.000 )


SHORT: Regular Via of Net I_A[1] & Blockage of Cell eecs427_pads0/PI_A__1_S4  ( V4 )
Bounds : ( 579.100, 170.300 ) ( 579.300, 170.500 )


SHORT: Regular Via of Net I_A[1] & Blockage of Cell eecs427_pads0/PI_A__1_S4  ( M5 )
Bounds : ( 579.100, 170.300 ) ( 579.700, 170.500 )


SHORT: Regular Via of Net I_A[1] & Blockage of Cell eecs427_pads0/PI_A__1_S4  ( V5 )
Bounds : ( 579.100, 170.300 ) ( 579.300, 170.500 )


SHORT: Regular Wire of Net I_A[2] & Blockage of Cell eecs427_pads0/PI_A__2_S5  ( M6 )
Bounds : ( 681.600, 113.500 ) ( 687.900, 113.700 )


SHORT: Regular Wire of Net I_A[2] & Blockage of Cell eecs427_pads0/PI_A__2_S5  ( M4 )
Bounds : ( 687.900, 113.500 ) ( 687.900, 170.500 )


SHORT: Regular Wire of Net I_A[2] & Blockage of Cell PF__S_24  ( M4 )
Bounds : ( 688.100, 113.500 ) ( 688.100, 170.500 )


SHORT: Regular Wire of Net I_A[3] & Blockage of Cell eecs427_pads0/PI_A__3_S6  ( M6 )
Bounds : ( 727.900, 113.600 ) ( 728.100, 171.700 )


SHORT: Regular Via of Net I_A[2] & Blockage of Cell PF__S_24  ( M6 )
Bounds : ( 688.100, 113.500 ) ( 688.100, 113.700 )


SHORT: Regular Via of Net I_A[2] & Blockage of Cell PF__S_24  ( M5 )
Bounds : ( 688.100, 113.500 ) ( 688.500, 113.700 )


SHORT: Regular Via of Net I_A[2] & Blockage of Cell PF__S_24  ( V5 )
Bounds : ( 688.100, 113.500 ) ( 688.100, 113.700 )


SHORT: Regular Via of Net I_A[2] & Blockage of Cell eecs427_pads0/PI_A__2_S5  ( V5 )
Bounds : ( 687.900, 113.500 ) ( 687.900, 113.700 )


SHORT: Regular Via of Net I_A[2] & Blockage of Cell eecs427_pads0/PI_A__2_S5  ( M5 )
Bounds : ( 687.900, 113.500 ) ( 687.900, 113.700 )


SHORT: Regular Via of Net I_A[2] & Blockage of Cell PF__S_24  ( V4 )
Bounds : ( 688.100, 113.500 ) ( 688.100, 113.700 )


SHORT: Regular Via of Net I_A[2] & Blockage of Cell eecs427_pads0/PI_A__2_S5  ( V4 )
Bounds : ( 687.900, 113.500 ) ( 687.900, 113.700 )


SHORT: Regular Wire of Net I_A[2] & Blockage of Cell eecs427_pads0/PI_A__2_S5  ( M6 )
Bounds : ( 687.900, 170.300 ) ( 687.900, 220.100 )


SHORT: Regular Wire of Net I_A[2] & Blockage of Cell PF__S_24  ( M6 )
Bounds : ( 688.100, 170.300 ) ( 688.100, 220.100 )


SHORT: Regular Wire of Net I_A[3] & Blockage of Cell eecs427_pads0/PI_A__3_S6  ( M6 )
Bounds : ( 727.100, 171.500 ) ( 727.300, 220.100 )


SHORT: Regular Via of Net I_A[2] & Blockage of Cell PF__S_24  ( V4 )
Bounds : ( 688.100, 170.300 ) ( 688.100, 170.500 )


SHORT: Regular Via of Net I_A[2] & Blockage of Cell eecs427_pads0/PI_A__2_S5  ( V4 )
Bounds : ( 687.900, 170.300 ) ( 687.900, 170.500 )


SHORT: Regular Via of Net I_A[2] & Blockage of Cell eecs427_pads0/PI_A__2_S5  ( M5 )
Bounds : ( 687.900, 170.300 ) ( 687.900, 170.500 )


SHORT: Regular Via of Net I_A[2] & Blockage of Cell PF__S_24  ( M5 )
Bounds : ( 688.100, 170.300 ) ( 688.500, 170.500 )


SHORT: Regular Via of Net I_A[2] & Blockage of Cell PF__S_24  ( V5 )
Bounds : ( 688.100, 170.300 ) ( 688.100, 170.500 )


SHORT: Regular Via of Net I_A[2] & Blockage of Cell eecs427_pads0/PI_A__2_S5  ( V5 )
Bounds : ( 687.900, 170.300 ) ( 687.900, 170.500 )


SHORT: Regular Wire of Net I_A[3] & Blockage of Cell eecs427_pads0/PI_A__3_S6  ( M6 )
Bounds : ( 727.100, 171.500 ) ( 728.100, 171.700 )


SHORT: Regular Wire of Net I_A[2] & Blockage of Cell eecs427_pads0/PI_A__2_S5  ( M4 )
Bounds : ( 687.900, 219.900 ) ( 687.900, 246.800 )


SHORT: Regular Wire of Net I_A[2] & Blockage of Cell PF__S_24  ( M4 )
Bounds : ( 688.100, 219.900 ) ( 688.100, 246.800 )


SHORT: Regular Via of Net I_A[2] & Blockage of Cell PF__S_24  ( M5 )
Bounds : ( 688.100, 219.900 ) ( 688.500, 220.100 )


SHORT: Regular Via of Net I_A[2] & Blockage of Cell PF__S_24  ( V5 )
Bounds : ( 688.100, 219.900 ) ( 688.100, 220.100 )


SHORT: Regular Via of Net I_A[2] & Blockage of Cell eecs427_pads0/PI_A__2_S5  ( V5 )
Bounds : ( 687.900, 219.900 ) ( 687.900, 220.100 )


SHORT: Regular Via of Net I_A[2] & Blockage of Cell eecs427_pads0/PI_A__2_S5  ( M5 )
Bounds : ( 687.900, 219.900 ) ( 687.900, 220.100 )


SHORT: Regular Via of Net I_A[2] & Blockage of Cell PF__S_24  ( V4 )
Bounds : ( 688.100, 219.900 ) ( 688.100, 220.100 )


SHORT: Regular Via of Net I_A[2] & Blockage of Cell eecs427_pads0/PI_A__2_S5  ( V4 )
Bounds : ( 687.900, 219.900 ) ( 687.900, 220.100 )


SHORT: Regular Wire of Net I_A[3] & Blockage of Cell eecs427_pads0/PI_A__3_S6  ( M6 )
Bounds : ( 726.300, 219.900 ) ( 726.500, 247.000 )


SHORT: Regular Wire of Net I_A[3] & Blockage of Cell eecs427_pads0/PI_A__3_S6  ( M6 )
Bounds : ( 726.300, 219.900 ) ( 727.300, 220.100 )


SHORT: Regular Wire of Net I_A[0] & Blockage of Cell eecs427_pads0/PI_A__0_S7  ( M6 )
Bounds : ( 774.300, 113.600 ) ( 774.500, 171.300 )


SHORT: Regular Wire of Net I_A[0] & Blockage of Cell eecs427_pads0/PI_A__0_S7  ( M6 )
Bounds : ( 774.700, 171.100 ) ( 774.900, 247.000 )


SHORT: Regular Wire of Net I_A[0] & Blockage of Cell eecs427_pads0/PI_A__0_S7  ( M6 )
Bounds : ( 774.300, 171.100 ) ( 774.900, 171.300 )


SHORT: Regular Wire of Net I_A[1] & Blockage of Cell eecs427_pads0/PI_A__1_S8  ( M2 )
Bounds : ( 872.700, 117.500 ) ( 872.900, 220.100 )


SHORT: Regular Wire of Net I_A[2] & Blockage of Cell eecs427_pads0/PI_A__2_S9  ( M3 )
Bounds : ( 912.100, 113.500 ) ( 912.100, 246.800 )


SHORT: Regular Wire of Net I_A[2] & Blockage of Cell PF__S_39  ( M3 )
Bounds : ( 911.900, 113.500 ) ( 911.900, 246.800 )


SHORT: Regular Wire of Net I_A[1] & Blockage of Cell eecs427_pads0/PI_A__1_S8  ( M6 )
Bounds : ( 872.700, 113.600 ) ( 872.900, 117.700 )


SHORT: Regular Via of Net I_A[1] & Blockage of Cell eecs427_pads0/PI_A__1_S8  ( M5 )
Bounds : ( 872.700, 117.500 ) ( 873.300, 117.700 )


SHORT: Regular Via of Net I_A[1] & Blockage of Cell eecs427_pads0/PI_A__1_S8  ( V5 )
Bounds : ( 872.700, 117.500 ) ( 872.900, 117.700 )


SHORT: Regular Via of Net I_A[1] & Blockage of Cell eecs427_pads0/PI_A__1_S8  ( M4 )
Bounds : ( 872.700, 117.500 ) ( 872.900, 118.100 )


SHORT: Regular Via of Net I_A[1] & Blockage of Cell eecs427_pads0/PI_A__1_S8  ( V4 )
Bounds : ( 872.700, 117.500 ) ( 872.900, 117.700 )


SHORT: Regular Via of Net I_A[1] & Blockage of Cell eecs427_pads0/PI_A__1_S8  ( M3 )
Bounds : ( 872.700, 117.500 ) ( 873.300, 117.700 )


SHORT: Regular Via of Net I_A[1] & Blockage of Cell eecs427_pads0/PI_A__1_S8  ( V3 )
Bounds : ( 872.700, 117.500 ) ( 872.900, 117.700 )


SHORT: Regular Via of Net I_A[1] & Blockage of Cell eecs427_pads0/PI_A__1_S8  ( V2 )
Bounds : ( 872.700, 117.500 ) ( 872.900, 117.700 )


SHORT: Regular Wire of Net I_A[2] & Blockage of Cell eecs427_pads0/PI_A__2_S9  ( M6 )
Bounds : ( 912.100, 113.500 ) ( 918.400, 113.700 )


SHORT: Regular Via of Net I_A[2] & Blockage of Cell eecs427_pads0/PI_A__2_S9  ( M5 )
Bounds : ( 912.100, 113.500 ) ( 912.500, 113.700 )


SHORT: Regular Via of Net I_A[2] & Blockage of Cell PF__S_39  ( M6 )
Bounds : ( 911.900, 113.500 ) ( 911.900, 113.700 )


SHORT: Regular Via of Net I_A[2] & Blockage of Cell eecs427_pads0/PI_A__2_S9  ( V5 )
Bounds : ( 912.100, 113.500 ) ( 912.100, 113.700 )


SHORT: Regular Via of Net I_A[2] & Blockage of Cell PF__S_39  ( V5 )
Bounds : ( 911.900, 113.500 ) ( 911.900, 113.700 )


SHORT: Regular Via of Net I_A[2] & Blockage of Cell PF__S_39  ( M5 )
Bounds : ( 911.900, 113.500 ) ( 911.900, 113.700 )


SHORT: Regular Via of Net I_A[2] & Blockage of Cell eecs427_pads0/PI_A__2_S9  ( M4 )
Bounds : ( 912.100, 113.500 ) ( 912.100, 114.100 )


SHORT: Regular Via of Net I_A[2] & Blockage of Cell PF__S_39  ( M4 )
Bounds : ( 911.900, 113.500 ) ( 911.900, 114.100 )


SHORT: Regular Via of Net I_A[2] & Blockage of Cell eecs427_pads0/PI_A__2_S9  ( V4 )
Bounds : ( 912.100, 113.500 ) ( 912.100, 113.700 )


SHORT: Regular Via of Net I_A[2] & Blockage of Cell PF__S_39  ( V4 )
Bounds : ( 911.900, 113.500 ) ( 911.900, 113.700 )


SHORT: Regular Via of Net I_A[2] & Blockage of Cell eecs427_pads0/PI_A__2_S9  ( V3 )
Bounds : ( 912.100, 113.500 ) ( 912.100, 113.700 )


SHORT: Regular Via of Net I_A[2] & Blockage of Cell PF__S_39  ( V3 )
Bounds : ( 911.900, 113.500 ) ( 911.900, 113.700 )


SHORT: Regular Wire of Net I_A[1] & Blockage of Cell eecs427_pads0/PI_A__1_S8  ( M3 )
Bounds : ( 872.700, 219.900 ) ( 872.900, 247.000 )


SHORT: Regular Via of Net I_A[1] & Blockage of Cell eecs427_pads0/PI_A__1_S8  ( V2 )
Bounds : ( 872.700, 219.900 ) ( 872.900, 220.100 )


SHORT: Regular Wire of Net I_A[1] & Blockage of Cell PF__S_41  ( M4 )
Bounds : ( 983.900, 116.300 ) ( 983.900, 170.500 )


SHORT: Regular Wire of Net I_A[1] & Blockage of Cell PF__S_42  ( M4 )
Bounds : ( 984.100, 116.300 ) ( 984.100, 170.500 )


SHORT: Regular Wire of Net I_A[1] & Blockage of Cell eecs427_pads0/PI_A__1_S10  ( M6 )
Bounds : ( 985.600, 113.500 ) ( 991.600, 113.700 )


SHORT: Regular Wire of Net I_A[1] & Blockage of Cell PF__S_42  ( M6 )
Bounds : ( 984.100, 113.500 ) ( 985.400, 113.700 )


SHORT: Regular Via of Net I_A[1] & Blockage of Cell PF__S_42  ( M5 )
Bounds : ( 984.100, 116.300 ) ( 984.500, 116.500 )


SHORT: Regular Via of Net I_A[1] & Blockage of Cell PF__S_41  ( V5 )
Bounds : ( 983.900, 116.300 ) ( 983.900, 116.500 )


SHORT: Regular Via of Net I_A[1] & Blockage of Cell PF__S_42  ( V5 )
Bounds : ( 984.100, 116.300 ) ( 984.100, 116.500 )


SHORT: Regular Wire of Net I_A[1] & Blockage of Cell PF__S_41  ( M6 )
Bounds : ( 983.900, 113.500 ) ( 983.900, 116.500 )


SHORT: Regular Wire of Net I_A[1] & Blockage of Cell PF__S_42  ( M6 )
Bounds : ( 984.100, 113.500 ) ( 984.100, 116.500 )


SHORT: Regular Via of Net I_A[1] & Blockage of Cell PF__S_41  ( M5 )
Bounds : ( 983.900, 116.300 ) ( 983.900, 116.500 )


SHORT: Regular Via of Net I_A[1] & Blockage of Cell PF__S_41  ( V4 )
Bounds : ( 983.900, 116.300 ) ( 983.900, 116.500 )


SHORT: Regular Via of Net I_A[1] & Blockage of Cell PF__S_42  ( V4 )
Bounds : ( 984.100, 116.300 ) ( 984.100, 116.500 )


SHORT: Regular Wire of Net I_A[1] & Blockage of Cell PF__S_41  ( M6 )
Bounds : ( 983.900, 170.300 ) ( 983.900, 246.800 )


SHORT: Regular Wire of Net I_A[1] & Blockage of Cell PF__S_42  ( M6 )
Bounds : ( 984.100, 170.300 ) ( 984.100, 246.800 )


SHORT: Regular Via of Net I_A[1] & Blockage of Cell PF__S_41  ( V4 )
Bounds : ( 983.900, 170.300 ) ( 983.900, 170.500 )


SHORT: Regular Via of Net I_A[1] & Blockage of Cell PF__S_42  ( V4 )
Bounds : ( 984.100, 170.300 ) ( 984.100, 170.500 )


SHORT: Regular Via of Net I_A[1] & Blockage of Cell PF__S_41  ( M5 )
Bounds : ( 983.900, 170.300 ) ( 983.900, 170.500 )


SHORT: Regular Via of Net I_A[1] & Blockage of Cell PF__S_42  ( M5 )
Bounds : ( 984.100, 170.300 ) ( 984.500, 170.500 )


SHORT: Regular Via of Net I_A[1] & Blockage of Cell PF__S_41  ( V5 )
Bounds : ( 983.900, 170.300 ) ( 983.900, 170.500 )


SHORT: Regular Via of Net I_A[1] & Blockage of Cell PF__S_42  ( V5 )
Bounds : ( 984.100, 170.300 ) ( 984.100, 170.500 )


SHORT: Regular Wire of Net I_A[2] & Blockage of Cell eecs427_pads0/PI_A__2_S11  ( M4 )
Bounds : ( 1067.900, 119.900 ) ( 1068.100, 171.300 )


SHORT: Regular Wire of Net I_A[2] & Blockage of Cell eecs427_pads0/PI_A__2_S11  ( M6 )
Bounds : ( 1067.900, 113.600 ) ( 1068.100, 120.100 )


SHORT: Regular Via of Net I_A[2] & Blockage of Cell eecs427_pads0/PI_A__2_S11  ( M5 )
Bounds : ( 1067.900, 119.900 ) ( 1068.500, 120.100 )


SHORT: Regular Via of Net I_A[2] & Blockage of Cell eecs427_pads0/PI_A__2_S11  ( V5 )
Bounds : ( 1067.900, 119.900 ) ( 1068.100, 120.100 )


SHORT: Regular Via of Net I_A[2] & Blockage of Cell eecs427_pads0/PI_A__2_S11  ( V4 )
Bounds : ( 1067.900, 119.900 ) ( 1068.100, 120.100 )


SHORT: Regular Wire of Net I_A[2] & Blockage of Cell eecs427_pads0/PI_A__2_S11  ( M5 )
Bounds : ( 1067.900, 171.100 ) ( 1068.100, 218.500 )


SHORT: Regular Via of Net I_A[2] & Blockage of Cell eecs427_pads0/PI_A__2_S11  ( V4 )
Bounds : ( 1067.900, 171.100 ) ( 1068.100, 171.300 )


SHORT: Regular Wire of Net I_A[2] & Blockage of Cell eecs427_pads0/PI_A__2_S11  ( M6 )
Bounds : ( 1067.900, 218.300 ) ( 1068.100, 247.000 )


SHORT: Regular Via of Net I_A[2] & Blockage of Cell eecs427_pads0/PI_A__2_S11  ( V5 )
Bounds : ( 1067.900, 218.300 ) ( 1068.100, 218.500 )


SHORT: Regular Wire of Net I_A[1] & Blockage of Cell eecs427_pads0/PI_A__2_W9  ( M5 )
Bounds : ( 109.100, 912.100 ) ( 109.300, 938.900 )


SHORT: Regular Wire of Net I_A[1] & Regular Wire of Net I_A[2]  ( M5 )
Bounds : ( 113.500, 617.900 ) ( 219.700, 618.100 )


SHORT: Regular Wire of Net I_A[3] & Blockage of Cell eecs427_pads0/PI_A__2_W5  ( M3 )
Bounds : ( 103.100, 651.900 ) ( 103.300, 687.900 )


SHORT: Regular Wire of Net I_A[3] & Blockage of Cell eecs427_pads0/PI_A__2_W5  ( M2 )
Bounds : ( 103.100, 618.100 ) ( 103.300, 652.100 )


SHORT: Regular Wire of Net I_A[3] & Blockage of Cell PF__W_22  ( M6 )
Bounds : ( 103.100, 616.600 ) ( 103.300, 617.900 )


SHORT: Regular Wire of Net I_A[3] & Blockage of Cell PF__W_20  ( M6 )
Bounds : ( 103.100, 614.600 ) ( 103.300, 615.400 )


SHORT: Regular Wire of Net I_A[3] & Blockage of Cell PF__W_21  ( M6 )
Bounds : ( 103.100, 615.600 ) ( 103.300, 616.400 )


SHORT: Regular Via of Net I_A[3] & Blockage of Cell eecs427_pads0/PI_A__2_W5  ( M5 )
Bounds : ( 103.100, 618.100 ) ( 103.700, 618.100 )


SHORT: Regular Via of Net I_A[3] & Blockage of Cell PF__W_23  ( M5 )
Bounds : ( 103.100, 617.900 ) ( 103.700, 617.900 )


SHORT: Regular Via of Net I_A[3] & Blockage of Cell eecs427_pads0/PI_A__2_W5  ( V5 )
Bounds : ( 103.100, 618.100 ) ( 103.300, 618.100 )


SHORT: Regular Via of Net I_A[3] & Blockage of Cell PF__W_23  ( V5 )
Bounds : ( 103.100, 617.900 ) ( 103.300, 617.900 )


SHORT: Regular Wire of Net I_A[3] & Blockage of Cell eecs427_pads0/PI_A__2_W5  ( M6 )
Bounds : ( 103.100, 618.100 ) ( 103.300, 618.100 )


SHORT: Regular Via of Net I_A[3] & Blockage of Cell eecs427_pads0/PI_A__2_W5  ( M4 )
Bounds : ( 103.100, 618.100 ) ( 103.300, 618.500 )


SHORT: Regular Via of Net I_A[3] & Blockage of Cell eecs427_pads0/PI_A__2_W5  ( V4 )
Bounds : ( 103.100, 618.100 ) ( 103.300, 618.100 )


SHORT: Regular Via of Net I_A[3] & Blockage of Cell PF__W_23  ( V4 )
Bounds : ( 103.100, 617.900 ) ( 103.300, 617.900 )


SHORT: Regular Via of Net I_A[3] & Blockage of Cell PF__W_23  ( M4 )
Bounds : ( 103.100, 617.900 ) ( 103.300, 617.900 )


SHORT: Regular Via of Net I_A[3] & Blockage of Cell eecs427_pads0/PI_A__2_W5  ( M3 )
Bounds : ( 103.100, 618.100 ) ( 103.700, 618.100 )


SHORT: Regular Via of Net I_A[3] & Blockage of Cell PF__W_23  ( M3 )
Bounds : ( 103.100, 617.900 ) ( 103.700, 617.900 )


SHORT: Regular Via of Net I_A[3] & Blockage of Cell eecs427_pads0/PI_A__2_W5  ( V3 )
Bounds : ( 103.100, 618.100 ) ( 103.300, 618.100 )


SHORT: Regular Via of Net I_A[3] & Blockage of Cell PF__W_23  ( V3 )
Bounds : ( 103.100, 617.900 ) ( 103.300, 617.900 )


SHORT: Regular Via of Net I_A[3] & Blockage of Cell eecs427_pads0/PI_A__2_W5  ( V2 )
Bounds : ( 103.100, 618.100 ) ( 103.300, 618.100 )


SHORT: Regular Via of Net I_A[3] & Blockage of Cell PF__W_23  ( V2 )
Bounds : ( 103.100, 617.900 ) ( 103.300, 617.900 )


SHORT: Regular Wire of Net I_A[3] & Blockage of Cell PF__W_23  ( M2 )
Bounds : ( 103.100, 617.900 ) ( 103.300, 617.900 )


SHORT: Regular Wire of Net I_A[1] & Blockage of Cell eecs427_pads0/PI_A__1_W4  ( M6 )
Bounds : ( 113.500, 608.400 ) ( 113.700, 614.400 )


SHORT: Regular Wire of Net I_A[2] & Blockage of Cell eecs427_pads0/PI_A__2_W5  ( M6 )
Bounds : ( 113.500, 618.100 ) ( 113.700, 624.400 )


SHORT: Regular Wire of Net I_A[1] & Blockage of Cell PF__W_22  ( M6 )
Bounds : ( 113.500, 616.600 ) ( 113.700, 617.900 )


SHORT: Regular Wire of Net I_A[1] & Blockage of Cell PF__W_20  ( M6 )
Bounds : ( 113.500, 614.600 ) ( 113.700, 615.400 )


SHORT: Regular Wire of Net I_A[1] & Blockage of Cell PF__W_21  ( M6 )
Bounds : ( 113.500, 615.600 ) ( 113.700, 616.400 )


SHORT: Regular Via of Net I_A[1] & Regular Wire of Net I_A[2]  ( M6 )
Bounds : ( 113.500, 617.900 ) ( 113.700, 618.100 )


SHORT: Regular Via of Net I_A[1] & Regular Via of Net I_A[2]  ( V5 )
Bounds : ( 113.500, 617.900 ) ( 113.700, 618.100 )


SHORT: Regular Via of Net I_A[3] & Blockage of Cell eecs427_pads0/PI_A__2_W5  ( V2 )
Bounds : ( 103.100, 651.900 ) ( 103.300, 652.100 )


SHORT: Regular Wire of Net I_A[3] & Blockage of Cell eecs427_pads0/PI_A__3_W6  ( M6 )
Bounds : ( 104.700, 691.600 ) ( 104.900, 697.600 )


SHORT: Regular Wire of Net I_A[3] & Blockage of Cell PF__W_25  ( M5 )
Bounds : ( 103.100, 689.900 ) ( 104.900, 689.900 )


SHORT: Regular Wire of Net I_A[3] & Blockage of Cell PF__W_26  ( M5 )
Bounds : ( 103.100, 690.100 ) ( 104.900, 690.100 )


SHORT: Regular Via of Net I_A[3] & Blockage of Cell PF__W_24  ( M3 )
Bounds : ( 103.100, 688.100 ) ( 103.300, 688.100 )


SHORT: Regular Via of Net I_A[3] & Blockage of Cell PF__W_24  ( V3 )
Bounds : ( 103.100, 688.100 ) ( 103.300, 688.100 )


SHORT: Regular Via of Net I_A[3] & Blockage of Cell eecs427_pads0/PI_A__2_W5  ( V3 )
Bounds : ( 103.100, 687.900 ) ( 103.300, 687.900 )


SHORT: Regular Wire of Net I_A[3] & Blockage of Cell eecs427_pads0/PI_A__2_W5  ( M4 )
Bounds : ( 103.100, 687.900 ) ( 103.300, 687.900 )


SHORT: Regular Wire of Net I_A[3] & Blockage of Cell PF__W_24  ( M4 )
Bounds : ( 103.100, 688.100 ) ( 103.300, 688.900 )


SHORT: Regular Wire of Net I_A[3] & Blockage of Cell PF__W_25  ( M4 )
Bounds : ( 103.100, 689.100 ) ( 103.300, 689.900 )


SHORT: Regular Via of Net I_A[3] & Blockage of Cell PF__W_26  ( M4 )
Bounds : ( 103.100, 690.100 ) ( 103.300, 690.100 )


SHORT: Regular Via of Net I_A[3] & Blockage of Cell PF__W_25  ( V4 )
Bounds : ( 103.100, 689.900 ) ( 103.300, 689.900 )


SHORT: Regular Via of Net I_A[3] & Blockage of Cell PF__W_26  ( V4 )
Bounds : ( 103.100, 690.100 ) ( 103.300, 690.100 )


SHORT: Regular Via of Net I_A[3] & Blockage of Cell PF__W_25  ( V5 )
Bounds : ( 104.700, 689.900 ) ( 104.900, 689.900 )


SHORT: Regular Via of Net I_A[3] & Blockage of Cell PF__W_26  ( V5 )
Bounds : ( 104.700, 690.100 ) ( 104.900, 690.100 )


SHORT: Regular Wire of Net I_A[3] & Blockage of Cell PF__W_27  ( M6 )
Bounds : ( 104.700, 690.100 ) ( 104.900, 691.400 )


SHORT: Regular Wire of Net I_A[3] & Blockage of Cell PF__W_25  ( M6 )
Bounds : ( 104.700, 689.900 ) ( 104.900, 689.900 )


SHORT: Regular Wire of Net I_A[1] & Regular Wire of Net I_A[2]  ( M6 )
Bounds : ( 219.500, 617.900 ) ( 247.700, 618.100 )


SHORT: Regular Via of Net I_A[1] & Regular Via of Net I_A[2]  ( V5 )
Bounds : ( 219.500, 617.900 ) ( 219.700, 618.100 )


SHORT: Regular Wire of Net I_A[0] & Blockage of Cell PF__W_32  ( M3 )
Bounds : ( 116.700, 835.900 ) ( 246.800, 835.900 )


SHORT: Regular Wire of Net I_A[0] & Blockage of Cell PF__W_33  ( M3 )
Bounds : ( 116.700, 836.100 ) ( 246.800, 836.100 )


SHORT: Regular Wire of Net I_A[1] & Blockage of Cell eecs427_pads0/PI_A__2_W9  ( M5 )
Bounds : ( 171.500, 912.100 ) ( 218.900, 912.100 )


SHORT: Regular Wire of Net I_A[1] & Blockage of Cell PF__W_39  ( M5 )
Bounds : ( 171.500, 911.900 ) ( 218.900, 911.900 )


SHORT: Regular Wire of Net I_A[0] & Blockage of Cell eecs427_pads0/PI_A__0_W7  ( M6 )
Bounds : ( 113.500, 828.800 ) ( 113.700, 834.900 )


SHORT: Regular Wire of Net I_A[1] & Blockage of Cell eecs427_pads0/PI_A__2_W9  ( M3 )
Bounds : ( 112.700, 912.100 ) ( 171.700, 912.100 )


SHORT: Regular Wire of Net I_A[1] & Blockage of Cell PF__W_39  ( M3 )
Bounds : ( 112.700, 911.900 ) ( 171.700, 911.900 )


SHORT: Regular Wire of Net I_A[0] & Blockage of Cell PF__W_32  ( M5 )
Bounds : ( 113.500, 835.900 ) ( 116.900, 835.900 )


SHORT: Regular Wire of Net I_A[0] & Blockage of Cell PF__W_33  ( M5 )
Bounds : ( 113.500, 836.100 ) ( 116.900, 836.100 )


SHORT: Regular Via of Net I_A[0] & Blockage of Cell PF__W_32  ( V5 )
Bounds : ( 113.500, 835.900 ) ( 113.700, 835.900 )


SHORT: Regular Via of Net I_A[0] & Blockage of Cell PF__W_33  ( V5 )
Bounds : ( 113.500, 836.100 ) ( 113.700, 836.100 )


SHORT: Regular Wire of Net I_A[0] & Blockage of Cell PF__W_32  ( M6 )
Bounds : ( 113.500, 835.100 ) ( 113.700, 835.900 )


SHORT: Regular Wire of Net I_A[0] & Blockage of Cell PF__W_33  ( M6 )
Bounds : ( 113.500, 836.100 ) ( 113.700, 836.100 )


SHORT: Regular Via of Net I_A[0] & Blockage of Cell PF__W_32  ( V3 )
Bounds : ( 116.700, 835.900 ) ( 116.900, 835.900 )


SHORT: Regular Via of Net I_A[0] & Blockage of Cell PF__W_33  ( V3 )
Bounds : ( 116.700, 836.100 ) ( 116.900, 836.100 )


SHORT: Regular Via of Net I_A[0] & Blockage of Cell PF__W_32  ( M4 )
Bounds : ( 116.700, 835.900 ) ( 116.900, 835.900 )


SHORT: Regular Via of Net I_A[0] & Blockage of Cell PF__W_33  ( M4 )
Bounds : ( 116.700, 836.100 ) ( 116.900, 836.500 )


SHORT: Regular Via of Net I_A[0] & Blockage of Cell PF__W_32  ( V4 )
Bounds : ( 116.700, 835.900 ) ( 116.900, 835.900 )


SHORT: Regular Via of Net I_A[0] & Blockage of Cell PF__W_33  ( V4 )
Bounds : ( 116.700, 836.100 ) ( 116.900, 836.100 )


SHORT: Regular Wire of Net I_A[1] & Blockage of Cell eecs427_pads0/PI_A__2_W9  ( M5 )
Bounds : ( 109.100, 912.100 ) ( 112.900, 912.100 )


SHORT: Regular Wire of Net I_A[1] & Blockage of Cell PF__W_39  ( M5 )
Bounds : ( 109.100, 911.900 ) ( 112.900, 911.900 )


SHORT: Regular Wire of Net I_A[1] & Blockage of Cell eecs427_pads0/PI_A__1_W8  ( M6 )
Bounds : ( 109.100, 902.400 ) ( 109.300, 908.400 )


SHORT: Regular Via of Net I_A[1] & Blockage of Cell eecs427_pads0/PI_A__2_W9  ( V5 )
Bounds : ( 109.100, 912.100 ) ( 109.300, 912.100 )


SHORT: Regular Via of Net I_A[1] & Blockage of Cell PF__W_39  ( V5 )
Bounds : ( 109.100, 911.900 ) ( 109.300, 911.900 )


SHORT: Regular Wire of Net I_A[1] & Blockage of Cell PF__W_38  ( M6 )
Bounds : ( 109.100, 910.600 ) ( 109.300, 911.900 )


SHORT: Regular Wire of Net I_A[1] & Blockage of Cell eecs427_pads0/PI_A__2_W9  ( M6 )
Bounds : ( 109.100, 912.100 ) ( 109.300, 912.100 )


SHORT: Regular Wire of Net I_A[1] & Blockage of Cell PF__W_36  ( M6 )
Bounds : ( 109.100, 908.600 ) ( 109.300, 909.400 )


SHORT: Regular Wire of Net I_A[1] & Blockage of Cell PF__W_37  ( M6 )
Bounds : ( 109.100, 909.600 ) ( 109.300, 910.400 )


SHORT: Regular Via of Net I_A[1] & Blockage of Cell eecs427_pads0/PI_A__2_W9  ( V3 )
Bounds : ( 112.700, 912.100 ) ( 112.900, 912.100 )


SHORT: Regular Via of Net I_A[1] & Blockage of Cell PF__W_39  ( V3 )
Bounds : ( 112.700, 911.900 ) ( 112.900, 911.900 )


SHORT: Regular Via of Net I_A[1] & Blockage of Cell eecs427_pads0/PI_A__2_W9  ( M4 )
Bounds : ( 112.700, 912.100 ) ( 112.900, 912.500 )


SHORT: Regular Via of Net I_A[1] & Blockage of Cell PF__W_39  ( M4 )
Bounds : ( 112.700, 911.900 ) ( 112.900, 911.900 )


SHORT: Regular Via of Net I_A[1] & Blockage of Cell eecs427_pads0/PI_A__2_W9  ( V4 )
Bounds : ( 112.700, 912.100 ) ( 112.900, 912.100 )


SHORT: Regular Via of Net I_A[1] & Blockage of Cell PF__W_39  ( V4 )
Bounds : ( 112.700, 911.900 ) ( 112.900, 911.900 )


SHORT: Regular Via of Net I_A[1] & Blockage of Cell eecs427_pads0/PI_A__2_W9  ( M4 )
Bounds : ( 171.500, 912.100 ) ( 171.700, 912.500 )


SHORT: Regular Via of Net I_A[1] & Blockage of Cell eecs427_pads0/PI_A__2_W9  ( V4 )
Bounds : ( 171.500, 912.100 ) ( 171.700, 912.100 )


SHORT: Regular Via of Net I_A[1] & Blockage of Cell PF__W_39  ( V4 )
Bounds : ( 171.500, 911.900 ) ( 171.700, 911.900 )


SHORT: Regular Via of Net I_A[1] & Blockage of Cell PF__W_39  ( M4 )
Bounds : ( 171.500, 911.900 ) ( 171.700, 911.900 )


SHORT: Regular Via of Net I_A[1] & Blockage of Cell eecs427_pads0/PI_A__2_W9  ( V3 )
Bounds : ( 171.500, 912.100 ) ( 171.700, 912.100 )


SHORT: Regular Via of Net I_A[1] & Blockage of Cell PF__W_39  ( V3 )
Bounds : ( 171.500, 911.900 ) ( 171.700, 911.900 )


SHORT: Regular Wire of Net I_A[1] & Blockage of Cell eecs427_pads0/PI_A__2_W9  ( M6 )
Bounds : ( 218.700, 912.100 ) ( 246.800, 912.100 )


SHORT: Regular Wire of Net I_A[1] & Blockage of Cell PF__W_39  ( M6 )
Bounds : ( 218.700, 911.900 ) ( 246.800, 911.900 )


SHORT: Regular Via of Net I_A[1] & Blockage of Cell eecs427_pads0/PI_A__2_W9  ( V5 )
Bounds : ( 218.700, 912.100 ) ( 218.900, 912.100 )


SHORT: Regular Via of Net I_A[1] & Blockage of Cell PF__W_39  ( V5 )
Bounds : ( 218.700, 911.900 ) ( 218.900, 911.900 )


SHORT: Regular Wire of Net I_A[2] & Blockage of Cell eecs427_pads0/PI_A__1_W10  ( M6 )
Bounds : ( 103.900, 985.600 ) ( 104.100, 1055.400 )


SHORT: Regular Wire of Net I_A[1] & Blockage of Cell eecs427_pads0/PI_A__2_W9  ( M4 )
Bounds : ( 109.100, 938.700 ) ( 109.300, 981.900 )


SHORT: Regular Via of Net I_A[1] & Blockage of Cell eecs427_pads0/PI_A__2_W9  ( V4 )
Bounds : ( 109.100, 938.700 ) ( 109.300, 938.900 )


SHORT: Regular Wire of Net I_A[2] & Blockage of Cell eecs427_pads0/PI_A__2_W9  ( M6 )
Bounds : ( 104.700, 975.600 ) ( 104.900, 981.900 )


SHORT: Regular Wire of Net I_A[1] & Blockage of Cell eecs427_pads0/PI_A__1_W10  ( M6 )
Bounds : ( 109.100, 985.600 ) ( 109.300, 991.600 )


SHORT: Regular Wire of Net I_A[2] & Blockage of Cell PF__W_42  ( M6 )
Bounds : ( 103.900, 984.100 ) ( 104.100, 985.400 )


SHORT: Regular Wire of Net I_A[2] & Blockage of Cell PF__W_41  ( M6 )
Bounds : ( 103.900, 983.900 ) ( 104.900, 983.900 )


SHORT: Regular Wire of Net I_A[2] & Blockage of Cell PF__W_42  ( M6 )
Bounds : ( 103.900, 984.100 ) ( 104.900, 984.100 )


SHORT: Regular Wire of Net I_A[2] & Blockage of Cell PF__W_41  ( M6 )
Bounds : ( 104.700, 983.100 ) ( 104.900, 983.900 )


SHORT: Regular Wire of Net I_A[2] & Blockage of Cell PF__W_40  ( M6 )
Bounds : ( 104.700, 982.100 ) ( 104.900, 982.900 )


SHORT: Regular Via of Net I_A[1] & Blockage of Cell PF__W_41  ( M5 )
Bounds : ( 109.100, 983.900 ) ( 109.700, 983.900 )


SHORT: Regular Via of Net I_A[1] & Blockage of Cell PF__W_42  ( M5 )
Bounds : ( 109.100, 984.100 ) ( 109.700, 984.100 )


SHORT: Regular Wire of Net I_A[1] & Blockage of Cell PF__W_42  ( M6 )
Bounds : ( 109.100, 984.100 ) ( 109.300, 985.400 )


SHORT: Regular Via of Net I_A[1] & Blockage of Cell PF__W_41  ( M6 )
Bounds : ( 109.100, 983.900 ) ( 109.300, 983.900 )


SHORT: Regular Via of Net I_A[1] & Blockage of Cell PF__W_41  ( V5 )
Bounds : ( 109.100, 983.900 ) ( 109.300, 983.900 )


SHORT: Regular Via of Net I_A[1] & Blockage of Cell PF__W_42  ( V5 )
Bounds : ( 109.100, 984.100 ) ( 109.300, 984.100 )


SHORT: Regular Via of Net I_A[1] & Blockage of Cell PF__W_41  ( V4 )
Bounds : ( 109.100, 983.900 ) ( 109.300, 983.900 )


SHORT: Regular Via of Net I_A[1] & Blockage of Cell PF__W_42  ( V4 )
Bounds : ( 109.100, 984.100 ) ( 109.300, 984.100 )


SHORT: Regular Wire of Net I_A[1] & Blockage of Cell PF__W_41  ( M4 )
Bounds : ( 109.100, 983.100 ) ( 109.300, 983.900 )


SHORT: Regular Wire of Net I_A[1] & Blockage of Cell PF__W_42  ( M4 )
Bounds : ( 109.100, 984.100 ) ( 109.300, 984.100 )


SHORT: Regular Wire of Net I_A[1] & Blockage of Cell PF__W_40  ( M4 )
Bounds : ( 109.100, 982.100 ) ( 109.300, 982.900 )


SHORT: Regular Wire of Net I_A[2] & Blockage of Cell eecs427_pads0/PI_A__2_W11  ( M6 )
Bounds : ( 104.700, 1063.500 ) ( 104.900, 1065.200 )


SHORT: Regular Wire of Net I_A[2] & Blockage of Cell PF__W_45  ( M6 )
Bounds : ( 103.900, 1056.600 ) ( 104.100, 1057.400 )


SHORT: Regular Wire of Net I_A[2] & Blockage of Cell PF__W_46  ( M6 )
Bounds : ( 103.900, 1057.600 ) ( 104.100, 1058.900 )


SHORT: Regular Wire of Net I_A[2] & Blockage of Cell PF__W_44  ( M6 )
Bounds : ( 103.900, 1055.600 ) ( 104.100, 1056.400 )


SHORT: Regular Wire of Net I_A[2] & Blockage of Cell eecs427_pads0/PI_A__2_W11  ( M6 )
Bounds : ( 103.900, 1063.500 ) ( 104.900, 1063.700 )


SHORT: Regular Wire of Net I_A[2] & Blockage of Cell eecs427_pads0/PI_A__2_W11  ( M6 )
Bounds : ( 103.900, 1059.100 ) ( 104.100, 1063.700 )


SHORT: Regular Wire of Net I_A[2] & Blockage of Cell PF__W_48  ( M3 )
Bounds : ( 170.300, 1129.900 ) ( 246.800, 1129.900 )


SHORT: Regular Wire of Net I_A[2] & Blockage of Cell PF__W_49  ( M3 )
Bounds : ( 170.300, 1130.100 ) ( 246.800, 1130.100 )


SHORT: Regular Wire of Net I_A[3] & Blockage of Cell eecs427_pads0/PP_tl_clean_VDD_W13  ( M3 )
Bounds : ( 127.500, 1206.100 ) ( 219.700, 1206.100 )


SHORT: Regular Wire of Net I_A[3] & Blockage of Cell PF__W_55  ( M3 )
Bounds : ( 127.500, 1205.900 ) ( 219.700, 1205.900 )


SHORT: Regular Wire of Net I_A[2] & Blockage of Cell PF__W_48  ( M6 )
Bounds : ( 113.100, 1129.900 ) ( 170.500, 1129.900 )


SHORT: Regular Wire of Net I_A[2] & Blockage of Cell PF__W_49  ( M6 )
Bounds : ( 113.100, 1130.100 ) ( 170.500, 1130.100 )


SHORT: Regular Wire of Net I_A[2] & Blockage of Cell eecs427_pads0/PI_A__2_W11  ( M6 )
Bounds : ( 113.100, 1122.800 ) ( 113.300, 1128.900 )


SHORT: Regular Wire of Net I_A[2] & Blockage of Cell PF__W_48  ( M6 )
Bounds : ( 113.100, 1129.100 ) ( 113.300, 1129.900 )


SHORT: Regular Via of Net I_A[2] & Blockage of Cell PF__W_48  ( V3 )
Bounds : ( 170.300, 1129.900 ) ( 170.500, 1129.900 )


SHORT: Regular Via of Net I_A[2] & Blockage of Cell PF__W_49  ( V3 )
Bounds : ( 170.300, 1130.100 ) ( 170.500, 1130.100 )


SHORT: Regular Via of Net I_A[2] & Blockage of Cell PF__W_48  ( M4 )
Bounds : ( 170.300, 1129.900 ) ( 170.500, 1129.900 )


SHORT: Regular Via of Net I_A[2] & Blockage of Cell PF__W_49  ( M4 )
Bounds : ( 170.300, 1130.100 ) ( 170.500, 1130.500 )


SHORT: Regular Via of Net I_A[2] & Blockage of Cell PF__W_48  ( V4 )
Bounds : ( 170.300, 1129.900 ) ( 170.500, 1129.900 )


SHORT: Regular Via of Net I_A[2] & Blockage of Cell PF__W_49  ( V4 )
Bounds : ( 170.300, 1130.100 ) ( 170.500, 1130.100 )


SHORT: Regular Via of Net I_A[2] & Blockage of Cell PF__W_48  ( M5 )
Bounds : ( 170.300, 1129.900 ) ( 170.900, 1129.900 )


SHORT: Regular Via of Net I_A[2] & Blockage of Cell PF__W_49  ( M5 )
Bounds : ( 170.300, 1130.100 ) ( 170.900, 1130.100 )


SHORT: Regular Via of Net I_A[2] & Blockage of Cell PF__W_48  ( V5 )
Bounds : ( 170.300, 1129.900 ) ( 170.500, 1129.900 )


SHORT: Regular Via of Net I_A[2] & Blockage of Cell PF__W_49  ( V5 )
Bounds : ( 170.300, 1130.100 ) ( 170.500, 1130.100 )


SHORT: Regular Wire of Net I_A[3] & Blockage of Cell eecs427_pads0/PP_tl_clean_VDD_W13  ( M5 )
Bounds : ( 113.500, 1206.100 ) ( 127.700, 1206.100 )


SHORT: Regular Wire of Net I_A[3] & Blockage of Cell PF__W_55  ( M5 )
Bounds : ( 113.500, 1205.900 ) ( 127.700, 1205.900 )


SHORT: Regular Wire of Net I_A[3] & Blockage of Cell eecs427_pads0/PI_A__3_W12  ( M6 )
Bounds : ( 113.500, 1196.400 ) ( 113.700, 1202.400 )


SHORT: Regular Wire of Net I_A[3] & Blockage of Cell PF__W_55  ( M6 )
Bounds : ( 113.500, 1204.600 ) ( 113.700, 1205.900 )


SHORT: Regular Wire of Net I_A[3] & Blockage of Cell PF__W_52  ( M6 )
Bounds : ( 113.500, 1202.600 ) ( 113.700, 1203.400 )


SHORT: Regular Wire of Net I_A[3] & Blockage of Cell PF__W_53  ( M6 )
Bounds : ( 113.500, 1203.600 ) ( 113.700, 1204.400 )


SHORT: Regular Via of Net I_A[3] & Blockage of Cell eecs427_pads0/PP_tl_clean_VDD_W13  ( M6 )
Bounds : ( 113.500, 1206.100 ) ( 113.700, 1206.100 )


SHORT: Regular Via of Net I_A[3] & Blockage of Cell eecs427_pads0/PP_tl_clean_VDD_W13  ( V5 )
Bounds : ( 113.500, 1206.100 ) ( 113.700, 1206.100 )


SHORT: Regular Via of Net I_A[3] & Blockage of Cell PF__W_55  ( V5 )
Bounds : ( 113.500, 1205.900 ) ( 113.700, 1205.900 )


SHORT: Regular Via of Net I_A[3] & Blockage of Cell eecs427_pads0/PP_tl_clean_VDD_W13  ( M4 )
Bounds : ( 127.500, 1206.100 ) ( 127.700, 1206.500 )


SHORT: Regular Via of Net I_A[3] & Blockage of Cell eecs427_pads0/PP_tl_clean_VDD_W13  ( V4 )
Bounds : ( 127.500, 1206.100 ) ( 127.700, 1206.100 )


SHORT: Regular Via of Net I_A[3] & Blockage of Cell PF__W_55  ( V4 )
Bounds : ( 127.500, 1205.900 ) ( 127.700, 1205.900 )


SHORT: Regular Via of Net I_A[3] & Blockage of Cell PF__W_55  ( M4 )
Bounds : ( 127.500, 1205.900 ) ( 127.700, 1205.900 )


SHORT: Regular Via of Net I_A[3] & Blockage of Cell eecs427_pads0/PP_tl_clean_VDD_W13  ( V3 )
Bounds : ( 127.500, 1206.100 ) ( 127.700, 1206.100 )


SHORT: Regular Via of Net I_A[3] & Blockage of Cell PF__W_55  ( V3 )
Bounds : ( 127.500, 1205.900 ) ( 127.700, 1205.900 )


SHORT: Regular Wire of Net I_A[3] & Blockage of Cell eecs427_pads0/PP_tl_clean_VDD_W13  ( M5 )
Bounds : ( 219.500, 1206.100 ) ( 246.800, 1206.100 )


SHORT: Regular Wire of Net I_A[3] & Blockage of Cell PF__W_55  ( M5 )
Bounds : ( 219.500, 1205.900 ) ( 246.800, 1205.900 )


SHORT: Regular Via of Net I_A[3] & Blockage of Cell eecs427_pads0/PP_tl_clean_VDD_W13  ( V3 )
Bounds : ( 219.500, 1206.100 ) ( 219.700, 1206.100 )


SHORT: Regular Via of Net I_A[3] & Blockage of Cell PF__W_55  ( V3 )
Bounds : ( 219.500, 1205.900 ) ( 219.700, 1205.900 )


SHORT: Regular Via of Net I_A[3] & Blockage of Cell eecs427_pads0/PP_tl_clean_VDD_W13  ( M4 )
Bounds : ( 219.500, 1206.100 ) ( 219.700, 1206.500 )


SHORT: Regular Via of Net I_A[3] & Blockage of Cell PF__W_55  ( M4 )
Bounds : ( 219.500, 1205.900 ) ( 219.700, 1205.900 )


SHORT: Regular Via of Net I_A[3] & Blockage of Cell eecs427_pads0/PP_tl_clean_VDD_W13  ( V4 )
Bounds : ( 219.500, 1206.100 ) ( 219.700, 1206.100 )


SHORT: Regular Via of Net I_A[3] & Blockage of Cell PF__W_55  ( V4 )
Bounds : ( 219.500, 1205.900 ) ( 219.700, 1205.900 )


SHORT: Regular Wire of Net I_A[3] & Blockage of Cell PF__N_9  ( M4 )
Bounds : ( 395.900, 1358.300 ) ( 395.900, 1486.500 )


SHORT: Regular Wire of Net I_A[3] & Blockage of Cell PF__N_10  ( M4 )
Bounds : ( 396.100, 1358.300 ) ( 396.100, 1486.500 )


SHORT: Regular Wire of Net I_A[3] & Blockage of Cell PF__N_9  ( M5 )
Bounds : ( 395.900, 1353.200 ) ( 395.900, 1358.500 )


SHORT: Regular Wire of Net I_A[3] & Blockage of Cell PF__N_10  ( M5 )
Bounds : ( 396.100, 1353.200 ) ( 396.100, 1358.500 )


SHORT: Regular Via of Net I_A[3] & Blockage of Cell PF__N_9  ( V4 )
Bounds : ( 395.900, 1358.300 ) ( 395.900, 1358.500 )


SHORT: Regular Via of Net I_A[3] & Blockage of Cell PF__N_10  ( V4 )
Bounds : ( 396.100, 1358.300 ) ( 396.100, 1358.500 )


SHORT: Regular Wire of Net I_A[3] & Blockage of Cell eecs427_pads0/PI_A__3_N2  ( M6 )
Bounds : ( 397.600, 1486.300 ) ( 403.600, 1486.500 )


SHORT: Regular Wire of Net I_A[3] & Blockage of Cell PF__N_10  ( M6 )
Bounds : ( 396.100, 1486.300 ) ( 397.400, 1486.500 )


SHORT: Regular Via of Net I_A[3] & Blockage of Cell PF__N_9  ( M6 )
Bounds : ( 395.900, 1486.300 ) ( 395.900, 1486.500 )


SHORT: Regular Via of Net I_A[3] & Blockage of Cell PF__N_10  ( M5 )
Bounds : ( 396.100, 1486.300 ) ( 396.500, 1486.500 )


SHORT: Regular Via of Net I_A[3] & Blockage of Cell PF__N_9  ( V5 )
Bounds : ( 395.900, 1486.300 ) ( 395.900, 1486.500 )


SHORT: Regular Via of Net I_A[3] & Blockage of Cell PF__N_10  ( V5 )
Bounds : ( 396.100, 1486.300 ) ( 396.100, 1486.500 )


SHORT: Regular Via of Net I_A[3] & Blockage of Cell PF__N_9  ( M5 )
Bounds : ( 395.900, 1486.300 ) ( 395.900, 1486.500 )


SHORT: Regular Via of Net I_A[3] & Blockage of Cell PF__N_9  ( V4 )
Bounds : ( 395.900, 1486.300 ) ( 395.900, 1486.500 )


SHORT: Regular Via of Net I_A[3] & Blockage of Cell PF__N_10  ( V4 )
Bounds : ( 396.100, 1486.300 ) ( 396.100, 1486.500 )


SHORT: Regular Wire of Net I_A[0] & Blockage of Cell eecs427_pads0/PI_A__0_N7  ( M2 )
Bounds : ( 771.100, 1354.580 ) ( 771.300, 1475.700 )


SHORT: Regular Wire of Net I_A[0] & Blockage of Cell eecs427_pads0/PI_A__0_N7  ( M6 )
Bounds : ( 771.100, 1475.500 ) ( 771.300, 1486.400 )


SHORT: Regular Via of Net I_A[0] & Blockage of Cell eecs427_pads0/PI_A__0_N7  ( M5 )
Bounds : ( 771.100, 1475.500 ) ( 771.700, 1475.700 )


SHORT: Regular Via of Net I_A[0] & Blockage of Cell eecs427_pads0/PI_A__0_N7  ( V5 )
Bounds : ( 771.100, 1475.500 ) ( 771.300, 1475.700 )


SHORT: Regular Via of Net I_A[0] & Blockage of Cell eecs427_pads0/PI_A__0_N7  ( M4 )
Bounds : ( 771.100, 1475.500 ) ( 771.300, 1476.100 )


SHORT: Regular Via of Net I_A[0] & Blockage of Cell eecs427_pads0/PI_A__0_N7  ( V4 )
Bounds : ( 771.100, 1475.500 ) ( 771.300, 1475.700 )


SHORT: Regular Via of Net I_A[0] & Blockage of Cell eecs427_pads0/PI_A__0_N7  ( M3 )
Bounds : ( 771.100, 1475.500 ) ( 771.700, 1475.700 )


SHORT: Regular Via of Net I_A[0] & Blockage of Cell eecs427_pads0/PI_A__0_N7  ( V3 )
Bounds : ( 771.100, 1475.500 ) ( 771.300, 1475.700 )


SHORT: Regular Via of Net I_A[0] & Blockage of Cell eecs427_pads0/PI_A__0_N7  ( V2 )
Bounds : ( 771.100, 1475.500 ) ( 771.300, 1475.700 )


SHORT: Regular Wire of Net I_A[0] & Blockage of Cell eecs427_pads0/PI_A__0_N3  ( M6 )
Bounds : ( 477.900, 1418.700 ) ( 478.100, 1467.300 )


SHORT: Regular Wire of Net I_A[0] & Blockage of Cell eecs427_pads0/PI_A__0_N3  ( M6 )
Bounds : ( 477.500, 1354.580 ) ( 477.700, 1418.900 )


SHORT: Regular Via of Net I_A[0] & Pin of Cell eecs427_pads0/PI_A__0_N3  ( M6 )
Bounds : ( 477.500, 1354.300 ) ( 477.700, 1354.380 )


SHORT: Regular Via of Net I_A[0] & Pin of Cell eecs427_pads0/PI_A__0_N3  ( M5 )
Bounds : ( 477.500, 1354.300 ) ( 478.100, 1354.380 )


SHORT: Regular Via of Net I_A[0] & Blockage of Cell eecs427_pads0/PI_A__0_N3  ( V5 )
Bounds : ( 477.500, 1354.300 ) ( 477.700, 1354.500 )


SHORT: Regular Via of Net I_A[0] & Blockage of Cell eecs427_pads0/PI_A__0_N3  ( M4 )
Bounds : ( 477.500, 1354.580 ) ( 477.700, 1354.900 )


SHORT: Regular Via of Net I_A[0] & Blockage of Cell eecs427_pads0/PI_A__0_N3  ( V4 )
Bounds : ( 477.500, 1354.300 ) ( 477.700, 1354.500 )


SHORT: Regular Via of Net I_A[0] & Pin of Cell eecs427_pads0/PI_A__0_N3  ( M4 )
Bounds : ( 477.500, 1354.300 ) ( 477.700, 1354.380 )


SHORT: Regular Via of Net I_A[0] & Pin of Cell eecs427_pads0/PI_A__0_N3  ( M3 )
Bounds : ( 477.500, 1354.300 ) ( 478.100, 1354.380 )


SHORT: Regular Via of Net I_A[0] & Blockage of Cell eecs427_pads0/PI_A__0_N3  ( V3 )
Bounds : ( 477.500, 1354.300 ) ( 477.700, 1354.500 )


SHORT: Regular Via of Net I_A[0] & Blockage of Cell eecs427_pads0/PI_A__0_N3  ( V2 )
Bounds : ( 477.500, 1354.300 ) ( 477.700, 1354.500 )


SHORT: Regular Wire of Net I_A[0] & Blockage of Cell eecs427_pads0/PI_A__0_N3  ( M6 )
Bounds : ( 477.500, 1418.700 ) ( 478.100, 1418.900 )


SHORT: Regular Wire of Net I_A[0] & Blockage of Cell eecs427_pads0/PI_A__0_N3  ( M6 )
Bounds : ( 477.500, 1467.100 ) ( 477.700, 1486.400 )


SHORT: Regular Wire of Net I_A[0] & Blockage of Cell eecs427_pads0/PI_A__0_N3  ( M6 )
Bounds : ( 477.500, 1467.100 ) ( 478.100, 1467.300 )


SHORT: Regular Wire of Net I_A[1] & Blockage of Cell eecs427_pads0/PI_A__2_N5  ( M4 )
Bounds : ( 618.100, 1418.700 ) ( 618.100, 1486.500 )


SHORT: Regular Wire of Net I_A[1] & Blockage of Cell PF__N_23  ( M4 )
Bounds : ( 617.900, 1418.700 ) ( 617.900, 1486.500 )


SHORT: Regular Wire of Net I_A[2] & Blockage of Cell eecs427_pads0/PI_A__2_N5  ( M4 )
Bounds : ( 653.100, 1418.700 ) ( 653.300, 1474.500 )


SHORT: Regular Wire of Net I_A[3] & Blockage of Cell eecs427_pads0/PI_A__3_N6  ( M6 )
Bounds : ( 727.100, 1353.000 ) ( 727.300, 1486.400 )


SHORT: Regular Wire of Net I_A[1] & Blockage of Cell eecs427_pads0/PI_A__2_N5  ( M3 )
Bounds : ( 618.100, 1353.200 ) ( 618.100, 1418.900 )


SHORT: Regular Wire of Net I_A[1] & Blockage of Cell PF__N_23  ( M3 )
Bounds : ( 617.900, 1353.200 ) ( 617.900, 1418.900 )


SHORT: Regular Via of Net I_A[1] & Blockage of Cell eecs427_pads0/PI_A__2_N5  ( V3 )
Bounds : ( 618.100, 1418.700 ) ( 618.100, 1418.900 )


SHORT: Regular Via of Net I_A[1] & Blockage of Cell PF__N_23  ( V3 )
Bounds : ( 617.900, 1418.700 ) ( 617.900, 1418.900 )


SHORT: Regular Wire of Net I_A[2] & Blockage of Cell eecs427_pads0/PI_A__2_N5  ( M4 )
Bounds : ( 653.500, 1353.000 ) ( 653.700, 1418.900 )


SHORT: Regular Wire of Net I_A[2] & Blockage of Cell eecs427_pads0/PI_A__2_N5  ( M4 )
Bounds : ( 653.100, 1418.700 ) ( 653.700, 1418.900 )


SHORT: Regular Wire of Net I_A[1] & Blockage of Cell eecs427_pads0/PI_A__1_N4  ( M6 )
Bounds : ( 608.400, 1486.300 ) ( 614.400, 1486.500 )


SHORT: Regular Wire of Net I_A[1] & Blockage of Cell PF__N_22  ( M6 )
Bounds : ( 616.600, 1486.300 ) ( 617.900, 1486.500 )


SHORT: Regular Wire of Net I_A[1] & Blockage of Cell PF__N_20  ( M6 )
Bounds : ( 614.600, 1486.300 ) ( 615.400, 1486.500 )


SHORT: Regular Wire of Net I_A[1] & Blockage of Cell PF__N_21  ( M6 )
Bounds : ( 615.600, 1486.300 ) ( 616.400, 1486.500 )


SHORT: Regular Via of Net I_A[1] & Blockage of Cell eecs427_pads0/PI_A__2_N5  ( M6 )
Bounds : ( 618.100, 1486.300 ) ( 618.100, 1486.500 )


SHORT: Regular Via of Net I_A[1] & Blockage of Cell eecs427_pads0/PI_A__2_N5  ( M5 )
Bounds : ( 618.100, 1486.300 ) ( 618.500, 1486.500 )


SHORT: Regular Via of Net I_A[1] & Blockage of Cell eecs427_pads0/PI_A__2_N5  ( V5 )
Bounds : ( 618.100, 1486.300 ) ( 618.100, 1486.500 )


SHORT: Regular Via of Net I_A[1] & Blockage of Cell PF__N_23  ( V5 )
Bounds : ( 617.900, 1486.300 ) ( 617.900, 1486.500 )


SHORT: Regular Via of Net I_A[1] & Blockage of Cell PF__N_23  ( M5 )
Bounds : ( 617.900, 1486.300 ) ( 617.900, 1486.500 )


SHORT: Regular Via of Net I_A[1] & Blockage of Cell eecs427_pads0/PI_A__2_N5  ( V4 )
Bounds : ( 618.100, 1486.300 ) ( 618.100, 1486.500 )


SHORT: Regular Via of Net I_A[1] & Blockage of Cell PF__N_23  ( V4 )
Bounds : ( 617.900, 1486.300 ) ( 617.900, 1486.500 )


SHORT: Regular Wire of Net I_A[2] & Blockage of Cell eecs427_pads0/PI_A__2_N5  ( M6 )
Bounds : ( 653.100, 1474.300 ) ( 653.300, 1486.400 )


SHORT: Regular Via of Net I_A[2] & Blockage of Cell eecs427_pads0/PI_A__2_N5  ( M5 )
Bounds : ( 653.100, 1474.300 ) ( 653.700, 1474.500 )


SHORT: Regular Via of Net I_A[2] & Blockage of Cell eecs427_pads0/PI_A__2_N5  ( V5 )
Bounds : ( 653.100, 1474.300 ) ( 653.300, 1474.500 )


SHORT: Regular Via of Net I_A[2] & Blockage of Cell eecs427_pads0/PI_A__2_N5  ( V4 )
Bounds : ( 653.100, 1474.300 ) ( 653.300, 1474.500 )


SHORT: Regular Wire of Net I_A[1] & Blockage of Cell eecs427_pads0/PI_A__1_N8  ( M4 )
Bounds : ( 873.100, 1362.700 ) ( 873.300, 1420.100 )


SHORT: Regular Wire of Net I_A[2] & Blockage of Cell eecs427_pads0/PI_A__2_N9  ( M4 )
Bounds : ( 912.100, 1353.200 ) ( 912.100, 1486.500 )


SHORT: Regular Wire of Net I_A[2] & Blockage of Cell PF__N_39  ( M4 )
Bounds : ( 911.900, 1353.200 ) ( 911.900, 1486.500 )


SHORT: Regular Wire of Net I_A[1] & Blockage of Cell eecs427_pads0/PI_A__1_N8  ( M3 )
Bounds : ( 873.100, 1353.000 ) ( 873.300, 1362.900 )


SHORT: Regular Via of Net I_A[1] & Blockage of Cell eecs427_pads0/PI_A__1_N8  ( V3 )
Bounds : ( 873.100, 1362.700 ) ( 873.300, 1362.900 )


SHORT: Regular Wire of Net I_A[1] & Blockage of Cell eecs427_pads0/PI_A__1_N8  ( M3 )
Bounds : ( 873.500, 1419.900 ) ( 873.700, 1474.100 )


SHORT: Regular Wire of Net I_A[1] & Blockage of Cell eecs427_pads0/PI_A__1_N8  ( M3 )
Bounds : ( 873.100, 1419.900 ) ( 873.700, 1420.100 )


SHORT: Regular Via of Net I_A[1] & Blockage of Cell eecs427_pads0/PI_A__1_N8  ( V3 )
Bounds : ( 873.100, 1419.900 ) ( 873.300, 1420.100 )


SHORT: Regular Wire of Net I_A[1] & Blockage of Cell eecs427_pads0/PI_A__1_N8  ( M6 )
Bounds : ( 873.500, 1473.900 ) ( 873.700, 1486.400 )


SHORT: Regular Via of Net I_A[1] & Blockage of Cell eecs427_pads0/PI_A__1_N8  ( M5 )
Bounds : ( 873.500, 1473.900 ) ( 874.100, 1474.100 )


SHORT: Regular Via of Net I_A[1] & Blockage of Cell eecs427_pads0/PI_A__1_N8  ( V5 )
Bounds : ( 873.500, 1473.900 ) ( 873.700, 1474.100 )


SHORT: Regular Via of Net I_A[1] & Blockage of Cell eecs427_pads0/PI_A__1_N8  ( M4 )
Bounds : ( 873.500, 1473.900 ) ( 873.700, 1474.500 )


SHORT: Regular Via of Net I_A[1] & Blockage of Cell eecs427_pads0/PI_A__1_N8  ( V4 )
Bounds : ( 873.500, 1473.900 ) ( 873.700, 1474.100 )


SHORT: Regular Via of Net I_A[1] & Blockage of Cell eecs427_pads0/PI_A__1_N8  ( V3 )
Bounds : ( 873.500, 1473.900 ) ( 873.700, 1474.100 )


SHORT: Regular Wire of Net I_A[2] & Blockage of Cell eecs427_pads0/PI_A__2_N9  ( M6 )
Bounds : ( 912.100, 1486.300 ) ( 918.400, 1486.500 )


SHORT: Regular Via of Net I_A[2] & Blockage of Cell eecs427_pads0/PI_A__2_N9  ( M5 )
Bounds : ( 912.100, 1486.300 ) ( 912.500, 1486.500 )


SHORT: Regular Via of Net I_A[2] & Blockage of Cell PF__N_39  ( M6 )
Bounds : ( 911.900, 1486.300 ) ( 911.900, 1486.500 )


SHORT: Regular Via of Net I_A[2] & Blockage of Cell eecs427_pads0/PI_A__2_N9  ( V5 )
Bounds : ( 912.100, 1486.300 ) ( 912.100, 1486.500 )


SHORT: Regular Via of Net I_A[2] & Blockage of Cell PF__N_39  ( V5 )
Bounds : ( 911.900, 1486.300 ) ( 911.900, 1486.500 )


SHORT: Regular Via of Net I_A[2] & Blockage of Cell PF__N_39  ( M5 )
Bounds : ( 911.900, 1486.300 ) ( 911.900, 1486.500 )


SHORT: Regular Via of Net I_A[2] & Blockage of Cell eecs427_pads0/PI_A__2_N9  ( V4 )
Bounds : ( 912.100, 1486.300 ) ( 912.100, 1486.500 )


SHORT: Regular Via of Net I_A[2] & Blockage of Cell PF__N_39  ( V4 )
Bounds : ( 911.900, 1486.300 ) ( 911.900, 1486.500 )


SHORT: Regular Wire of Net I_A[1] & Blockage of Cell PF__N_41  ( M6 )
Bounds : ( 983.900, 1353.200 ) ( 983.900, 1486.500 )


SHORT: Regular Wire of Net I_A[1] & Blockage of Cell PF__N_42  ( M6 )
Bounds : ( 984.100, 1353.200 ) ( 984.100, 1486.500 )


SHORT: Regular Wire of Net I_A[2] & Blockage of Cell eecs427_pads0/PI_A__2_N11  ( M4 )
Bounds : ( 1066.700, 1418.300 ) ( 1066.900, 1473.300 )


SHORT: Regular Wire of Net I_A[2] & Blockage of Cell eecs427_pads0/PI_A__2_N11  ( M2 )
Bounds : ( 1066.700, 1354.580 ) ( 1066.900, 1418.500 )


SHORT: Regular Via of Net I_A[2] & Blockage of Cell eecs427_pads0/PI_A__2_N11  ( M3 )
Bounds : ( 1066.700, 1418.300 ) ( 1067.300, 1418.500 )


SHORT: Regular Via of Net I_A[2] & Blockage of Cell eecs427_pads0/PI_A__2_N11  ( V3 )
Bounds : ( 1066.700, 1418.300 ) ( 1066.900, 1418.500 )


SHORT: Regular Via of Net I_A[2] & Blockage of Cell eecs427_pads0/PI_A__2_N11  ( V2 )
Bounds : ( 1066.700, 1418.300 ) ( 1066.900, 1418.500 )


SHORT: Regular Wire of Net I_A[1] & Blockage of Cell eecs427_pads0/PI_A__1_N10  ( M6 )
Bounds : ( 985.600, 1486.300 ) ( 991.600, 1486.500 )


SHORT: Regular Wire of Net I_A[1] & Blockage of Cell PF__N_42  ( M6 )
Bounds : ( 984.100, 1486.300 ) ( 985.400, 1486.500 )


SHORT: Regular Wire of Net I_A[2] & Blockage of Cell eecs427_pads0/PI_A__2_N11  ( M6 )
Bounds : ( 1066.700, 1473.100 ) ( 1066.900, 1486.400 )


SHORT: Regular Via of Net I_A[2] & Blockage of Cell eecs427_pads0/PI_A__2_N11  ( M5 )
Bounds : ( 1066.700, 1473.100 ) ( 1067.300, 1473.300 )


SHORT: Regular Via of Net I_A[2] & Blockage of Cell eecs427_pads0/PI_A__2_N11  ( V5 )
Bounds : ( 1066.700, 1473.100 ) ( 1066.900, 1473.300 )


SHORT: Regular Via of Net I_A[2] & Blockage of Cell eecs427_pads0/PI_A__2_N11  ( V4 )
Bounds : ( 1066.700, 1473.100 ) ( 1066.900, 1473.300 )


SHORT: Regular Wire of Net I_A[0] & Blockage of Cell PF__E_17  ( M3 )
Bounds : ( 1412.700, 542.100 ) ( 1464.900, 542.100 )


SHORT: Regular Wire of Net I_A[0] & Blockage of Cell PF__E_16  ( M3 )
Bounds : ( 1412.700, 541.900 ) ( 1464.900, 541.900 )


SHORT: Regular Wire of Net I_A[3] & Blockage of Cell PF__S_48  ( M3 )
Bounds : ( 1129.900, 115.900 ) ( 1129.900, 170.900 )


SHORT: Regular Wire of Net I_A[3] & Blockage of Cell PF__S_49  ( M3 )
Bounds : ( 1130.100, 115.900 ) ( 1130.100, 170.900 )


SHORT: Regular Wire of Net I_A[3] & Blockage of Cell eecs427_pads0/PI_A__3_S12  ( M6 )
Bounds : ( 1132.600, 113.500 ) ( 1138.800, 113.700 )


SHORT: Regular Wire of Net I_A[3] & Blockage of Cell PF__S_50  ( M6 )
Bounds : ( 1131.100, 113.500 ) ( 1132.400, 113.700 )


SHORT: Regular Wire of Net I_A[3] & Blockage of Cell PF__S_48  ( M6 )
Bounds : ( 1129.900, 113.500 ) ( 1129.900, 116.100 )


SHORT: Regular Wire of Net I_A[3] & Blockage of Cell PF__S_49  ( M6 )
Bounds : ( 1130.100, 113.500 ) ( 1130.100, 116.100 )


SHORT: Regular Wire of Net I_A[3] & Blockage of Cell PF__S_49  ( M6 )
Bounds : ( 1130.100, 113.500 ) ( 1130.900, 113.700 )


SHORT: Regular Via of Net I_A[3] & Blockage of Cell PF__S_49  ( M5 )
Bounds : ( 1130.100, 115.900 ) ( 1130.500, 116.100 )


SHORT: Regular Via of Net I_A[3] & Blockage of Cell PF__S_48  ( V5 )
Bounds : ( 1129.900, 115.900 ) ( 1129.900, 116.100 )


SHORT: Regular Via of Net I_A[3] & Blockage of Cell PF__S_49  ( V5 )
Bounds : ( 1130.100, 115.900 ) ( 1130.100, 116.100 )


SHORT: Regular Via of Net I_A[3] & Blockage of Cell PF__S_48  ( M5 )
Bounds : ( 1129.900, 115.900 ) ( 1129.900, 116.100 )


SHORT: Regular Via of Net I_A[3] & Blockage of Cell PF__S_48  ( M4 )
Bounds : ( 1129.900, 115.900 ) ( 1129.900, 116.500 )


SHORT: Regular Via of Net I_A[3] & Blockage of Cell PF__S_49  ( M4 )
Bounds : ( 1130.100, 115.900 ) ( 1130.100, 116.500 )


SHORT: Regular Via of Net I_A[3] & Blockage of Cell PF__S_48  ( V4 )
Bounds : ( 1129.900, 115.900 ) ( 1129.900, 116.100 )


SHORT: Regular Via of Net I_A[3] & Blockage of Cell PF__S_49  ( V4 )
Bounds : ( 1130.100, 115.900 ) ( 1130.100, 116.100 )


SHORT: Regular Via of Net I_A[3] & Blockage of Cell PF__S_48  ( V3 )
Bounds : ( 1129.900, 115.900 ) ( 1129.900, 116.100 )


SHORT: Regular Via of Net I_A[3] & Blockage of Cell PF__S_49  ( V3 )
Bounds : ( 1130.100, 115.900 ) ( 1130.100, 116.100 )


SHORT: Regular Wire of Net I_A[3] & Blockage of Cell PF__S_48  ( M4 )
Bounds : ( 1129.900, 170.700 ) ( 1129.900, 219.700 )


SHORT: Regular Wire of Net I_A[3] & Blockage of Cell PF__S_49  ( M4 )
Bounds : ( 1130.100, 170.700 ) ( 1130.100, 219.700 )


SHORT: Regular Via of Net I_A[3] & Blockage of Cell PF__S_48  ( V3 )
Bounds : ( 1129.900, 170.700 ) ( 1129.900, 170.900 )


SHORT: Regular Via of Net I_A[3] & Blockage of Cell PF__S_49  ( V3 )
Bounds : ( 1130.100, 170.700 ) ( 1130.100, 170.900 )


SHORT: Regular Wire of Net I_A[3] & Blockage of Cell PF__S_48  ( M6 )
Bounds : ( 1129.900, 219.500 ) ( 1129.900, 246.800 )


SHORT: Regular Wire of Net I_A[3] & Blockage of Cell PF__S_49  ( M6 )
Bounds : ( 1130.100, 219.500 ) ( 1130.100, 246.800 )


SHORT: Regular Via of Net I_A[3] & Blockage of Cell PF__S_48  ( V4 )
Bounds : ( 1129.900, 219.500 ) ( 1129.900, 219.700 )


SHORT: Regular Via of Net I_A[3] & Blockage of Cell PF__S_49  ( V4 )
Bounds : ( 1130.100, 219.500 ) ( 1130.100, 219.700 )


SHORT: Regular Via of Net I_A[3] & Blockage of Cell PF__S_48  ( M5 )
Bounds : ( 1129.900, 219.500 ) ( 1129.900, 219.700 )


SHORT: Regular Via of Net I_A[3] & Blockage of Cell PF__S_49  ( M5 )
Bounds : ( 1130.100, 219.500 ) ( 1130.500, 219.700 )


SHORT: Regular Via of Net I_A[3] & Blockage of Cell PF__S_48  ( V5 )
Bounds : ( 1129.900, 219.500 ) ( 1129.900, 219.700 )


SHORT: Regular Via of Net I_A[3] & Blockage of Cell PF__S_49  ( V5 )
Bounds : ( 1130.100, 219.500 ) ( 1130.100, 219.700 )


SHORT: Regular Wire of Net I_A[0] & Blockage of Cell PF__E_17  ( M5 )
Bounds : ( 1353.200, 542.100 ) ( 1412.900, 542.100 )


SHORT: Regular Wire of Net I_A[0] & Blockage of Cell PF__E_16  ( M5 )
Bounds : ( 1353.200, 541.900 ) ( 1412.900, 541.900 )


SHORT: Regular Via of Net I_A[0] & Blockage of Cell PF__E_17  ( V3 )
Bounds : ( 1412.700, 542.100 ) ( 1412.900, 542.100 )


SHORT: Regular Via of Net I_A[0] & Blockage of Cell PF__E_16  ( V3 )
Bounds : ( 1412.700, 541.900 ) ( 1412.900, 541.900 )


SHORT: Regular Via of Net I_A[0] & Blockage of Cell PF__E_17  ( M4 )
Bounds : ( 1412.700, 542.100 ) ( 1412.900, 542.500 )


SHORT: Regular Via of Net I_A[0] & Blockage of Cell PF__E_16  ( M4 )
Bounds : ( 1412.700, 541.900 ) ( 1412.900, 541.900 )


SHORT: Regular Via of Net I_A[0] & Blockage of Cell PF__E_17  ( V4 )
Bounds : ( 1412.700, 542.100 ) ( 1412.900, 542.100 )


SHORT: Regular Via of Net I_A[0] & Blockage of Cell PF__E_16  ( V4 )
Bounds : ( 1412.700, 541.900 ) ( 1412.900, 541.900 )


SHORT: Regular Wire of Net I_A[0] & Blockage of Cell PF__E_17  ( M5 )
Bounds : ( 1464.700, 542.100 ) ( 1486.500, 542.100 )


SHORT: Regular Wire of Net I_A[0] & Blockage of Cell PF__E_16  ( M5 )
Bounds : ( 1464.700, 541.900 ) ( 1486.500, 541.900 )


SHORT: Regular Via of Net I_A[0] & Blockage of Cell PF__E_17  ( M4 )
Bounds : ( 1464.700, 542.100 ) ( 1464.900, 542.500 )


SHORT: Regular Via of Net I_A[0] & Blockage of Cell PF__E_17  ( V4 )
Bounds : ( 1464.700, 542.100 ) ( 1464.900, 542.100 )


SHORT: Regular Via of Net I_A[0] & Blockage of Cell PF__E_16  ( V4 )
Bounds : ( 1464.700, 541.900 ) ( 1464.900, 541.900 )


SHORT: Regular Via of Net I_A[0] & Blockage of Cell PF__E_16  ( M4 )
Bounds : ( 1464.700, 541.900 ) ( 1464.900, 541.900 )


SHORT: Regular Via of Net I_A[0] & Blockage of Cell PF__E_17  ( V3 )
Bounds : ( 1464.700, 542.100 ) ( 1464.900, 542.100 )


SHORT: Regular Via of Net I_A[0] & Blockage of Cell PF__E_16  ( V3 )
Bounds : ( 1464.700, 541.900 ) ( 1464.900, 541.900 )


SHORT: Regular Wire of Net I_A[0] & Blockage of Cell PF__E_16  ( M6 )
Bounds : ( 1486.300, 541.100 ) ( 1486.500, 541.900 )


SHORT: Regular Wire of Net I_A[0] & Blockage of Cell eecs427_pads0/PI_A__0_E3  ( M6 )
Bounds : ( 1486.300, 534.800 ) ( 1486.500, 540.900 )


SHORT: Regular Via of Net I_A[0] & Blockage of Cell PF__E_17  ( M6 )
Bounds : ( 1486.300, 542.100 ) ( 1486.500, 542.100 )


SHORT: Regular Via of Net I_A[0] & Blockage of Cell PF__E_17  ( V5 )
Bounds : ( 1486.300, 542.100 ) ( 1486.500, 542.100 )


SHORT: Regular Via of Net I_A[0] & Blockage of Cell PF__E_16  ( V5 )
Bounds : ( 1486.300, 541.900 ) ( 1486.500, 541.900 )


SHORT: Regular Wire of Net I_A[0] & Regular Wire of Net I_A[3]  ( M5 )
Bounds : ( 1413.500, 835.900 ) ( 1486.500, 836.100 )


SHORT: Regular Wire of Net I_A[1] & Blockage of Cell eecs427_pads0/PI_A__2_E9  ( M3 )
Bounds : ( 1353.200, 912.100 ) ( 1469.300, 912.100 )


SHORT: Regular Wire of Net I_A[1] & Blockage of Cell PF__E_39  ( M3 )
Bounds : ( 1353.200, 911.900 ) ( 1469.300, 911.900 )


SHORT: Regular Wire of Net I_A[1] & Blockage of Cell eecs427_pads0/PI_A__2_E5  ( M3 )
Bounds : ( 1412.700, 618.100 ) ( 1473.700, 618.100 )


SHORT: Regular Wire of Net I_A[1] & Blockage of Cell PF__E_23  ( M3 )
Bounds : ( 1412.700, 617.900 ) ( 1473.700, 617.900 )


SHORT: Regular Wire of Net I_A[1] & Regular Wire of Net I_A[2]  ( M3 )
Bounds : ( 1412.700, 617.900 ) ( 1463.300, 618.100 )


SHORT: Regular Wire of Net I_A[3] & Blockage of Cell PF__E_32  ( M5 )
Bounds : ( 1412.300, 835.900 ) ( 1486.500, 835.900 )


SHORT: Regular Wire of Net I_A[3] & Blockage of Cell PF__E_33  ( M5 )
Bounds : ( 1412.300, 836.100 ) ( 1486.500, 836.100 )


SHORT: Regular Wire of Net I_A[2] & Blockage of Cell PF__E_48  ( M5 )
Bounds : ( 1412.300, 1129.900 ) ( 1486.500, 1129.900 )


SHORT: Regular Wire of Net I_A[2] & Blockage of Cell PF__E_49  ( M5 )
Bounds : ( 1412.300, 1130.100 ) ( 1486.500, 1130.100 )


SHORT: Regular Wire of Net I_A[3] & Blockage of Cell eecs427_pads0/PP_tl_clean_VDD_E13  ( M3 )
Bounds : ( 1412.700, 1206.100 ) ( 1461.700, 1206.100 )


SHORT: Regular Wire of Net I_A[3] & Blockage of Cell PF__E_55  ( M3 )
Bounds : ( 1412.700, 1205.900 ) ( 1461.700, 1205.900 )


SHORT: Regular Wire of Net I_A[1] & Regular Wire of Net I_A[2]  ( M5 )
Bounds : ( 1355.000, 617.900 ) ( 1412.900, 618.100 )


SHORT: Regular Wire of Net I_A[1] & Blockage of Cell eecs427_pads0/PI_A__2_E5  ( M5 )
Bounds : ( 1353.200, 618.100 ) ( 1412.900, 618.100 )


SHORT: Regular Wire of Net I_A[1] & Blockage of Cell PF__E_23  ( M5 )
Bounds : ( 1353.200, 617.900 ) ( 1412.900, 617.900 )


SHORT: Regular Wire of Net I_A[1] & Regular Wire of Net I_A[2]  ( M5 )
Bounds : ( 1350.800, 618.300 ) ( 1351.000, 618.500 )


SHORT: Regular Wire of Net I_A[2] & Blockage of Cell eecs427_pads0/PI_A__2_E5  ( M5 )
Bounds : ( 1355.000, 618.100 ) ( 1355.200, 618.500 )


SHORT: Regular Wire of Net I_A[2] & Blockage of Cell eecs427_pads0/PI_A__2_E5  ( M5 )
Bounds : ( 1353.000, 618.300 ) ( 1355.200, 618.500 )


SHORT: Regular Via of Net I_A[1] & Regular Via of Net I_A[2]  ( V3 )
Bounds : ( 1412.700, 617.900 ) ( 1412.900, 618.100 )


SHORT: Regular Via of Net I_A[1] & Regular Via of Net I_A[2]  ( M4 )
Bounds : ( 1412.700, 617.900 ) ( 1412.900, 618.500 )


SHORT: Regular Via of Net I_A[1] & Regular Via of Net I_A[2]  ( V4 )
Bounds : ( 1412.700, 617.900 ) ( 1412.900, 618.100 )


SHORT: Regular Wire of Net I_A[0] & Blockage of Cell PF__E_32  ( M3 )
Bounds : ( 1353.200, 835.900 ) ( 1413.700, 835.900 )


SHORT: Regular Wire of Net I_A[0] & Blockage of Cell PF__E_33  ( M3 )
Bounds : ( 1353.200, 836.100 ) ( 1413.700, 836.100 )


SHORT: Regular Wire of Net I_A[3] & Blockage of Cell PF__E_32  ( M4 )
Bounds : ( 1353.200, 835.900 ) ( 1412.500, 835.900 )


SHORT: Regular Wire of Net I_A[3] & Blockage of Cell PF__E_33  ( M4 )
Bounds : ( 1353.200, 836.100 ) ( 1412.500, 836.100 )


SHORT: Regular Via of Net I_A[0] & Blockage of Cell PF__E_33  ( M4 )
Bounds : ( 1413.500, 836.100 ) ( 1413.700, 836.500 )


SHORT: Regular Via of Net I_A[0] & Blockage of Cell PF__E_32  ( V4 )
Bounds : ( 1413.500, 835.900 ) ( 1413.700, 835.900 )


SHORT: Regular Via of Net I_A[0] & Blockage of Cell PF__E_33  ( V4 )
Bounds : ( 1413.500, 836.100 ) ( 1413.700, 836.100 )


SHORT: Regular Via of Net I_A[0] & Blockage of Cell PF__E_32  ( M4 )
Bounds : ( 1413.500, 835.900 ) ( 1413.700, 835.900 )


SHORT: Regular Via of Net I_A[0] & Blockage of Cell PF__E_32  ( V3 )
Bounds : ( 1413.500, 835.900 ) ( 1413.700, 835.900 )


SHORT: Regular Via of Net I_A[0] & Blockage of Cell PF__E_33  ( V3 )
Bounds : ( 1413.500, 836.100 ) ( 1413.700, 836.100 )


SHORT: Regular Via of Net I_A[3] & Blockage of Cell PF__E_32  ( V4 )
Bounds : ( 1412.300, 835.900 ) ( 1412.500, 835.900 )


SHORT: Regular Via of Net I_A[3] & Blockage of Cell PF__E_33  ( V4 )
Bounds : ( 1412.300, 836.100 ) ( 1412.500, 836.100 )


SHORT: Regular Wire of Net I_A[2] & Blockage of Cell PF__E_48  ( M3 )
Bounds : ( 1353.200, 1129.900 ) ( 1412.500, 1129.900 )


SHORT: Regular Wire of Net I_A[2] & Blockage of Cell PF__E_49  ( M3 )
Bounds : ( 1353.200, 1130.100 ) ( 1412.500, 1130.100 )


SHORT: Regular Wire of Net I_A[3] & Blockage of Cell eecs427_pads0/PP_tl_clean_VDD_E13  ( M2 )
Bounds : ( 1353.200, 1206.100 ) ( 1412.900, 1206.100 )


SHORT: Regular Wire of Net I_A[3] & Blockage of Cell PF__E_55  ( M2 )
Bounds : ( 1353.200, 1205.900 ) ( 1412.900, 1205.900 )


SHORT: Regular Via of Net I_A[2] & Blockage of Cell PF__E_49  ( M4 )
Bounds : ( 1412.300, 1130.100 ) ( 1412.500, 1130.500 )


SHORT: Regular Via of Net I_A[2] & Blockage of Cell PF__E_48  ( V4 )
Bounds : ( 1412.300, 1129.900 ) ( 1412.500, 1129.900 )


SHORT: Regular Via of Net I_A[2] & Blockage of Cell PF__E_49  ( V4 )
Bounds : ( 1412.300, 1130.100 ) ( 1412.500, 1130.100 )


SHORT: Regular Via of Net I_A[2] & Blockage of Cell PF__E_48  ( M4 )
Bounds : ( 1412.300, 1129.900 ) ( 1412.500, 1129.900 )


SHORT: Regular Via of Net I_A[2] & Blockage of Cell PF__E_48  ( V3 )
Bounds : ( 1412.300, 1129.900 ) ( 1412.500, 1129.900 )


SHORT: Regular Via of Net I_A[2] & Blockage of Cell PF__E_49  ( V3 )
Bounds : ( 1412.300, 1130.100 ) ( 1412.500, 1130.100 )


SHORT: Regular Via of Net I_A[3] & Blockage of Cell eecs427_pads0/PP_tl_clean_VDD_E13  ( V2 )
Bounds : ( 1412.700, 1206.100 ) ( 1412.900, 1206.100 )


SHORT: Regular Via of Net I_A[3] & Blockage of Cell PF__E_55  ( V2 )
Bounds : ( 1412.700, 1205.900 ) ( 1412.900, 1205.900 )


SHORT: Regular Wire of Net I_A[1] & Blockage of Cell eecs427_pads0/PI_A__2_E9  ( M6 )
Bounds : ( 1483.900, 912.100 ) ( 1484.100, 981.900 )


SHORT: Regular Wire of Net I_A[1] & Regular Wire of Net I_A[2]  ( M5 )
Bounds : ( 1473.500, 617.900 ) ( 1486.500, 618.100 )


SHORT: Regular Wire of Net I_A[2] & Blockage of Cell eecs427_pads0/PI_A__2_E5  ( M5 )
Bounds : ( 1463.100, 618.100 ) ( 1486.500, 618.100 )


SHORT: Regular Wire of Net I_A[2] & Blockage of Cell PF__E_23  ( M5 )
Bounds : ( 1463.100, 617.900 ) ( 1486.500, 617.900 )


SHORT: Regular Via of Net I_A[2] & Blockage of Cell eecs427_pads0/PI_A__2_E5  ( M4 )
Bounds : ( 1463.100, 618.100 ) ( 1463.300, 618.500 )


SHORT: Regular Via of Net I_A[2] & Blockage of Cell eecs427_pads0/PI_A__2_E5  ( V4 )
Bounds : ( 1463.100, 618.100 ) ( 1463.300, 618.100 )


SHORT: Regular Via of Net I_A[2] & Blockage of Cell PF__E_23  ( V4 )
Bounds : ( 1463.100, 617.900 ) ( 1463.300, 617.900 )


SHORT: Regular Via of Net I_A[2] & Blockage of Cell PF__E_23  ( M4 )
Bounds : ( 1463.100, 617.900 ) ( 1463.300, 617.900 )


SHORT: Regular Via of Net I_A[2] & Blockage of Cell eecs427_pads0/PI_A__2_E5  ( V3 )
Bounds : ( 1463.100, 618.100 ) ( 1463.300, 618.100 )


SHORT: Regular Via of Net I_A[2] & Blockage of Cell PF__E_23  ( V3 )
Bounds : ( 1463.100, 617.900 ) ( 1463.300, 617.900 )


SHORT: Regular Via of Net I_A[1] & Blockage of Cell eecs427_pads0/PI_A__2_E5  ( M4 )
Bounds : ( 1473.500, 618.100 ) ( 1473.700, 618.500 )


SHORT: Regular Via of Net I_A[1] & Blockage of Cell eecs427_pads0/PI_A__2_E5  ( V4 )
Bounds : ( 1473.500, 618.100 ) ( 1473.700, 618.100 )


SHORT: Regular Via of Net I_A[1] & Blockage of Cell PF__E_23  ( V4 )
Bounds : ( 1473.500, 617.900 ) ( 1473.700, 617.900 )


SHORT: Regular Via of Net I_A[1] & Blockage of Cell PF__E_23  ( M4 )
Bounds : ( 1473.500, 617.900 ) ( 1473.700, 617.900 )


SHORT: Regular Via of Net I_A[1] & Blockage of Cell eecs427_pads0/PI_A__2_E5  ( V3 )
Bounds : ( 1473.500, 618.100 ) ( 1473.700, 618.100 )


SHORT: Regular Via of Net I_A[1] & Blockage of Cell PF__E_23  ( V3 )
Bounds : ( 1473.500, 617.900 ) ( 1473.700, 617.900 )


SHORT: Regular Wire of Net I_A[1] & Blockage of Cell eecs427_pads0/PI_A__1_E4  ( M6 )
Bounds : ( 1486.300, 608.400 ) ( 1486.500, 614.400 )


SHORT: Regular Wire of Net I_A[2] & Blockage of Cell eecs427_pads0/PI_A__2_E5  ( M6 )
Bounds : ( 1486.300, 618.100 ) ( 1486.500, 624.400 )


SHORT: Regular Wire of Net I_A[1] & Blockage of Cell PF__E_22  ( M6 )
Bounds : ( 1486.300, 616.600 ) ( 1486.500, 617.900 )


SHORT: Regular Wire of Net I_A[1] & Blockage of Cell PF__E_20  ( M6 )
Bounds : ( 1486.300, 614.600 ) ( 1486.500, 615.400 )


SHORT: Regular Wire of Net I_A[1] & Blockage of Cell PF__E_21  ( M6 )
Bounds : ( 1486.300, 615.600 ) ( 1486.500, 616.400 )


SHORT: Regular Via of Net I_A[1] & Regular Wire of Net I_A[2]  ( M6 )
Bounds : ( 1486.300, 617.900 ) ( 1486.500, 618.100 )


SHORT: Regular Via of Net I_A[1] & Regular Via of Net I_A[2]  ( V5 )
Bounds : ( 1486.300, 617.900 ) ( 1486.500, 618.100 )


SHORT: Regular Wire of Net I_A[0] & Blockage of Cell eecs427_pads0/PI_A__0_E7  ( M6 )
Bounds : ( 1486.300, 828.800 ) ( 1486.500, 834.900 )


SHORT: Regular Wire of Net I_A[3] & Blockage of Cell eecs427_pads0/PI_A__0_E7  ( M4 )
Bounds : ( 1486.300, 794.700 ) ( 1486.500, 834.900 )


SHORT: Regular Wire of Net I_A[3] & Blockage of Cell eecs427_pads0/PI_A__0_E7  ( M4 )
Bounds : ( 1486.700, 765.100 ) ( 1486.900, 794.900 )


SHORT: Regular Wire of Net I_A[3] & Blockage of Cell eecs427_pads0/PI_A__3_E6  ( M4 )
Bounds : ( 1486.700, 757.100 ) ( 1486.900, 761.400 )


SHORT: Regular Wire of Net I_A[3] & Blockage of Cell eecs427_pads0/PI_A__3_E6  ( M6 )
Bounds : ( 1486.700, 755.200 ) ( 1486.900, 757.300 )


SHORT: Regular Via of Net I_A[3] & Blockage of Cell eecs427_pads0/PI_A__3_E6  ( M5 )
Bounds : ( 1486.700, 757.100 ) ( 1487.300, 757.300 )


SHORT: Regular Via of Net I_A[3] & Blockage of Cell eecs427_pads0/PI_A__3_E6  ( V5 )
Bounds : ( 1486.700, 757.100 ) ( 1486.900, 757.300 )


SHORT: Regular Via of Net I_A[3] & Blockage of Cell eecs427_pads0/PI_A__3_E6  ( V4 )
Bounds : ( 1486.700, 757.100 ) ( 1486.900, 757.300 )


SHORT: Regular Wire of Net I_A[3] & Blockage of Cell PF__E_29  ( M4 )
Bounds : ( 1486.700, 762.600 ) ( 1486.900, 763.400 )


SHORT: Regular Wire of Net I_A[3] & Blockage of Cell PF__E_30  ( M4 )
Bounds : ( 1486.700, 763.600 ) ( 1486.900, 764.900 )


SHORT: Regular Wire of Net I_A[3] & Blockage of Cell PF__E_28  ( M4 )
Bounds : ( 1486.700, 761.600 ) ( 1486.900, 762.400 )


SHORT: Regular Wire of Net I_A[3] & Blockage of Cell eecs427_pads0/PI_A__0_E7  ( M4 )
Bounds : ( 1486.300, 794.700 ) ( 1486.900, 794.900 )


SHORT: Regular Wire of Net I_A[1] & Blockage of Cell eecs427_pads0/PI_A__2_E9  ( M5 )
Bounds : ( 1469.100, 912.100 ) ( 1486.500, 912.100 )


SHORT: Regular Wire of Net I_A[1] & Blockage of Cell PF__E_39  ( M5 )
Bounds : ( 1469.100, 911.900 ) ( 1486.500, 911.900 )


SHORT: Regular Via of Net I_A[1] & Blockage of Cell eecs427_pads0/PI_A__2_E9  ( M4 )
Bounds : ( 1469.100, 912.100 ) ( 1469.300, 912.500 )


SHORT: Regular Via of Net I_A[1] & Blockage of Cell eecs427_pads0/PI_A__2_E9  ( V4 )
Bounds : ( 1469.100, 912.100 ) ( 1469.300, 912.100 )


SHORT: Regular Via of Net I_A[1] & Blockage of Cell PF__E_39  ( V4 )
Bounds : ( 1469.100, 911.900 ) ( 1469.300, 911.900 )


SHORT: Regular Via of Net I_A[1] & Blockage of Cell PF__E_39  ( M4 )
Bounds : ( 1469.100, 911.900 ) ( 1469.300, 911.900 )


SHORT: Regular Via of Net I_A[1] & Blockage of Cell eecs427_pads0/PI_A__2_E9  ( V3 )
Bounds : ( 1469.100, 912.100 ) ( 1469.300, 912.100 )


SHORT: Regular Via of Net I_A[1] & Blockage of Cell PF__E_39  ( V3 )
Bounds : ( 1469.100, 911.900 ) ( 1469.300, 911.900 )


SHORT: Regular Wire of Net I_A[0] & Blockage of Cell PF__E_32  ( M6 )
Bounds : ( 1486.300, 835.100 ) ( 1486.500, 835.900 )


SHORT: Regular Via of Net I_A[0] & Blockage of Cell PF__E_33  ( M6 )
Bounds : ( 1486.300, 836.100 ) ( 1486.500, 836.100 )


SHORT: Regular Via of Net I_A[0] & Blockage of Cell PF__E_32  ( V5 )
Bounds : ( 1486.300, 835.900 ) ( 1486.500, 835.900 )


SHORT: Regular Via of Net I_A[0] & Blockage of Cell PF__E_33  ( V5 )
Bounds : ( 1486.300, 836.100 ) ( 1486.500, 836.100 )


SHORT: Regular Via of Net I_A[3] & Blockage of Cell PF__E_32  ( V4 )
Bounds : ( 1486.300, 835.900 ) ( 1486.500, 835.900 )


SHORT: Regular Via of Net I_A[3] & Blockage of Cell PF__E_33  ( V4 )
Bounds : ( 1486.300, 836.100 ) ( 1486.500, 836.100 )


SHORT: Regular Wire of Net I_A[3] & Blockage of Cell PF__E_32  ( M4 )
Bounds : ( 1486.300, 835.100 ) ( 1486.500, 835.900 )


SHORT: Regular Wire of Net I_A[3] & Blockage of Cell PF__E_33  ( M4 )
Bounds : ( 1486.300, 836.100 ) ( 1486.500, 836.100 )


SHORT: Regular Wire of Net I_A[1] & Blockage of Cell eecs427_pads0/PI_A__1_E8  ( M6 )
Bounds : ( 1486.300, 902.400 ) ( 1486.500, 908.400 )


SHORT: Regular Wire of Net I_A[1] & Blockage of Cell PF__E_38  ( M6 )
Bounds : ( 1486.300, 910.600 ) ( 1486.500, 911.900 )


SHORT: Regular Wire of Net I_A[1] & Blockage of Cell PF__E_36  ( M6 )
Bounds : ( 1486.300, 908.600 ) ( 1486.500, 909.400 )


SHORT: Regular Wire of Net I_A[1] & Blockage of Cell PF__E_37  ( M6 )
Bounds : ( 1486.300, 909.600 ) ( 1486.500, 910.400 )


SHORT: Regular Via of Net I_A[1] & Blockage of Cell eecs427_pads0/PI_A__2_E9  ( M6 )
Bounds : ( 1486.300, 912.100 ) ( 1486.500, 912.100 )


SHORT: Regular Via of Net I_A[1] & Blockage of Cell eecs427_pads0/PI_A__2_E9  ( V5 )
Bounds : ( 1486.300, 912.100 ) ( 1486.500, 912.100 )


SHORT: Regular Via of Net I_A[1] & Blockage of Cell PF__E_39  ( V5 )
Bounds : ( 1486.300, 911.900 ) ( 1486.500, 911.900 )


SHORT: Regular Via of Net I_A[1] & Blockage of Cell PF__E_39  ( M6 )
Bounds : ( 1483.900, 911.900 ) ( 1484.100, 911.900 )


SHORT: Regular Via of Net I_A[1] & Blockage of Cell eecs427_pads0/PI_A__2_E9  ( V5 )
Bounds : ( 1483.900, 912.100 ) ( 1484.100, 912.100 )


SHORT: Regular Via of Net I_A[1] & Blockage of Cell PF__E_39  ( V5 )
Bounds : ( 1483.900, 911.900 ) ( 1484.100, 911.900 )


SHORT: Regular Wire of Net I_A[2] & Blockage of Cell eecs427_pads0/PI_A__1_E10  ( M6 )
Bounds : ( 1490.300, 985.600 ) ( 1490.500, 1055.400 )


SHORT: Regular Wire of Net I_A[2] & Blockage of Cell eecs427_pads0/PI_A__2_E9  ( M6 )
Bounds : ( 1490.300, 975.600 ) ( 1490.500, 981.900 )


SHORT: Regular Wire of Net I_A[1] & Blockage of Cell eecs427_pads0/PI_A__1_E10  ( M6 )
Bounds : ( 1486.300, 985.600 ) ( 1486.500, 991.600 )


SHORT: Regular Wire of Net I_A[1] & Blockage of Cell PF__E_42  ( M6 )
Bounds : ( 1486.300, 984.100 ) ( 1486.500, 985.400 )


SHORT: Regular Wire of Net I_A[1] & Blockage of Cell PF__E_41  ( M6 )
Bounds : ( 1483.900, 983.900 ) ( 1486.500, 983.900 )


SHORT: Regular Wire of Net I_A[1] & Blockage of Cell PF__E_42  ( M6 )
Bounds : ( 1483.900, 984.100 ) ( 1486.500, 984.100 )


SHORT: Regular Wire of Net I_A[1] & Blockage of Cell PF__E_41  ( M6 )
Bounds : ( 1483.900, 983.100 ) ( 1484.100, 983.900 )


SHORT: Regular Wire of Net I_A[1] & Blockage of Cell PF__E_40  ( M6 )
Bounds : ( 1483.900, 982.100 ) ( 1484.100, 982.900 )


SHORT: Regular Wire of Net I_A[2] & Blockage of Cell PF__E_41  ( M6 )
Bounds : ( 1490.300, 983.100 ) ( 1490.500, 983.900 )


SHORT: Regular Wire of Net I_A[2] & Blockage of Cell PF__E_42  ( M6 )
Bounds : ( 1490.300, 984.100 ) ( 1490.500, 985.400 )


SHORT: Regular Wire of Net I_A[2] & Blockage of Cell PF__E_40  ( M6 )
Bounds : ( 1490.300, 982.100 ) ( 1490.500, 982.900 )


SHORT: Regular Wire of Net I_A[2] & Blockage of Cell eecs427_pads0/PI_A__2_E11  ( M6 )
Bounds : ( 1490.300, 1059.100 ) ( 1490.500, 1065.200 )


SHORT: Regular Wire of Net I_A[2] & Blockage of Cell PF__E_45  ( M6 )
Bounds : ( 1490.300, 1056.600 ) ( 1490.500, 1057.400 )


SHORT: Regular Wire of Net I_A[2] & Blockage of Cell PF__E_46  ( M6 )
Bounds : ( 1490.300, 1057.600 ) ( 1490.500, 1058.900 )


SHORT: Regular Wire of Net I_A[2] & Blockage of Cell PF__E_44  ( M6 )
Bounds : ( 1490.300, 1055.600 ) ( 1490.500, 1056.400 )


SHORT: Regular Wire of Net I_A[2] & Blockage of Cell eecs427_pads0/PI_A__2_E11  ( M6 )
Bounds : ( 1486.300, 1122.800 ) ( 1486.500, 1128.900 )


SHORT: Regular Wire of Net I_A[2] & Blockage of Cell PF__E_48  ( M6 )
Bounds : ( 1486.300, 1129.100 ) ( 1486.500, 1129.900 )


SHORT: Regular Via of Net I_A[2] & Blockage of Cell PF__E_49  ( M6 )
Bounds : ( 1486.300, 1130.100 ) ( 1486.500, 1130.100 )


SHORT: Regular Via of Net I_A[2] & Blockage of Cell PF__E_48  ( V5 )
Bounds : ( 1486.300, 1129.900 ) ( 1486.500, 1129.900 )


SHORT: Regular Via of Net I_A[2] & Blockage of Cell PF__E_49  ( V5 )
Bounds : ( 1486.300, 1130.100 ) ( 1486.500, 1130.100 )


SHORT: Regular Wire of Net I_A[3] & Blockage of Cell eecs427_pads0/PP_tl_clean_VDD_E13  ( M5 )
Bounds : ( 1461.500, 1206.100 ) ( 1486.500, 1206.100 )


SHORT: Regular Wire of Net I_A[3] & Blockage of Cell PF__E_55  ( M5 )
Bounds : ( 1461.500, 1205.900 ) ( 1486.500, 1205.900 )


SHORT: Regular Via of Net I_A[3] & Blockage of Cell eecs427_pads0/PP_tl_clean_VDD_E13  ( M4 )
Bounds : ( 1461.500, 1206.100 ) ( 1461.700, 1206.500 )


SHORT: Regular Via of Net I_A[3] & Blockage of Cell eecs427_pads0/PP_tl_clean_VDD_E13  ( V4 )
Bounds : ( 1461.500, 1206.100 ) ( 1461.700, 1206.100 )


SHORT: Regular Via of Net I_A[3] & Blockage of Cell PF__E_55  ( V4 )
Bounds : ( 1461.500, 1205.900 ) ( 1461.700, 1205.900 )


SHORT: Regular Via of Net I_A[3] & Blockage of Cell PF__E_55  ( M4 )
Bounds : ( 1461.500, 1205.900 ) ( 1461.700, 1205.900 )


SHORT: Regular Via of Net I_A[3] & Blockage of Cell eecs427_pads0/PP_tl_clean_VDD_E13  ( V3 )
Bounds : ( 1461.500, 1206.100 ) ( 1461.700, 1206.100 )


SHORT: Regular Via of Net I_A[3] & Blockage of Cell PF__E_55  ( V3 )
Bounds : ( 1461.500, 1205.900 ) ( 1461.700, 1205.900 )


SHORT: Regular Wire of Net I_A[3] & Blockage of Cell eecs427_pads0/PI_A__3_E12  ( M6 )
Bounds : ( 1486.300, 1196.400 ) ( 1486.500, 1202.400 )


SHORT: Regular Wire of Net I_A[3] & Blockage of Cell PF__E_55  ( M6 )
Bounds : ( 1486.300, 1204.600 ) ( 1486.500, 1205.900 )


SHORT: Regular Wire of Net I_A[3] & Blockage of Cell PF__E_52  ( M6 )
Bounds : ( 1486.300, 1202.600 ) ( 1486.500, 1203.400 )


SHORT: Regular Wire of Net I_A[3] & Blockage of Cell PF__E_53  ( M6 )
Bounds : ( 1486.300, 1203.600 ) ( 1486.500, 1204.400 )


SHORT: Regular Via of Net I_A[3] & Blockage of Cell eecs427_pads0/PP_tl_clean_VDD_E13  ( M6 )
Bounds : ( 1486.300, 1206.100 ) ( 1486.500, 1206.100 )


SHORT: Regular Via of Net I_A[3] & Blockage of Cell eecs427_pads0/PP_tl_clean_VDD_E13  ( V5 )
Bounds : ( 1486.300, 1206.100 ) ( 1486.500, 1206.100 )


SHORT: Regular Via of Net I_A[3] & Blockage of Cell PF__E_55  ( V5 )
Bounds : ( 1486.300, 1205.900 ) ( 1486.500, 1205.900 )


SHORT: Regular Wire of Net I_A[3] & Blockage of Cell eecs427_pads0/PI_A__3_N12  ( M6 )
Bounds : ( 1167.900, 1353.000 ) ( 1168.100, 1486.400 )



Begin Summary ...
  Cells       : 0
  SameNet     : 0
  Wiring      : 0
  Antenna     : 0
  Short       : 631
  Overlap     : 0
End Summary

  Total Violations : 631 Viols.
