

#################################################################################################################
                                     Instance Name           Movement (microns)        Orig Loc        New Loc
#################################################################################################################
                                              U719                18.8       (95.6, 39.6)       (80.4, 43.2)
                                              U720                  18       (94.4, 36)       (98, 21.6)
                                        WE_reg_3_0                14.4       (101.2, 57.6)       (101.2, 43.2)
                                              U717                  14       (92, 50.4)       (95.2, 39.6)
                                FE_DBTC5_rDest_3_0                13.6       (82.4, 50.4)       (85.2, 39.6)
                                              U723                12.8       (94, 39.6)       (84.8, 36)
                                              U947                12.4       (50, 50.4)       (51.6, 39.6)
                                              U626                12.4       (90.4, 50.4)       (92, 39.6)
                                              U910                  12       (51.2, 50.4)       (59.6, 46.8)
                                              U673                11.6       (56, 50.4)       (60.4, 43.2)
                                              U710                11.2       (34.8, 46.8)       (34.4, 57.6)
                                              U709                11.2       (36.4, 46.8)       (36, 36)
                                              U911                11.2       (45.2, 50.4)       (49.2, 43.2)
                                              U949                11.2       (38.4, 46.8)       (38, 57.6)
                                              U888                11.2       (41.2, 54)       (37.2, 46.8)
                                              U885                11.2       (43.2, 54)       (42.8, 43.2)
                                              U868                10.8       (14, 50.4)       (10.4, 57.6)
                                              U724                10.8       (91.2, 46.8)       (91.2, 57.6)
                                              U810                10.8       (9.2, 46.8)       (9.2, 57.6)
                                              U832                10.8       (83.2, 46.8)       (83.2, 57.6)
                                              U705                10.8       (30.8, 46.8)       (30.8, 57.6)
                                              U703                10.8       (29.2, 46.8)       (29.2, 36)
                                              U566                10.8       (88.8, 50.4)       (88.8, 39.6)
                                      tie_LTIELO_1                10.8       (12.8, 46.8)       (12.8, 57.6)
                                              U842                10.4       (59.6, 50.4)       (62.8, 43.2)
                                              U787                10.4       (84.4, 46.8)       (94.8, 46.8)
                                              U725                10.4       (92.8, 43.2)       (89.6, 36)
                                              U950                10.4       (73.6, 50.4)       (76.8, 43.2)
                                              U928                10.4       (58.4, 50.4)       (61.6, 43.2)
                                              U874                  10       (25.2, 54)       (28, 46.8)
                                              U859                  10       (7.6, 46.8)       (14, 43.2)
                                              U702                  10       (32.8, 46.8)       (35.6, 39.6)
                                              U542                 9.2       (74.8, 57.6)       (80.4, 54)
                                              U539                 9.2       (66.8, 57.6)       (72.4, 54)
                                              U538                 9.2       (70.8, 57.6)       (76.4, 54)
                                              U537                 9.2       (72.8, 57.6)       (78.4, 54)
                                              U536                 9.2       (68.8, 57.6)       (74.4, 54)
                                              U718                 8.8       (93.6, 50.4)       (95.2, 57.6)
                                              U620                 8.8       (101.2, 43.2)       (92.4, 43.2)
                                              U867                 8.8       (15.2, 50.4)       (16.8, 57.6)
                                              U715                 8.4       (87.2, 50.4)       (88.4, 43.2)
                                        tie_LTIELO                   8       (35.2, 50.4)       (36, 57.6)
                                              U898                   8       (14, 43.2)       (18.4, 39.6)
                                              U942                 7.6       (52.4, 50.4)       (52, 57.6)
                                              U882                 7.6       (35.6, 54)       (35.2, 46.8)
                                              U873                 7.6       (26.4, 54)       (26, 46.8)
                                              U872                 7.6       (22.8, 54)       (22.4, 46.8)
                                              U891                 7.6       (29.6, 54)       (29.2, 46.8)
                                              U866                 7.6       (18.4, 54)       (14.4, 50.4)
                                              U844                 7.6       (80.4, 43.2)       (80, 36)
                                              U679                 7.6       (45.2, 43.2)       (52.8, 43.2)
                                              U700                 7.2       (27.2, 43.2)       (34.4, 43.2)
                                              U714                 7.2       (91.2, 43.2)       (91.2, 36)
                                              U559                 7.2       (88.8, 46.8)       (85.2, 43.2)
                                  Col_Sel_reg_12_0                 7.2       (7.2, 54)       (7.2, 46.8)
                                 instruReg_reg_8_0                 7.2       (79.2, 57.6)       (82.8, 54)
                                              U809                 7.2       (53.6, 50.4)       (57.2, 46.8)
                                              U886                 7.2       (40.8, 50.4)       (40.8, 57.6)
                                              U901                 7.2       (18.4, 39.6)       (22, 36)
                                              U916                 6.8       (74.8, 46.8)       (78, 43.2)
                                              U611                 6.8       (96, 50.4)       (89.2, 50.4)
                                              U693                 6.8       (85.6, 50.4)       (88.8, 46.8)
                                              U699                 6.4       (34.4, 43.2)       (37.2, 39.6)
                                    clk__Exclude_0                 6.4       (63.2, 57.6)       (60.4, 54)
                                              U755                 6.4       (72.8, 46.8)       (75.6, 43.2)
                                              U865                   6       (14, 54)       (11.6, 57.6)
                                              U534                   6       (62.4, 57.6)       (56.4, 57.6)
                                              U545                 5.6       (60, 57.6)       (58, 54)
                                        clk__L1_I0                 5.6       (63.2, 57.6)       (65.2, 54)
                                              U609                 5.6       (88, 57.6)       (90, 54)
                                              U895                 5.6       (19.2, 46.8)       (24.8, 46.8)
                                              U887                 5.2       (37.6, 54)       (39.2, 50.4)
                                              U871                 5.2       (17.2, 54)       (18.8, 57.6)
                                              U907                 5.2       (85.2, 39.6)       (83.6, 36)
                                              U814                 5.2       (42, 39.6)       (47.2, 39.6)
                                              U794                 5.2       (51.2, 39.6)       (56.4, 39.6)
                                              U783                 5.2       (46.8, 50.4)       (48.4, 46.8)
                                              U606                 5.2       (90.4, 57.6)       (92, 54)
                                              U675                 5.2       (50, 39.6)       (55.2, 39.6)
                                              U555                 5.2       (84, 50.4)       (85.6, 46.8)
                                              U704                 5.2       (27.6, 46.8)       (32.8, 46.8)
                                              U706                 5.2       (26, 46.8)       (31.2, 46.8)
                                              U711                 4.8       (24.4, 46.8)       (25.6, 43.2)
                                              U843                 4.8       (68, 50.4)       (66.8, 46.8)
                                              U835                 4.8       (55.6, 39.6)       (60.4, 39.6)
                                              U883                 4.8       (34.4, 54)       (33.2, 57.6)
                                              U897                 4.8       (14, 46.8)       (18.8, 46.8)
                                              U914                 4.4       (65.6, 46.8)       (66.4, 43.2)
                                              U948                 4.4       (64.8, 50.4)       (64, 54)
                                              U806                 4.4       (78.4, 46.8)       (79.2, 43.2)
                                              U811                 4.4       (68, 46.8)       (68.8, 43.2)
                                              U750                 4.4       (40.4, 39.6)       (39.6, 36)
                                   Col_Sel_reg_6_0                 4.4       (45.2, 54)       (44.4, 50.4)
                                instruReg_reg_12_0                 4.4       (74.4, 54)       (75.2, 50.4)
                                instruReg_reg_10_0                 4.4       (52, 54)       (51.2, 50.4)
                                instruReg_reg_11_0                 4.4       (58.8, 54)       (58, 50.4)
                                 instruReg_reg_9_0                 4.4       (81.2, 54)       (82, 50.4)
                                        WE_reg_0_0                   4       (94.4, 57.6)       (94.8, 54)
                                              U535                   4       (72.4, 54)       (72.8, 50.4)
                                instruReg_reg_15_0                   4       (75.2, 50.4)       (75.6, 46.8)
                                              U540                   4       (76.8, 57.6)       (80.8, 57.6)
                                              U548                   4       (58, 57.6)       (54, 57.6)
                                              U727                   4       (92.4, 39.6)       (92.8, 36)
                                              U839                   4       (70.8, 50.4)       (70.4, 46.8)
                                              U864                   4       (15.2, 54)       (14.8, 57.6)
                                              U852                   4       (104.8, 43.2)       (105.2, 46.8)
                                              U892                   4       (28.4, 54)       (28, 57.6)
                                              U890                   4       (32, 54)       (31.6, 50.4)
                                              U889                   4       (40, 54)       (39.6, 57.6)
                                              U870                   4       (20.8, 54)       (20.4, 57.6)
                                              U944                 3.6       (38, 36)       (38, 32.4)
                                              U856                 3.6       (105.2, 50.4)       (105.2, 54)
                                              U854                 3.6       (105.2, 46.8)       (105.2, 50.4)
                                              U838                 3.6       (60.8, 50.4)       (60.8, 46.8)
                                              U726                 3.6       (89.6, 54)       (89.6, 57.6)
                                              U547                 3.6       (54, 57.6)       (54, 54)
                                              U546                 3.6       (50, 57.6)       (50, 54)
                                              U678                 3.6       (61.6, 43.2)       (61.6, 39.6)
                                              U607                 3.6       (98, 54)       (101.6, 54)
                                              U713                 3.6       (88, 54)       (88, 57.6)
                                              U544                 3.6       (48, 57.6)       (48, 54)
                                              U543                 3.6       (56, 57.6)       (56, 54)
                                              U533                 3.6       (52, 57.6)       (52, 54)
                                instruReg_reg_13_0                 3.6       (65.6, 54)       (65.6, 50.4)
                                  Col_Sel_reg_13_0                 3.6       (7.2, 57.6)       (7.2, 54)
                                  Col_Sel_reg_11_0                 3.6       (14, 57.6)       (14, 54)
                                        WE_reg_2_0                 3.6       (91.2, 54)       (91.2, 50.4)
                                        WE_reg_4_0                 3.6       (100, 54)       (100, 57.6)
                                   Col_Sel_reg_5_0                 3.6       (41.2, 57.6)       (41.2, 54)
                                   Col_Sel_reg_4_0                 3.6       (27.6, 57.6)       (27.6, 54)
                                  Col_Sel_reg_10_0                 3.6       (20.8, 57.6)       (20.8, 54)
                                   Col_Sel_reg_7_0                 3.6       (34.4, 57.6)       (34.4, 54)
                                              U554                 3.2       (38.8, 39.6)       (42, 39.6)
                                              U552                 3.2       (87.2, 46.8)       (90.4, 46.8)
                                              U557                 3.2       (37.2, 39.6)       (40.4, 39.6)
                                              U563                 3.2       (35.6, 39.6)       (38.8, 39.6)
                                              U858                 3.2       (10.8, 46.8)       (14, 46.8)
                                              U904                 3.2       (22.8, 36)       (26, 36)
                                              U915                 2.8       (70.4, 46.8)       (73.2, 46.8)
                                              U945                 2.8       (35.2, 36)       (32.4, 36)
                                              U721                 2.8       (90.8, 39.6)       (93.6, 39.6)
                                               U72                 2.8       (106.8, 54)       (104, 54)
                                              U841                 2.4       (61.2, 46.8)       (63.6, 46.8)
                                              U846                 2.4       (80, 46.8)       (82.4, 46.8)
                                              U906                 2.4       (68, 43.2)       (70.4, 43.2)
                                              U805                   2       (42.8, 43.2)       (44.8, 43.2)
                                              U701                   2       (22.8, 46.8)       (20.8, 46.8)
