************************************************************************
* auCdl Netlist:
* 
* Library Name:  CAD4_LIB
* Top Cell Name: RIPPLE_4BIT_LAST_4BIT
* View Name:     schematic
* Netlisted on:  Oct 10 15:51:24 2018
************************************************************************

*.EQUATION
*.SCALE METER
*.MEGA
.PARAM

*.GLOBAL VSS!
+        VDD!

*.PIN VSS!
*+    VDD!

************************************************************************
* Library Name: CAD4_LIB
* Cell Name:    RIPPLE_BIT
* View Name:    schematic
************************************************************************

.SUBCKT RIPPLE_BIT A B CIN COUT SUM
*.PININFO A:I B:I CIN:I COUT:O SUM:O
MT27 SUM net32 VSS! VSS! nfet m=1 l=120.0n w=280.0n nf=1 par=1 ngcon=1 
+ mSwitch=0 idg=0 psp=0
MT25 COUT net40 VSS! VSS! nfet m=1 l=120.0n w=400n nf=1 par=1 ngcon=1 
+ mSwitch=0 idg=0 psp=0
MT23 net40 net34 VSS! VSS! nfet m=1 l=120.0n w=400n nf=1 par=1 ngcon=1 
+ mSwitch=0 idg=0 psp=0
MT20 net32 AXNORB CIN VSS! nfet m=1 l=120.0n w=280.0n nf=1 par=1 ngcon=1 
+ mSwitch=0 idg=0 psp=0
MT18 net32 AXORB CIN_BAR VSS! nfet m=1 l=120.0n w=280.0n nf=1 par=1 ngcon=1 
+ mSwitch=0 idg=0 psp=0
MT16 net34 AXORB CIN VSS! nfet m=1 l=120.0n w=280.0n nf=1 par=1 ngcon=1 
+ mSwitch=0 idg=0 psp=0
MT14 net34 AXNORB B VSS! nfet m=1 l=120.0n w=280.0n nf=1 par=1 ngcon=1 
+ mSwitch=0 idg=0 psp=0
MT13 AXNORB AXORB VSS! VSS! nfet m=1 l=120.0n w=490.0n nf=1 par=1 ngcon=1 
+ mSwitch=0 idg=0 psp=0
MT9 CIN_BAR CIN VSS! VSS! nfet m=1 l=120.0n w=440.0n nf=1 par=1 ngcon=1 
+ mSwitch=0 idg=0 psp=0
MT5 AXORB B A_BAR VSS! nfet m=1 l=120.0n w=280.0n nf=1 par=1 ngcon=1 mSwitch=0 
+ idg=0 psp=0
MT3 AXORB B_BAR A VSS! nfet m=1 l=120.0n w=280.0n nf=1 par=1 ngcon=1 mSwitch=0 
+ idg=0 psp=0
MT8 B_BAR B VSS! VSS! nfet m=1 l=120.0n w=480.0n nf=1 par=1 ngcon=1 mSwitch=0 
+ idg=0 psp=0
MT0 A_BAR A VSS! VSS! nfet m=1 l=120.0n w=360.0n nf=1 par=1 ngcon=1 mSwitch=0 
+ idg=0 psp=0
MT26 SUM net32 VDD! VDD! pfet m=1 l=120.0n w=860.0n nf=1 par=1 ngcon=1 
+ mSwitch=0 idg=0 psp=0
MT24 COUT net40 VDD! VDD! pfet m=1 l=120.0n w=860.0n nf=1 par=1 ngcon=1 
+ mSwitch=0 idg=0 psp=0
MT22 net40 net34 VDD! VDD! pfet m=1 l=120.0n w=860.0n nf=1 par=1 ngcon=1 
+ mSwitch=0 idg=0 psp=0
MT21 net32 AXORB CIN VDD! pfet m=1 l=120.0n w=280.0n nf=1 par=1 ngcon=1 
+ mSwitch=0 idg=0 psp=0
MT19 net32 AXNORB CIN_BAR VDD! pfet m=1 l=120.0n w=280.0n nf=1 par=1 ngcon=1 
+ mSwitch=0 idg=0 psp=0
MT17 net34 AXNORB CIN VDD! pfet m=1 l=120.0n w=280.0n nf=1 par=1 ngcon=1 
+ mSwitch=0 idg=0 psp=0
MT15 net34 AXORB B VDD! pfet m=1 l=120.0n w=280.0n nf=1 par=1 ngcon=1 
+ mSwitch=0 idg=0 psp=0
MT12 AXNORB AXORB VDD! VDD! pfet m=1 l=120.0n w=950.0n nf=1 par=1 ngcon=1 
+ mSwitch=0 idg=0 psp=0
MT10 B_BAR B VDD! VDD! pfet m=1 l=120.0n w=930.0n nf=1 par=1 ngcon=1 mSwitch=0 
+ idg=0 psp=0
MT7 A_BAR A VDD! VDD! pfet m=1 l=120.0n w=700n nf=1 par=1 ngcon=1 mSwitch=0 
+ idg=0 psp=0
MT6 AXORB B_BAR A_BAR VDD! pfet m=1 l=120.0n w=280.0n nf=1 par=1 ngcon=1 
+ mSwitch=0 idg=0 psp=0
MT4 AXORB B A VDD! pfet m=1 l=120.0n w=280.0n nf=1 par=1 ngcon=1 mSwitch=0 
+ idg=0 psp=0
MT11 CIN_BAR CIN VDD! VDD! pfet m=1 l=120.0n w=860.0n nf=1 par=1 ngcon=1 
+ mSwitch=0 idg=0 psp=0
.ENDS

************************************************************************
* Library Name: CAD4_LIB
* Cell Name:    RIPPLE_BIT_BAR
* View Name:    schematic
************************************************************************

.SUBCKT RIPPLE_BIT_BAR A B CIN COUT SUM
*.PININFO A:I B:I CIN:I COUT:O SUM:O
MT27 SUM net32 VSS! VSS! nfet m=1 l=120.0n w=280.0n nf=1 par=1 ngcon=1 
+ mSwitch=0 idg=0 psp=0
MT25 COUT net34 VSS! VSS! nfet m=1 l=120.0n w=400n nf=1 par=1 ngcon=1 
+ mSwitch=0 idg=0 psp=0
MT20 net32 AXNORB CIN VSS! nfet m=1 l=120.0n w=280.0n nf=1 par=1 ngcon=1 
+ mSwitch=0 idg=0 psp=0
MT18 net32 AXORB CIN_BAR VSS! nfet m=1 l=120.0n w=280.0n nf=1 par=1 ngcon=1 
+ mSwitch=0 idg=0 psp=0
MT16 net34 AXORB CIN VSS! nfet m=1 l=120.0n w=280.0n nf=1 par=1 ngcon=1 
+ mSwitch=0 idg=0 psp=0
MT14 net34 AXNORB B VSS! nfet m=1 l=120.0n w=280.0n nf=1 par=1 ngcon=1 
+ mSwitch=0 idg=0 psp=0
MT13 AXNORB AXORB VSS! VSS! nfet m=1 l=120.0n w=490.0n nf=1 par=1 ngcon=1 
+ mSwitch=0 idg=0 psp=0
MT9 CIN_BAR CIN VSS! VSS! nfet m=1 l=120.0n w=440.0n nf=1 par=1 ngcon=1 
+ mSwitch=0 idg=0 psp=0
MT5 AXORB B A_BAR VSS! nfet m=1 l=120.0n w=280.0n nf=1 par=1 ngcon=1 mSwitch=0 
+ idg=0 psp=0
MT3 AXORB B_BAR A VSS! nfet m=1 l=120.0n w=280.0n nf=1 par=1 ngcon=1 mSwitch=0 
+ idg=0 psp=0
MT8 B_BAR B VSS! VSS! nfet m=1 l=120.0n w=480.0n nf=1 par=1 ngcon=1 mSwitch=0 
+ idg=0 psp=0
MT0 A_BAR A VSS! VSS! nfet m=1 l=120.0n w=360.0n nf=1 par=1 ngcon=1 mSwitch=0 
+ idg=0 psp=0
MT26 SUM net32 VDD! VDD! pfet m=1 l=120.0n w=860.0n nf=1 par=1 ngcon=1 
+ mSwitch=0 idg=0 psp=0
MT24 COUT net34 VDD! VDD! pfet m=1 l=120.0n w=860.0n nf=1 par=1 ngcon=1 
+ mSwitch=0 idg=0 psp=0
MT21 net32 AXORB CIN VDD! pfet m=1 l=120.0n w=280.0n nf=1 par=1 ngcon=1 
+ mSwitch=0 idg=0 psp=0
MT19 net32 AXNORB CIN_BAR VDD! pfet m=1 l=120.0n w=280.0n nf=1 par=1 ngcon=1 
+ mSwitch=0 idg=0 psp=0
MT17 net34 AXNORB CIN VDD! pfet m=1 l=120.0n w=280.0n nf=1 par=1 ngcon=1 
+ mSwitch=0 idg=0 psp=0
MT15 net34 AXORB B VDD! pfet m=1 l=120.0n w=280.0n nf=1 par=1 ngcon=1 
+ mSwitch=0 idg=0 psp=0
MT12 AXNORB AXORB VDD! VDD! pfet m=1 l=120.0n w=950.0n nf=1 par=1 ngcon=1 
+ mSwitch=0 idg=0 psp=0
MT10 B_BAR B VDD! VDD! pfet m=1 l=120.0n w=930.0n nf=1 par=1 ngcon=1 mSwitch=0 
+ idg=0 psp=0
MT7 A_BAR A VDD! VDD! pfet m=1 l=120.0n w=700n nf=1 par=1 ngcon=1 mSwitch=0 
+ idg=0 psp=0
MT6 AXORB B_BAR A_BAR VDD! pfet m=1 l=120.0n w=280.0n nf=1 par=1 ngcon=1 
+ mSwitch=0 idg=0 psp=0
MT4 AXORB B A VDD! pfet m=1 l=120.0n w=280.0n nf=1 par=1 ngcon=1 mSwitch=0 
+ idg=0 psp=0
MT11 CIN_BAR CIN VDD! VDD! pfet m=1 l=120.0n w=860.0n nf=1 par=1 ngcon=1 
+ mSwitch=0 idg=0 psp=0
.ENDS

************************************************************************
* Library Name: CAD4_LIB
* Cell Name:    RIPPLE_4BIT_LAST_4BIT
* View Name:    schematic
************************************************************************

.SUBCKT RIPPLE_4BIT_LAST_4BIT A<3> A<2> A<1> A<0> B<3> B<2> B<1> B<0> C3 CIN 
+ COUT SUM<3> SUM<2> SUM<1> SUM<0>
*.PININFO A<3>:I A<2>:I A<1>:I A<0>:I B<3>:I B<2>:I B<1>:I B<0>:I CIN:I C3:O 
*.PININFO COUT:O SUM<3>:O SUM<2>:O SUM<1>:O SUM<0>:O
XI4 A<0> B<0> CIN C1 SUM<0> / RIPPLE_BIT
XI8 A<1> B<1> C1 C2 SUM<1> / RIPPLE_BIT
XI9 A<2> B<2> C2 C3 SUM<2> / RIPPLE_BIT
XI10 A<3> B<3> C3 COUT SUM<3> / RIPPLE_BIT_BAR
.ENDS

