************************************************************************
* auCdl Netlist:
* 
* Library Name:  CAD1_LIB
* Top Cell Name: INV
* View Name:     schematic
* Netlisted on:  Sep 11 18:36:09 2018
************************************************************************

*.EQUATION
*.SCALE METER
*.MEGA
.PARAM

*.GLOBAL VDD!
+        VSS!

*.PIN VDD!
*+    VSS!

************************************************************************
* Library Name: CAD1_LIB
* Cell Name:    INV
* View Name:    schematic
************************************************************************

.SUBCKT INV IN OUT
*.PININFO IN:I OUT:O
MT0 OUT IN VSS! VSS! nfet m=1 l=120.0n w=280.0n nf=1 par=1 ngcon=1 mSwitch=0 
+ idg=0 psp=0
MT1 OUT IN VDD! VDD! pfet m=1 l=120.0n w=560.0n nf=1 par=1 ngcon=1 mSwitch=0 
+ idg=0 psp=0
.ENDS

