//OK 
//NUMBER_OF_HEADER_LINES: 6
//VERSION: 1
//TOKEN_DELIMITER: "
//TOKEN_SEPARATOR: " "
//FORMAT: "time" "calibre version" "command line"
"Sun Nov  4 12:59:25 2018 " "v2017.2_37.29" "-xrc -pdb -rcc -turbo 1 /afs/umich.edu/class/eecs427/f18/group2/CAD4/Calibre/xRC/_cmrf8sf_8LM_620_detailed.xrc.cal_"
"Sun Nov  4 12:59:32 2018 " "v2017.2_37.29" "-xrc -fmt -all /afs/umich.edu/class/eecs427/f18/group2/CAD4/Calibre/xRC/_cmrf8sf_8LM_620_detailed.xrc.cal_"
