s1(09Dec2018:16:36:00):  ncxlmode +delay_mode_path +typdelays -v /afs/umich.edu/class/eecs427/ibm13/resource/ibm13_verilog.include -l simout.tmp /afs/umich.edu/class/eecs427/f18/group2/CAD9/Imem_test_run1/testfixture.template -f /afs/umich.edu/class/eecs427/f18/group2/CAD9/Imem_test_run1/verilog.inpfiles +nostdout +nocopyright +compile +ncvlogargs+ -neverwarn -nostdout -nocopyright  
s2(09Dec2018:16:36:01):  ncxlmode +delay_mode_path +typdelays -v /afs/umich.edu/class/eecs427/ibm13/resource/ibm13_verilog.include -l simout.tmp /afs/umich.edu/class/eecs427/f18/group2/CAD9/Imem_test_run1/testfixture.template -f /afs/umich.edu/class/eecs427/f18/group2/CAD9/Imem_test_run1/verilog.inpfiles +nostdout +nocopyright +elaborate +ncvlogargs+ -neverwarn -nostdout -nocopyright  +ncelabargs+ -neg_tchk  -nonotifier  -sdf_NOCheck_celltype  -access +r  -pulse_e 100  -pulse_r 100  -neverwarn  -timescale 1ns/1ps -nostdout -nocopyright 
s3(09Dec2018:16:36:02):  ncxlmode +delay_mode_path +typdelays -v /afs/umich.edu/class/eecs427/ibm13/resource/ibm13_verilog.include -l simout.tmp /afs/umich.edu/class/eecs427/f18/group2/CAD9/Imem_test_run1/testfixture.template -f /afs/umich.edu/class/eecs427/f18/group2/CAD9/Imem_test_run1/verilog.inpfiles +nostdout +nocopyright +ncvlogargs+ -neverwarn -nostdout -nocopyright  +ncelabargs+ -neg_tchk  -nonotifier  -sdf_NOCheck_celltype  -access +r  -pulse_e 100  -pulse_r 100  -neverwarn  -timescale 1ns/1ps -nostdout -nocopyright +ncsimargs+ -neverwarn  -nocopyright -gui -input /afs/umich.edu/class/eecs427/f18/group2/CAD9/Imem_test_run1/.simTmpNCCmd  +mpssession+virtuoso10955 +mpshost+pierb507p33.engin.umich.edu 
